<?xml version="1.0" encoding="utf-8"?>
<!DOCTYPE eagle SYSTEM "eagle.dtd">
<eagle version="9.5.2">
<drawing>
<settings>
<setting alwaysvectorfont="no"/>
<setting verticaltext="up"/>
</settings>
<grid distance="0.1" unitdist="inch" unit="inch" style="lines" multiple="1" display="no" altdistance="0.01" altunitdist="inch" altunit="inch"/>
<layers>
<layer number="1" name="Top" color="4" fill="1" visible="no" active="no"/>
<layer number="16" name="Bottom" color="1" fill="1" visible="no" active="no"/>
<layer number="17" name="Pads" color="2" fill="1" visible="no" active="no"/>
<layer number="18" name="Vias" color="2" fill="1" visible="no" active="no"/>
<layer number="19" name="Unrouted" color="6" fill="1" visible="no" active="no"/>
<layer number="20" name="Dimension" color="15" fill="1" visible="no" active="no"/>
<layer number="21" name="tPlace" color="7" fill="1" visible="no" active="no"/>
<layer number="22" name="bPlace" color="7" fill="1" visible="no" active="no"/>
<layer number="23" name="tOrigins" color="15" fill="1" visible="no" active="no"/>
<layer number="24" name="bOrigins" color="15" fill="1" visible="no" active="no"/>
<layer number="25" name="tNames" color="7" fill="1" visible="no" active="no"/>
<layer number="26" name="bNames" color="7" fill="1" visible="no" active="no"/>
<layer number="27" name="tValues" color="7" fill="1" visible="no" active="no"/>
<layer number="28" name="bValues" color="7" fill="1" visible="no" active="no"/>
<layer number="29" name="tStop" color="7" fill="3" visible="no" active="no"/>
<layer number="30" name="bStop" color="7" fill="6" visible="no" active="no"/>
<layer number="31" name="tCream" color="7" fill="4" visible="no" active="no"/>
<layer number="32" name="bCream" color="7" fill="5" visible="no" active="no"/>
<layer number="33" name="tFinish" color="6" fill="3" visible="no" active="no"/>
<layer number="34" name="bFinish" color="6" fill="6" visible="no" active="no"/>
<layer number="35" name="tGlue" color="7" fill="4" visible="no" active="no"/>
<layer number="36" name="bGlue" color="7" fill="5" visible="no" active="no"/>
<layer number="37" name="tTest" color="7" fill="1" visible="no" active="no"/>
<layer number="38" name="bTest" color="7" fill="1" visible="no" active="no"/>
<layer number="39" name="tKeepout" color="4" fill="11" visible="no" active="no"/>
<layer number="40" name="bKeepout" color="1" fill="11" visible="no" active="no"/>
<layer number="41" name="tRestrict" color="4" fill="10" visible="no" active="no"/>
<layer number="42" name="bRestrict" color="1" fill="10" visible="no" active="no"/>
<layer number="43" name="vRestrict" color="2" fill="10" visible="no" active="no"/>
<layer number="44" name="Drills" color="7" fill="1" visible="no" active="no"/>
<layer number="45" name="Holes" color="7" fill="1" visible="no" active="no"/>
<layer number="46" name="Milling" color="3" fill="1" visible="no" active="no"/>
<layer number="47" name="Measures" color="7" fill="1" visible="no" active="no"/>
<layer number="48" name="Document" color="7" fill="1" visible="no" active="no"/>
<layer number="49" name="Reference" color="7" fill="1" visible="no" active="no"/>
<layer number="51" name="tDocu" color="7" fill="1" visible="no" active="no"/>
<layer number="52" name="bDocu" color="7" fill="1" visible="no" active="no"/>
<layer number="88" name="SimResults" color="9" fill="1" visible="yes" active="yes"/>
<layer number="89" name="SimProbes" color="9" fill="1" visible="yes" active="yes"/>
<layer number="90" name="Modules" color="5" fill="1" visible="yes" active="yes"/>
<layer number="91" name="Nets" color="2" fill="1" visible="yes" active="yes"/>
<layer number="92" name="Busses" color="1" fill="1" visible="yes" active="yes"/>
<layer number="93" name="Pins" color="2" fill="1" visible="no" active="yes"/>
<layer number="94" name="Symbols" color="4" fill="1" visible="yes" active="yes"/>
<layer number="95" name="Names" color="7" fill="1" visible="yes" active="yes"/>
<layer number="96" name="Values" color="7" fill="1" visible="yes" active="yes"/>
<layer number="97" name="Info" color="7" fill="1" visible="yes" active="yes"/>
<layer number="98" name="Guide" color="6" fill="1" visible="yes" active="yes"/>
</layers>
<schematic xreflabel="%F%N/%S.%C%R" xrefpart="/%S.%C%R">
<libraries>
<library name="SamacSys_Parts">
<packages>
<package name="QFN-24">
<description>&lt;h3&gt;24-Pin QFN (4 x 4 mm) (1:1 footprint)&lt;/h3&gt;
&lt;p&gt;&lt;a href="http://43zrtwysvxb2gf29r5o0athu.wpengine.netdna-cdn.com/wp-content/uploads/2015/02/ITG-3200-Datasheet.pdf"&gt;Datasheet&lt;/a&gt;&lt;/p&gt;
&lt;p&gt;Specifications:
&lt;ul&gt;
&lt;li&gt;Pin Count: 24&lt;/li&gt;
&lt;li&gt;Area: 4.0 x 4.0 x 0.9 mm&lt;/li&gt;
&lt;li&gt;Pitch: 0.5 mm&lt;/li&gt;
&lt;/ul&gt;
&lt;p&gt;Devices Using:&lt;/p&gt;
&lt;ul&gt;
&lt;li&gt;ITG-3200&lt;/li&gt;
&lt;/ul&gt;</description>
<wire x1="1.65" y1="-2.0635" x2="2.0635" y2="-2.0635" width="0.2032" layer="21"/>
<wire x1="2.0635" y1="-1.65" x2="2.0635" y2="-2.0635" width="0.2032" layer="21"/>
<wire x1="-1.65" y1="-2.0635" x2="-2.0635" y2="-2.0635" width="0.2032" layer="21"/>
<wire x1="-2.0635" y1="-2.0635" x2="-2.0635" y2="-1.65" width="0.2032" layer="21"/>
<wire x1="2.0635" y1="1.65" x2="2.0635" y2="2.0635" width="0.2032" layer="21"/>
<wire x1="2.0635" y1="2.0635" x2="1.65" y2="2.0635" width="0.2032" layer="21"/>
<wire x1="-1.7135" y1="2.0635" x2="-2.0635" y2="1.7135" width="0.2032" layer="21"/>
<wire x1="1.30048125" y1="2.02691875" x2="1.30048125" y2="-2.01168125" width="0.0508" layer="49"/>
<rectangle x1="-2.10311875" y1="-2.0828" x2="2.06248125" y2="-2.06248125" layer="49"/>
<rectangle x1="-2.10311875" y1="-2.06248125" x2="-0.27431875" y2="-2.042159375" layer="49"/>
<rectangle x1="-0.254" y1="-2.06248125" x2="2.0828" y2="-2.042159375" layer="49"/>
<rectangle x1="-2.10311875" y1="-2.042159375" x2="-1.39191875" y2="-2.021840625" layer="49"/>
<rectangle x1="-1.330959375" y1="-2.042159375" x2="-1.24968125" y2="-2.021840625" layer="49"/>
<rectangle x1="-1.209040625" y1="-2.042159375" x2="-0.74168125" y2="-2.021840625" layer="49"/>
<rectangle x1="-0.7010375" y1="-2.042159375" x2="-0.2946375" y2="-2.021840625" layer="49"/>
<rectangle x1="-0.1930375" y1="-2.042159375" x2="0.17271875" y2="-2.021840625" layer="49"/>
<rectangle x1="0.23368125" y1="-2.042159375" x2="0.27431875" y2="-2.021840625" layer="49"/>
<rectangle x1="0.33528125" y1="-2.042159375" x2="0.7010375" y2="-2.021840625" layer="49"/>
<rectangle x1="0.74168125" y1="-2.042159375" x2="2.0828" y2="-2.021840625" layer="49"/>
<rectangle x1="-2.10311875" y1="-2.021840625" x2="-1.39191875" y2="-2.00151875" layer="49"/>
<rectangle x1="-1.29031875" y1="-2.021840625" x2="-1.27" y2="-2.00151875" layer="49"/>
<rectangle x1="-1.209040625" y1="-2.021840625" x2="-0.8636" y2="-2.00151875" layer="49"/>
<rectangle x1="-0.7010375" y1="-2.021840625" x2="-0.3556" y2="-2.00151875" layer="49"/>
<rectangle x1="-0.17271875" y1="-2.021840625" x2="0.17271875" y2="-2.00151875" layer="49"/>
<rectangle x1="0.23368125" y1="-2.021840625" x2="0.254" y2="-2.00151875" layer="49"/>
<rectangle x1="0.3556" y1="-2.021840625" x2="0.68071875" y2="-2.00151875" layer="49"/>
<rectangle x1="0.8636" y1="-2.021840625" x2="1.209040625" y2="-2.00151875" layer="49"/>
<rectangle x1="1.39191875" y1="-2.021840625" x2="2.0828" y2="-2.00151875" layer="49"/>
<rectangle x1="-2.10311875" y1="-2.00151875" x2="-1.412240625" y2="-1.9812" layer="49"/>
<rectangle x1="-1.209040625" y1="-2.00151875" x2="-0.8636" y2="-1.9812" layer="49"/>
<rectangle x1="-0.68071875" y1="-2.00151875" x2="-0.3556" y2="-1.9812" layer="49"/>
<rectangle x1="-0.17271875" y1="-2.00151875" x2="0.17271875" y2="-1.9812" layer="49"/>
<rectangle x1="0.3556" y1="-2.00151875" x2="0.68071875" y2="-1.9812" layer="49"/>
<rectangle x1="0.8636" y1="-2.00151875" x2="1.209040625" y2="-1.9812" layer="49"/>
<rectangle x1="1.39191875" y1="-2.00151875" x2="2.0828" y2="-1.9812" layer="49"/>
<rectangle x1="-2.10311875" y1="-1.9812" x2="-1.412240625" y2="-1.96088125" layer="49"/>
<rectangle x1="-1.209040625" y1="-1.9812" x2="-0.88391875" y2="-1.96088125" layer="49"/>
<rectangle x1="-0.68071875" y1="-1.9812" x2="-0.3556" y2="-1.96088125" layer="49"/>
<rectangle x1="-0.1524" y1="-1.9812" x2="0.1524" y2="-1.96088125" layer="49"/>
<rectangle x1="0.3556" y1="-1.9812" x2="0.68071875" y2="-1.96088125" layer="49"/>
<rectangle x1="0.883921875" y1="-1.9812" x2="1.18871875" y2="-1.96088125" layer="49"/>
<rectangle x1="1.412240625" y1="-1.9812" x2="2.0828" y2="-1.96088125" layer="49"/>
<rectangle x1="-2.10311875" y1="-1.96088125" x2="-1.412240625" y2="-1.940559375" layer="49"/>
<rectangle x1="-1.18871875" y1="-1.96088125" x2="-0.88391875" y2="-1.940559375" layer="49"/>
<rectangle x1="-0.68071875" y1="-1.96088125" x2="-0.3556" y2="-1.940559375" layer="49"/>
<rectangle x1="-0.1524" y1="-1.96088125" x2="0.1524" y2="-1.940559375" layer="49"/>
<rectangle x1="0.3556" y1="-1.96088125" x2="0.68071875" y2="-1.940559375" layer="49"/>
<rectangle x1="0.883921875" y1="-1.96088125" x2="1.18871875" y2="-1.940559375" layer="49"/>
<rectangle x1="1.412240625" y1="-1.96088125" x2="2.0828" y2="-1.940559375" layer="49"/>
<rectangle x1="-2.10311875" y1="-1.940559375" x2="-1.412240625" y2="-1.920240625" layer="49"/>
<rectangle x1="-1.18871875" y1="-1.940559375" x2="-0.9042375" y2="-1.920240625" layer="49"/>
<rectangle x1="-0.6604" y1="-1.940559375" x2="-0.37591875" y2="-1.920240625" layer="49"/>
<rectangle x1="-0.1524" y1="-1.940559375" x2="0.13208125" y2="-1.920240625" layer="49"/>
<rectangle x1="0.3556" y1="-1.940559375" x2="0.6604" y2="-1.920240625" layer="49"/>
<rectangle x1="0.883921875" y1="-1.940559375" x2="1.1684" y2="-1.920240625" layer="49"/>
<rectangle x1="1.39191875" y1="-1.940559375" x2="2.0828" y2="-1.920240625" layer="49"/>
<rectangle x1="-2.10311875" y1="-1.920240625" x2="-1.412240625" y2="-1.89991875" layer="49"/>
<rectangle x1="-1.18871875" y1="-1.920240625" x2="-0.9042375" y2="-1.89991875" layer="49"/>
<rectangle x1="-0.6604" y1="-1.920240625" x2="-0.37591875" y2="-1.89991875" layer="49"/>
<rectangle x1="-0.1524" y1="-1.920240625" x2="0.13208125" y2="-1.89991875" layer="49"/>
<rectangle x1="0.375921875" y1="-1.920240625" x2="0.660396875" y2="-1.89991875" layer="49"/>
<rectangle x1="0.883921875" y1="-1.920240625" x2="1.1684" y2="-1.89991875" layer="49"/>
<rectangle x1="1.39191875" y1="-1.920240625" x2="2.0828" y2="-1.89991875" layer="49"/>
<rectangle x1="-2.10311875" y1="-1.89991875" x2="-1.412240625" y2="-1.8796" layer="49"/>
<rectangle x1="-1.1684" y1="-1.89991875" x2="-0.9042375" y2="-1.8796" layer="49"/>
<rectangle x1="-0.6604" y1="-1.89991875" x2="-0.37591875" y2="-1.8796" layer="49"/>
<rectangle x1="-0.1524" y1="-1.89991875" x2="0.13208125" y2="-1.8796" layer="49"/>
<rectangle x1="0.375921875" y1="-1.89991875" x2="0.660396875" y2="-1.8796" layer="49"/>
<rectangle x1="0.8636" y1="-1.89991875" x2="1.1684" y2="-1.8796" layer="49"/>
<rectangle x1="1.412240625" y1="-1.89991875" x2="2.0828" y2="-1.8796" layer="49"/>
<rectangle x1="-2.10311875" y1="-1.8796" x2="-1.412240625" y2="-1.85928125" layer="49"/>
<rectangle x1="-1.1684" y1="-1.8796" x2="-0.9042375" y2="-1.85928125" layer="49"/>
<rectangle x1="-0.6604" y1="-1.8796" x2="-0.37591875" y2="-1.85928125" layer="49"/>
<rectangle x1="-0.132078125" y1="-1.8796" x2="0.132078125" y2="-1.85928125" layer="49"/>
<rectangle x1="0.375921875" y1="-1.8796" x2="0.660396875" y2="-1.85928125" layer="49"/>
<rectangle x1="0.883921875" y1="-1.8796" x2="1.1684" y2="-1.85928125" layer="49"/>
<rectangle x1="1.412240625" y1="-1.8796" x2="2.0828" y2="-1.85928125" layer="49"/>
<rectangle x1="-2.10311875" y1="-1.85928125" x2="-1.412240625" y2="-1.838959375" layer="49"/>
<rectangle x1="-1.18871875" y1="-1.85928125" x2="-0.9042375" y2="-1.838959375" layer="49"/>
<rectangle x1="-0.68071875" y1="-1.85928125" x2="-0.37591875" y2="-1.838959375" layer="49"/>
<rectangle x1="-0.132078125" y1="-1.85928125" x2="0.132078125" y2="-1.838959375" layer="49"/>
<rectangle x1="0.375921875" y1="-1.85928125" x2="0.660396875" y2="-1.838959375" layer="49"/>
<rectangle x1="0.904240625" y1="-1.85928125" x2="1.1684" y2="-1.838959375" layer="49"/>
<rectangle x1="1.412240625" y1="-1.85928125" x2="2.0828" y2="-1.838959375" layer="49"/>
<rectangle x1="-2.10311875" y1="-1.838959375" x2="-1.39191875" y2="-1.818640625" layer="49"/>
<rectangle x1="-1.18871875" y1="-1.838959375" x2="-0.9042375" y2="-1.818640625" layer="49"/>
<rectangle x1="-0.68071875" y1="-1.838959375" x2="-0.37591875" y2="-1.818640625" layer="49"/>
<rectangle x1="-0.132078125" y1="-1.838959375" x2="0.132078125" y2="-1.818640625" layer="49"/>
<rectangle x1="0.3556" y1="-1.838959375" x2="0.6604" y2="-1.818640625" layer="49"/>
<rectangle x1="0.904240625" y1="-1.838959375" x2="1.1684" y2="-1.818640625" layer="49"/>
<rectangle x1="1.39191875" y1="-1.838959375" x2="2.0828" y2="-1.818640625" layer="49"/>
<rectangle x1="-2.10311875" y1="-1.818640625" x2="-1.39191875" y2="-1.79831875" layer="49"/>
<rectangle x1="-1.18871875" y1="-1.818640625" x2="-0.9042375" y2="-1.79831875" layer="49"/>
<rectangle x1="-0.68071875" y1="-1.818640625" x2="-0.37591875" y2="-1.79831875" layer="49"/>
<rectangle x1="-0.132078125" y1="-1.818640625" x2="0.132078125" y2="-1.79831875" layer="49"/>
<rectangle x1="0.3556" y1="-1.818640625" x2="0.64008125" y2="-1.79831875" layer="49"/>
<rectangle x1="0.904240625" y1="-1.818640625" x2="1.1684" y2="-1.79831875" layer="49"/>
<rectangle x1="1.39191875" y1="-1.818640625" x2="2.0828" y2="-1.79831875" layer="49"/>
<rectangle x1="-2.10311875" y1="-1.79831875" x2="-1.39191875" y2="-1.778" layer="49"/>
<rectangle x1="-1.18871875" y1="-1.79831875" x2="-0.88391875" y2="-1.778" layer="49"/>
<rectangle x1="-0.68071875" y1="-1.79831875" x2="-0.37591875" y2="-1.778" layer="49"/>
<rectangle x1="-0.1524" y1="-1.79831875" x2="0.13208125" y2="-1.778" layer="49"/>
<rectangle x1="0.3556" y1="-1.79831875" x2="0.64008125" y2="-1.778" layer="49"/>
<rectangle x1="0.904240625" y1="-1.79831875" x2="1.18871875" y2="-1.778" layer="49"/>
<rectangle x1="1.3716" y1="-1.79831875" x2="2.0828" y2="-1.778" layer="49"/>
<rectangle x1="-2.10311875" y1="-1.778" x2="-1.3716" y2="-1.75768125" layer="49"/>
<rectangle x1="-1.18871875" y1="-1.778" x2="-0.88391875" y2="-1.75768125" layer="49"/>
<rectangle x1="-0.68071875" y1="-1.778" x2="-0.37591875" y2="-1.75768125" layer="49"/>
<rectangle x1="-0.132078125" y1="-1.778" x2="0.132078125" y2="-1.75768125" layer="49"/>
<rectangle x1="0.375921875" y1="-1.778" x2="0.660396875" y2="-1.75768125" layer="49"/>
<rectangle x1="0.904240625" y1="-1.778" x2="1.18871875" y2="-1.75768125" layer="49"/>
<rectangle x1="1.3716" y1="-1.778" x2="2.0828" y2="-1.75768125" layer="49"/>
<rectangle x1="-2.10311875" y1="-1.75768125" x2="-1.35128125" y2="-1.737359375" layer="49"/>
<rectangle x1="-1.18871875" y1="-1.75768125" x2="-0.88391875" y2="-1.737359375" layer="49"/>
<rectangle x1="-0.68071875" y1="-1.75768125" x2="-0.37591875" y2="-1.737359375" layer="49"/>
<rectangle x1="-0.132078125" y1="-1.75768125" x2="0.132078125" y2="-1.737359375" layer="49"/>
<rectangle x1="0.375921875" y1="-1.75768125" x2="0.660396875" y2="-1.737359375" layer="49"/>
<rectangle x1="0.904240625" y1="-1.75768125" x2="1.1684" y2="-1.737359375" layer="49"/>
<rectangle x1="1.3716" y1="-1.75768125" x2="2.0828" y2="-1.737359375" layer="49"/>
<rectangle x1="-2.10311875" y1="-1.737359375" x2="-1.330959375" y2="-1.717040625" layer="49"/>
<rectangle x1="-1.209040625" y1="-1.737359375" x2="-0.88391875" y2="-1.717040625" layer="49"/>
<rectangle x1="-0.68071875" y1="-1.737359375" x2="-0.37591875" y2="-1.717040625" layer="49"/>
<rectangle x1="-0.1524" y1="-1.737359375" x2="0.13208125" y2="-1.717040625" layer="49"/>
<rectangle x1="0.375921875" y1="-1.737359375" x2="0.660396875" y2="-1.717040625" layer="49"/>
<rectangle x1="0.904240625" y1="-1.737359375" x2="1.1684" y2="-1.717040625" layer="49"/>
<rectangle x1="1.3716" y1="-1.737359375" x2="2.0828" y2="-1.717040625" layer="49"/>
<rectangle x1="-2.10311875" y1="-1.717040625" x2="-1.310640625" y2="-1.69671875" layer="49"/>
<rectangle x1="-1.209040625" y1="-1.717040625" x2="-0.88391875" y2="-1.69671875" layer="49"/>
<rectangle x1="-0.68071875" y1="-1.717040625" x2="-0.3556" y2="-1.69671875" layer="49"/>
<rectangle x1="-0.1524" y1="-1.717040625" x2="0.1524" y2="-1.69671875" layer="49"/>
<rectangle x1="0.375921875" y1="-1.717040625" x2="0.680721875" y2="-1.69671875" layer="49"/>
<rectangle x1="0.883921875" y1="-1.717040625" x2="1.18871875" y2="-1.69671875" layer="49"/>
<rectangle x1="1.330959375" y1="-1.717040625" x2="2.0828" y2="-1.69671875" layer="49"/>
<rectangle x1="-2.10311875" y1="-1.69671875" x2="-1.29031875" y2="-1.6764" layer="49"/>
<rectangle x1="-1.209040625" y1="-1.69671875" x2="-0.8636" y2="-1.6764" layer="49"/>
<rectangle x1="-0.8026375" y1="-1.69671875" x2="-0.7213625" y2="-1.6764" layer="49"/>
<rectangle x1="-0.68071875" y1="-1.69671875" x2="-0.3149625" y2="-1.6764" layer="49"/>
<rectangle x1="-0.254" y1="-1.69671875" x2="-0.2133625" y2="-1.6764" layer="49"/>
<rectangle x1="-0.1524" y1="-1.69671875" x2="0.17271875" y2="-1.6764" layer="49"/>
<rectangle x1="0.3556" y1="-1.69671875" x2="0.7010375" y2="-1.6764" layer="49"/>
<rectangle x1="0.84328125" y1="-1.69671875" x2="1.18871875" y2="-1.6764" layer="49"/>
<rectangle x1="1.24968125" y1="-1.69671875" x2="1.27" y2="-1.6764" layer="49"/>
<rectangle x1="1.310640625" y1="-1.69671875" x2="2.0828" y2="-1.6764" layer="49"/>
<rectangle x1="-2.10311875" y1="-1.6764" x2="2.0828" y2="-1.65608125" layer="49"/>
<rectangle x1="-2.10311875" y1="-1.65608125" x2="2.0828" y2="-1.635759375" layer="49"/>
<rectangle x1="-2.10311875" y1="-1.635759375" x2="2.0828" y2="-1.615440625" layer="49"/>
<rectangle x1="-2.10311875" y1="-1.615440625" x2="2.0828" y2="-1.59511875" layer="49"/>
<rectangle x1="-2.10311875" y1="-1.59511875" x2="2.0828" y2="-1.5748" layer="49"/>
<rectangle x1="-2.10311875" y1="-1.5748" x2="2.0828" y2="-1.55448125" layer="49"/>
<rectangle x1="-2.10311875" y1="-1.55448125" x2="2.0828" y2="-1.534159375" layer="49"/>
<rectangle x1="-2.10311875" y1="-1.534159375" x2="2.0828" y2="-1.513840625" layer="49"/>
<rectangle x1="-2.10311875" y1="-1.513840625" x2="2.0828" y2="-1.49351875" layer="49"/>
<rectangle x1="-2.10311875" y1="-1.49351875" x2="2.0828" y2="-1.4732" layer="49"/>
<rectangle x1="-2.10311875" y1="-1.4732" x2="2.0828" y2="-1.45288125" layer="49"/>
<rectangle x1="-2.10311875" y1="-1.45288125" x2="-1.229359375" y2="-1.432559375" layer="49"/>
<rectangle x1="-1.1684" y1="-1.45288125" x2="-0.8026375" y2="-1.432559375" layer="49"/>
<rectangle x1="-0.436878125" y1="-1.45288125" x2="-0.375921875" y2="-1.432559375" layer="49"/>
<rectangle x1="-0.27431875" y1="-1.45288125" x2="-0.07111875" y2="-1.432559375" layer="49"/>
<rectangle x1="-0.010159375" y1="-1.45288125" x2="0.050796875" y2="-1.432559375" layer="49"/>
<rectangle x1="0.2133625" y1="-1.45288125" x2="0.3962375" y2="-1.432559375" layer="49"/>
<rectangle x1="0.497840625" y1="-1.45288125" x2="0.558796875" y2="-1.432559375" layer="49"/>
<rectangle x1="0.579121875" y1="-1.45288125" x2="2.0828" y2="-1.432559375" layer="49"/>
<rectangle x1="-2.10311875" y1="-1.432559375" x2="-1.412240625" y2="-1.412240625" layer="49"/>
<rectangle x1="1.39191875" y1="-1.432559375" x2="2.0828" y2="-1.412240625" layer="49"/>
<rectangle x1="-2.10311875" y1="-1.412240625" x2="-1.96088125" y2="-1.39191875" layer="49"/>
<rectangle x1="-1.838959375" y1="-1.412240625" x2="-1.513840625" y2="-1.39191875" layer="49"/>
<rectangle x1="1.49351875" y1="-1.412240625" x2="1.8796" y2="-1.39191875" layer="49"/>
<rectangle x1="1.89991875" y1="-1.412240625" x2="2.0828" y2="-1.39191875" layer="49"/>
<rectangle x1="-2.10311875" y1="-1.39191875" x2="-2.042159375" y2="-1.3716" layer="49"/>
<rectangle x1="-1.79831875" y1="-1.39191875" x2="-1.513840625" y2="-1.3716" layer="49"/>
<rectangle x1="1.513840625" y1="-1.39191875" x2="1.838959375" y2="-1.3716" layer="49"/>
<rectangle x1="2.021840625" y1="-1.39191875" x2="2.0828" y2="-1.3716" layer="49"/>
<rectangle x1="-2.10311875" y1="-1.3716" x2="-2.042159375" y2="-1.35128125" layer="49"/>
<rectangle x1="-1.778" y1="-1.3716" x2="-1.513840625" y2="-1.35128125" layer="49"/>
<rectangle x1="1.534159375" y1="-1.3716" x2="1.818640625" y2="-1.35128125" layer="49"/>
<rectangle x1="2.042159375" y1="-1.3716" x2="2.0828" y2="-1.35128125" layer="49"/>
<rectangle x1="-2.10311875" y1="-1.35128125" x2="-2.042159375" y2="-1.330959375" layer="49"/>
<rectangle x1="-1.778" y1="-1.35128125" x2="-1.513840625" y2="-1.330959375" layer="49"/>
<rectangle x1="1.534159375" y1="-1.35128125" x2="1.778" y2="-1.330959375" layer="49"/>
<rectangle x1="2.042159375" y1="-1.35128125" x2="2.0828" y2="-1.330959375" layer="49"/>
<rectangle x1="-2.10311875" y1="-1.330959375" x2="-2.042159375" y2="-1.310640625" layer="49"/>
<rectangle x1="-1.75768125" y1="-1.330959375" x2="-1.513840625" y2="-1.310640625" layer="49"/>
<rectangle x1="1.534159375" y1="-1.330959375" x2="1.75768125" y2="-1.310640625" layer="49"/>
<rectangle x1="2.042159375" y1="-1.330959375" x2="2.0828" y2="-1.310640625" layer="49"/>
<rectangle x1="-2.10311875" y1="-1.310640625" x2="-2.042159375" y2="-1.29031875" layer="49"/>
<rectangle x1="-1.75768125" y1="-1.310640625" x2="-1.513840625" y2="-1.29031875" layer="49"/>
<rectangle x1="1.534159375" y1="-1.310640625" x2="1.75768125" y2="-1.29031875" layer="49"/>
<rectangle x1="2.042159375" y1="-1.310640625" x2="2.0828" y2="-1.29031875" layer="49"/>
<rectangle x1="-2.10311875" y1="-1.29031875" x2="-2.06248125" y2="-1.27" layer="49"/>
<rectangle x1="-1.737359375" y1="-1.29031875" x2="-1.513840625" y2="-1.27" layer="49"/>
<rectangle x1="1.534159375" y1="-1.29031875" x2="1.75768125" y2="-1.27" layer="49"/>
<rectangle x1="2.042159375" y1="-1.29031875" x2="2.0828" y2="-1.27" layer="49"/>
<rectangle x1="-2.10311875" y1="-1.27" x2="-2.06248125" y2="-1.24968125" layer="49"/>
<rectangle x1="-1.737359375" y1="-1.27" x2="-1.513840625" y2="-1.24968125" layer="49"/>
<rectangle x1="1.534159375" y1="-1.27" x2="1.75768125" y2="-1.24968125" layer="49"/>
<rectangle x1="2.042159375" y1="-1.27" x2="2.0828" y2="-1.24968125" layer="49"/>
<rectangle x1="-2.10311875" y1="-1.24968125" x2="-2.06248125" y2="-1.229359375" layer="49"/>
<rectangle x1="-1.737359375" y1="-1.24968125" x2="-1.513840625" y2="-1.229359375" layer="49"/>
<rectangle x1="1.534159375" y1="-1.24968125" x2="1.75768125" y2="-1.229359375" layer="49"/>
<rectangle x1="2.042159375" y1="-1.24968125" x2="2.0828" y2="-1.229359375" layer="49"/>
<rectangle x1="-2.10311875" y1="-1.229359375" x2="-2.06248125" y2="-1.209040625" layer="49"/>
<rectangle x1="-1.79831875" y1="-1.229359375" x2="-1.778" y2="-1.209040625" layer="49"/>
<rectangle x1="-1.737359375" y1="-1.229359375" x2="-1.534159375" y2="-1.209040625" layer="49"/>
<rectangle x1="1.534159375" y1="-1.229359375" x2="1.75768125" y2="-1.209040625" layer="49"/>
<rectangle x1="2.042159375" y1="-1.229359375" x2="2.0828" y2="-1.209040625" layer="49"/>
<rectangle x1="-2.10311875" y1="-1.209040625" x2="-2.00151875" y2="-1.18871875" layer="49"/>
<rectangle x1="-1.737359375" y1="-1.209040625" x2="-1.55448125" y2="-1.18871875" layer="49"/>
<rectangle x1="1.55448125" y1="-1.209040625" x2="1.75768125" y2="-1.18871875" layer="49"/>
<rectangle x1="2.042159375" y1="-1.209040625" x2="2.0828" y2="-1.18871875" layer="49"/>
<rectangle x1="-2.10311875" y1="-1.18871875" x2="-1.8796" y2="-1.1684" layer="49"/>
<rectangle x1="-1.79831875" y1="-1.18871875" x2="-1.534159375" y2="-1.1684" layer="49"/>
<rectangle x1="1.55448125" y1="-1.18871875" x2="1.75768125" y2="-1.1684" layer="49"/>
<rectangle x1="1.9812" y1="-1.18871875" x2="2.0828" y2="-1.1684" layer="49"/>
<rectangle x1="-2.10311875" y1="-1.1684" x2="-1.534159375" y2="-1.14808125" layer="49"/>
<rectangle x1="1.55448125" y1="-1.1684" x2="2.0828" y2="-1.14808125" layer="49"/>
<rectangle x1="-2.10311875" y1="-1.14808125" x2="-1.534159375" y2="-1.127759375" layer="49"/>
<rectangle x1="1.55448125" y1="-1.14808125" x2="2.0828" y2="-1.127759375" layer="49"/>
<rectangle x1="-2.10311875" y1="-1.127759375" x2="-1.534159375" y2="-1.107440625" layer="49"/>
<rectangle x1="1.55448125" y1="-1.127759375" x2="2.0828" y2="-1.107440625" layer="49"/>
<rectangle x1="-2.10311875" y1="-1.107440625" x2="-1.534159375" y2="-1.08711875" layer="49"/>
<rectangle x1="1.534159375" y1="-1.107440625" x2="2.0828" y2="-1.08711875" layer="49"/>
<rectangle x1="-2.10311875" y1="-1.08711875" x2="-1.534159375" y2="-1.0668" layer="49"/>
<rectangle x1="1.534159375" y1="-1.08711875" x2="2.0828" y2="-1.0668" layer="49"/>
<rectangle x1="-2.10311875" y1="-1.0668" x2="-1.534159375" y2="-1.04648125" layer="49"/>
<rectangle x1="1.55448125" y1="-1.0668" x2="2.0828" y2="-1.04648125" layer="49"/>
<rectangle x1="-2.10311875" y1="-1.04648125" x2="-1.534159375" y2="-1.026159375" layer="49"/>
<rectangle x1="1.55448125" y1="-1.04648125" x2="2.0828" y2="-1.026159375" layer="49"/>
<rectangle x1="-2.10311875" y1="-1.026159375" x2="-1.55448125" y2="-1.005840625" layer="49"/>
<rectangle x1="1.534159375" y1="-1.026159375" x2="2.0828" y2="-1.005840625" layer="49"/>
<rectangle x1="-2.10311875" y1="-1.005840625" x2="-1.55448125" y2="-0.985521875" layer="49"/>
<rectangle x1="1.534159375" y1="-1.005840625" x2="2.0828" y2="-0.985521875" layer="49"/>
<rectangle x1="-2.10311875" y1="-0.985521875" x2="-1.55448125" y2="-0.965203125" layer="49"/>
<rectangle x1="1.55448125" y1="-0.985521875" x2="2.0828" y2="-0.965203125" layer="49"/>
<rectangle x1="-2.10311875" y1="-0.9652" x2="-1.55448125" y2="-0.94488125" layer="49"/>
<rectangle x1="1.55448125" y1="-0.9652" x2="2.0828" y2="-0.94488125" layer="49"/>
<rectangle x1="-2.10311875" y1="-0.94488125" x2="-1.55448125" y2="-0.9245625" layer="49"/>
<rectangle x1="1.534159375" y1="-0.94488125" x2="2.0828" y2="-0.9245625" layer="49"/>
<rectangle x1="-2.10311875" y1="-0.9245625" x2="-1.55448125" y2="-0.90424375" layer="49"/>
<rectangle x1="1.534159375" y1="-0.9245625" x2="2.0828" y2="-0.90424375" layer="49"/>
<rectangle x1="-2.10311875" y1="-0.904240625" x2="-1.940559375" y2="-0.883921875" layer="49"/>
<rectangle x1="-1.778" y1="-0.904240625" x2="-1.55448125" y2="-0.883921875" layer="49"/>
<rectangle x1="1.534159375" y1="-0.904240625" x2="1.79831875" y2="-0.883921875" layer="49"/>
<rectangle x1="1.85928125" y1="-0.904240625" x2="2.0828" y2="-0.883921875" layer="49"/>
<rectangle x1="-2.10311875" y1="-0.883921875" x2="-2.021840625" y2="-0.863603125" layer="49"/>
<rectangle x1="-1.737359375" y1="-0.883921875" x2="-1.55448125" y2="-0.863603125" layer="49"/>
<rectangle x1="1.534159375" y1="-0.883921875" x2="1.75768125" y2="-0.863603125" layer="49"/>
<rectangle x1="1.9812" y1="-0.883921875" x2="2.0828" y2="-0.863603125" layer="49"/>
<rectangle x1="-2.10311875" y1="-0.8636" x2="-2.06248125" y2="-0.84328125" layer="49"/>
<rectangle x1="-1.737359375" y1="-0.8636" x2="-1.55448125" y2="-0.84328125" layer="49"/>
<rectangle x1="1.55448125" y1="-0.8636" x2="1.737359375" y2="-0.84328125" layer="49"/>
<rectangle x1="2.042159375" y1="-0.8636" x2="2.0828" y2="-0.84328125" layer="49"/>
<rectangle x1="-2.10311875" y1="-0.84328125" x2="-2.06248125" y2="-0.8229625" layer="49"/>
<rectangle x1="-1.737359375" y1="-0.84328125" x2="-1.55448125" y2="-0.8229625" layer="49"/>
<rectangle x1="1.55448125" y1="-0.84328125" x2="1.737359375" y2="-0.8229625" layer="49"/>
<rectangle x1="-2.10311875" y1="-0.8229625" x2="-2.06248125" y2="-0.80264375" layer="49"/>
<rectangle x1="-1.737359375" y1="-0.8229625" x2="-1.55448125" y2="-0.80264375" layer="49"/>
<rectangle x1="1.55448125" y1="-0.8229625" x2="1.737359375" y2="-0.80264375" layer="49"/>
<rectangle x1="2.042159375" y1="-0.8229625" x2="2.0828" y2="-0.80264375" layer="49"/>
<rectangle x1="-2.10311875" y1="-0.802640625" x2="-2.06248125" y2="-0.782321875" layer="49"/>
<rectangle x1="-1.737359375" y1="-0.802640625" x2="-1.55448125" y2="-0.782321875" layer="49"/>
<rectangle x1="1.534159375" y1="-0.802640625" x2="1.737359375" y2="-0.782321875" layer="49"/>
<rectangle x1="2.042159375" y1="-0.802640625" x2="2.0828" y2="-0.782321875" layer="49"/>
<rectangle x1="-2.10311875" y1="-0.782321875" x2="-2.06248125" y2="-0.762003125" layer="49"/>
<rectangle x1="-1.737359375" y1="-0.782321875" x2="-1.55448125" y2="-0.762003125" layer="49"/>
<rectangle x1="1.534159375" y1="-0.782321875" x2="1.737359375" y2="-0.762003125" layer="49"/>
<rectangle x1="2.042159375" y1="-0.782321875" x2="2.0828" y2="-0.762003125" layer="49"/>
<rectangle x1="-2.10311875" y1="-0.762" x2="-2.06248125" y2="-0.74168125" layer="49"/>
<rectangle x1="-1.737359375" y1="-0.762" x2="-1.55448125" y2="-0.74168125" layer="49"/>
<rectangle x1="1.55448125" y1="-0.762" x2="1.717040625" y2="-0.74168125" layer="49"/>
<rectangle x1="2.042159375" y1="-0.762" x2="2.0828" y2="-0.74168125" layer="49"/>
<rectangle x1="-2.10311875" y1="-0.74168125" x2="-2.06248125" y2="-0.7213625" layer="49"/>
<rectangle x1="-1.737359375" y1="-0.74168125" x2="-1.534159375" y2="-0.7213625" layer="49"/>
<rectangle x1="1.55448125" y1="-0.74168125" x2="1.737359375" y2="-0.7213625" layer="49"/>
<rectangle x1="2.042159375" y1="-0.74168125" x2="2.0828" y2="-0.7213625" layer="49"/>
<rectangle x1="-2.10311875" y1="-0.7213625" x2="-2.06248125" y2="-0.70104375" layer="49"/>
<rectangle x1="-1.737359375" y1="-0.7213625" x2="-1.534159375" y2="-0.70104375" layer="49"/>
<rectangle x1="1.55448125" y1="-0.7213625" x2="1.737359375" y2="-0.70104375" layer="49"/>
<rectangle x1="2.042159375" y1="-0.7213625" x2="2.0828" y2="-0.70104375" layer="49"/>
<rectangle x1="-2.10311875" y1="-0.701040625" x2="-2.042159375" y2="-0.680721875" layer="49"/>
<rectangle x1="-1.737359375" y1="-0.701040625" x2="-1.534159375" y2="-0.680721875" layer="49"/>
<rectangle x1="1.534159375" y1="-0.701040625" x2="1.737359375" y2="-0.680721875" layer="49"/>
<rectangle x1="2.042159375" y1="-0.701040625" x2="2.0828" y2="-0.680721875" layer="49"/>
<rectangle x1="-2.10311875" y1="-0.680721875" x2="-1.96088125" y2="-0.660403125" layer="49"/>
<rectangle x1="-1.75768125" y1="-0.680721875" x2="-1.534159375" y2="-0.660403125" layer="49"/>
<rectangle x1="1.534159375" y1="-0.680721875" x2="1.737359375" y2="-0.660403125" layer="49"/>
<rectangle x1="1.9812" y1="-0.680721875" x2="2.0828" y2="-0.660403125" layer="49"/>
<rectangle x1="-2.10311875" y1="-0.6604" x2="-1.55448125" y2="-0.64008125" layer="49"/>
<rectangle x1="1.534159375" y1="-0.6604" x2="2.0828" y2="-0.64008125" layer="49"/>
<rectangle x1="-2.10311875" y1="-0.64008125" x2="-1.55448125" y2="-0.6197625" layer="49"/>
<rectangle x1="1.534159375" y1="-0.64008125" x2="2.0828" y2="-0.6197625" layer="49"/>
<rectangle x1="-2.10311875" y1="-0.6197625" x2="-1.55448125" y2="-0.59944375" layer="49"/>
<rectangle x1="1.534159375" y1="-0.6197625" x2="2.0828" y2="-0.59944375" layer="49"/>
<rectangle x1="-2.10311875" y1="-0.599440625" x2="-1.55448125" y2="-0.579121875" layer="49"/>
<rectangle x1="1.534159375" y1="-0.599440625" x2="2.0828" y2="-0.579121875" layer="49"/>
<rectangle x1="-2.10311875" y1="-0.579121875" x2="-1.534159375" y2="-0.558803125" layer="49"/>
<rectangle x1="1.534159375" y1="-0.579121875" x2="2.0828" y2="-0.558803125" layer="49"/>
<rectangle x1="-2.10311875" y1="-0.5588" x2="-1.513840625" y2="-0.53848125" layer="49"/>
<rectangle x1="1.534159375" y1="-0.5588" x2="2.0828" y2="-0.53848125" layer="49"/>
<rectangle x1="-2.10311875" y1="-0.53848125" x2="-1.534159375" y2="-0.5181625" layer="49"/>
<rectangle x1="1.534159375" y1="-0.53848125" x2="2.0828" y2="-0.5181625" layer="49"/>
<rectangle x1="-2.10311875" y1="-0.5181625" x2="-1.534159375" y2="-0.49784375" layer="49"/>
<rectangle x1="1.534159375" y1="-0.5181625" x2="2.0828" y2="-0.49784375" layer="49"/>
<rectangle x1="-2.10311875" y1="-0.497840625" x2="-1.55448125" y2="-0.477521875" layer="49"/>
<rectangle x1="1.55448125" y1="-0.497840625" x2="2.0828" y2="-0.477521875" layer="49"/>
<rectangle x1="-2.10311875" y1="-0.477521875" x2="-1.55448125" y2="-0.457203125" layer="49"/>
<rectangle x1="1.55448125" y1="-0.477521875" x2="2.0828" y2="-0.457203125" layer="49"/>
<rectangle x1="-2.10311875" y1="-0.4572" x2="-1.55448125" y2="-0.43688125" layer="49"/>
<rectangle x1="1.534159375" y1="-0.4572" x2="2.0828" y2="-0.43688125" layer="49"/>
<rectangle x1="-2.10311875" y1="-0.43688125" x2="-1.534159375" y2="-0.4165625" layer="49"/>
<rectangle x1="1.534159375" y1="-0.43688125" x2="2.0828" y2="-0.4165625" layer="49"/>
<rectangle x1="-2.10311875" y1="-0.4165625" x2="-1.534159375" y2="-0.39624375" layer="49"/>
<rectangle x1="1.534159375" y1="-0.4165625" x2="2.0828" y2="-0.39624375" layer="49"/>
<rectangle x1="-2.10311875" y1="-0.396240625" x2="-1.8796" y2="-0.375921875" layer="49"/>
<rectangle x1="-1.818640625" y1="-0.396240625" x2="-1.55448125" y2="-0.375921875" layer="49"/>
<rectangle x1="1.534159375" y1="-0.396240625" x2="2.0828" y2="-0.375921875" layer="49"/>
<rectangle x1="-2.10311875" y1="-0.375921875" x2="-1.920240625" y2="-0.355603125" layer="49"/>
<rectangle x1="-1.737359375" y1="-0.375921875" x2="-1.55448125" y2="-0.355603125" layer="49"/>
<rectangle x1="1.55448125" y1="-0.375921875" x2="1.778" y2="-0.355603125" layer="49"/>
<rectangle x1="1.96088125" y1="-0.375921875" x2="2.0828" y2="-0.355603125" layer="49"/>
<rectangle x1="-2.10311875" y1="-0.3556" x2="-2.06248125" y2="-0.33528125" layer="49"/>
<rectangle x1="-2.042159375" y1="-0.3556" x2="-2.021840625" y2="-0.33528125" layer="49"/>
<rectangle x1="-1.737359375" y1="-0.3556" x2="-1.534159375" y2="-0.33528125" layer="49"/>
<rectangle x1="1.55448125" y1="-0.3556" x2="1.75768125" y2="-0.33528125" layer="49"/>
<rectangle x1="2.042159375" y1="-0.3556" x2="2.0828" y2="-0.33528125" layer="49"/>
<rectangle x1="-2.10311875" y1="-0.33528125" x2="-2.06248125" y2="-0.3149625" layer="49"/>
<rectangle x1="-1.737359375" y1="-0.33528125" x2="-1.534159375" y2="-0.3149625" layer="49"/>
<rectangle x1="1.55448125" y1="-0.33528125" x2="1.75768125" y2="-0.3149625" layer="49"/>
<rectangle x1="2.042159375" y1="-0.33528125" x2="2.0828" y2="-0.3149625" layer="49"/>
<rectangle x1="-2.10311875" y1="-0.3149625" x2="-2.06248125" y2="-0.29464375" layer="49"/>
<rectangle x1="-1.737359375" y1="-0.3149625" x2="-1.534159375" y2="-0.29464375" layer="49"/>
<rectangle x1="1.534159375" y1="-0.3149625" x2="1.737359375" y2="-0.29464375" layer="49"/>
<rectangle x1="2.042159375" y1="-0.3149625" x2="2.06248125" y2="-0.29464375" layer="49"/>
<rectangle x1="-2.10311875" y1="-0.294640625" x2="-2.06248125" y2="-0.274321875" layer="49"/>
<rectangle x1="-1.737359375" y1="-0.294640625" x2="-1.534159375" y2="-0.274321875" layer="49"/>
<rectangle x1="1.534159375" y1="-0.294640625" x2="1.717040625" y2="-0.274321875" layer="49"/>
<rectangle x1="2.042159375" y1="-0.294640625" x2="2.0828" y2="-0.274321875" layer="49"/>
<rectangle x1="-2.10311875" y1="-0.274321875" x2="-2.06248125" y2="-0.254003125" layer="49"/>
<rectangle x1="-1.75768125" y1="-0.274321875" x2="-1.534159375" y2="-0.254003125" layer="49"/>
<rectangle x1="1.534159375" y1="-0.274321875" x2="1.717040625" y2="-0.254003125" layer="49"/>
<rectangle x1="2.042159375" y1="-0.274321875" x2="2.0828" y2="-0.254003125" layer="49"/>
<rectangle x1="-2.10311875" y1="-0.254" x2="-2.06248125" y2="-0.23368125" layer="49"/>
<rectangle x1="-1.75768125" y1="-0.254" x2="-1.534159375" y2="-0.23368125" layer="49"/>
<rectangle x1="1.534159375" y1="-0.254" x2="1.717040625" y2="-0.23368125" layer="49"/>
<rectangle x1="2.021840625" y1="-0.254" x2="2.0828" y2="-0.23368125" layer="49"/>
<rectangle x1="-2.10311875" y1="-0.23368125" x2="-2.06248125" y2="-0.2133625" layer="49"/>
<rectangle x1="-1.75768125" y1="-0.23368125" x2="-1.534159375" y2="-0.2133625" layer="49"/>
<rectangle x1="1.534159375" y1="-0.23368125" x2="1.737359375" y2="-0.2133625" layer="49"/>
<rectangle x1="2.021840625" y1="-0.23368125" x2="2.0828" y2="-0.2133625" layer="49"/>
<rectangle x1="-2.10311875" y1="-0.2133625" x2="-2.06248125" y2="-0.19304375" layer="49"/>
<rectangle x1="-1.737359375" y1="-0.2133625" x2="-1.534159375" y2="-0.19304375" layer="49"/>
<rectangle x1="1.534159375" y1="-0.2133625" x2="1.737359375" y2="-0.19304375" layer="49"/>
<rectangle x1="2.042159375" y1="-0.2133625" x2="2.0828" y2="-0.19304375" layer="49"/>
<rectangle x1="-2.10311875" y1="-0.193040625" x2="-2.06248125" y2="-0.172721875" layer="49"/>
<rectangle x1="-1.737359375" y1="-0.193040625" x2="-1.534159375" y2="-0.172721875" layer="49"/>
<rectangle x1="1.534159375" y1="-0.193040625" x2="1.737359375" y2="-0.172721875" layer="49"/>
<rectangle x1="2.042159375" y1="-0.193040625" x2="2.0828" y2="-0.172721875" layer="49"/>
<rectangle x1="-2.10311875" y1="-0.172721875" x2="-1.9812" y2="-0.152403125" layer="49"/>
<rectangle x1="-1.737359375" y1="-0.172721875" x2="-1.534159375" y2="-0.152403125" layer="49"/>
<rectangle x1="1.534159375" y1="-0.172721875" x2="1.737359375" y2="-0.152403125" layer="49"/>
<rectangle x1="2.021840625" y1="-0.172721875" x2="2.0828" y2="-0.152403125" layer="49"/>
<rectangle x1="-2.10311875" y1="-0.1524" x2="-1.89991875" y2="-0.13208125" layer="49"/>
<rectangle x1="-1.85928125" y1="-0.1524" x2="-1.55448125" y2="-0.13208125" layer="49"/>
<rectangle x1="1.534159375" y1="-0.1524" x2="1.75768125" y2="-0.13208125" layer="49"/>
<rectangle x1="1.89991875" y1="-0.1524" x2="2.0828" y2="-0.13208125" layer="49"/>
<rectangle x1="-2.10311875" y1="-0.13208125" x2="-1.55448125" y2="-0.1117625" layer="49"/>
<rectangle x1="1.55448125" y1="-0.13208125" x2="2.0828" y2="-0.1117625" layer="49"/>
<rectangle x1="-2.10311875" y1="-0.1117625" x2="-1.55448125" y2="-0.09144375" layer="49"/>
<rectangle x1="1.55448125" y1="-0.1117625" x2="2.0828" y2="-0.09144375" layer="49"/>
<rectangle x1="-2.10311875" y1="-0.091440625" x2="-1.55448125" y2="-0.071121875" layer="49"/>
<rectangle x1="1.534159375" y1="-0.091440625" x2="2.0828" y2="-0.071121875" layer="49"/>
<rectangle x1="-2.10311875" y1="-0.071121875" x2="-1.55448125" y2="-0.050803125" layer="49"/>
<rectangle x1="1.534159375" y1="-0.071121875" x2="2.0828" y2="-0.050803125" layer="49"/>
<rectangle x1="-2.10311875" y1="-0.0508" x2="-1.534159375" y2="-0.03048125" layer="49"/>
<rectangle x1="1.534159375" y1="-0.0508" x2="2.0828" y2="-0.03048125" layer="49"/>
<rectangle x1="-2.10311875" y1="-0.03048125" x2="-1.534159375" y2="-0.0101625" layer="49"/>
<rectangle x1="1.534159375" y1="-0.03048125" x2="2.0828" y2="-0.0101625" layer="49"/>
<rectangle x1="-2.10311875" y1="-0.0101625" x2="-1.534159375" y2="0.01015625" layer="49"/>
<rectangle x1="1.534159375" y1="-0.0101625" x2="2.0828" y2="0.01015625" layer="49"/>
<rectangle x1="-2.10311875" y1="0.010159375" x2="-1.55448125" y2="0.030478125" layer="49"/>
<rectangle x1="1.534159375" y1="0.010159375" x2="2.0828" y2="0.030478125" layer="49"/>
<rectangle x1="-2.10311875" y1="0.030478125" x2="-1.55448125" y2="0.050796875" layer="49"/>
<rectangle x1="1.534159375" y1="0.030478125" x2="2.0828" y2="0.050796875" layer="49"/>
<rectangle x1="-2.10311875" y1="0.0508" x2="-1.55448125" y2="0.07111875" layer="49"/>
<rectangle x1="1.55448125" y1="0.0508" x2="2.0828" y2="0.07111875" layer="49"/>
<rectangle x1="-2.10311875" y1="0.07111875" x2="-1.55448125" y2="0.0914375" layer="49"/>
<rectangle x1="1.55448125" y1="0.07111875" x2="2.0828" y2="0.0914375" layer="49"/>
<rectangle x1="-2.10311875" y1="0.0914375" x2="-1.55448125" y2="0.11175625" layer="49"/>
<rectangle x1="1.534159375" y1="0.0914375" x2="2.0828" y2="0.11175625" layer="49"/>
<rectangle x1="-2.10311875" y1="0.111759375" x2="-1.55448125" y2="0.132078125" layer="49"/>
<rectangle x1="1.534159375" y1="0.111759375" x2="2.0828" y2="0.132078125" layer="49"/>
<rectangle x1="-2.10311875" y1="0.132078125" x2="-1.940559375" y2="0.152396875" layer="49"/>
<rectangle x1="-1.778" y1="0.132078125" x2="-1.55448125" y2="0.152396875" layer="49"/>
<rectangle x1="1.55448125" y1="0.132078125" x2="1.85928125" y2="0.152396875" layer="49"/>
<rectangle x1="1.8796" y1="0.132078125" x2="2.0828" y2="0.152396875" layer="49"/>
<rectangle x1="-2.10311875" y1="0.1524" x2="-2.042159375" y2="0.17271875" layer="49"/>
<rectangle x1="-1.75768125" y1="0.1524" x2="-1.55448125" y2="0.17271875" layer="49"/>
<rectangle x1="1.534159375" y1="0.1524" x2="1.75768125" y2="0.17271875" layer="49"/>
<rectangle x1="1.9812" y1="0.1524" x2="2.0828" y2="0.17271875" layer="49"/>
<rectangle x1="-2.10311875" y1="0.17271875" x2="-2.06248125" y2="0.1930375" layer="49"/>
<rectangle x1="-1.737359375" y1="0.17271875" x2="-1.55448125" y2="0.1930375" layer="49"/>
<rectangle x1="1.534159375" y1="0.17271875" x2="1.737359375" y2="0.1930375" layer="49"/>
<rectangle x1="2.00151875" y1="0.17271875" x2="2.0828" y2="0.1930375" layer="49"/>
<rectangle x1="-2.10311875" y1="0.1930375" x2="-2.021840625" y2="0.21335625" layer="49"/>
<rectangle x1="-1.737359375" y1="0.1930375" x2="-1.55448125" y2="0.21335625" layer="49"/>
<rectangle x1="1.534159375" y1="0.1930375" x2="1.717040625" y2="0.21335625" layer="49"/>
<rectangle x1="2.021840625" y1="0.1930375" x2="2.0828" y2="0.21335625" layer="49"/>
<rectangle x1="-2.10311875" y1="0.213359375" x2="-2.042159375" y2="0.233678125" layer="49"/>
<rectangle x1="-1.737359375" y1="0.213359375" x2="-1.55448125" y2="0.233678125" layer="49"/>
<rectangle x1="1.534159375" y1="0.213359375" x2="1.737359375" y2="0.233678125" layer="49"/>
<rectangle x1="2.021840625" y1="0.213359375" x2="2.0828" y2="0.233678125" layer="49"/>
<rectangle x1="-2.10311875" y1="0.233678125" x2="-2.06248125" y2="0.253996875" layer="49"/>
<rectangle x1="-1.737359375" y1="0.233678125" x2="-1.55448125" y2="0.253996875" layer="49"/>
<rectangle x1="1.534159375" y1="0.233678125" x2="1.737359375" y2="0.253996875" layer="49"/>
<rectangle x1="2.021840625" y1="0.233678125" x2="2.0828" y2="0.253996875" layer="49"/>
<rectangle x1="-2.10311875" y1="0.254" x2="-2.06248125" y2="0.27431875" layer="49"/>
<rectangle x1="-1.737359375" y1="0.254" x2="-1.55448125" y2="0.27431875" layer="49"/>
<rectangle x1="1.534159375" y1="0.254" x2="1.737359375" y2="0.27431875" layer="49"/>
<rectangle x1="2.00151875" y1="1.524" x2="2.0828" y2="1.54431875" layer="49"/>
<rectangle x1="-2.10311875" y1="0.27431875" x2="-2.06248125" y2="0.2946375" layer="49"/>
<rectangle x1="-1.737359375" y1="0.27431875" x2="-1.534159375" y2="0.2946375" layer="49"/>
<rectangle x1="1.534159375" y1="0.27431875" x2="1.737359375" y2="0.2946375" layer="49"/>
<rectangle x1="2.021840625" y1="0.27431875" x2="2.0828" y2="0.2946375" layer="49"/>
<rectangle x1="-2.10311875" y1="0.2946375" x2="-2.06248125" y2="0.31495625" layer="49"/>
<rectangle x1="-1.737359375" y1="0.2946375" x2="-1.534159375" y2="0.31495625" layer="49"/>
<rectangle x1="1.534159375" y1="0.2946375" x2="1.737359375" y2="0.31495625" layer="49"/>
<rectangle x1="2.042159375" y1="0.2946375" x2="2.0828" y2="0.31495625" layer="49"/>
<rectangle x1="-2.10311875" y1="0.314959375" x2="-2.06248125" y2="0.335278125" layer="49"/>
<rectangle x1="-1.737359375" y1="0.314959375" x2="-1.55448125" y2="0.335278125" layer="49"/>
<rectangle x1="1.534159375" y1="0.314959375" x2="1.737359375" y2="0.335278125" layer="49"/>
<rectangle x1="2.06248125" y1="0.314959375" x2="2.0828" y2="0.335278125" layer="49"/>
<rectangle x1="-2.10311875" y1="0.335278125" x2="-2.06248125" y2="0.355596875" layer="49"/>
<rectangle x1="-1.737359375" y1="0.335278125" x2="-1.55448125" y2="0.355596875" layer="49"/>
<rectangle x1="1.55448125" y1="0.335278125" x2="1.737359375" y2="0.355596875" layer="49"/>
<rectangle x1="-2.10311875" y1="0.3556" x2="-1.940559375" y2="0.37591875" layer="49"/>
<rectangle x1="-1.89991875" y1="0.3556" x2="-1.8796" y2="0.37591875" layer="49"/>
<rectangle x1="-1.737359375" y1="0.3556" x2="-1.55448125" y2="0.37591875" layer="49"/>
<rectangle x1="1.55448125" y1="0.3556" x2="1.717040625" y2="0.37591875" layer="49"/>
<rectangle x1="2.021840625" y1="0.3556" x2="2.0828" y2="0.37591875" layer="49"/>
<rectangle x1="-2.10311875" y1="0.37591875" x2="-1.818640625" y2="0.3962375" layer="49"/>
<rectangle x1="-1.79831875" y1="0.37591875" x2="-1.55448125" y2="0.3962375" layer="49"/>
<rectangle x1="1.55448125" y1="0.37591875" x2="1.79831875" y2="0.3962375" layer="49"/>
<rectangle x1="1.8796" y1="0.37591875" x2="2.0828" y2="0.3962375" layer="49"/>
<rectangle x1="-2.10311875" y1="0.3962375" x2="-1.55448125" y2="0.41655625" layer="49"/>
<rectangle x1="1.55448125" y1="0.3962375" x2="2.0828" y2="0.41655625" layer="49"/>
<rectangle x1="-2.10311875" y1="0.416559375" x2="-1.55448125" y2="0.436878125" layer="49"/>
<rectangle x1="1.55448125" y1="0.416559375" x2="2.0828" y2="0.436878125" layer="49"/>
<rectangle x1="-2.10311875" y1="0.436878125" x2="-1.534159375" y2="0.457196875" layer="49"/>
<rectangle x1="1.55448125" y1="0.436878125" x2="2.0828" y2="0.457196875" layer="49"/>
<rectangle x1="-2.10311875" y1="0.4572" x2="-1.534159375" y2="0.47751875" layer="49"/>
<rectangle x1="1.55448125" y1="0.4572" x2="2.0828" y2="0.47751875" layer="49"/>
<rectangle x1="-2.10311875" y1="0.47751875" x2="-1.55448125" y2="0.4978375" layer="49"/>
<rectangle x1="1.55448125" y1="0.47751875" x2="2.0828" y2="0.4978375" layer="49"/>
<rectangle x1="-2.10311875" y1="0.4978375" x2="-1.55448125" y2="0.51815625" layer="49"/>
<rectangle x1="1.55448125" y1="0.4978375" x2="2.0828" y2="0.51815625" layer="49"/>
<rectangle x1="-2.10311875" y1="0.518159375" x2="-1.55448125" y2="0.538478125" layer="49"/>
<rectangle x1="1.55448125" y1="0.518159375" x2="2.0828" y2="0.538478125" layer="49"/>
<rectangle x1="-2.10311875" y1="0.538478125" x2="-1.534159375" y2="0.558796875" layer="49"/>
<rectangle x1="1.55448125" y1="0.538478125" x2="2.0828" y2="0.558796875" layer="49"/>
<rectangle x1="-2.10311875" y1="0.5588" x2="-1.55448125" y2="0.57911875" layer="49"/>
<rectangle x1="1.55448125" y1="0.5588" x2="2.0828" y2="0.57911875" layer="49"/>
<rectangle x1="-2.10311875" y1="0.57911875" x2="-1.534159375" y2="0.5994375" layer="49"/>
<rectangle x1="1.55448125" y1="0.57911875" x2="2.0828" y2="0.5994375" layer="49"/>
<rectangle x1="-2.10311875" y1="0.5994375" x2="-1.534159375" y2="0.61975625" layer="49"/>
<rectangle x1="1.55448125" y1="0.5994375" x2="2.0828" y2="0.61975625" layer="49"/>
<rectangle x1="-2.10311875" y1="0.619759375" x2="-1.534159375" y2="0.640078125" layer="49"/>
<rectangle x1="1.55448125" y1="0.619759375" x2="2.0828" y2="0.640078125" layer="49"/>
<rectangle x1="-2.10311875" y1="0.640078125" x2="-1.534159375" y2="0.660396875" layer="49"/>
<rectangle x1="1.55448125" y1="0.640078125" x2="2.0828" y2="0.660396875" layer="49"/>
<rectangle x1="-2.10311875" y1="0.6604" x2="-1.920240625" y2="0.68071875" layer="49"/>
<rectangle x1="-1.737359375" y1="0.6604" x2="-1.534159375" y2="0.68071875" layer="49"/>
<rectangle x1="1.55448125" y1="0.6604" x2="1.75768125" y2="0.68071875" layer="49"/>
<rectangle x1="1.940559375" y1="0.6604" x2="2.0828" y2="0.68071875" layer="49"/>
<rectangle x1="-2.10311875" y1="0.68071875" x2="-2.042159375" y2="0.7010375" layer="49"/>
<rectangle x1="-1.737359375" y1="0.68071875" x2="-1.534159375" y2="0.7010375" layer="49"/>
<rectangle x1="1.55448125" y1="0.68071875" x2="1.75768125" y2="0.7010375" layer="49"/>
<rectangle x1="2.021840625" y1="0.68071875" x2="2.0828" y2="0.7010375" layer="49"/>
<rectangle x1="-2.10311875" y1="0.7010375" x2="-2.042159375" y2="0.72135625" layer="49"/>
<rectangle x1="-1.737359375" y1="0.7010375" x2="-1.534159375" y2="0.72135625" layer="49"/>
<rectangle x1="1.55448125" y1="0.7010375" x2="1.737359375" y2="0.72135625" layer="49"/>
<rectangle x1="2.021840625" y1="0.7010375" x2="2.0828" y2="0.72135625" layer="49"/>
<rectangle x1="-2.10311875" y1="0.721359375" x2="-2.042159375" y2="0.741678125" layer="49"/>
<rectangle x1="-1.717040625" y1="0.721359375" x2="-1.534159375" y2="0.741678125" layer="49"/>
<rectangle x1="1.55448125" y1="0.721359375" x2="1.737359375" y2="0.741678125" layer="49"/>
<rectangle x1="2.042159375" y1="0.721359375" x2="2.0828" y2="0.741678125" layer="49"/>
<rectangle x1="-2.10311875" y1="0.741678125" x2="-2.042159375" y2="0.761996875" layer="49"/>
<rectangle x1="-1.717040625" y1="0.741678125" x2="-1.534159375" y2="0.761996875" layer="49"/>
<rectangle x1="1.55448125" y1="0.741678125" x2="1.737359375" y2="0.761996875" layer="49"/>
<rectangle x1="2.042159375" y1="0.741678125" x2="2.0828" y2="0.761996875" layer="49"/>
<rectangle x1="-2.10311875" y1="0.762" x2="-2.06248125" y2="0.78231875" layer="49"/>
<rectangle x1="-1.717040625" y1="0.762" x2="-1.534159375" y2="0.78231875" layer="49"/>
<rectangle x1="1.55448125" y1="0.762" x2="1.737359375" y2="0.78231875" layer="49"/>
<rectangle x1="2.021840625" y1="0.762" x2="2.0828" y2="0.78231875" layer="49"/>
<rectangle x1="-2.10311875" y1="0.78231875" x2="-2.021840625" y2="0.8026375" layer="49"/>
<rectangle x1="-1.717040625" y1="0.78231875" x2="-1.534159375" y2="0.8026375" layer="49"/>
<rectangle x1="1.55448125" y1="0.78231875" x2="1.737359375" y2="0.8026375" layer="49"/>
<rectangle x1="2.021840625" y1="0.78231875" x2="2.0828" y2="0.8026375" layer="49"/>
<rectangle x1="-2.10311875" y1="0.8026375" x2="-2.021840625" y2="0.82295625" layer="49"/>
<rectangle x1="-1.717040625" y1="0.8026375" x2="-1.534159375" y2="0.82295625" layer="49"/>
<rectangle x1="1.55448125" y1="0.8026375" x2="1.737359375" y2="0.82295625" layer="49"/>
<rectangle x1="2.021840625" y1="0.8026375" x2="2.0828" y2="0.82295625" layer="49"/>
<rectangle x1="-2.10311875" y1="0.822959375" x2="-2.042159375" y2="0.843278125" layer="49"/>
<rectangle x1="-1.737359375" y1="0.822959375" x2="-1.534159375" y2="0.843278125" layer="49"/>
<rectangle x1="1.55448125" y1="0.822959375" x2="1.737359375" y2="0.843278125" layer="49"/>
<rectangle x1="2.021840625" y1="0.822959375" x2="2.0828" y2="0.843278125" layer="49"/>
<rectangle x1="-2.10311875" y1="0.843278125" x2="-2.06248125" y2="0.863596875" layer="49"/>
<rectangle x1="-1.737359375" y1="0.843278125" x2="-1.534159375" y2="0.863596875" layer="49"/>
<rectangle x1="1.55448125" y1="0.843278125" x2="1.737359375" y2="0.863596875" layer="49"/>
<rectangle x1="2.042159375" y1="0.843278125" x2="2.0828" y2="0.863596875" layer="49"/>
<rectangle x1="-2.10311875" y1="0.8636" x2="-2.00151875" y2="0.88391875" layer="49"/>
<rectangle x1="-1.737359375" y1="0.8636" x2="-1.534159375" y2="0.88391875" layer="49"/>
<rectangle x1="1.534159375" y1="0.8636" x2="1.737359375" y2="0.88391875" layer="49"/>
<rectangle x1="2.042159375" y1="0.8636" x2="2.0828" y2="0.88391875" layer="49"/>
<rectangle x1="-2.10311875" y1="0.88391875" x2="-1.513840625" y2="0.9042375" layer="49"/>
<rectangle x1="1.534159375" y1="0.88391875" x2="1.75768125" y2="0.9042375" layer="49"/>
<rectangle x1="1.96088125" y1="0.88391875" x2="2.0828" y2="0.9042375" layer="49"/>
<rectangle x1="-2.10311875" y1="0.9042375" x2="-1.534159375" y2="0.92455625" layer="49"/>
<rectangle x1="1.534159375" y1="0.9042375" x2="2.0828" y2="0.92455625" layer="49"/>
<rectangle x1="-2.10311875" y1="0.924559375" x2="-1.534159375" y2="0.944878125" layer="49"/>
<rectangle x1="1.534159375" y1="0.924559375" x2="2.0828" y2="0.944878125" layer="49"/>
<rectangle x1="-2.10311875" y1="0.944878125" x2="-1.534159375" y2="0.965196875" layer="49"/>
<rectangle x1="1.534159375" y1="0.944878125" x2="2.0828" y2="0.965196875" layer="49"/>
<rectangle x1="-2.10311875" y1="0.9652" x2="-1.534159375" y2="0.98551875" layer="49"/>
<rectangle x1="1.534159375" y1="0.9652" x2="2.0828" y2="0.98551875" layer="49"/>
<rectangle x1="-2.10311875" y1="0.98551875" x2="-1.534159375" y2="1.005840625" layer="49"/>
<rectangle x1="1.55448125" y1="0.98551875" x2="2.0828" y2="1.005840625" layer="49"/>
<rectangle x1="-2.10311875" y1="1.005840625" x2="-1.534159375" y2="1.026159375" layer="49"/>
<rectangle x1="1.55448125" y1="1.005840625" x2="2.0828" y2="1.026159375" layer="49"/>
<rectangle x1="-2.10311875" y1="1.026159375" x2="-1.534159375" y2="1.04648125" layer="49"/>
<rectangle x1="1.55448125" y1="1.026159375" x2="2.0828" y2="1.04648125" layer="49"/>
<rectangle x1="-2.10311875" y1="1.04648125" x2="-1.534159375" y2="1.0668" layer="49"/>
<rectangle x1="1.55448125" y1="1.04648125" x2="2.0828" y2="1.0668" layer="49"/>
<rectangle x1="-2.10311875" y1="1.0668" x2="-1.55448125" y2="1.08711875" layer="49"/>
<rectangle x1="1.55448125" y1="1.0668" x2="2.0828" y2="1.08711875" layer="49"/>
<rectangle x1="-2.10311875" y1="1.08711875" x2="-1.534159375" y2="1.107440625" layer="49"/>
<rectangle x1="1.55448125" y1="1.08711875" x2="2.0828" y2="1.107440625" layer="49"/>
<rectangle x1="-2.10311875" y1="1.107440625" x2="-1.534159375" y2="1.127759375" layer="49"/>
<rectangle x1="1.534159375" y1="1.107440625" x2="2.0828" y2="1.127759375" layer="49"/>
<rectangle x1="-2.10311875" y1="1.127759375" x2="-1.534159375" y2="1.14808125" layer="49"/>
<rectangle x1="1.534159375" y1="1.127759375" x2="2.0828" y2="1.14808125" layer="49"/>
<rectangle x1="-2.10311875" y1="1.14808125" x2="-1.534159375" y2="1.1684" layer="49"/>
<rectangle x1="1.513840625" y1="1.14808125" x2="2.0828" y2="1.1684" layer="49"/>
<rectangle x1="-2.10311875" y1="1.1684" x2="-1.920240625" y2="1.18871875" layer="49"/>
<rectangle x1="-1.8796" y1="1.1684" x2="-1.818640625" y2="1.18871875" layer="49"/>
<rectangle x1="-1.778" y1="1.1684" x2="-1.534159375" y2="1.18871875" layer="49"/>
<rectangle x1="1.534159375" y1="1.1684" x2="1.79831875" y2="1.18871875" layer="49"/>
<rectangle x1="1.920240625" y1="1.1684" x2="2.0828" y2="1.18871875" layer="49"/>
<rectangle x1="-2.10311875" y1="1.18871875" x2="-2.021840625" y2="1.209040625" layer="49"/>
<rectangle x1="-1.737359375" y1="1.18871875" x2="-1.534159375" y2="1.209040625" layer="49"/>
<rectangle x1="1.534159375" y1="1.18871875" x2="1.75768125" y2="1.209040625" layer="49"/>
<rectangle x1="2.00151875" y1="1.18871875" x2="2.0828" y2="1.209040625" layer="49"/>
<rectangle x1="-2.10311875" y1="1.209040625" x2="-2.042159375" y2="1.229359375" layer="49"/>
<rectangle x1="-1.737359375" y1="1.209040625" x2="-1.534159375" y2="1.229359375" layer="49"/>
<rectangle x1="1.534159375" y1="1.209040625" x2="1.737359375" y2="1.229359375" layer="49"/>
<rectangle x1="2.042159375" y1="1.209040625" x2="2.0828" y2="1.229359375" layer="49"/>
<rectangle x1="-2.10311875" y1="1.229359375" x2="-2.06248125" y2="1.24968125" layer="49"/>
<rectangle x1="-1.717040625" y1="1.229359375" x2="-1.534159375" y2="1.24968125" layer="49"/>
<rectangle x1="1.534159375" y1="1.229359375" x2="1.75768125" y2="1.24968125" layer="49"/>
<rectangle x1="2.042159375" y1="1.229359375" x2="2.0828" y2="1.24968125" layer="49"/>
<rectangle x1="-2.10311875" y1="1.24968125" x2="-2.042159375" y2="1.27" layer="49"/>
<rectangle x1="-1.717040625" y1="1.24968125" x2="-1.534159375" y2="1.27" layer="49"/>
<rectangle x1="1.534159375" y1="1.24968125" x2="1.737359375" y2="1.27" layer="49"/>
<rectangle x1="2.042159375" y1="1.24968125" x2="2.0828" y2="1.27" layer="49"/>
<rectangle x1="-2.10311875" y1="1.27" x2="-2.06248125" y2="1.29031875" layer="49"/>
<rectangle x1="-1.737359375" y1="1.27" x2="-1.534159375" y2="1.29031875" layer="49"/>
<rectangle x1="1.513840625" y1="1.27" x2="1.737359375" y2="1.29031875" layer="49"/>
<rectangle x1="2.042159375" y1="1.27" x2="2.0828" y2="1.29031875" layer="49"/>
<rectangle x1="-2.10311875" y1="1.29031875" x2="-2.06248125" y2="1.310640625" layer="49"/>
<rectangle x1="-1.737359375" y1="1.29031875" x2="-1.534159375" y2="1.310640625" layer="49"/>
<rectangle x1="1.49351875" y1="1.29031875" x2="1.75768125" y2="1.310640625" layer="49"/>
<rectangle x1="2.042159375" y1="1.29031875" x2="2.0828" y2="1.310640625" layer="49"/>
<rectangle x1="-2.10311875" y1="1.310640625" x2="-2.06248125" y2="1.330959375" layer="49"/>
<rectangle x1="-1.778" y1="1.310640625" x2="-1.513840625" y2="1.330959375" layer="49"/>
<rectangle x1="1.4732" y1="1.310640625" x2="1.75768125" y2="1.330959375" layer="49"/>
<rectangle x1="2.042159375" y1="1.310640625" x2="2.0828" y2="1.330959375" layer="49"/>
<rectangle x1="-2.10311875" y1="1.330959375" x2="-2.06248125" y2="1.35128125" layer="49"/>
<rectangle x1="-1.778" y1="1.330959375" x2="-1.513840625" y2="1.35128125" layer="49"/>
<rectangle x1="1.45288125" y1="1.330959375" x2="1.778" y2="1.35128125" layer="49"/>
<rectangle x1="2.042159375" y1="1.330959375" x2="2.0828" y2="1.35128125" layer="49"/>
<rectangle x1="-2.10311875" y1="1.35128125" x2="-2.042159375" y2="1.3716" layer="49"/>
<rectangle x1="-1.778" y1="1.35128125" x2="-1.534159375" y2="1.3716" layer="49"/>
<rectangle x1="1.45288125" y1="1.35128125" x2="1.818640625" y2="1.3716" layer="49"/>
<rectangle x1="2.042159375" y1="1.35128125" x2="2.0828" y2="1.3716" layer="49"/>
<rectangle x1="-2.10311875" y1="1.3716" x2="-2.021840625" y2="1.39191875" layer="49"/>
<rectangle x1="-1.818640625" y1="1.3716" x2="-1.534159375" y2="1.39191875" layer="49"/>
<rectangle x1="1.432559375" y1="1.3716" x2="1.838959375" y2="1.39191875" layer="49"/>
<rectangle x1="2.042159375" y1="1.3716" x2="2.0828" y2="1.39191875" layer="49"/>
<rectangle x1="-2.10311875" y1="1.39191875" x2="-1.940559375" y2="1.412240625" layer="49"/>
<rectangle x1="-1.838959375" y1="1.39191875" x2="-1.513840625" y2="1.412240625" layer="49"/>
<rectangle x1="1.412240625" y1="1.39191875" x2="1.838959375" y2="1.412240625" layer="49"/>
<rectangle x1="1.96088125" y1="1.39191875" x2="2.0828" y2="1.412240625" layer="49"/>
<rectangle x1="-2.10311875" y1="1.412240625" x2="-1.432559375" y2="1.432559375" layer="49"/>
<rectangle x1="1.39191875" y1="1.412240625" x2="1.85928125" y2="1.432559375" layer="49"/>
<rectangle x1="1.8796" y1="1.412240625" x2="2.0828" y2="1.432559375" layer="49"/>
<rectangle x1="-2.10311875" y1="1.432559375" x2="-1.35128125" y2="1.45288125" layer="49"/>
<rectangle x1="0.0101625" y1="1.432559375" x2="0.0508" y2="1.45288125" layer="49"/>
<rectangle x1="1.35128125" y1="1.432559375" x2="2.0828" y2="1.45288125" layer="49"/>
<rectangle x1="-2.10311875" y1="1.45288125" x2="0.7213625" y2="1.4732" layer="49"/>
<rectangle x1="0.8229625" y1="1.45288125" x2="0.88391875" y2="1.4732" layer="49"/>
<rectangle x1="0.904240625" y1="1.45288125" x2="1.107440625" y2="1.4732" layer="49"/>
<rectangle x1="1.229359375" y1="1.45288125" x2="2.0828" y2="1.4732" layer="49"/>
<rectangle x1="-2.10311875" y1="1.4732" x2="2.0828" y2="1.49351875" layer="49"/>
<rectangle x1="-2.10311875" y1="1.49351875" x2="2.0828" y2="1.513840625" layer="49"/>
<rectangle x1="-2.10311875" y1="1.513840625" x2="2.0828" y2="1.534159375" layer="49"/>
<rectangle x1="-2.10311875" y1="1.534159375" x2="2.0828" y2="1.55448125" layer="49"/>
<rectangle x1="-2.10311875" y1="1.55448125" x2="2.0828" y2="1.5748" layer="49"/>
<rectangle x1="-2.10311875" y1="1.5748" x2="2.0828" y2="1.59511875" layer="49"/>
<rectangle x1="-2.10311875" y1="1.59511875" x2="2.0828" y2="1.615440625" layer="49"/>
<rectangle x1="-2.10311875" y1="1.615440625" x2="2.0828" y2="1.635759375" layer="49"/>
<rectangle x1="-2.10311875" y1="1.635759375" x2="1.65608125" y2="1.65608125" layer="49"/>
<rectangle x1="1.818640625" y1="1.635759375" x2="2.0828" y2="1.65608125" layer="49"/>
<rectangle x1="-2.10311875" y1="1.65608125" x2="-0.78231875" y2="1.6764" layer="49"/>
<rectangle x1="-0.762" y1="1.65608125" x2="1.635759375" y2="1.6764" layer="49"/>
<rectangle x1="1.85928125" y1="1.65608125" x2="2.0828" y2="1.6764" layer="49"/>
<rectangle x1="-2.10311875" y1="1.6764" x2="-0.78231875" y2="1.69671875" layer="49"/>
<rectangle x1="-0.68071875" y1="1.6764" x2="-0.33528125" y2="1.69671875" layer="49"/>
<rectangle x1="-0.17271875" y1="1.6764" x2="0.23368125" y2="1.69671875" layer="49"/>
<rectangle x1="0.274321875" y1="1.6764" x2="0.335278125" y2="1.69671875" layer="49"/>
<rectangle x1="0.3556" y1="1.6764" x2="1.635759375" y2="1.69671875" layer="49"/>
<rectangle x1="1.85928125" y1="1.6764" x2="2.0828" y2="1.69671875" layer="49"/>
<rectangle x1="-2.10311875" y1="1.69671875" x2="-1.310640625" y2="1.717040625" layer="49"/>
<rectangle x1="-1.18871875" y1="1.69671875" x2="-0.8636" y2="1.717040625" layer="49"/>
<rectangle x1="-0.822959375" y1="1.69671875" x2="-0.802640625" y2="1.717040625" layer="49"/>
<rectangle x1="-0.68071875" y1="1.69671875" x2="-0.37591875" y2="1.717040625" layer="49"/>
<rectangle x1="-0.17271875" y1="1.69671875" x2="0.1524" y2="1.717040625" layer="49"/>
<rectangle x1="0.375921875" y1="1.69671875" x2="0.680721875" y2="1.717040625" layer="49"/>
<rectangle x1="0.883921875" y1="1.69671875" x2="1.18871875" y2="1.717040625" layer="49"/>
<rectangle x1="1.310640625" y1="1.69671875" x2="1.635759375" y2="1.717040625" layer="49"/>
<rectangle x1="1.838959375" y1="1.69671875" x2="2.0828" y2="1.717040625" layer="49"/>
<rectangle x1="-2.10311875" y1="1.717040625" x2="-1.35128125" y2="1.737359375" layer="49"/>
<rectangle x1="-1.18871875" y1="1.717040625" x2="-0.88391875" y2="1.737359375" layer="49"/>
<rectangle x1="-0.6604" y1="1.717040625" x2="-0.37591875" y2="1.737359375" layer="49"/>
<rectangle x1="-0.132078125" y1="1.717040625" x2="0.152396875" y2="1.737359375" layer="49"/>
<rectangle x1="0.375921875" y1="1.717040625" x2="0.660396875" y2="1.737359375" layer="49"/>
<rectangle x1="0.883921875" y1="1.717040625" x2="1.18871875" y2="1.737359375" layer="49"/>
<rectangle x1="1.310640625" y1="1.717040625" x2="1.635759375" y2="1.737359375" layer="49"/>
<rectangle x1="1.838959375" y1="1.717040625" x2="2.0828" y2="1.737359375" layer="49"/>
<rectangle x1="-2.10311875" y1="1.737359375" x2="-1.3716" y2="1.75768125" layer="49"/>
<rectangle x1="-1.1684" y1="1.737359375" x2="-0.88391875" y2="1.75768125" layer="49"/>
<rectangle x1="-0.6604" y1="1.737359375" x2="-0.37591875" y2="1.75768125" layer="49"/>
<rectangle x1="-0.132078125" y1="1.737359375" x2="0.152396875" y2="1.75768125" layer="49"/>
<rectangle x1="0.375921875" y1="1.737359375" x2="0.660396875" y2="1.75768125" layer="49"/>
<rectangle x1="0.904240625" y1="1.737359375" x2="1.1684" y2="1.75768125" layer="49"/>
<rectangle x1="1.3716" y1="1.737359375" x2="1.65608125" y2="1.75768125" layer="49"/>
<rectangle x1="1.85928125" y1="1.737359375" x2="2.0828" y2="1.75768125" layer="49"/>
<rectangle x1="-2.10311875" y1="1.75768125" x2="-1.39191875" y2="1.778" layer="49"/>
<rectangle x1="-1.1684" y1="1.75768125" x2="-0.88391875" y2="1.778" layer="49"/>
<rectangle x1="-0.6604" y1="1.75768125" x2="-0.37591875" y2="1.778" layer="49"/>
<rectangle x1="-0.132078125" y1="1.75768125" x2="0.152396875" y2="1.778" layer="49"/>
<rectangle x1="0.375921875" y1="1.75768125" x2="0.660396875" y2="1.778" layer="49"/>
<rectangle x1="0.904240625" y1="1.75768125" x2="1.1684" y2="1.778" layer="49"/>
<rectangle x1="1.3716" y1="1.75768125" x2="1.65608125" y2="1.778" layer="49"/>
<rectangle x1="1.838959375" y1="1.75768125" x2="2.0828" y2="1.778" layer="49"/>
<rectangle x1="-2.10311875" y1="1.778" x2="-1.39191875" y2="1.79831875" layer="49"/>
<rectangle x1="-1.18871875" y1="1.778" x2="-0.9042375" y2="1.79831875" layer="49"/>
<rectangle x1="-0.6604" y1="1.778" x2="-0.37591875" y2="1.79831875" layer="49"/>
<rectangle x1="-0.1524" y1="1.778" x2="0.1524" y2="1.79831875" layer="49"/>
<rectangle x1="0.3556" y1="1.778" x2="0.6604" y2="1.79831875" layer="49"/>
<rectangle x1="0.904240625" y1="1.778" x2="1.1684" y2="1.79831875" layer="49"/>
<rectangle x1="1.3716" y1="1.778" x2="1.635759375" y2="1.79831875" layer="49"/>
<rectangle x1="1.838959375" y1="1.778" x2="2.0828" y2="1.79831875" layer="49"/>
<rectangle x1="-2.10311875" y1="1.79831875" x2="-1.39191875" y2="1.818640625" layer="49"/>
<rectangle x1="-1.18871875" y1="1.79831875" x2="-0.9042375" y2="1.818640625" layer="49"/>
<rectangle x1="-0.6604" y1="1.79831875" x2="-0.37591875" y2="1.818640625" layer="49"/>
<rectangle x1="-0.1524" y1="1.79831875" x2="0.13208125" y2="1.818640625" layer="49"/>
<rectangle x1="0.3556" y1="1.79831875" x2="0.6604" y2="1.818640625" layer="49"/>
<rectangle x1="0.904240625" y1="1.79831875" x2="1.1684" y2="1.818640625" layer="49"/>
<rectangle x1="1.39191875" y1="1.79831875" x2="1.635759375" y2="1.818640625" layer="49"/>
<rectangle x1="1.838959375" y1="1.79831875" x2="2.0828" y2="1.818640625" layer="49"/>
<rectangle x1="-2.10311875" y1="1.818640625" x2="-1.39191875" y2="1.838959375" layer="49"/>
<rectangle x1="-1.18871875" y1="1.818640625" x2="-0.9042375" y2="1.838959375" layer="49"/>
<rectangle x1="-0.6604" y1="1.818640625" x2="-0.37591875" y2="1.838959375" layer="49"/>
<rectangle x1="-0.1524" y1="1.818640625" x2="0.13208125" y2="1.838959375" layer="49"/>
<rectangle x1="0.3556" y1="1.818640625" x2="0.6604" y2="1.838959375" layer="49"/>
<rectangle x1="0.904240625" y1="1.818640625" x2="1.1684" y2="1.838959375" layer="49"/>
<rectangle x1="1.412240625" y1="1.818640625" x2="1.635759375" y2="1.838959375" layer="49"/>
<rectangle x1="1.818640625" y1="1.818640625" x2="2.0828" y2="1.838959375" layer="49"/>
<rectangle x1="-2.10311875" y1="1.838959375" x2="-1.412240625" y2="1.85928125" layer="49"/>
<rectangle x1="-1.1684" y1="1.838959375" x2="-0.88391875" y2="1.85928125" layer="49"/>
<rectangle x1="-0.6604" y1="1.838959375" x2="-0.37591875" y2="1.85928125" layer="49"/>
<rectangle x1="-0.132078125" y1="1.838959375" x2="0.132078125" y2="1.85928125" layer="49"/>
<rectangle x1="0.375921875" y1="1.838959375" x2="0.660396875" y2="1.85928125" layer="49"/>
<rectangle x1="0.904240625" y1="1.838959375" x2="1.1684" y2="1.85928125" layer="49"/>
<rectangle x1="1.412240625" y1="1.838959375" x2="1.717040625" y2="1.85928125" layer="49"/>
<rectangle x1="1.737359375" y1="1.838959375" x2="2.0828" y2="1.85928125" layer="49"/>
<rectangle x1="-2.10311875" y1="1.85928125" x2="-1.412240625" y2="1.8796" layer="49"/>
<rectangle x1="-1.1684" y1="1.85928125" x2="-0.9042375" y2="1.8796" layer="49"/>
<rectangle x1="-0.6604" y1="1.85928125" x2="-0.37591875" y2="1.8796" layer="49"/>
<rectangle x1="-0.1524" y1="1.85928125" x2="0.13208125" y2="1.8796" layer="49"/>
<rectangle x1="0.375921875" y1="1.85928125" x2="0.660396875" y2="1.8796" layer="49"/>
<rectangle x1="0.904240625" y1="1.85928125" x2="1.18871875" y2="1.8796" layer="49"/>
<rectangle x1="1.39191875" y1="1.85928125" x2="2.0828" y2="1.8796" layer="49"/>
<rectangle x1="-2.10311875" y1="1.8796" x2="-1.412240625" y2="1.89991875" layer="49"/>
<rectangle x1="-1.1684" y1="1.8796" x2="-0.9042375" y2="1.89991875" layer="49"/>
<rectangle x1="-0.6604" y1="1.8796" x2="-0.37591875" y2="1.89991875" layer="49"/>
<rectangle x1="-0.1524" y1="1.8796" x2="0.13208125" y2="1.89991875" layer="49"/>
<rectangle x1="0.375921875" y1="1.8796" x2="0.660396875" y2="1.89991875" layer="49"/>
<rectangle x1="0.904240625" y1="1.8796" x2="1.1684" y2="1.89991875" layer="49"/>
<rectangle x1="1.39191875" y1="1.8796" x2="2.0828" y2="1.89991875" layer="49"/>
<rectangle x1="-2.10311875" y1="1.89991875" x2="-1.39191875" y2="1.920240625" layer="49"/>
<rectangle x1="-1.1684" y1="1.89991875" x2="-0.88391875" y2="1.920240625" layer="49"/>
<rectangle x1="-0.6604" y1="1.89991875" x2="-0.37591875" y2="1.920240625" layer="49"/>
<rectangle x1="-0.1524" y1="1.89991875" x2="0.1524" y2="1.920240625" layer="49"/>
<rectangle x1="0.375921875" y1="1.89991875" x2="0.660396875" y2="1.920240625" layer="49"/>
<rectangle x1="0.904240625" y1="1.89991875" x2="1.1684" y2="1.920240625" layer="49"/>
<rectangle x1="1.412240625" y1="1.89991875" x2="2.0828" y2="1.920240625" layer="49"/>
<rectangle x1="-2.10311875" y1="1.920240625" x2="-1.39191875" y2="1.940559375" layer="49"/>
<rectangle x1="-1.1684" y1="1.920240625" x2="-0.88391875" y2="1.940559375" layer="49"/>
<rectangle x1="-0.6604" y1="1.920240625" x2="-0.37591875" y2="1.940559375" layer="49"/>
<rectangle x1="-0.1524" y1="1.920240625" x2="0.1524" y2="1.940559375" layer="49"/>
<rectangle x1="0.3556" y1="1.920240625" x2="0.68071875" y2="1.940559375" layer="49"/>
<rectangle x1="0.904240625" y1="1.920240625" x2="1.1684" y2="1.940559375" layer="49"/>
<rectangle x1="1.412240625" y1="1.920240625" x2="2.0828" y2="1.940559375" layer="49"/>
<rectangle x1="-2.10311875" y1="1.940559375" x2="-1.39191875" y2="1.96088125" layer="49"/>
<rectangle x1="-1.18871875" y1="1.940559375" x2="-0.88391875" y2="1.96088125" layer="49"/>
<rectangle x1="-0.6604" y1="1.940559375" x2="-0.37591875" y2="1.96088125" layer="49"/>
<rectangle x1="-0.1524" y1="1.940559375" x2="0.1524" y2="1.96088125" layer="49"/>
<rectangle x1="0.3556" y1="1.940559375" x2="0.68071875" y2="1.96088125" layer="49"/>
<rectangle x1="0.904240625" y1="1.940559375" x2="1.18871875" y2="1.96088125" layer="49"/>
<rectangle x1="1.39191875" y1="1.940559375" x2="2.0828" y2="1.96088125" layer="49"/>
<rectangle x1="-2.10311875" y1="1.96088125" x2="-1.39191875" y2="1.9812" layer="49"/>
<rectangle x1="-1.18871875" y1="1.96088125" x2="-0.88391875" y2="1.9812" layer="49"/>
<rectangle x1="-0.68071875" y1="1.96088125" x2="-0.3556" y2="1.9812" layer="49"/>
<rectangle x1="-0.17271875" y1="1.96088125" x2="0.1524" y2="1.9812" layer="49"/>
<rectangle x1="0.3556" y1="1.96088125" x2="0.68071875" y2="1.9812" layer="49"/>
<rectangle x1="0.904240625" y1="1.96088125" x2="1.18871875" y2="1.9812" layer="49"/>
<rectangle x1="1.39191875" y1="1.96088125" x2="2.0828" y2="1.9812" layer="49"/>
<rectangle x1="-2.10311875" y1="1.9812" x2="-1.39191875" y2="2.00151875" layer="49"/>
<rectangle x1="-1.18871875" y1="1.9812" x2="-0.88391875" y2="2.00151875" layer="49"/>
<rectangle x1="-0.68071875" y1="1.9812" x2="-0.3556" y2="2.00151875" layer="49"/>
<rectangle x1="-0.17271875" y1="1.9812" x2="0.1524" y2="2.00151875" layer="49"/>
<rectangle x1="0.3556" y1="1.9812" x2="0.68071875" y2="2.00151875" layer="49"/>
<rectangle x1="0.904240625" y1="1.9812" x2="1.18871875" y2="2.00151875" layer="49"/>
<rectangle x1="1.39191875" y1="1.9812" x2="2.0828" y2="2.00151875" layer="49"/>
<rectangle x1="-2.10311875" y1="2.00151875" x2="-1.39191875" y2="2.021840625" layer="49"/>
<rectangle x1="-1.18871875" y1="2.00151875" x2="-0.8636" y2="2.021840625" layer="49"/>
<rectangle x1="-0.68071875" y1="2.00151875" x2="-0.3556" y2="2.021840625" layer="49"/>
<rectangle x1="-0.17271875" y1="2.00151875" x2="0.1524" y2="2.021840625" layer="49"/>
<rectangle x1="0.3556" y1="2.00151875" x2="0.68071875" y2="2.021840625" layer="49"/>
<rectangle x1="0.8636" y1="2.00151875" x2="1.18871875" y2="2.021840625" layer="49"/>
<rectangle x1="1.39191875" y1="2.00151875" x2="2.0828" y2="2.021840625" layer="49"/>
<rectangle x1="-2.10311875" y1="2.021840625" x2="-1.39191875" y2="2.042159375" layer="49"/>
<rectangle x1="-1.18871875" y1="2.021840625" x2="-0.84328125" y2="2.042159375" layer="49"/>
<rectangle x1="-0.68071875" y1="2.021840625" x2="-0.3556" y2="2.042159375" layer="49"/>
<rectangle x1="-0.17271875" y1="2.021840625" x2="0.1524" y2="2.042159375" layer="49"/>
<rectangle x1="0.3556" y1="2.021840625" x2="0.68071875" y2="2.042159375" layer="49"/>
<rectangle x1="0.883921875" y1="2.021840625" x2="1.18871875" y2="2.042159375" layer="49"/>
<rectangle x1="1.310640625" y1="2.021840625" x2="1.35128125" y2="2.042159375" layer="49"/>
<rectangle x1="1.39191875" y1="2.021840625" x2="2.0828" y2="2.042159375" layer="49"/>
<rectangle x1="-2.10311875" y1="2.042159375" x2="-1.3716" y2="2.06248125" layer="49"/>
<rectangle x1="-1.330959375" y1="2.042159375" x2="-1.24968125" y2="2.06248125" layer="49"/>
<rectangle x1="-1.209040625" y1="2.042159375" x2="-0.74168125" y2="2.06248125" layer="49"/>
<rectangle x1="-0.7010375" y1="2.042159375" x2="-0.33528125" y2="2.06248125" layer="49"/>
<rectangle x1="-0.314959375" y1="2.042159375" x2="0.233678125" y2="2.06248125" layer="49"/>
<rectangle x1="0.3149625" y1="2.042159375" x2="0.68071875" y2="2.06248125" layer="49"/>
<rectangle x1="0.8229625" y1="2.042159375" x2="0.84328125" y2="2.06248125" layer="49"/>
<rectangle x1="0.8636" y1="2.042159375" x2="1.209040625" y2="2.06248125" layer="49"/>
<rectangle x1="1.24968125" y1="2.042159375" x2="2.0828" y2="2.06248125" layer="49"/>
<rectangle x1="-2.10311875" y1="2.06248125" x2="2.06248125" y2="2.0828" layer="49"/>
<rectangle x1="-2.10311875" y1="2.0828" x2="-2.042159375" y2="2.10311875" layer="49"/>
<rectangle x1="-1.940559375" y1="2.0828" x2="-1.8796" y2="2.10311875" layer="49"/>
<rectangle x1="-1.818640625" y1="2.0828" x2="-1.69671875" y2="2.10311875" layer="49"/>
<rectangle x1="-1.6764" y1="2.0828" x2="-1.615440625" y2="2.10311875" layer="49"/>
<rectangle x1="-1.5748" y1="2.0828" x2="-0.64008125" y2="2.10311875" layer="49"/>
<rectangle x1="-0.5994375" y1="2.0828" x2="1.5748" y2="2.10311875" layer="49"/>
<rectangle x1="1.635759375" y1="2.0828" x2="1.79831875" y2="2.10311875" layer="49"/>
<text x="0" y="2.667" size="0.6096" layer="25" ratio="20" align="bottom-center">&gt;NAME</text>
<text x="0" y="-2.667" size="0.6096" layer="27" ratio="20" align="top-center">&gt;VALUE</text>
<circle x="-2.286" y="2.286" radius="0.254" width="0" layer="21"/>
<smd name="1" x="-2.0762" y="1.3008" dx="0.889" dy="0.2794" layer="1" roundness="100" rot="R180"/>
<smd name="2" x="-2.0762" y="0.7754" dx="0.889" dy="0.2794" layer="1" roundness="100" rot="R180"/>
<smd name="3" x="-2.0762" y="0.25" dx="0.889" dy="0.2794" layer="1" roundness="100" rot="R180"/>
<smd name="4" x="-2.1016" y="-0.25" dx="0.889" dy="0.2794" layer="1" roundness="100" rot="R180"/>
<smd name="5" x="-2.0762" y="-0.7754" dx="0.889" dy="0.2794" layer="1" roundness="100" rot="R180"/>
<smd name="6" x="-2.0762" y="-1.3008" dx="0.889" dy="0.2794" layer="1" roundness="100" rot="R180"/>
<smd name="7" x="-1.3008" y="-2.0762" dx="0.889" dy="0.2794" layer="1" roundness="100" rot="R90"/>
<smd name="8" x="-0.7754" y="-2.0762" dx="0.889" dy="0.2794" layer="1" roundness="100" rot="R90"/>
<smd name="9" x="-0.25" y="-2.0762" dx="0.889" dy="0.2794" layer="1" roundness="100" rot="R90"/>
<smd name="10" x="0.25" y="-2.0762" dx="0.889" dy="0.2794" layer="1" roundness="100" rot="R90"/>
<smd name="11" x="0.7754" y="-2.0762" dx="0.889" dy="0.2794" layer="1" roundness="100" rot="R90"/>
<smd name="12" x="1.3008" y="-2.0762" dx="0.889" dy="0.2794" layer="1" roundness="100" rot="R90"/>
<smd name="13" x="2.0762" y="-1.3008" dx="0.889" dy="0.2794" layer="1" roundness="100"/>
<smd name="14" x="2.0762" y="-0.7754" dx="0.889" dy="0.2794" layer="1" roundness="100"/>
<smd name="15" x="2.0762" y="-0.25" dx="0.889" dy="0.2794" layer="1" roundness="100"/>
<smd name="16" x="2.0762" y="0.25" dx="0.889" dy="0.2794" layer="1" roundness="100"/>
<smd name="17" x="2.0762" y="0.7754" dx="0.889" dy="0.2794" layer="1" roundness="100"/>
<smd name="18" x="2.0762" y="1.3008" dx="0.889" dy="0.2794" layer="1" roundness="100"/>
<smd name="19" x="1.3008" y="2.0762" dx="0.889" dy="0.2794" layer="1" roundness="100" rot="R270"/>
<smd name="20" x="0.7754" y="2.0762" dx="0.889" dy="0.2794" layer="1" roundness="100" rot="R270"/>
<smd name="21" x="0.25" y="2.0762" dx="0.889" dy="0.2794" layer="1" roundness="100" rot="R270"/>
<smd name="22" x="-0.25" y="2.0762" dx="0.889" dy="0.2794" layer="1" roundness="100" rot="R270"/>
<smd name="23" x="-0.7754" y="2.0762" dx="0.889" dy="0.2794" layer="1" roundness="100" rot="R270"/>
<smd name="24" x="-1.3008" y="2.0762" dx="0.889" dy="0.2794" layer="1" roundness="100" rot="R270"/>
</package>
<package name="CAPC0603X33N">
<description>&lt;b&gt;GRM03_0.03 L=0.6mm W=0.3mm T=0.3mm&lt;/b&gt;&lt;br&gt;
</description>
<smd name="1" x="-0.33" y="0" dx="0.46" dy="0.42" layer="1"/>
<smd name="2" x="0.33" y="0" dx="0.46" dy="0.42" layer="1"/>
<text x="0" y="0" size="1.27" layer="25" align="center">&gt;NAME</text>
<text x="0" y="0" size="1.27" layer="27" align="center">&gt;VALUE</text>
<wire x1="-0.71" y1="0.36" x2="0.71" y2="0.36" width="0.05" layer="51"/>
<wire x1="0.71" y1="0.36" x2="0.71" y2="-0.36" width="0.05" layer="51"/>
<wire x1="0.71" y1="-0.36" x2="-0.71" y2="-0.36" width="0.05" layer="51"/>
<wire x1="-0.71" y1="-0.36" x2="-0.71" y2="0.36" width="0.05" layer="51"/>
<wire x1="-0.3" y1="0.15" x2="0.3" y2="0.15" width="0.1" layer="51"/>
<wire x1="0.3" y1="0.15" x2="0.3" y2="-0.15" width="0.1" layer="51"/>
<wire x1="0.3" y1="-0.15" x2="-0.3" y2="-0.15" width="0.1" layer="51"/>
<wire x1="-0.3" y1="-0.15" x2="-0.3" y2="0.15" width="0.1" layer="51"/>
</package>
</packages>
<symbols>
<symbol name="ITG-3200">
<wire x1="-10.16" y1="10.16" x2="-10.16" y2="-10.16" width="0.254" layer="94"/>
<wire x1="-10.16" y1="-10.16" x2="12.7" y2="-10.16" width="0.254" layer="94"/>
<wire x1="12.7" y1="-10.16" x2="12.7" y2="10.16" width="0.254" layer="94"/>
<wire x1="12.7" y1="10.16" x2="-10.16" y2="10.16" width="0.254" layer="94"/>
<text x="-10.16" y="10.414" size="1.778" layer="95">&gt;NAME</text>
<text x="-10.16" y="-10.414" size="1.778" layer="96" align="top-left">&gt;VALUE</text>
<pin name="CLKIN" x="15.24" y="-7.62" length="short" rot="R180"/>
<pin name="VLOGIC" x="-12.7" y="2.54" length="short"/>
<pin name="AD0" x="15.24" y="-5.08" length="short" rot="R180"/>
<pin name="REGOUT" x="-12.7" y="0" length="short"/>
<pin name="RESV-G" x="-12.7" y="-5.08" length="short"/>
<pin name="INT" x="15.24" y="-2.54" length="short" rot="R180"/>
<pin name="SDA" x="15.24" y="7.62" length="short" rot="R180"/>
<pin name="SCL" x="15.24" y="5.08" length="short" rot="R180"/>
<pin name="CPOUT" x="-12.7" y="-2.54" length="short"/>
<pin name="GND" x="-12.7" y="-7.62" length="short"/>
<pin name="VDD" x="-12.7" y="7.62" length="short"/>
</symbol>
<symbol name="GRM033R61C104KE14D">
<wire x1="5.588" y1="2.54" x2="5.588" y2="-2.54" width="0.254" layer="94"/>
<wire x1="7.112" y1="2.54" x2="7.112" y2="-2.54" width="0.254" layer="94"/>
<wire x1="5.08" y1="0" x2="5.588" y2="0" width="0.254" layer="94"/>
<wire x1="7.112" y1="0" x2="7.62" y2="0" width="0.254" layer="94"/>
<text x="8.89" y="6.35" size="1.778" layer="95" align="center-left">&gt;NAME</text>
<text x="8.89" y="3.81" size="1.778" layer="96" align="center-left">&gt;VALUE</text>
<pin name="1" x="0" y="0" visible="pad" length="middle"/>
<pin name="2" x="12.7" y="0" visible="pad" length="middle" rot="R180"/>
</symbol>
<symbol name="GRM033R61A225KE47J">
<wire x1="5.588" y1="2.54" x2="5.588" y2="-2.54" width="0.254" layer="94"/>
<wire x1="7.112" y1="2.54" x2="7.112" y2="-2.54" width="0.254" layer="94"/>
<wire x1="5.08" y1="0" x2="5.588" y2="0" width="0.254" layer="94"/>
<wire x1="7.112" y1="0" x2="7.62" y2="0" width="0.254" layer="94"/>
<text x="8.89" y="6.35" size="1.778" layer="95" align="center-left">&gt;NAME</text>
<text x="8.89" y="3.81" size="1.778" layer="96" align="center-left">&gt;VALUE</text>
<pin name="1" x="0" y="0" visible="pad" length="middle"/>
<pin name="2" x="12.7" y="0" visible="pad" length="middle" rot="R180"/>
</symbol>
<symbol name="GRM033R61C103KA12D">
<wire x1="5.588" y1="2.54" x2="5.588" y2="-2.54" width="0.254" layer="94"/>
<wire x1="7.112" y1="2.54" x2="7.112" y2="-2.54" width="0.254" layer="94"/>
<wire x1="5.08" y1="0" x2="5.588" y2="0" width="0.254" layer="94"/>
<wire x1="7.112" y1="0" x2="7.62" y2="0" width="0.254" layer="94"/>
<text x="8.89" y="6.35" size="1.778" layer="95" align="center-left">&gt;NAME</text>
<text x="8.89" y="3.81" size="1.778" layer="96" align="center-left">&gt;VALUE</text>
<pin name="1" x="0" y="0" visible="pad" length="middle"/>
<pin name="2" x="12.7" y="0" visible="pad" length="middle" rot="R180"/>
</symbol>
</symbols>
<devicesets>
<deviceset name="ITG-3200" prefix="U">
<description>&lt;h3&gt;Invensense ITG-3200 3-Axis Gyroscope&lt;/h3&gt;
&lt;p&gt;The ITG-3200 is the world’s first single-chip, digital-output, 3-axis MEMS motion processing gyro optimized for gaming, 3D mice, and motion-based remote control applications for Internet connected Digital TVs and Set Top Boxes. The ITG-3200 features three 16-bit analog-to-digital converters (ADCs) for digitizing the gyro outputs, a user-selectable internal low-pass filter bandwidth, and a Fast-Mode I²C (400kHz) interface. Additional features include an embedded temperature sensor and a 2% accurate internal oscillator. This breakthrough in MEMS motion processing gyro technology provides a dramatic 60% package size reduction, delivers a 60% power reduction, and has inherent cost advantages compared to competing multi-chip gyro solutions.&lt;/p&gt;
&lt;p&gt;&lt;a href="https://www.sparkfun.com/datasheets/Sensors/Gyro/PS-ITG-3200-00-01.4.pdf"&gt;Datasheet&lt;/a&gt;&lt;/p&gt;
&lt;h4&gt;SparkFun Products&lt;/h4&gt;
&lt;ul&gt;
&lt;li&gt;&lt;a href="https://www.sparkfun.com/products/9793"&gt;Triple-Axis Digital-Output Gyroscope - ITG-3200&lt;/a&gt; (SEN-09793)&lt;/li&gt;
&lt;li&gt;&lt;a href="https://www.sparkfun.com/products/11977"&gt;SparkFun Triple-Axis Digital-Output Gyro Breakout - ITG-3200&lt;/a&gt; (SEN-11977)&lt;/li&gt;
&lt;li&gt;&lt;a href="https://www.sparkfun.com/products/10724"&gt;SparkFun 9 Degrees of Freedom - Sensor Stick&lt;/a&gt; (SEN-10724)&lt;/li&gt;
&lt;li&gt;&lt;a href="https://www.sparkfun.com/products/10121"&gt;SparkFun 6 Degrees of Freedom IMU Digital Combo Board - ITG3200/ADXL345&lt;/a&gt; (SEN-10121)&lt;/li&gt;
&lt;li&gt;&lt;a href="https://www.sparkfun.com/products/10736"&gt;9 Degrees of Freedom - Razor IMU&lt;/a&gt; (SEN-10736)&lt;/li&gt;
&lt;/ul&gt;</description>
<gates>
<gate name="G$1" symbol="ITG-3200" x="0" y="0"/>
</gates>
<devices>
<device name="" package="QFN-24">
<connects>
<connect gate="G$1" pin="AD0" pad="9"/>
<connect gate="G$1" pin="CLKIN" pad="1"/>
<connect gate="G$1" pin="CPOUT" pad="20"/>
<connect gate="G$1" pin="GND" pad="18"/>
<connect gate="G$1" pin="INT" pad="12"/>
<connect gate="G$1" pin="REGOUT" pad="10"/>
<connect gate="G$1" pin="RESV-G" pad="11"/>
<connect gate="G$1" pin="SCL" pad="23"/>
<connect gate="G$1" pin="SDA" pad="24"/>
<connect gate="G$1" pin="VDD" pad="13"/>
<connect gate="G$1" pin="VLOGIC" pad="8"/>
</connects>
<technologies>
<technology name="">
<attribute name="AVAILABILITY" value="Unavailable"/>
<attribute name="DESCRIPTION" value=" ADXL345, ITG-3200 Accelerometer, Gyroscope Sensor Arduino Platform Evaluation Expansion Board "/>
<attribute name="MF" value="DFRobot"/>
<attribute name="MP" value="ITG-3200"/>
<attribute name="PACKAGE" value="None"/>
<attribute name="PRICE" value="None"/>
</technology>
</technologies>
</device>
</devices>
</deviceset>
<deviceset name="GRM033R61C104KE14D" prefix="C">
<description>&lt;b&gt;0201 .1uF&lt;p&gt;Multilayer Ceramic Capacitors MLCC - SMD/SMT 16volts X5R 10%&lt;/b&gt;&lt;p&gt;
Source: &lt;a href="https://componentsearchengine.com/Datasheets/1/GRM033R61C104KE14D.pdf"&gt; Datasheet &lt;/a&gt;</description>
<gates>
<gate name="G$1" symbol="GRM033R61C104KE14D" x="0" y="0"/>
</gates>
<devices>
<device name="" package="CAPC0603X33N">
<connects>
<connect gate="G$1" pin="1" pad="1"/>
<connect gate="G$1" pin="2" pad="2"/>
</connects>
<technologies>
<technology name="">
<attribute name="DESCRIPTION" value="Multilayer Ceramic Capacitors MLCC - SMD/SMT 0201 0.1uF 16volts X5R 10%" constant="no"/>
<attribute name="HEIGHT" value="0.33mm" constant="no"/>
<attribute name="MANUFACTURER_NAME" value="Murata Electronics" constant="no"/>
<attribute name="MANUFACTURER_PART_NUMBER" value="GRM033R61C104KE14D" constant="no"/>
<attribute name="MOUSER_PART_NUMBER" value="81-GRM033R61C104KE4D" constant="no"/>
<attribute name="MOUSER_PRICE-STOCK" value="https://www.mouser.com/Search/Refine.aspx?Keyword=81-GRM033R61C104KE4D" constant="no"/>
</technology>
</technologies>
</device>
</devices>
</deviceset>
<deviceset name="GRM033R61A225KE47J" prefix="C">
<description>&lt;b&gt; 0201 2.2uF  &lt;p&gt;

Multilayer Ceramic Capacitors MLCC - SMD/SMT&lt;/b&gt;

&lt;p&gt;
Source: &lt;a href="https://componentsearchengine.com/Datasheets/1/GRM033R61A225KE47J.pdf"&gt; Datasheet &lt;/a&gt;</description>
<gates>
<gate name="G$1" symbol="GRM033R61A225KE47J" x="0" y="0"/>
</gates>
<devices>
<device name="" package="CAPC0603X33N">
<connects>
<connect gate="G$1" pin="1" pad="1"/>
<connect gate="G$1" pin="2" pad="2"/>
</connects>
<technologies>
<technology name="">
<attribute name="DESCRIPTION" value="Multilayer Ceramic Capacitors MLCC - SMD/SMT" constant="no"/>
<attribute name="HEIGHT" value="0.33mm" constant="no"/>
<attribute name="MANUFACTURER_NAME" value="Murata Electronics" constant="no"/>
<attribute name="MANUFACTURER_PART_NUMBER" value="GRM033R61A225KE47J" constant="no"/>
<attribute name="MOUSER_PART_NUMBER" value="81-GRM033R61A225KE7J" constant="no"/>
<attribute name="MOUSER_PRICE-STOCK" value="https://www.mouser.com/Search/Refine.aspx?Keyword=81-GRM033R61A225KE7J" constant="no"/>
</technology>
</technologies>
</device>
</devices>
</deviceset>
<deviceset name="GRM033R61C103KA12D" prefix="C">
<description>&lt;b&gt;Multilayer Ceramic Capacitors MLCC - SMD/SMT 0201 0.01uF 16volts X5R +/-10%&lt;/b&gt;&lt;p&gt;
Source: &lt;a href="https://componentsearchengine.com/Datasheets/1/GRM033R61C103KA12D.pdf"&gt; Datasheet &lt;/a&gt;</description>
<gates>
<gate name="G$1" symbol="GRM033R61C103KA12D" x="0" y="0"/>
</gates>
<devices>
<device name="" package="CAPC0603X33N">
<connects>
<connect gate="G$1" pin="1" pad="1"/>
<connect gate="G$1" pin="2" pad="2"/>
</connects>
<technologies>
<technology name="">
<attribute name="DESCRIPTION" value="Multilayer Ceramic Capacitors MLCC - SMD/SMT 0201 0.01uF 16volts X5R +/-10%" constant="no"/>
<attribute name="HEIGHT" value="0.33mm" constant="no"/>
<attribute name="MANUFACTURER_NAME" value="Murata Electronics" constant="no"/>
<attribute name="MANUFACTURER_PART_NUMBER" value="GRM033R61C103KA12D" constant="no"/>
<attribute name="MOUSER_PART_NUMBER" value="81-GRM033R61C103KA2D" constant="no"/>
<attribute name="MOUSER_PRICE-STOCK" value="https://www.mouser.com/Search/Refine.aspx?Keyword=81-GRM033R61C103KA2D" constant="no"/>
</technology>
</technologies>
</device>
</devices>
</deviceset>
</devicesets>
</library>
</libraries>
<attributes>
</attributes>
<variantdefs>
</variantdefs>
<classes>
<class number="0" name="default" width="0" drill="0">
</class>
</classes>
<parts>
<part name="U1" library="SamacSys_Parts" deviceset="ITG-3200" device=""/>
<part name="C1" library="SamacSys_Parts" deviceset="GRM033R61C104KE14D" device=""/>
<part name="C2" library="SamacSys_Parts" deviceset="GRM033R61C104KE14D" device=""/>
<part name="C3" library="SamacSys_Parts" deviceset="GRM033R61A225KE47J" device=""/>
<part name="C5" library="SamacSys_Parts" deviceset="GRM033R61C103KA12D" device=""/>
</parts>
<sheets>
<sheet>
<plain>
</plain>
<instances>
<instance part="U1" gate="G$1" x="48.26" y="93.98" smashed="yes">
<attribute name="NAME" x="38.1" y="104.394" size="1.778" layer="95"/>
<attribute name="VALUE" x="38.1" y="83.566" size="1.778" layer="96" align="top-left"/>
</instance>
<instance part="C1" gate="G$1" x="27.94" y="114.3" smashed="yes" rot="R90">
<attribute name="NAME" x="21.59" y="123.19" size="1.778" layer="95" rot="R90" align="center-left"/>
<attribute name="VALUE" x="24.13" y="123.19" size="1.778" layer="96" rot="R90" align="center-left"/>
</instance>
<instance part="C2" gate="G$1" x="-10.16" y="93.98" smashed="yes">
<attribute name="NAME" x="-1.27" y="100.33" size="1.778" layer="95" align="center-left"/>
<attribute name="VALUE" x="-1.27" y="97.79" size="1.778" layer="96" align="center-left"/>
</instance>
<instance part="C3" gate="G$1" x="-5.08" y="71.12" smashed="yes">
<attribute name="NAME" x="3.81" y="77.47" size="1.778" layer="95" align="center-left"/>
<attribute name="VALUE" x="3.81" y="74.93" size="1.778" layer="96" align="center-left"/>
</instance>
<instance part="C5" gate="G$1" x="-7.62" y="104.14" smashed="yes">
<attribute name="NAME" x="-8.89" y="110.49" size="1.778" layer="95" align="center-left"/>
<attribute name="VALUE" x="-29.21" y="107.95" size="1.778" layer="96" align="center-left"/>
</instance>
</instances>
<busses>
</busses>
<nets>
<net name="N$1" class="0">
<segment>
<pinref part="U1" gate="G$1" pin="AD0"/>
<wire x1="63.5" y1="88.9" x2="71.12" y2="88.9" width="0.1524" layer="91"/>
</segment>
</net>
<net name="GND" class="0">
<segment>
<pinref part="U1" gate="G$1" pin="GND"/>
<wire x1="35.56" y1="86.36" x2="30.48" y2="86.36" width="0.1524" layer="91"/>
<label x="27.94" y="86.36" size="1.778" layer="95"/>
</segment>
<segment>
<pinref part="C2" gate="G$1" pin="1"/>
<wire x1="-10.16" y1="93.98" x2="-10.16" y2="88.9" width="0.1524" layer="91"/>
<label x="-10.16" y="86.36" size="1.778" layer="95"/>
</segment>
<segment>
<pinref part="C3" gate="G$1" pin="1"/>
<wire x1="-5.08" y1="71.12" x2="-5.08" y2="68.58" width="0.1524" layer="91"/>
<label x="-5.08" y="66.04" size="1.778" layer="95"/>
</segment>
<segment>
<pinref part="C1" gate="G$1" pin="2"/>
<wire x1="27.94" y1="127" x2="27.94" y2="129.54" width="0.1524" layer="91"/>
<label x="27.94" y="129.54" size="1.778" layer="95"/>
</segment>
<segment>
<pinref part="U1" gate="G$1" pin="CLKIN"/>
<wire x1="63.5" y1="86.36" x2="71.12" y2="86.36" width="0.1524" layer="91"/>
<label x="71.12" y="86.36" size="1.778" layer="95"/>
</segment>
<segment>
<pinref part="U1" gate="G$1" pin="RESV-G"/>
<wire x1="35.56" y1="88.9" x2="30.48" y2="88.9" width="0.1524" layer="91"/>
<label x="27.94" y="88.9" size="1.778" layer="95"/>
</segment>
<segment>
<pinref part="C5" gate="G$1" pin="1"/>
<wire x1="-7.62" y1="104.14" x2="-12.7" y2="104.14" width="0.1524" layer="91"/>
<label x="-12.7" y="101.6" size="1.778" layer="95"/>
</segment>
</net>
<net name="I2C_MC_SCL" class="0">
<segment>
<pinref part="U1" gate="G$1" pin="SCL"/>
<wire x1="63.5" y1="99.06" x2="76.2" y2="99.06" width="0.1524" layer="91"/>
<label x="68.58" y="99.06" size="1.778" layer="95"/>
</segment>
</net>
<net name="I2C_MC_SDA" class="0">
<segment>
<pinref part="U1" gate="G$1" pin="SDA"/>
<wire x1="63.5" y1="101.6" x2="76.2" y2="101.6" width="0.1524" layer="91"/>
<label x="68.58" y="101.6" size="1.778" layer="95"/>
</segment>
</net>
<net name="VBAT" class="0">
<segment>
<pinref part="U1" gate="G$1" pin="VDD"/>
<label x="15.24" y="116.84" size="1.778" layer="95"/>
<wire x1="35.56" y1="101.6" x2="27.94" y2="101.6" width="0.1524" layer="91"/>
<wire x1="27.94" y1="101.6" x2="15.24" y2="101.6" width="0.1524" layer="91"/>
<wire x1="15.24" y1="101.6" x2="15.24" y2="114.3" width="0.1524" layer="91"/>
<pinref part="C1" gate="G$1" pin="1"/>
<wire x1="27.94" y1="114.3" x2="27.94" y2="101.6" width="0.1524" layer="91"/>
<junction x="27.94" y="101.6"/>
</segment>
<segment>
<pinref part="U1" gate="G$1" pin="VLOGIC"/>
<wire x1="35.56" y1="96.52" x2="5.08" y2="96.52" width="0.1524" layer="91"/>
<wire x1="5.08" y1="96.52" x2="5.08" y2="104.14" width="0.1524" layer="91"/>
<label x="5.08" y="119.38" size="1.778" layer="95"/>
<pinref part="C5" gate="G$1" pin="2"/>
<wire x1="5.08" y1="104.14" x2="5.08" y2="116.84" width="0.1524" layer="91"/>
<junction x="5.08" y="104.14"/>
</segment>
</net>
<net name="N$2" class="0">
<segment>
<pinref part="U1" gate="G$1" pin="REGOUT"/>
<pinref part="C2" gate="G$1" pin="2"/>
<wire x1="2.54" y1="93.98" x2="35.56" y2="93.98" width="0.1524" layer="91"/>
</segment>
</net>
<net name="N$3" class="0">
<segment>
<pinref part="U1" gate="G$1" pin="CPOUT"/>
<pinref part="C3" gate="G$1" pin="2"/>
<wire x1="35.56" y1="91.44" x2="7.62" y2="91.44" width="0.1524" layer="91"/>
<wire x1="7.62" y1="91.44" x2="7.62" y2="71.12" width="0.1524" layer="91"/>
</segment>
</net>
<net name="INT" class="0">
<segment>
<pinref part="U1" gate="G$1" pin="INT"/>
<wire x1="63.5" y1="91.44" x2="71.12" y2="91.44" width="0.1524" layer="91"/>
<label x="71.12" y="91.44" size="1.778" layer="95"/>
</segment>
</net>
</nets>
</sheet>
</sheets>
</schematic>
</drawing>
</eagle>
