<?xml version="1.0" encoding="utf-8"?>
<!DOCTYPE eagle SYSTEM "eagle.dtd">
<eagle version="9.5.2">
<drawing>
<settings>
<setting alwaysvectorfont="no"/>
<setting verticaltext="up"/>
</settings>
<grid distance="0.1" unitdist="inch" unit="inch" style="lines" multiple="1" display="no" altdistance="0.01" altunitdist="inch" altunit="inch"/>
<layers>
<layer number="1" name="Top" color="4" fill="1" visible="no" active="no"/>
<layer number="16" name="Bottom" color="1" fill="1" visible="no" active="no"/>
<layer number="17" name="Pads" color="2" fill="1" visible="no" active="no"/>
<layer number="18" name="Vias" color="2" fill="1" visible="no" active="no"/>
<layer number="19" name="Unrouted" color="6" fill="1" visible="no" active="no"/>
<layer number="20" name="Dimension" color="15" fill="1" visible="no" active="no"/>
<layer number="21" name="tPlace" color="7" fill="1" visible="no" active="no"/>
<layer number="22" name="bPlace" color="7" fill="1" visible="no" active="no"/>
<layer number="23" name="tOrigins" color="15" fill="1" visible="no" active="no"/>
<layer number="24" name="bOrigins" color="15" fill="1" visible="no" active="no"/>
<layer number="25" name="tNames" color="7" fill="1" visible="no" active="no"/>
<layer number="26" name="bNames" color="7" fill="1" visible="no" active="no"/>
<layer number="27" name="tValues" color="7" fill="1" visible="no" active="no"/>
<layer number="28" name="bValues" color="7" fill="1" visible="no" active="no"/>
<layer number="29" name="tStop" color="7" fill="3" visible="no" active="no"/>
<layer number="30" name="bStop" color="7" fill="6" visible="no" active="no"/>
<layer number="31" name="tCream" color="7" fill="4" visible="no" active="no"/>
<layer number="32" name="bCream" color="7" fill="5" visible="no" active="no"/>
<layer number="33" name="tFinish" color="6" fill="3" visible="no" active="no"/>
<layer number="34" name="bFinish" color="6" fill="6" visible="no" active="no"/>
<layer number="35" name="tGlue" color="7" fill="4" visible="no" active="no"/>
<layer number="36" name="bGlue" color="7" fill="5" visible="no" active="no"/>
<layer number="37" name="tTest" color="7" fill="1" visible="no" active="no"/>
<layer number="38" name="bTest" color="7" fill="1" visible="no" active="no"/>
<layer number="39" name="tKeepout" color="4" fill="11" visible="no" active="no"/>
<layer number="40" name="bKeepout" color="1" fill="11" visible="no" active="no"/>
<layer number="41" name="tRestrict" color="4" fill="10" visible="no" active="no"/>
<layer number="42" name="bRestrict" color="1" fill="10" visible="no" active="no"/>
<layer number="43" name="vRestrict" color="2" fill="10" visible="no" active="no"/>
<layer number="44" name="Drills" color="7" fill="1" visible="no" active="no"/>
<layer number="45" name="Holes" color="7" fill="1" visible="no" active="no"/>
<layer number="46" name="Milling" color="3" fill="1" visible="no" active="no"/>
<layer number="47" name="Measures" color="7" fill="1" visible="no" active="no"/>
<layer number="48" name="Document" color="7" fill="1" visible="no" active="no"/>
<layer number="49" name="Reference" color="7" fill="1" visible="no" active="no"/>
<layer number="51" name="tDocu" color="7" fill="1" visible="no" active="no"/>
<layer number="52" name="bDocu" color="7" fill="1" visible="no" active="no"/>
<layer number="88" name="SimResults" color="9" fill="1" visible="yes" active="yes"/>
<layer number="89" name="SimProbes" color="9" fill="1" visible="yes" active="yes"/>
<layer number="90" name="Modules" color="5" fill="1" visible="yes" active="yes"/>
<layer number="91" name="Nets" color="2" fill="1" visible="yes" active="yes"/>
<layer number="92" name="Busses" color="1" fill="1" visible="yes" active="yes"/>
<layer number="93" name="Pins" color="2" fill="1" visible="no" active="yes"/>
<layer number="94" name="Symbols" color="4" fill="1" visible="yes" active="yes"/>
<layer number="95" name="Names" color="7" fill="1" visible="yes" active="yes"/>
<layer number="96" name="Values" color="7" fill="1" visible="yes" active="yes"/>
<layer number="97" name="Info" color="7" fill="1" visible="yes" active="yes"/>
<layer number="98" name="Guide" color="6" fill="1" visible="yes" active="yes"/>
</layers>
<schematic xreflabel="%F%N/%S.%C%R" xrefpart="/%S.%C%R">
<libraries>
<library name="SamacSys_Parts">
<packages>
<package name="DFN1600X1600X750-13N">
<wire x1="-8" y1="-8" x2="8" y2="-8" width="0.127" layer="21"/>
<wire x1="8" y1="-8" x2="8" y2="8" width="0.127" layer="51"/>
<wire x1="8" y1="8" x2="-8" y2="8" width="0.127" layer="21"/>
<wire x1="-8" y1="8" x2="-8" y2="-8" width="0.127" layer="51"/>
<wire x1="-9.5" y1="8.25" x2="9.5" y2="8.25" width="0.127" layer="39"/>
<wire x1="9.5" y1="8.25" x2="9.5" y2="-8.25" width="0.127" layer="39"/>
<wire x1="9.5" y1="-8.25" x2="-9.5" y2="-8.25" width="0.127" layer="39"/>
<wire x1="-9.5" y1="-8.25" x2="-9.5" y2="8.25" width="0.127" layer="39"/>
<text x="-9.504090625" y="8.503659375" size="1.27055" layer="25">&gt;NAME</text>
<text x="-9.513659375" y="-9.76401875" size="1.27183125" layer="27">&gt;VALUE</text>
<smd name="1" x="-8" y="6.75" dx="2" dy="1" layer="1"/>
<smd name="2" x="-8" y="5.25" dx="2" dy="1" layer="1"/>
<smd name="3" x="-8" y="3.75" dx="2" dy="1" layer="1"/>
<smd name="4" x="-8" y="2.25" dx="2" dy="1" layer="1"/>
<smd name="5" x="-8" y="0.75" dx="2" dy="1" layer="1"/>
<smd name="6" x="-8" y="-0.75" dx="2" dy="1" layer="1"/>
<smd name="7" x="-8" y="-2.25" dx="2" dy="1" layer="1"/>
<smd name="8" x="-8" y="-3.75" dx="2" dy="1" layer="1"/>
<smd name="9" x="-8" y="-5.25" dx="2" dy="1" layer="1"/>
<smd name="10" x="-8" y="-6.75" dx="2" dy="1" layer="1"/>
<smd name="13" x="8" y="6.75" dx="2" dy="1" layer="1"/>
<smd name="12" x="8" y="0.75" dx="2" dy="1" layer="1"/>
<smd name="11" x="8" y="-6.75" dx="2" dy="1" layer="1"/>
<hole x="0.5" y="0.85" drill="3"/>
</package>
</packages>
<symbols>
<symbol name="SIM39EA">
<wire x1="12.7" y1="10.16" x2="12.7" y2="-10.16" width="0.254" layer="94"/>
<wire x1="12.7" y1="-10.16" x2="-12.7" y2="-10.16" width="0.254" layer="94"/>
<wire x1="-12.7" y1="-10.16" x2="-12.7" y2="10.16" width="0.254" layer="94"/>
<wire x1="-12.7" y1="10.16" x2="12.7" y2="10.16" width="0.254" layer="94"/>
<text x="-12.7151" y="10.1721" size="2.543009375" layer="95">&gt;NAME</text>
<text x="-12.7084" y="-12.7084" size="2.541690625" layer="96">&gt;VALUE</text>
<pin name="VCC" x="17.78" y="7.62" length="middle" direction="pwr" rot="R180"/>
<pin name="V_BACKUP" x="-17.78" y="-2.54" length="middle"/>
<pin name="GND" x="17.78" y="-7.62" length="middle" direction="pas" rot="R180"/>
<pin name="TXD" x="17.78" y="2.54" length="middle" direction="out" rot="R180"/>
<pin name="RXD" x="-17.78" y="2.54" length="middle" direction="in"/>
<pin name="TIMEMARK" x="17.78" y="0" length="middle" direction="out" rot="R180"/>
<pin name="3D-FIX" x="17.78" y="-2.54" length="middle" direction="out" rot="R180"/>
</symbol>
</symbols>
<devicesets>
<deviceset name="SIM39EA" prefix="U">
<description>Ic Gps Accompany With Patch Antenna</description>
<gates>
<gate name="G$1" symbol="SIM39EA" x="0" y="0"/>
</gates>
<devices>
<device name="" package="DFN1600X1600X750-13N">
<connects>
<connect gate="G$1" pin="3D-FIX" pad="5"/>
<connect gate="G$1" pin="GND" pad="3 8 11 12 13"/>
<connect gate="G$1" pin="RXD" pad="10"/>
<connect gate="G$1" pin="TIMEMARK" pad="6"/>
<connect gate="G$1" pin="TXD" pad="9"/>
<connect gate="G$1" pin="VCC" pad="1"/>
<connect gate="G$1" pin="V_BACKUP" pad="4"/>
</connects>
<technologies>
<technology name="">
<attribute name="AVAILABILITY" value="Unavailable"/>
<attribute name="DESCRIPTION" value=" Ic Gps Accompany With Patch Antenna "/>
<attribute name="MF" value="Simcom"/>
<attribute name="MP" value="SIM39EA"/>
<attribute name="PACKAGE" value="None"/>
<attribute name="PRICE" value="None"/>
</technology>
</technologies>
</device>
</devices>
</deviceset>
</devicesets>
</library>
</libraries>
<attributes>
</attributes>
<variantdefs>
</variantdefs>
<classes>
<class number="0" name="default" width="0" drill="0">
</class>
</classes>
<parts>
<part name="U1" library="SamacSys_Parts" deviceset="SIM39EA" device=""/>
</parts>
<sheets>
<sheet>
<plain>
</plain>
<instances>
<instance part="U1" gate="G$1" x="76.2" y="106.68" smashed="yes">
<attribute name="NAME" x="63.4849" y="116.8521" size="2.543009375" layer="95"/>
<attribute name="VALUE" x="63.4916" y="93.9716" size="2.541690625" layer="96"/>
</instance>
</instances>
<busses>
</busses>
<nets>
<net name="VBAT" class="0">
<segment>
<pinref part="U1" gate="G$1" pin="VCC"/>
<wire x1="93.98" y1="114.3" x2="99.06" y2="114.3" width="0.1524" layer="91"/>
<label x="99.06" y="114.3" size="1.778" layer="95"/>
</segment>
</net>
<net name="MC_UART_TX" class="0">
<segment>
<pinref part="U1" gate="G$1" pin="TXD"/>
<wire x1="93.98" y1="109.22" x2="99.06" y2="109.22" width="0.1524" layer="91"/>
<label x="99.06" y="109.22" size="1.778" layer="95"/>
</segment>
</net>
<net name="GPS_3D-FIX" class="0">
<segment>
<pinref part="U1" gate="G$1" pin="3D-FIX"/>
<wire x1="93.98" y1="104.14" x2="99.06" y2="104.14" width="0.1524" layer="91"/>
<label x="99.06" y="104.14" size="1.778" layer="95"/>
</segment>
</net>
<net name="GND" class="0">
<segment>
<pinref part="U1" gate="G$1" pin="GND"/>
<wire x1="93.98" y1="99.06" x2="99.06" y2="99.06" width="0.1524" layer="91"/>
<label x="99.06" y="99.06" size="1.778" layer="95"/>
</segment>
<segment>
<pinref part="U1" gate="G$1" pin="V_BACKUP"/>
<wire x1="58.42" y1="104.14" x2="53.34" y2="104.14" width="0.1524" layer="91"/>
<label x="48.26" y="104.14" size="1.778" layer="95"/>
</segment>
<segment>
<pinref part="U1" gate="G$1" pin="TIMEMARK"/>
<wire x1="93.98" y1="106.68" x2="99.06" y2="106.68" width="0.1524" layer="91"/>
<label x="99.06" y="106.68" size="1.778" layer="95"/>
</segment>
</net>
<net name="UART_MC_RX" class="0">
<segment>
<pinref part="U1" gate="G$1" pin="RXD"/>
<wire x1="58.42" y1="109.22" x2="53.34" y2="109.22" width="0.1524" layer="91"/>
<label x="35.56" y="109.22" size="1.778" layer="95"/>
</segment>
</net>
</nets>
</sheet>
</sheets>
</schematic>
</drawing>
</eagle>
