<?xml version="1.0" encoding="utf-8"?>
<!DOCTYPE eagle SYSTEM "eagle.dtd">
<eagle version="9.5.2">
<drawing>
<settings>
<setting alwaysvectorfont="no"/>
<setting verticaltext="up"/>
</settings>
<grid distance="0.1" unitdist="inch" unit="inch" style="lines" multiple="1" display="no" altdistance="0.01" altunitdist="inch" altunit="inch"/>
<layers>
<layer number="1" name="Top" color="4" fill="1" visible="no" active="no"/>
<layer number="16" name="Bottom" color="1" fill="1" visible="no" active="no"/>
<layer number="17" name="Pads" color="2" fill="1" visible="no" active="no"/>
<layer number="18" name="Vias" color="2" fill="1" visible="no" active="no"/>
<layer number="19" name="Unrouted" color="6" fill="1" visible="no" active="no"/>
<layer number="20" name="Dimension" color="15" fill="1" visible="no" active="no"/>
<layer number="21" name="tPlace" color="7" fill="1" visible="no" active="no"/>
<layer number="22" name="bPlace" color="7" fill="1" visible="no" active="no"/>
<layer number="23" name="tOrigins" color="15" fill="1" visible="no" active="no"/>
<layer number="24" name="bOrigins" color="15" fill="1" visible="no" active="no"/>
<layer number="25" name="tNames" color="7" fill="1" visible="no" active="no"/>
<layer number="26" name="bNames" color="7" fill="1" visible="no" active="no"/>
<layer number="27" name="tValues" color="7" fill="1" visible="no" active="no"/>
<layer number="28" name="bValues" color="7" fill="1" visible="no" active="no"/>
<layer number="29" name="tStop" color="7" fill="3" visible="no" active="no"/>
<layer number="30" name="bStop" color="7" fill="6" visible="no" active="no"/>
<layer number="31" name="tCream" color="7" fill="4" visible="no" active="no"/>
<layer number="32" name="bCream" color="7" fill="5" visible="no" active="no"/>
<layer number="33" name="tFinish" color="6" fill="3" visible="no" active="no"/>
<layer number="34" name="bFinish" color="6" fill="6" visible="no" active="no"/>
<layer number="35" name="tGlue" color="7" fill="4" visible="no" active="no"/>
<layer number="36" name="bGlue" color="7" fill="5" visible="no" active="no"/>
<layer number="37" name="tTest" color="7" fill="1" visible="no" active="no"/>
<layer number="38" name="bTest" color="7" fill="1" visible="no" active="no"/>
<layer number="39" name="tKeepout" color="4" fill="11" visible="no" active="no"/>
<layer number="40" name="bKeepout" color="1" fill="11" visible="no" active="no"/>
<layer number="41" name="tRestrict" color="4" fill="10" visible="no" active="no"/>
<layer number="42" name="bRestrict" color="1" fill="10" visible="no" active="no"/>
<layer number="43" name="vRestrict" color="2" fill="10" visible="no" active="no"/>
<layer number="44" name="Drills" color="7" fill="1" visible="no" active="no"/>
<layer number="45" name="Holes" color="7" fill="1" visible="no" active="no"/>
<layer number="46" name="Milling" color="3" fill="1" visible="no" active="no"/>
<layer number="47" name="Measures" color="7" fill="1" visible="no" active="no"/>
<layer number="48" name="Document" color="7" fill="1" visible="no" active="no"/>
<layer number="49" name="Reference" color="7" fill="1" visible="no" active="no"/>
<layer number="51" name="tDocu" color="7" fill="1" visible="no" active="no"/>
<layer number="52" name="bDocu" color="7" fill="1" visible="no" active="no"/>
<layer number="88" name="SimResults" color="9" fill="1" visible="yes" active="yes"/>
<layer number="89" name="SimProbes" color="9" fill="1" visible="yes" active="yes"/>
<layer number="90" name="Modules" color="5" fill="1" visible="yes" active="yes"/>
<layer number="91" name="Nets" color="2" fill="1" visible="yes" active="yes"/>
<layer number="92" name="Busses" color="1" fill="1" visible="yes" active="yes"/>
<layer number="93" name="Pins" color="2" fill="1" visible="no" active="yes"/>
<layer number="94" name="Symbols" color="4" fill="1" visible="yes" active="yes"/>
<layer number="95" name="Names" color="7" fill="1" visible="yes" active="yes"/>
<layer number="96" name="Values" color="7" fill="1" visible="yes" active="yes"/>
<layer number="97" name="Info" color="7" fill="1" visible="yes" active="yes"/>
<layer number="98" name="Guide" color="6" fill="1" visible="yes" active="yes"/>
</layers>
<schematic xreflabel="%F%N/%S.%C%R" xrefpart="/%S.%C%R">
<libraries>
<library name="SamacSys_Parts">
<packages>
<package name="SOIC127P600X175-8N">
<description>&lt;b&gt;D (R-PDSO-G8)&lt;/b&gt;&lt;br&gt;
</description>
<smd name="1" x="-2.712" y="1.905" dx="1.525" dy="0.65" layer="1"/>
<smd name="2" x="-2.712" y="0.635" dx="1.525" dy="0.65" layer="1"/>
<smd name="3" x="-2.712" y="-0.635" dx="1.525" dy="0.65" layer="1"/>
<smd name="4" x="-2.712" y="-1.905" dx="1.525" dy="0.65" layer="1"/>
<smd name="5" x="2.712" y="-1.905" dx="1.525" dy="0.65" layer="1"/>
<smd name="6" x="2.712" y="-0.635" dx="1.525" dy="0.65" layer="1"/>
<smd name="7" x="2.712" y="0.635" dx="1.525" dy="0.65" layer="1"/>
<smd name="8" x="2.712" y="1.905" dx="1.525" dy="0.65" layer="1"/>
<text x="0" y="0" size="1.27" layer="25" align="center">&gt;NAME</text>
<text x="0" y="0" size="1.27" layer="27" align="center">&gt;VALUE</text>
<wire x1="-3.725" y1="2.75" x2="3.725" y2="2.75" width="0.05" layer="51"/>
<wire x1="3.725" y1="2.75" x2="3.725" y2="-2.75" width="0.05" layer="51"/>
<wire x1="3.725" y1="-2.75" x2="-3.725" y2="-2.75" width="0.05" layer="51"/>
<wire x1="-3.725" y1="-2.75" x2="-3.725" y2="2.75" width="0.05" layer="51"/>
<wire x1="-1.95" y1="2.45" x2="1.95" y2="2.45" width="0.1" layer="51"/>
<wire x1="1.95" y1="2.45" x2="1.95" y2="-2.45" width="0.1" layer="51"/>
<wire x1="1.95" y1="-2.45" x2="-1.95" y2="-2.45" width="0.1" layer="51"/>
<wire x1="-1.95" y1="-2.45" x2="-1.95" y2="2.45" width="0.1" layer="51"/>
<wire x1="-1.95" y1="1.18" x2="-0.68" y2="2.45" width="0.1" layer="51"/>
<wire x1="-1.6" y1="2.45" x2="1.6" y2="2.45" width="0.2" layer="21"/>
<wire x1="1.6" y1="2.45" x2="1.6" y2="-2.45" width="0.2" layer="21"/>
<wire x1="1.6" y1="-2.45" x2="-1.6" y2="-2.45" width="0.2" layer="21"/>
<wire x1="-1.6" y1="-2.45" x2="-1.6" y2="2.45" width="0.2" layer="21"/>
<wire x1="-3.475" y1="2.58" x2="-1.95" y2="2.58" width="0.2" layer="21"/>
</package>
</packages>
<symbols>
<symbol name="LMC555CM_NOPB">
<wire x1="5.08" y1="2.54" x2="43.18" y2="2.54" width="0.254" layer="94"/>
<wire x1="43.18" y1="-10.16" x2="43.18" y2="2.54" width="0.254" layer="94"/>
<wire x1="43.18" y1="-10.16" x2="5.08" y2="-10.16" width="0.254" layer="94"/>
<wire x1="5.08" y1="2.54" x2="5.08" y2="-10.16" width="0.254" layer="94"/>
<text x="44.45" y="7.62" size="1.778" layer="95" align="center-left">&gt;NAME</text>
<text x="44.45" y="5.08" size="1.778" layer="96" align="center-left">&gt;VALUE</text>
<pin name="GND" x="0" y="0" length="middle" direction="pwr"/>
<pin name="!TRIGGER" x="0" y="-2.54" length="middle"/>
<pin name="OUTPUT" x="0" y="-5.08" length="middle" direction="out"/>
<pin name="!RESET" x="0" y="-7.62" length="middle"/>
<pin name="V+" x="48.26" y="0" length="middle" rot="R180"/>
<pin name="DISCHARGE" x="48.26" y="-2.54" length="middle" rot="R180"/>
<pin name="THRESHOLD" x="48.26" y="-5.08" length="middle" rot="R180"/>
<pin name="CONTROL_VOLTAGE" x="48.26" y="-7.62" length="middle" rot="R180"/>
</symbol>
</symbols>
<devicesets>
<deviceset name="LMC555CM_NOPB" prefix="IC">
<description>&lt;b&gt;Worlds smallest 555 timer with low power, high accuracy and a Fmax of 3MHz&lt;/b&gt;&lt;p&gt;
Source: &lt;a href="http://www.ti.com/lit/ds/symlink/lmc555.pdf"&gt; Datasheet &lt;/a&gt;</description>
<gates>
<gate name="G$1" symbol="LMC555CM_NOPB" x="0" y="0"/>
</gates>
<devices>
<device name="" package="SOIC127P600X175-8N">
<connects>
<connect gate="G$1" pin="!RESET" pad="4"/>
<connect gate="G$1" pin="!TRIGGER" pad="2"/>
<connect gate="G$1" pin="CONTROL_VOLTAGE" pad="5"/>
<connect gate="G$1" pin="DISCHARGE" pad="7"/>
<connect gate="G$1" pin="GND" pad="1"/>
<connect gate="G$1" pin="OUTPUT" pad="3"/>
<connect gate="G$1" pin="THRESHOLD" pad="6"/>
<connect gate="G$1" pin="V+" pad="8"/>
</connects>
<technologies>
<technology name="">
<attribute name="DESCRIPTION" value="Worlds smallest 555 timer with low power, high accuracy and a Fmax of 3MHz" constant="no"/>
<attribute name="HEIGHT" value="1.75mm" constant="no"/>
<attribute name="MANUFACTURER_NAME" value="Texas Instruments" constant="no"/>
<attribute name="MANUFACTURER_PART_NUMBER" value="LMC555CM/NOPB" constant="no"/>
<attribute name="MOUSER_PART_NUMBER" value="926-LMC555CM/NOPB" constant="no"/>
<attribute name="MOUSER_PRICE-STOCK" value="https://www.mouser.com/Search/Refine.aspx?Keyword=926-LMC555CM%2FNOPB" constant="no"/>
</technology>
</technologies>
</device>
</devices>
</deviceset>
</devicesets>
</library>
</libraries>
<attributes>
</attributes>
<variantdefs>
</variantdefs>
<classes>
<class number="0" name="default" width="0" drill="0">
</class>
</classes>
<parts>
<part name="IC1" library="SamacSys_Parts" deviceset="LMC555CM_NOPB" device=""/>
</parts>
<sheets>
<sheet>
<plain>
</plain>
<instances>
<instance part="IC1" gate="G$1" x="-5.08" y="10.16" smashed="yes">
<attribute name="VALUE" x="8.89" y="15.24" size="1.778" layer="96" align="center-left"/>
</instance>
</instances>
<busses>
</busses>
<nets>
<net name="GND" class="0">
<segment>
<pinref part="IC1" gate="G$1" pin="GND"/>
<wire x1="-5.08" y1="10.16" x2="-12.7" y2="10.16" width="0.1524" layer="91"/>
<label x="-12.7" y="10.16" size="1.778" layer="95"/>
</segment>
</net>
<net name="VBATT_3V" class="0">
<segment>
<pinref part="IC1" gate="G$1" pin="V+"/>
<wire x1="43.18" y1="10.16" x2="50.8" y2="10.16" width="0.1524" layer="91"/>
<label x="45.72" y="10.16" size="1.778" layer="95"/>
</segment>
</net>
</nets>
</sheet>
</sheets>
</schematic>
</drawing>
</eagle>
