<?xml version="1.0" encoding="utf-8"?>
<!DOCTYPE eagle SYSTEM "eagle.dtd">
<eagle version="9.6.2">
<drawing>
<settings>
<setting alwaysvectorfont="no"/>
<setting verticaltext="up"/>
</settings>
<grid distance="50" unitdist="mil" unit="mil" style="lines" multiple="1" display="no" altdistance="5" altunitdist="mil" altunit="mil"/>
<layers>
<layer number="1" name="Top" color="4" fill="1" visible="yes" active="yes"/>
<layer number="2" name="Route2" color="16" fill="1" visible="no" active="no"/>
<layer number="3" name="Route3" color="17" fill="1" visible="no" active="no"/>
<layer number="4" name="Route4" color="18" fill="1" visible="no" active="no"/>
<layer number="5" name="Route5" color="19" fill="1" visible="no" active="no"/>
<layer number="6" name="Route6" color="25" fill="1" visible="no" active="no"/>
<layer number="7" name="Route7" color="26" fill="1" visible="no" active="no"/>
<layer number="8" name="Route8" color="27" fill="1" visible="no" active="no"/>
<layer number="9" name="Route9" color="28" fill="1" visible="no" active="no"/>
<layer number="10" name="Route10" color="29" fill="1" visible="no" active="no"/>
<layer number="11" name="Route11" color="30" fill="1" visible="no" active="no"/>
<layer number="12" name="Route12" color="20" fill="1" visible="no" active="no"/>
<layer number="13" name="Route13" color="21" fill="1" visible="no" active="no"/>
<layer number="14" name="Route14" color="22" fill="1" visible="no" active="no"/>
<layer number="15" name="Route15" color="23" fill="1" visible="no" active="no"/>
<layer number="16" name="Bottom" color="1" fill="1" visible="yes" active="yes"/>
<layer number="17" name="Pads" color="2" fill="1" visible="yes" active="yes"/>
<layer number="18" name="Vias" color="2" fill="1" visible="yes" active="yes"/>
<layer number="19" name="Unrouted" color="6" fill="1" visible="yes" active="yes"/>
<layer number="20" name="Dimension" color="24" fill="1" visible="yes" active="yes"/>
<layer number="21" name="tPlace" color="7" fill="1" visible="yes" active="yes"/>
<layer number="22" name="bPlace" color="7" fill="1" visible="yes" active="yes"/>
<layer number="23" name="tOrigins" color="15" fill="1" visible="yes" active="yes"/>
<layer number="24" name="bOrigins" color="15" fill="1" visible="yes" active="yes"/>
<layer number="25" name="tNames" color="7" fill="1" visible="yes" active="yes"/>
<layer number="26" name="bNames" color="7" fill="1" visible="yes" active="yes"/>
<layer number="27" name="tValues" color="7" fill="1" visible="yes" active="yes"/>
<layer number="28" name="bValues" color="7" fill="1" visible="yes" active="yes"/>
<layer number="29" name="tStop" color="7" fill="3" visible="no" active="yes"/>
<layer number="30" name="bStop" color="7" fill="6" visible="no" active="yes"/>
<layer number="31" name="tCream" color="7" fill="4" visible="no" active="yes"/>
<layer number="32" name="bCream" color="7" fill="5" visible="no" active="yes"/>
<layer number="33" name="tFinish" color="6" fill="3" visible="no" active="yes"/>
<layer number="34" name="bFinish" color="6" fill="6" visible="no" active="yes"/>
<layer number="35" name="tGlue" color="7" fill="4" visible="no" active="yes"/>
<layer number="36" name="bGlue" color="7" fill="5" visible="no" active="yes"/>
<layer number="37" name="tTest" color="7" fill="1" visible="no" active="yes"/>
<layer number="38" name="bTest" color="7" fill="1" visible="no" active="yes"/>
<layer number="39" name="tKeepout" color="4" fill="11" visible="yes" active="yes"/>
<layer number="40" name="bKeepout" color="1" fill="11" visible="yes" active="yes"/>
<layer number="41" name="tRestrict" color="4" fill="10" visible="yes" active="yes"/>
<layer number="42" name="bRestrict" color="1" fill="10" visible="yes" active="yes"/>
<layer number="43" name="vRestrict" color="2" fill="10" visible="yes" active="yes"/>
<layer number="44" name="Drills" color="7" fill="1" visible="no" active="yes"/>
<layer number="45" name="Holes" color="7" fill="1" visible="no" active="yes"/>
<layer number="46" name="Milling" color="3" fill="1" visible="no" active="yes"/>
<layer number="47" name="Measures" color="7" fill="1" visible="no" active="yes"/>
<layer number="48" name="Document" color="7" fill="1" visible="yes" active="yes"/>
<layer number="49" name="Reference" color="7" fill="1" visible="yes" active="yes"/>
<layer number="50" name="dxf" color="7" fill="1" visible="no" active="no"/>
<layer number="51" name="tDocu" color="7" fill="1" visible="yes" active="yes"/>
<layer number="52" name="bDocu" color="7" fill="1" visible="yes" active="yes"/>
<layer number="53" name="tGND_GNDA" color="7" fill="1" visible="no" active="no"/>
<layer number="54" name="bGND_GNDA" color="7" fill="1" visible="no" active="no"/>
<layer number="56" name="wert" color="7" fill="1" visible="no" active="no"/>
<layer number="57" name="tCAD" color="7" fill="1" visible="no" active="no"/>
<layer number="59" name="tCarbon" color="7" fill="1" visible="no" active="no"/>
<layer number="60" name="bCarbon" color="7" fill="1" visible="no" active="no"/>
<layer number="88" name="SimResults" color="9" fill="1" visible="no" active="no"/>
<layer number="89" name="SimProbes" color="9" fill="1" visible="no" active="no"/>
<layer number="90" name="Modules" color="5" fill="1" visible="no" active="no"/>
<layer number="91" name="Nets" color="2" fill="1" visible="no" active="no"/>
<layer number="92" name="Busses" color="1" fill="1" visible="no" active="no"/>
<layer number="93" name="Pins" color="2" fill="1" visible="no" active="no"/>
<layer number="94" name="Symbols" color="4" fill="1" visible="no" active="no"/>
<layer number="95" name="Names" color="7" fill="1" visible="no" active="no"/>
<layer number="96" name="Values" color="7" fill="1" visible="no" active="no"/>
<layer number="97" name="Info" color="7" fill="1" visible="no" active="no"/>
<layer number="98" name="Guide" color="6" fill="1" visible="no" active="no"/>
<layer number="99" name="SpiceOrder" color="5" fill="1" visible="no" active="no"/>
<layer number="100" name="Muster" color="7" fill="1" visible="yes" active="yes"/>
<layer number="101" name="Patch_Top" color="7" fill="1" visible="yes" active="yes"/>
<layer number="102" name="Vscore" color="7" fill="1" visible="yes" active="yes"/>
<layer number="103" name="fp3" color="7" fill="1" visible="yes" active="yes"/>
<layer number="104" name="Name" color="7" fill="1" visible="yes" active="yes"/>
<layer number="105" name="Beschreib" color="7" fill="1" visible="yes" active="yes"/>
<layer number="106" name="BGA-Top" color="7" fill="1" visible="yes" active="yes"/>
<layer number="107" name="BD-Top" color="7" fill="1" visible="yes" active="yes"/>
<layer number="108" name="fp8" color="7" fill="1" visible="yes" active="yes"/>
<layer number="109" name="fp9" color="7" fill="1" visible="yes" active="yes"/>
<layer number="110" name="fp0" color="7" fill="1" visible="yes" active="yes"/>
<layer number="111" name="LPC17xx" color="7" fill="1" visible="yes" active="yes"/>
<layer number="112" name="tSilk" color="7" fill="1" visible="yes" active="yes"/>
<layer number="113" name="IDFDebug" color="7" fill="1" visible="yes" active="yes"/>
<layer number="114" name="GND" color="7" fill="1" visible="yes" active="yes"/>
<layer number="115" name="ReferenceISLANDS" color="7" fill="1" visible="yes" active="yes"/>
<layer number="116" name="Patch_BOT" color="7" fill="1" visible="yes" active="yes"/>
<layer number="117" name="BACKMAAT1" color="7" fill="1" visible="yes" active="yes"/>
<layer number="118" name="Rect_Pads" color="7" fill="1" visible="yes" active="yes"/>
<layer number="119" name="KAP_TEKEN" color="7" fill="1" visible="yes" active="yes"/>
<layer number="120" name="KAP_MAAT1" color="7" fill="1" visible="yes" active="yes"/>
<layer number="121" name="_tsilk" color="7" fill="1" visible="yes" active="yes"/>
<layer number="122" name="_bsilk" color="7" fill="1" visible="yes" active="yes"/>
<layer number="123" name="tTestmark" color="7" fill="1" visible="yes" active="yes"/>
<layer number="124" name="bTestmark" color="7" fill="1" visible="yes" active="yes"/>
<layer number="125" name="_tNames" color="7" fill="1" visible="yes" active="yes"/>
<layer number="126" name="_bNames" color="7" fill="1" visible="yes" active="yes"/>
<layer number="127" name="_tValues" color="7" fill="1" visible="yes" active="yes"/>
<layer number="128" name="_bValues" color="7" fill="1" visible="yes" active="yes"/>
<layer number="129" name="Mask" color="7" fill="1" visible="yes" active="yes"/>
<layer number="130" name="SMDSTROOK" color="7" fill="1" visible="yes" active="yes"/>
<layer number="131" name="tAdjust" color="7" fill="1" visible="yes" active="yes"/>
<layer number="132" name="bAdjust" color="7" fill="1" visible="yes" active="yes"/>
<layer number="133" name="bottom_silk" color="7" fill="1" visible="yes" active="yes"/>
<layer number="134" name="silk_top" color="7" fill="1" visible="yes" active="yes"/>
<layer number="135" name="silk_bottom" color="7" fill="1" visible="yes" active="yes"/>
<layer number="136" name="silktop" color="7" fill="1" visible="yes" active="yes"/>
<layer number="137" name="silkbottom" color="7" fill="1" visible="yes" active="yes"/>
<layer number="144" name="Drill_legend" color="7" fill="1" visible="yes" active="yes"/>
<layer number="145" name="DrillLegend_01-16" color="7" fill="1" visible="yes" active="yes"/>
<layer number="146" name="DrillLegend_01-20" color="7" fill="1" visible="yes" active="yes"/>
<layer number="150" name="Notes" color="7" fill="1" visible="yes" active="yes"/>
<layer number="151" name="HeatSink" color="7" fill="1" visible="yes" active="yes"/>
<layer number="152" name="_bDocu" color="7" fill="1" visible="yes" active="yes"/>
<layer number="153" name="FabDoc1" color="7" fill="1" visible="yes" active="yes"/>
<layer number="154" name="FabDoc2" color="7" fill="1" visible="yes" active="yes"/>
<layer number="155" name="FabDoc3" color="7" fill="1" visible="yes" active="yes"/>
<layer number="166" name="AntennaArea" color="7" fill="1" visible="yes" active="yes"/>
<layer number="168" name="4mmHeightArea" color="7" fill="1" visible="yes" active="yes"/>
<layer number="199" name="Contour" color="7" fill="1" visible="yes" active="yes"/>
<layer number="200" name="200bmp" color="7" fill="1" visible="yes" active="yes"/>
<layer number="201" name="201bmp" color="7" fill="1" visible="yes" active="yes"/>
<layer number="202" name="202bmp" color="7" fill="1" visible="yes" active="yes"/>
<layer number="203" name="203bmp" color="7" fill="1" visible="yes" active="yes"/>
<layer number="204" name="204bmp" color="7" fill="1" visible="yes" active="yes"/>
<layer number="205" name="205bmp" color="7" fill="1" visible="yes" active="yes"/>
<layer number="206" name="206bmp" color="7" fill="1" visible="yes" active="yes"/>
<layer number="207" name="207bmp" color="7" fill="1" visible="yes" active="yes"/>
<layer number="208" name="208bmp" color="7" fill="1" visible="yes" active="yes"/>
<layer number="209" name="209bmp" color="7" fill="1" visible="yes" active="yes"/>
<layer number="210" name="210bmp" color="7" fill="1" visible="yes" active="yes"/>
<layer number="211" name="211bmp" color="7" fill="1" visible="yes" active="yes"/>
<layer number="212" name="212bmp" color="7" fill="1" visible="yes" active="yes"/>
<layer number="213" name="213bmp" color="7" fill="1" visible="yes" active="yes"/>
<layer number="214" name="214bmp" color="7" fill="1" visible="yes" active="yes"/>
<layer number="215" name="215bmp" color="7" fill="1" visible="yes" active="yes"/>
<layer number="216" name="216bmp" color="7" fill="1" visible="yes" active="yes"/>
<layer number="217" name="217bmp" color="7" fill="1" visible="yes" active="yes"/>
<layer number="218" name="218bmp" color="7" fill="1" visible="yes" active="yes"/>
<layer number="219" name="219bmp" color="7" fill="1" visible="yes" active="yes"/>
<layer number="220" name="220bmp" color="7" fill="1" visible="yes" active="yes"/>
<layer number="221" name="221bmp" color="7" fill="1" visible="yes" active="yes"/>
<layer number="222" name="222bmp" color="7" fill="1" visible="yes" active="yes"/>
<layer number="223" name="223bmp" color="7" fill="1" visible="yes" active="yes"/>
<layer number="224" name="224bmp" color="7" fill="1" visible="yes" active="yes"/>
<layer number="225" name="225bmp" color="7" fill="1" visible="yes" active="yes"/>
<layer number="226" name="226bmp" color="7" fill="1" visible="yes" active="yes"/>
<layer number="227" name="227bmp" color="7" fill="1" visible="yes" active="yes"/>
<layer number="228" name="228bmp" color="7" fill="1" visible="yes" active="yes"/>
<layer number="229" name="229bmp" color="7" fill="1" visible="yes" active="yes"/>
<layer number="230" name="230bmp" color="7" fill="1" visible="yes" active="yes"/>
<layer number="231" name="231bmp" color="7" fill="1" visible="yes" active="yes"/>
<layer number="232" name="Eagle3D_PG2" color="7" fill="1" visible="yes" active="yes"/>
<layer number="233" name="Eagle3D_PG3" color="7" fill="1" visible="yes" active="yes"/>
<layer number="248" name="Housing" color="7" fill="1" visible="yes" active="yes"/>
<layer number="249" name="Edge" color="7" fill="1" visible="yes" active="yes"/>
<layer number="250" name="Descript" color="7" fill="1" visible="yes" active="yes"/>
<layer number="251" name="SMDround" color="7" fill="1" visible="yes" active="yes"/>
<layer number="254" name="cooling" color="7" fill="1" visible="yes" active="yes"/>
<layer number="255" name="routoute" color="7" fill="1" visible="yes" active="yes"/>
</layers>
<board>
<plain>
<wire x1="0" y1="0" x2="68.56" y2="0" width="0" layer="20"/>
<wire x1="68.56" y1="0" x2="68.56" y2="37.77" width="0" layer="20"/>
<wire x1="68.56" y1="37.77" x2="0" y2="37.77" width="0" layer="20"/>
<wire x1="0" y1="37.77" x2="0" y2="0" width="0" layer="20"/>
</plain>
<libraries>
<library name="SamacSys_Parts" urn="urn:adsk.eagle:library:19142403">
<description>&lt;b&gt;Lithium Batteries and NC Accus&lt;/b&gt;&lt;p&gt;
&lt;author&gt;Created by librarian@cadsoft.de&lt;/author&gt;</description>
<packages>
<package name="SOP100P1210X475-24N" library_version="7">
<description>&lt;b&gt;SOIC-24&lt;/b&gt;&lt;br&gt;
</description>
<smd name="1" x="-5.425" y="5.5" dx="2.2" dy="0.75" layer="1"/>
<smd name="2" x="-5.425" y="4.5" dx="2.2" dy="0.75" layer="1"/>
<smd name="3" x="-5.425" y="3.5" dx="2.2" dy="0.75" layer="1"/>
<smd name="4" x="-5.425" y="2.5" dx="2.2" dy="0.75" layer="1"/>
<smd name="5" x="-5.425" y="1.5" dx="2.2" dy="0.75" layer="1"/>
<smd name="6" x="-5.425" y="0.5" dx="2.2" dy="0.75" layer="1"/>
<smd name="7" x="-5.425" y="-0.5" dx="2.2" dy="0.75" layer="1"/>
<smd name="8" x="-5.425" y="-1.5" dx="2.2" dy="0.75" layer="1"/>
<smd name="9" x="-5.425" y="-2.5" dx="2.2" dy="0.75" layer="1"/>
<smd name="10" x="-5.425" y="-3.5" dx="2.2" dy="0.75" layer="1"/>
<smd name="11" x="-5.425" y="-4.5" dx="2.2" dy="0.75" layer="1"/>
<smd name="12" x="-5.425" y="-5.5" dx="2.2" dy="0.75" layer="1"/>
<smd name="13" x="5.425" y="-5.5" dx="2.2" dy="0.75" layer="1"/>
<smd name="14" x="5.425" y="-4.5" dx="2.2" dy="0.75" layer="1"/>
<smd name="15" x="5.425" y="-3.5" dx="2.2" dy="0.75" layer="1"/>
<smd name="16" x="5.425" y="-2.5" dx="2.2" dy="0.75" layer="1"/>
<smd name="17" x="5.425" y="-1.5" dx="2.2" dy="0.75" layer="1"/>
<smd name="18" x="5.425" y="-0.5" dx="2.2" dy="0.75" layer="1"/>
<smd name="19" x="5.425" y="0.5" dx="2.2" dy="0.75" layer="1"/>
<smd name="20" x="5.425" y="1.5" dx="2.2" dy="0.75" layer="1"/>
<smd name="21" x="5.425" y="2.5" dx="2.2" dy="0.75" layer="1"/>
<smd name="22" x="5.425" y="3.5" dx="2.2" dy="0.75" layer="1"/>
<smd name="23" x="5.425" y="4.5" dx="2.2" dy="0.75" layer="1"/>
<smd name="24" x="5.425" y="5.5" dx="2.2" dy="0.75" layer="1"/>
<text x="0" y="0" size="1.27" layer="25" align="center">&gt;NAME</text>
<text x="0" y="0" size="1.27" layer="27" align="center">&gt;VALUE</text>
<wire x1="-6.775" y1="7.8" x2="6.775" y2="7.8" width="0.05" layer="51"/>
<wire x1="6.775" y1="7.8" x2="6.775" y2="-7.8" width="0.05" layer="51"/>
<wire x1="6.775" y1="-7.8" x2="-6.775" y2="-7.8" width="0.05" layer="51"/>
<wire x1="-6.775" y1="-7.8" x2="-6.775" y2="7.8" width="0.05" layer="51"/>
<wire x1="-3.55" y1="7.5" x2="3.55" y2="7.5" width="0.1" layer="51"/>
<wire x1="3.55" y1="7.5" x2="3.55" y2="-7.5" width="0.1" layer="51"/>
<wire x1="3.55" y1="-7.5" x2="-3.55" y2="-7.5" width="0.1" layer="51"/>
<wire x1="-3.55" y1="-7.5" x2="-3.55" y2="7.5" width="0.1" layer="51"/>
<wire x1="-3.55" y1="6.5" x2="-2.55" y2="7.5" width="0.1" layer="51"/>
<wire x1="-3.975" y1="7.5" x2="3.975" y2="7.5" width="0.2" layer="21"/>
<wire x1="3.975" y1="7.5" x2="3.975" y2="-7.5" width="0.2" layer="21"/>
<wire x1="3.975" y1="-7.5" x2="-3.975" y2="-7.5" width="0.2" layer="21"/>
<wire x1="-3.975" y1="-7.5" x2="-3.975" y2="7.5" width="0.2" layer="21"/>
<wire x1="-6.525" y1="6.225" x2="-4.325" y2="6.225" width="0.2" layer="21"/>
</package>
</packages>
</library>
<library name="adafruit" urn="urn:adsk.eagle:library:420">
<packages>
<package name="1X10-BIG" urn="urn:adsk.eagle:footprint:6240010/1" library_version="2">
<wire x1="-12.7" y1="1.27" x2="12.7" y2="1.27" width="0.127" layer="21"/>
<wire x1="12.7" y1="1.27" x2="12.7" y2="-1.27" width="0.127" layer="21"/>
<wire x1="12.7" y1="-1.27" x2="-12.7" y2="-1.27" width="0.127" layer="21"/>
<wire x1="-12.7" y1="-1.27" x2="-12.7" y2="1.27" width="0.127" layer="21"/>
<pad name="1" x="-11.43" y="0" drill="1.016" diameter="1.778" shape="octagon" rot="R90"/>
<pad name="2" x="-8.89" y="0" drill="1.016" diameter="1.778" shape="octagon" rot="R90"/>
<pad name="3" x="-6.35" y="0" drill="1.016" diameter="1.778" shape="octagon" rot="R90"/>
<pad name="4" x="-3.81" y="0" drill="1.016" diameter="1.778" shape="octagon" rot="R90"/>
<pad name="5" x="-1.27" y="0" drill="1.016" diameter="1.778" shape="octagon" rot="R90"/>
<pad name="6" x="1.27" y="0" drill="1.016" diameter="1.778" shape="octagon" rot="R90"/>
<pad name="7" x="3.81" y="0" drill="1.016" diameter="1.778" shape="octagon" rot="R90"/>
<pad name="8" x="6.35" y="0" drill="1.016" diameter="1.778" shape="octagon" rot="R90"/>
<pad name="9" x="8.89" y="0" drill="1.016" diameter="1.778" shape="octagon" rot="R90"/>
<pad name="10" x="11.43" y="0" drill="1.016" diameter="1.778" shape="octagon" rot="R90"/>
<text x="-11.5062" y="1.8288" size="1.27" layer="25" ratio="10">&gt;NAME</text>
<text x="-11.43" y="-3.175" size="1.27" layer="27">&gt;VALUE</text>
<rectangle x1="3.556" y1="-0.254" x2="4.064" y2="0.254" layer="51"/>
<rectangle x1="1.016" y1="-0.254" x2="1.524" y2="0.254" layer="51"/>
<rectangle x1="-1.524" y1="-0.254" x2="-1.016" y2="0.254" layer="51"/>
<rectangle x1="-4.064" y1="-0.254" x2="-3.556" y2="0.254" layer="51"/>
<rectangle x1="-6.604" y1="-0.254" x2="-6.096" y2="0.254" layer="51"/>
<rectangle x1="-9.144" y1="-0.254" x2="-8.636" y2="0.254" layer="51"/>
<rectangle x1="-11.684" y1="-0.254" x2="-11.176" y2="0.254" layer="51"/>
<rectangle x1="6.096" y1="-0.254" x2="6.604" y2="0.254" layer="51"/>
<rectangle x1="8.636" y1="-0.254" x2="9.144" y2="0.254" layer="51"/>
<rectangle x1="11.176" y1="-0.254" x2="11.684" y2="0.254" layer="51"/>
</package>
</packages>
<packages3d>
<package3d name="1X10-BIG" urn="urn:adsk.eagle:package:6240656/1" type="box" library_version="2">
<packageinstances>
<packageinstance name="1X10-BIG"/>
</packageinstances>
</package3d>
</packages3d>
</library>
<library name="SamacSys_Parts">
<packages>
<package name="21-0140L_T1655-2">
<smd name="1" x="-2.4511" y="1.2" dx="0.3556" dy="0.8128" layer="1" rot="R270"/>
<smd name="2" x="-2.4511" y="0.4" dx="0.3556" dy="0.8128" layer="1" rot="R270"/>
<smd name="3" x="-2.4511" y="-0.4" dx="0.3556" dy="0.8128" layer="1" rot="R270"/>
<smd name="4" x="-2.4511" y="-1.2" dx="0.3556" dy="0.8128" layer="1" rot="R270"/>
<smd name="5" x="-1.2" y="-2.4511" dx="0.3556" dy="0.8128" layer="1" rot="R180"/>
<smd name="6" x="-0.4" y="-2.4511" dx="0.3556" dy="0.8128" layer="1" rot="R180"/>
<smd name="7" x="0.4" y="-2.4511" dx="0.3556" dy="0.8128" layer="1" rot="R180"/>
<smd name="8" x="1.2" y="-2.4511" dx="0.3556" dy="0.8128" layer="1" rot="R180"/>
<smd name="9" x="2.4511" y="-1.2" dx="0.3556" dy="0.8128" layer="1" rot="R270"/>
<smd name="10" x="2.4511" y="-0.4" dx="0.3556" dy="0.8128" layer="1" rot="R270"/>
<smd name="11" x="2.4511" y="0.4" dx="0.3556" dy="0.8128" layer="1" rot="R270"/>
<smd name="12" x="2.4511" y="1.2" dx="0.3556" dy="0.8128" layer="1" rot="R270"/>
<smd name="13" x="1.2" y="2.4511" dx="0.3556" dy="0.8128" layer="1" rot="R180"/>
<smd name="14" x="0.4" y="2.4511" dx="0.3556" dy="0.8128" layer="1" rot="R180"/>
<smd name="15" x="-0.4" y="2.4511" dx="0.3556" dy="0.8128" layer="1" rot="R180"/>
<smd name="16" x="-1.2" y="2.4511" dx="0.3556" dy="0.8128" layer="1" rot="R180"/>
<smd name="17" x="0" y="0" dx="3.2004" dy="3.2004" layer="1" cream="no"/>
<wire x1="-2.6924" y1="-2.6924" x2="-1.7018" y2="-2.6924" width="0.1524" layer="21"/>
<wire x1="2.6924" y1="-2.6924" x2="2.6924" y2="-1.7018" width="0.1524" layer="21"/>
<wire x1="2.6924" y1="2.6924" x2="1.7018" y2="2.6924" width="0.1524" layer="21"/>
<wire x1="-2.6924" y1="2.6924" x2="-2.6924" y2="1.7018" width="0.1524" layer="21"/>
<wire x1="-2.6924" y1="-1.7018" x2="-2.6924" y2="-2.6924" width="0.1524" layer="21"/>
<wire x1="1.7018" y1="-2.6924" x2="2.6924" y2="-2.6924" width="0.1524" layer="21"/>
<wire x1="2.6924" y1="1.7018" x2="2.6924" y2="2.6924" width="0.1524" layer="21"/>
<wire x1="-1.7018" y1="2.6924" x2="-2.6924" y2="2.6924" width="0.1524" layer="21"/>
<polygon width="0.0254" layer="21">
<vertex x="3.3655" y="-0.2095"/>
<vertex x="3.3655" y="-0.5905"/>
<vertex x="3.1115" y="-0.5905"/>
<vertex x="3.1115" y="-0.2095"/>
</polygon>
<text x="-4.064" y="0.9652" size="1.27" layer="21" ratio="6" rot="SR0">*</text>
<text x="-1.7272" y="-0.635" size="1.27" layer="21" ratio="6" rot="SR0">&gt;Value</text>
<polygon width="0.0254" layer="31">
<vertex x="-1.5002" y="1.5002"/>
<vertex x="-1.5002" y="0.1"/>
<vertex x="-0.1" y="0.1"/>
<vertex x="-0.1" y="1.5002"/>
</polygon>
<polygon width="0.0254" layer="31">
<vertex x="-1.5002" y="-0.1"/>
<vertex x="-1.5002" y="-1.5002"/>
<vertex x="-0.1" y="-1.5002"/>
<vertex x="-0.1" y="-0.1"/>
</polygon>
<polygon width="0.0254" layer="31">
<vertex x="0.1" y="1.5002"/>
<vertex x="0.1" y="0.1"/>
<vertex x="1.5002" y="0.1"/>
<vertex x="1.5002" y="1.5002"/>
</polygon>
<polygon width="0.0254" layer="31">
<vertex x="0.1" y="-0.1"/>
<vertex x="0.1" y="-1.5002"/>
<vertex x="1.5002" y="-1.5002"/>
<vertex x="1.5002" y="-0.1"/>
</polygon>
<wire x1="-2.54" y1="1.27" x2="-1.27" y2="2.54" width="0.1524" layer="51"/>
<wire x1="1.3716" y1="2.54" x2="1.016" y2="2.54" width="0.1524" layer="51"/>
<wire x1="0.5842" y1="2.54" x2="0.2286" y2="2.54" width="0.1524" layer="51"/>
<wire x1="-0.2286" y1="2.54" x2="-0.5842" y2="2.54" width="0.1524" layer="51"/>
<wire x1="-1.016" y1="2.54" x2="-1.3716" y2="2.54" width="0.1524" layer="51"/>
<wire x1="-2.54" y1="1.3716" x2="-2.54" y2="1.016" width="0.1524" layer="51"/>
<wire x1="-2.54" y1="0.5842" x2="-2.54" y2="0.2286" width="0.1524" layer="51"/>
<wire x1="-2.54" y1="-0.2286" x2="-2.54" y2="-0.5842" width="0.1524" layer="51"/>
<wire x1="-2.54" y1="-1.016" x2="-2.54" y2="-1.3716" width="0.1524" layer="51"/>
<wire x1="-1.3716" y1="-2.54" x2="-1.016" y2="-2.54" width="0.1524" layer="51"/>
<wire x1="-0.5842" y1="-2.54" x2="-0.2286" y2="-2.54" width="0.1524" layer="51"/>
<wire x1="0.2286" y1="-2.54" x2="0.5842" y2="-2.54" width="0.1524" layer="51"/>
<wire x1="1.016" y1="-2.54" x2="1.3716" y2="-2.54" width="0.1524" layer="51"/>
<wire x1="2.54" y1="-1.3716" x2="2.54" y2="-1.016" width="0.1524" layer="51"/>
<wire x1="2.54" y1="-0.5842" x2="2.54" y2="-0.2286" width="0.1524" layer="51"/>
<wire x1="2.54" y1="0.2286" x2="2.54" y2="0.5842" width="0.1524" layer="51"/>
<wire x1="2.54" y1="1.016" x2="2.54" y2="1.3716" width="0.1524" layer="51"/>
<wire x1="-2.54" y1="-2.54" x2="2.54" y2="-2.54" width="0.1524" layer="51"/>
<wire x1="2.54" y1="-2.54" x2="2.54" y2="2.54" width="0.1524" layer="51"/>
<wire x1="2.54" y1="2.54" x2="-2.54" y2="2.54" width="0.1524" layer="51"/>
<wire x1="-2.54" y1="2.54" x2="-2.54" y2="-2.54" width="0.1524" layer="51"/>
<text x="-2.6162" y="0.9652" size="1.27" layer="51" ratio="6" rot="SR0">*</text>
<text x="-3.2766" y="-0.635" size="1.27" layer="25" ratio="6" rot="SR0">&gt;Name</text>
</package>
</packages>
</library>
</libraries>
<attributes>
</attributes>
<variantdefs>
</variantdefs>
<classes>
<class number="0" name="default" width="0" drill="0">
</class>
</classes>
<designrules name="default">
<description language="de">&lt;b&gt;EAGLE Design Rules&lt;/b&gt;
&lt;p&gt;
Die Standard-Design-Rules sind so gewählt, dass sie für 
die meisten Anwendungen passen. Sollte ihre Platine 
besondere Anforderungen haben, treffen Sie die erforderlichen
Einstellungen hier und speichern die Design Rules unter 
einem neuen Namen ab.</description>
<description language="en">&lt;b&gt;EAGLE Design Rules&lt;/b&gt;
&lt;p&gt;
The default Design Rules have been set to cover
a wide range of applications. Your particular design
may have different requirements, so please make the
necessary adjustments and save your customized
design rules under a new name.</description>
<param name="layerSetup" value="(1*16)"/>
<param name="mtCopper" value="0.035mm 0.035mm 0.035mm 0.035mm 0.035mm 0.035mm 0.035mm 0.035mm 0.035mm 0.035mm 0.035mm 0.035mm 0.035mm 0.035mm 0.035mm 0.035mm"/>
<param name="mtIsolate" value="1.5mm 0.15mm 0.2mm 0.15mm 0.2mm 0.15mm 0.2mm 0.15mm 0.2mm 0.15mm 0.2mm 0.15mm 0.2mm 0.15mm 0.2mm"/>
<param name="mdWireWire" value="6mil"/>
<param name="mdWirePad" value="6mil"/>
<param name="mdWireVia" value="6mil"/>
<param name="mdPadPad" value="6mil"/>
<param name="mdPadVia" value="6mil"/>
<param name="mdViaVia" value="6mil"/>
<param name="mdSmdPad" value="6mil"/>
<param name="mdSmdVia" value="6mil"/>
<param name="mdSmdSmd" value="6mil"/>
<param name="mdViaViaSameLayer" value="6mil"/>
<param name="mnLayersViaInSmd" value="2"/>
<param name="mdCopperDimension" value="40mil"/>
<param name="mdDrill" value="6mil"/>
<param name="mdSmdStop" value="0mil"/>
<param name="msWidth" value="6mil"/>
<param name="msDrill" value="0.35mm"/>
<param name="msMicroVia" value="9.99mm"/>
<param name="msBlindViaRatio" value="0.5"/>
<param name="rvPadTop" value="0.25"/>
<param name="rvPadInner" value="0.25"/>
<param name="rvPadBottom" value="0.25"/>
<param name="rvViaOuter" value="0.25"/>
<param name="rvViaInner" value="0.25"/>
<param name="rvMicroViaOuter" value="0.25"/>
<param name="rvMicroViaInner" value="0.25"/>
<param name="rlMinPadTop" value="10mil"/>
<param name="rlMaxPadTop" value="20mil"/>
<param name="rlMinPadInner" value="10mil"/>
<param name="rlMaxPadInner" value="20mil"/>
<param name="rlMinPadBottom" value="10mil"/>
<param name="rlMaxPadBottom" value="20mil"/>
<param name="rlMinViaOuter" value="8mil"/>
<param name="rlMaxViaOuter" value="20mil"/>
<param name="rlMinViaInner" value="8mil"/>
<param name="rlMaxViaInner" value="20mil"/>
<param name="rlMinMicroViaOuter" value="4mil"/>
<param name="rlMaxMicroViaOuter" value="20mil"/>
<param name="rlMinMicroViaInner" value="4mil"/>
<param name="rlMaxMicroViaInner" value="20mil"/>
<param name="psTop" value="-1"/>
<param name="psBottom" value="-1"/>
<param name="psFirst" value="-1"/>
<param name="psElongationLong" value="100"/>
<param name="psElongationOffset" value="100"/>
<param name="mvStopFrame" value="1"/>
<param name="mvCreamFrame" value="0"/>
<param name="mlMinStopFrame" value="4mil"/>
<param name="mlMaxStopFrame" value="4mil"/>
<param name="mlMinCreamFrame" value="0mil"/>
<param name="mlMaxCreamFrame" value="0mil"/>
<param name="mlViaStopLimit" value="0mil"/>
<param name="srRoundness" value="0"/>
<param name="srMinRoundness" value="0mil"/>
<param name="srMaxRoundness" value="0mil"/>
<param name="slThermalIsolate" value="10mil"/>
<param name="slThermalsForVias" value="0"/>
<param name="dpMaxLengthDifference" value="10mm"/>
<param name="dpGapFactor" value="2.5"/>
<param name="checkAngle" value="0"/>
<param name="checkFont" value="1"/>
<param name="checkRestrict" value="1"/>
<param name="checkStop" value="0"/>
<param name="checkValues" value="0"/>
<param name="checkNames" value="1"/>
<param name="checkWireStubs" value="1"/>
<param name="checkPolygonWidth" value="0"/>
<param name="useDiameter" value="13"/>
<param name="maxErrors" value="50"/>
</designrules>
<autorouter>
<pass name="Default">
<param name="RoutingGrid" value="50mil"/>
<param name="AutoGrid" value="1"/>
<param name="Efforts" value="2"/>
<param name="TopRouterVariant" value="1"/>
<param name="tpViaShape" value="round"/>
<param name="PrefDir.1" value="a"/>
<param name="PrefDir.2" value="0"/>
<param name="PrefDir.3" value="0"/>
<param name="PrefDir.4" value="0"/>
<param name="PrefDir.5" value="0"/>
<param name="PrefDir.6" value="0"/>
<param name="PrefDir.7" value="0"/>
<param name="PrefDir.8" value="0"/>
<param name="PrefDir.9" value="0"/>
<param name="PrefDir.10" value="0"/>
<param name="PrefDir.11" value="0"/>
<param name="PrefDir.12" value="0"/>
<param name="PrefDir.13" value="0"/>
<param name="PrefDir.14" value="0"/>
<param name="PrefDir.15" value="0"/>
<param name="PrefDir.16" value="a"/>
<param name="cfVia" value="8"/>
<param name="cfNonPref" value="5"/>
<param name="cfChangeDir" value="2"/>
<param name="cfOrthStep" value="2"/>
<param name="cfDiagStep" value="3"/>
<param name="cfExtdStep" value="0"/>
<param name="cfBonusStep" value="1"/>
<param name="cfMalusStep" value="1"/>
<param name="cfPadImpact" value="4"/>
<param name="cfSmdImpact" value="4"/>
<param name="cfBusImpact" value="0"/>
<param name="cfHugging" value="3"/>
<param name="cfAvoid" value="4"/>
<param name="cfPolygon" value="10"/>
<param name="cfBase.1" value="0"/>
<param name="cfBase.2" value="1"/>
<param name="cfBase.3" value="1"/>
<param name="cfBase.4" value="1"/>
<param name="cfBase.5" value="1"/>
<param name="cfBase.6" value="1"/>
<param name="cfBase.7" value="1"/>
<param name="cfBase.8" value="1"/>
<param name="cfBase.9" value="1"/>
<param name="cfBase.10" value="1"/>
<param name="cfBase.11" value="1"/>
<param name="cfBase.12" value="1"/>
<param name="cfBase.13" value="1"/>
<param name="cfBase.14" value="1"/>
<param name="cfBase.15" value="1"/>
<param name="cfBase.16" value="0"/>
<param name="mnVias" value="20"/>
<param name="mnSegments" value="9999"/>
<param name="mnExtdSteps" value="9999"/>
<param name="mnRipupLevel" value="10"/>
<param name="mnRipupSteps" value="100"/>
<param name="mnRipupTotal" value="100"/>
</pass>
<pass name="Follow-me" refer="Default" active="yes">
</pass>
<pass name="Busses" refer="Default" active="yes">
<param name="cfNonPref" value="4"/>
<param name="cfBusImpact" value="4"/>
<param name="cfHugging" value="0"/>
<param name="mnVias" value="0"/>
</pass>
<pass name="Route" refer="Default" active="yes">
</pass>
<pass name="Optimize1" refer="Default" active="yes">
<param name="cfVia" value="99"/>
<param name="cfExtdStep" value="10"/>
<param name="cfHugging" value="1"/>
<param name="mnExtdSteps" value="1"/>
<param name="mnRipupLevel" value="0"/>
</pass>
<pass name="Optimize2" refer="Optimize1" active="yes">
<param name="cfNonPref" value="0"/>
<param name="cfChangeDir" value="6"/>
<param name="cfExtdStep" value="0"/>
<param name="cfBonusStep" value="2"/>
<param name="cfMalusStep" value="2"/>
<param name="cfPadImpact" value="2"/>
<param name="cfSmdImpact" value="2"/>
<param name="cfHugging" value="0"/>
</pass>
<pass name="Optimize3" refer="Optimize2" active="yes">
<param name="cfChangeDir" value="8"/>
<param name="cfPadImpact" value="0"/>
<param name="cfSmdImpact" value="0"/>
</pass>
<pass name="Optimize4" refer="Optimize3" active="yes">
<param name="cfChangeDir" value="25"/>
</pass>
</autorouter>
<elements>
<element name="IC1" library="SamacSys_Parts" library_urn="urn:adsk.eagle:library:19142403" package="SOP100P1210X475-24N" value="SCR2100-D08-05" x="15.24" y="19.05" smashed="yes">
<attribute name="DESCRIPTION" value="Murata SCR2100-D08-05, Accelerometer &amp; Gyroscope, +/-125/s, 3  3.6 V, SPI, SMD 24-Pin" x="36.83" y="10.16" size="1.778" layer="27" display="off"/>
<attribute name="HEIGHT" value="4.75mm" x="36.83" y="10.16" size="1.778" layer="27" display="off"/>
<attribute name="MANUFACTURER_NAME" value="Murata Electronics" x="36.83" y="10.16" size="1.778" layer="27" display="off"/>
<attribute name="MANUFACTURER_PART_NUMBER" value="SCR2100-D08-05" x="36.83" y="10.16" size="1.778" layer="27" display="off"/>
<attribute name="MOUSER_PART_NUMBER" value="81-SCR2100-D08-05" x="36.83" y="10.16" size="1.778" layer="27" display="off"/>
<attribute name="MOUSER_PRICE-STOCK" value="https://www.mouser.co.uk/ProductDetail/Murata-Electronics/SCR2100-D08-05?qs=u1o5GQxYRwqwX72FamU5oQ%3D%3D" x="36.83" y="10.16" size="1.778" layer="27" display="off"/>
<attribute name="NAME" x="15.24" y="8.89" size="1.27" layer="25" align="center"/>
<attribute name="VALUE" x="15.24" y="29.21" size="1.27" layer="27" align="center"/>
</element>
<element name="TESTPINS" library="adafruit" library_urn="urn:adsk.eagle:library:420" package="1X10-BIG" package3d_urn="urn:adsk.eagle:package:6240656/1" value="PINHD-1X10" x="16.51" y="3.81" smashed="yes">
<attribute name="NAME" x="5.0038" y="5.6388" size="1.27" layer="25" ratio="10"/>
<attribute name="VALUE" x="5.08" y="0.635" size="1.27" layer="27"/>
</element>
<element name="U1" library="SamacSys_Parts" package="21-0140L_T1655-2" value="MAX1874ETE+" x="45.72" y="17.78" smashed="yes">
<attribute name="BUILT_BY" value="EMA_UL_Team" x="45.72" y="17.78" size="1.778" layer="27" display="off"/>
<attribute name="MANUFACTURER_PART_NUMBER" value="MAX1874ETE+" x="45.72" y="17.78" size="1.778" layer="27" display="off"/>
<attribute name="NAME" x="42.4434" y="17.145" size="1.27" layer="25" ratio="6" rot="SR0"/>
<attribute name="VALUE" x="43.9928" y="17.145" size="1.27" layer="21" ratio="6" rot="SR0"/>
<attribute name="VENDOR" value="Maxim Integrated Products" x="45.72" y="17.78" size="1.778" layer="27" display="off"/>
</element>
<element name="TESTPINS1" library="adafruit" library_urn="urn:adsk.eagle:library:420" package="1X10-BIG" package3d_urn="urn:adsk.eagle:package:6240656/1" value="PINHD-1X10" x="48.26" y="31.75" smashed="yes">
<attribute name="NAME" x="36.7538" y="33.5788" size="1.27" layer="25" ratio="10"/>
<attribute name="VALUE" x="36.83" y="28.575" size="1.27" layer="27"/>
</element>
<element name="TESTPINS2" library="adafruit" library_urn="urn:adsk.eagle:library:420" package="1X10-BIG" package3d_urn="urn:adsk.eagle:package:6240656/1" value="PINHD-1X10" x="52.07" y="5.08" smashed="yes">
<attribute name="NAME" x="40.5638" y="6.9088" size="1.27" layer="25" ratio="10"/>
<attribute name="VALUE" x="40.64" y="1.905" size="1.27" layer="27"/>
</element>
</elements>
<signals>
<signal name="GND">
<contactref element="TESTPINS" pad="1"/>
<contactref element="U1" pad="6"/>
<contactref element="U1" pad="10"/>
<contactref element="TESTPINS1" pad="7"/>
<contactref element="TESTPINS2" pad="6"/>
<wire x1="48.4632" y1="17.526" x2="48.3108" y2="17.526" width="0.1524" layer="1"/>
<wire x1="51.9684" y1="21.0312" x2="48.4632" y2="17.526" width="0.1524" layer="1"/>
<wire x1="51.9684" y1="31.6992" x2="51.9684" y2="21.0312" width="0.1524" layer="1"/>
<wire x1="48.3108" y1="17.526" x2="48.1711" y2="17.38" width="0.1524" layer="1"/>
<wire x1="51.9684" y1="31.6992" x2="52.07" y2="31.75" width="0.1524" layer="1"/>
<wire x1="45.4152" y1="13.1064" x2="45.4152" y2="15.24" width="0.1524" layer="1"/>
<wire x1="53.34" y1="5.1816" x2="45.4152" y2="13.1064" width="0.1524" layer="1"/>
<wire x1="45.4152" y1="15.24" x2="45.32" y2="15.3289" width="0.1524" layer="1"/>
<wire x1="53.34" y1="5.1816" x2="53.34" y2="5.08" width="0.1524" layer="1"/>
<wire x1="5.9436" y1="3.81" x2="5.08" y2="3.81" width="0.1524" layer="16"/>
<wire x1="8.382" y1="6.2484" x2="5.9436" y2="3.81" width="0.1524" layer="16"/>
<wire x1="52.2732" y1="6.2484" x2="52.1208" y2="6.2484" width="0.1524" layer="16"/>
<wire x1="52.1208" y1="6.2484" x2="20.574" y2="6.2484" width="0.1524" layer="16"/>
<wire x1="20.574" y1="6.2484" x2="8.382" y2="6.2484" width="0.1524" layer="16"/>
<wire x1="53.34" y1="5.1816" x2="52.2732" y2="6.2484" width="0.1524" layer="16"/>
<wire x1="53.34" y1="5.1816" x2="53.34" y2="5.08" width="0.1524" layer="16"/>
<wire x1="52.1208" y1="6.2484" x2="52.1208" y2="31.6992" width="0.1524" layer="16"/>
<wire x1="52.1208" y1="31.6992" x2="52.07" y2="31.75" width="0.1524" layer="16"/>
<contactref element="IC1" pad="1"/>
<contactref element="IC1" pad="12"/>
<contactref element="IC1" pad="8"/>
<contactref element="IC1" pad="10"/>
<contactref element="IC1" pad="24"/>
<contactref element="IC1" pad="17"/>
<contactref element="IC1" pad="16"/>
<contactref element="IC1" pad="13"/>
<contactref element="IC1" pad="14"/>
<contactref element="IC1" pad="15"/>
<wire x1="20.7264" y1="14.478" x2="20.7264" y2="13.5636" width="0.1524" layer="1"/>
<wire x1="20.7264" y1="13.5636" x2="20.665" y2="13.55" width="0.1524" layer="1"/>
<wire x1="20.7264" y1="14.478" x2="20.665" y2="14.55" width="0.1524" layer="1"/>
<wire x1="20.7264" y1="16.4592" x2="20.7264" y2="15.6972" width="0.1524" layer="1"/>
<wire x1="20.7264" y1="15.6972" x2="20.665" y2="15.55" width="0.1524" layer="1"/>
<wire x1="20.7264" y1="16.4592" x2="20.665" y2="16.55" width="0.1524" layer="1"/>
<wire x1="20.7264" y1="16.6116" x2="20.7264" y2="17.526" width="0.1524" layer="1"/>
<wire x1="20.7264" y1="17.526" x2="20.665" y2="17.55" width="0.1524" layer="1"/>
<wire x1="20.7264" y1="16.6116" x2="20.665" y2="16.55" width="0.1524" layer="1"/>
<wire x1="20.7264" y1="15.5448" x2="20.7264" y2="14.6304" width="0.1524" layer="1"/>
<wire x1="20.7264" y1="14.6304" x2="20.665" y2="14.55" width="0.1524" layer="1"/>
<wire x1="20.7264" y1="15.5448" x2="20.665" y2="15.55" width="0.1524" layer="1"/>
<wire x1="20.574" y1="7.4676" x2="20.574" y2="13.4112" width="0.1524" layer="1"/>
<wire x1="20.574" y1="6.2484" x2="20.574" y2="7.4676" width="0.1524" layer="16"/>
<wire x1="20.574" y1="13.4112" x2="20.665" y2="13.55" width="0.1524" layer="1"/>
<wire x1="10.668" y1="13.5636" x2="9.906" y2="13.5636" width="0.1524" layer="1"/>
<wire x1="11.2776" y1="14.1732" x2="10.668" y2="13.5636" width="0.1524" layer="1"/>
<wire x1="11.2776" y1="14.9352" x2="11.2776" y2="14.1732" width="0.1524" layer="1"/>
<wire x1="10.668" y1="15.5448" x2="11.2776" y2="14.9352" width="0.1524" layer="1"/>
<wire x1="9.906" y1="15.5448" x2="10.668" y2="15.5448" width="0.1524" layer="1"/>
<wire x1="9.906" y1="13.5636" x2="9.815" y2="13.55" width="0.1524" layer="1"/>
<wire x1="9.906" y1="15.5448" x2="9.815" y2="15.55" width="0.1524" layer="1"/>
<wire x1="10.668" y1="17.526" x2="9.906" y2="17.526" width="0.1524" layer="1"/>
<wire x1="11.2776" y1="16.9164" x2="10.668" y2="17.526" width="0.1524" layer="1"/>
<wire x1="11.2776" y1="16.1544" x2="11.2776" y2="16.6116" width="0.1524" layer="1"/>
<wire x1="11.2776" y1="16.6116" x2="11.2776" y2="16.9164" width="0.1524" layer="1"/>
<wire x1="10.668" y1="15.5448" x2="11.2776" y2="16.1544" width="0.1524" layer="1"/>
<wire x1="9.906" y1="17.526" x2="9.815" y2="17.55" width="0.1524" layer="1"/>
<wire x1="10.668" y1="15.5448" x2="9.815" y2="15.55" width="0.1524" layer="1"/>
<wire x1="8.9916" y1="24.5364" x2="9.7536" y2="24.5364" width="0.1524" layer="1"/>
<wire x1="8.382" y1="23.9268" x2="8.9916" y2="24.5364" width="0.1524" layer="1"/>
<wire x1="8.382" y1="18.1356" x2="8.382" y2="23.9268" width="0.1524" layer="1"/>
<wire x1="8.8392" y1="17.6784" x2="8.382" y2="18.1356" width="0.1524" layer="1"/>
<wire x1="9.7536" y1="17.6784" x2="8.8392" y2="17.6784" width="0.1524" layer="1"/>
<wire x1="9.7536" y1="24.5364" x2="9.815" y2="24.55" width="0.1524" layer="1"/>
<wire x1="9.7536" y1="17.6784" x2="9.815" y2="17.55" width="0.1524" layer="1"/>
<wire x1="19.2024" y1="24.5364" x2="20.574" y2="24.5364" width="0.1524" layer="1"/>
<wire x1="11.2776" y1="16.6116" x2="19.2024" y2="24.5364" width="0.1524" layer="1"/>
<wire x1="20.574" y1="24.5364" x2="20.665" y2="24.55" width="0.1524" layer="1"/>
<wire x1="5.1816" y1="14.0208" x2="5.1816" y2="3.81" width="0.1524" layer="1"/>
<wire x1="8.8392" y1="17.6784" x2="5.1816" y2="14.0208" width="0.1524" layer="1"/>
<wire x1="5.1816" y1="3.81" x2="5.08" y2="3.81" width="0.1524" layer="1"/>
<wire x1="8.8392" y1="17.6784" x2="9.815" y2="17.55" width="0.1524" layer="1"/>
<via x="20.574" y="7.4676" extent="1-16" drill="0.35"/>
</signal>
<signal name="VBAT">
<contactref element="TESTPINS" pad="2"/>
<contactref element="IC1" pad="9"/>
<wire x1="8.8392" y1="16.4592" x2="9.7536" y2="16.4592" width="0.1524" layer="1"/>
<wire x1="7.62" y1="15.24" x2="8.8392" y2="16.4592" width="0.1524" layer="1"/>
<wire x1="7.62" y1="3.81" x2="7.62" y2="15.24" width="0.1524" layer="1"/>
<wire x1="9.7536" y1="16.4592" x2="9.815" y2="16.55" width="0.1524" layer="1"/>
</signal>
<signal name="GYRO_SPI_SCK">
<contactref element="TESTPINS" pad="7"/>
<contactref element="IC1" pad="4"/>
<wire x1="15.3924" y1="21.6408" x2="9.906" y2="21.6408" width="0.1524" layer="1"/>
<wire x1="19.3548" y1="25.6032" x2="15.3924" y2="21.6408" width="0.1524" layer="1"/>
<wire x1="21.9456" y1="25.6032" x2="19.3548" y2="25.6032" width="0.1524" layer="1"/>
<wire x1="22.4028" y1="25.146" x2="21.9456" y2="25.6032" width="0.1524" layer="1"/>
<wire x1="22.4028" y1="5.7912" x2="22.4028" y2="25.146" width="0.1524" layer="1"/>
<wire x1="20.4216" y1="3.81" x2="22.4028" y2="5.7912" width="0.1524" layer="1"/>
<wire x1="9.906" y1="21.6408" x2="9.815" y2="21.55" width="0.1524" layer="1"/>
<wire x1="20.4216" y1="3.81" x2="20.32" y2="3.81" width="0.1524" layer="1"/>
</signal>
<signal name="GYRO_SPI_CSB">
<contactref element="TESTPINS" pad="8"/>
<contactref element="IC1" pad="18"/>
<wire x1="19.6596" y1="18.4404" x2="20.574" y2="18.4404" width="0.1524" layer="1"/>
<wire x1="16.6116" y1="15.3924" x2="19.6596" y2="18.4404" width="0.1524" layer="1"/>
<wire x1="16.6116" y1="3.3528" x2="16.6116" y2="15.3924" width="0.1524" layer="1"/>
<wire x1="17.3736" y1="2.5908" x2="16.6116" y2="3.3528" width="0.1524" layer="1"/>
<wire x1="21.6408" y1="2.5908" x2="17.3736" y2="2.5908" width="0.1524" layer="1"/>
<wire x1="22.86" y1="3.81" x2="21.6408" y2="2.5908" width="0.1524" layer="1"/>
<wire x1="20.574" y1="18.4404" x2="20.665" y2="18.55" width="0.1524" layer="1"/>
</signal>
<signal name="GYRO_SPI_MOSI">
<contactref element="TESTPINS" pad="5"/>
<contactref element="IC1" pad="19"/>
<wire x1="19.812" y1="19.5072" x2="20.574" y2="19.5072" width="0.1524" layer="1"/>
<wire x1="15.24" y1="14.9352" x2="19.812" y2="19.5072" width="0.1524" layer="1"/>
<wire x1="15.24" y1="3.81" x2="15.24" y2="14.9352" width="0.1524" layer="1"/>
<wire x1="20.574" y1="19.5072" x2="20.665" y2="19.55" width="0.1524" layer="1"/>
</signal>
<signal name="GYRO_SPI_MISO">
<contactref element="TESTPINS" pad="6"/>
<contactref element="IC1" pad="5"/>
<wire x1="14.7828" y1="20.574" x2="9.906" y2="20.574" width="0.1524" layer="1"/>
<wire x1="19.5072" y1="25.2984" x2="14.7828" y2="20.574" width="0.1524" layer="1"/>
<wire x1="21.7932" y1="25.2984" x2="19.5072" y2="25.2984" width="0.1524" layer="1"/>
<wire x1="22.098" y1="24.9936" x2="21.7932" y2="25.2984" width="0.1524" layer="1"/>
<wire x1="22.098" y1="8.0772" x2="22.098" y2="24.9936" width="0.1524" layer="1"/>
<wire x1="17.8308" y1="3.81" x2="22.098" y2="8.0772" width="0.1524" layer="1"/>
<wire x1="9.906" y1="20.574" x2="9.815" y2="20.55" width="0.1524" layer="1"/>
<wire x1="17.8308" y1="3.81" x2="17.78" y2="3.81" width="0.1524" layer="1"/>
</signal>
<signal name="GYRO_PWR_SW">
<contactref element="TESTPINS" pad="4"/>
</signal>
<signal name="GYRO_PWR_FET">
<contactref element="TESTPINS" pad="3"/>
</signal>
<signal name="GYRO_EXT_RSET">
<contactref element="TESTPINS" pad="9"/>
<contactref element="IC1" pad="3"/>
<wire x1="15.8496" y1="22.5552" x2="9.906" y2="22.5552" width="0.1524" layer="1"/>
<wire x1="19.2024" y1="25.908" x2="15.8496" y2="22.5552" width="0.1524" layer="1"/>
<wire x1="22.098" y1="25.908" x2="19.2024" y2="25.908" width="0.1524" layer="1"/>
<wire x1="25.2984" y1="22.7076" x2="22.098" y2="25.908" width="0.1524" layer="1"/>
<wire x1="25.2984" y1="3.81" x2="25.2984" y2="22.7076" width="0.1524" layer="1"/>
<wire x1="9.906" y1="22.5552" x2="9.815" y2="22.55" width="0.1524" layer="1"/>
<wire x1="25.2984" y1="3.81" x2="25.4" y2="3.81" width="0.1524" layer="1"/>
</signal>
<signal name="VBUS_5V">
<contactref element="U1" pad="4"/>
<contactref element="U1" pad="2"/>
<contactref element="U1" pad="5"/>
<contactref element="TESTPINS2" pad="2"/>
<contactref element="TESTPINS2" pad="4"/>
<contactref element="TESTPINS2" pad="5"/>
<wire x1="42.8244" y1="17.8308" x2="43.1292" y2="18.1356" width="0.1524" layer="1"/>
<wire x1="42.672" y1="17.8308" x2="42.8244" y2="17.8308" width="0.1524" layer="1"/>
<wire x1="42.2148" y1="17.3736" x2="42.672" y2="17.8308" width="0.1524" layer="1"/>
<wire x1="42.2148" y1="6.096" x2="42.2148" y2="17.3736" width="0.1524" layer="1"/>
<wire x1="43.1292" y1="5.1816" x2="42.2148" y2="6.096" width="0.1524" layer="1"/>
<wire x1="43.1292" y1="18.1356" x2="43.2689" y2="18.18" width="0.1524" layer="1"/>
<wire x1="43.1292" y1="5.1816" x2="43.18" y2="5.08" width="0.1524" layer="1"/>
<wire x1="43.2816" y1="16.6116" x2="44.5008" y2="15.3924" width="0.1524" layer="1"/>
<wire x1="44.5008" y1="15.3924" x2="44.52" y2="15.3289" width="0.1524" layer="1"/>
<wire x1="43.2816" y1="16.6116" x2="43.2689" y2="16.58" width="0.1524" layer="1"/>
<wire x1="44.6532" y1="8.6868" x2="44.6532" y2="15.24" width="0.1524" layer="1"/>
<wire x1="48.26" y1="5.08" x2="47.8536" y2="5.4864" width="0.1524" layer="1"/>
<wire x1="47.8536" y1="5.4864" x2="44.6532" y2="8.6868" width="0.1524" layer="1"/>
<wire x1="44.6532" y1="15.24" x2="44.52" y2="15.3289" width="0.1524" layer="1"/>
<wire x1="48.3108" y1="5.1816" x2="50.7492" y2="5.1816" width="0.1524" layer="1"/>
<wire x1="50.7492" y1="5.1816" x2="50.8" y2="5.08" width="0.1524" layer="1"/>
<wire x1="48.3108" y1="5.1816" x2="48.26" y2="5.08" width="0.1524" layer="1"/>
<wire x1="44.0436" y1="5.0292" x2="43.2816" y2="5.0292" width="0.1524" layer="1"/>
<wire x1="45.1104" y1="3.9624" x2="44.0436" y2="5.0292" width="0.1524" layer="1"/>
<wire x1="46.3296" y1="3.9624" x2="45.1104" y2="3.9624" width="0.1524" layer="1"/>
<wire x1="47.8536" y1="5.4864" x2="46.3296" y2="3.9624" width="0.1524" layer="1"/>
<wire x1="43.2816" y1="5.0292" x2="43.18" y2="5.08" width="0.1524" layer="1"/>
<wire x1="48.1584" y1="5.1816" x2="48.26" y2="5.08" width="0.1524" layer="1"/>
</signal>
<signal name="PON">
<contactref element="U1" pad="14"/>
<contactref element="TESTPINS1" pad="3"/>
<wire x1="46.0248" y1="27.5844" x2="46.0248" y2="20.2692" width="0.1524" layer="1"/>
<wire x1="41.91" y1="31.6992" x2="46.0248" y2="27.5844" width="0.1524" layer="1"/>
<wire x1="46.0248" y1="20.2692" x2="46.12" y2="20.2311" width="0.1524" layer="1"/>
<wire x1="41.91" y1="31.6992" x2="41.91" y2="31.75" width="0.1524" layer="1"/>
</signal>
<signal name="BYP">
<contactref element="U1" pad="11"/>
<contactref element="TESTPINS1" pad="6"/>
<wire x1="48.4632" y1="18.288" x2="48.3108" y2="18.288" width="0.1524" layer="1"/>
<wire x1="49.53" y1="19.3548" x2="48.4632" y2="18.288" width="0.1524" layer="1"/>
<wire x1="49.53" y1="31.75" x2="49.53" y2="19.3548" width="0.1524" layer="1"/>
<wire x1="48.3108" y1="18.288" x2="48.1711" y2="18.18" width="0.1524" layer="1"/>
</signal>
<signal name="REF">
<contactref element="U1" pad="9"/>
<contactref element="TESTPINS1" pad="8"/>
<wire x1="54.5592" y1="22.86" x2="48.3108" y2="16.6116" width="0.1524" layer="1"/>
<wire x1="54.5592" y1="31.6992" x2="54.5592" y2="22.86" width="0.1524" layer="1"/>
<wire x1="48.3108" y1="16.6116" x2="48.1711" y2="16.58" width="0.1524" layer="1"/>
<wire x1="54.5592" y1="31.6992" x2="54.61" y2="31.75" width="0.1524" layer="1"/>
</signal>
<signal name="THRM">
<contactref element="U1" pad="8"/>
<contactref element="TESTPINS2" pad="8"/>
<wire x1="48.3108" y1="15.24" x2="46.9392" y2="15.24" width="0.1524" layer="1"/>
<wire x1="58.3692" y1="5.1816" x2="48.3108" y2="15.24" width="0.1524" layer="1"/>
<wire x1="46.9392" y1="15.24" x2="46.92" y2="15.3289" width="0.1524" layer="1"/>
<wire x1="58.3692" y1="5.1816" x2="58.42" y2="5.08" width="0.1524" layer="1"/>
</signal>
<signal name="DCOK">
<contactref element="U1" pad="16"/>
<contactref element="TESTPINS1" pad="1"/>
<wire x1="44.5008" y1="24.0792" x2="44.5008" y2="20.2692" width="0.1524" layer="1"/>
<wire x1="36.83" y1="31.75" x2="44.5008" y2="24.0792" width="0.1524" layer="1"/>
<wire x1="44.5008" y1="20.2692" x2="44.52" y2="20.2311" width="0.1524" layer="1"/>
</signal>
<signal name="DCLV">
<contactref element="U1" pad="1"/>
<contactref element="TESTPINS2" pad="1"/>
<wire x1="42.8244" y1="18.5928" x2="43.1292" y2="18.8976" width="0.1524" layer="1"/>
<wire x1="42.672" y1="18.5928" x2="42.8244" y2="18.5928" width="0.1524" layer="1"/>
<wire x1="40.6908" y1="16.6116" x2="42.672" y2="18.5928" width="0.1524" layer="1"/>
<wire x1="40.6908" y1="5.1816" x2="40.6908" y2="16.6116" width="0.1524" layer="1"/>
<wire x1="43.1292" y1="18.8976" x2="43.2689" y2="18.98" width="0.1524" layer="1"/>
<wire x1="40.6908" y1="5.1816" x2="40.64" y2="5.08" width="0.1524" layer="1"/>
</signal>
<signal name="UOK">
<contactref element="U1" pad="13"/>
<contactref element="TESTPINS1" pad="4"/>
<wire x1="46.7868" y1="29.4132" x2="46.7868" y2="20.2692" width="0.1524" layer="1"/>
<wire x1="44.45" y1="31.75" x2="46.7868" y2="29.4132" width="0.1524" layer="1"/>
<wire x1="46.7868" y1="20.2692" x2="46.92" y2="20.2311" width="0.1524" layer="1"/>
</signal>
<signal name="CHG">
<contactref element="U1" pad="3"/>
<contactref element="TESTPINS2" pad="3"/>
<wire x1="42.5196" y1="16.764" x2="43.1292" y2="17.3736" width="0.1524" layer="1"/>
<wire x1="42.5196" y1="8.382" x2="42.5196" y2="16.764" width="0.1524" layer="1"/>
<wire x1="45.72" y1="5.1816" x2="42.5196" y2="8.382" width="0.1524" layer="1"/>
<wire x1="43.1292" y1="17.3736" x2="43.2689" y2="17.38" width="0.1524" layer="1"/>
<wire x1="45.72" y1="5.1816" x2="45.72" y2="5.08" width="0.1524" layer="1"/>
</signal>
<signal name="BATT">
<contactref element="U1" pad="15"/>
<contactref element="TESTPINS1" pad="2"/>
<wire x1="45.2628" y1="25.908" x2="45.2628" y2="20.2692" width="0.1524" layer="1"/>
<wire x1="39.4716" y1="31.6992" x2="45.2628" y2="25.908" width="0.1524" layer="1"/>
<wire x1="45.2628" y1="20.2692" x2="45.32" y2="20.2311" width="0.1524" layer="1"/>
<wire x1="39.4716" y1="31.6992" x2="39.37" y2="31.75" width="0.1524" layer="1"/>
</signal>
<signal name="DCI">
<contactref element="U1" pad="7"/>
<contactref element="TESTPINS2" pad="7"/>
<wire x1="46.1772" y1="14.7828" x2="46.1772" y2="15.24" width="0.1524" layer="1"/>
<wire x1="55.88" y1="5.08" x2="46.1772" y2="14.7828" width="0.1524" layer="1"/>
<wire x1="46.1772" y1="15.24" x2="46.12" y2="15.3289" width="0.1524" layer="1"/>
</signal>
<signal name="USB_IN">
<contactref element="U1" pad="12"/>
<contactref element="TESTPINS1" pad="5"/>
<wire x1="48.1584" y1="20.574" x2="48.1584" y2="19.05" width="0.1524" layer="1"/>
<wire x1="47.0916" y1="21.6408" x2="48.1584" y2="20.574" width="0.1524" layer="1"/>
<wire x1="47.0916" y1="31.6992" x2="47.0916" y2="21.6408" width="0.1524" layer="1"/>
<wire x1="48.1584" y1="19.05" x2="48.1711" y2="18.98" width="0.1524" layer="1"/>
<wire x1="47.0916" y1="31.6992" x2="46.99" y2="31.75" width="0.1524" layer="1"/>
</signal>
</signals>
<mfgpreviewcolors>
<mfgpreviewcolor name="soldermaskcolor" color="0xC8008000"/>
<mfgpreviewcolor name="silkscreencolor" color="0xFFFEFEFE"/>
<mfgpreviewcolor name="backgroundcolor" color="0xFF282828"/>
<mfgpreviewcolor name="coppercolor" color="0xFFFFBF00"/>
<mfgpreviewcolor name="substratecolor" color="0xFF786E46"/>
</mfgpreviewcolors>
</board>
</drawing>
<compatibility>
<note version="8.2" severity="warning">
Since Version 8.2, EAGLE supports online libraries. The ids
of those online libraries will not be understood (or retained)
with this version.
</note>
<note version="8.3" severity="warning">
Since Version 8.3, EAGLE supports URNs for individual library
assets (packages, symbols, and devices). The URNs of those assets
will not be understood (or retained) with this version.
</note>
<note version="8.3" severity="warning">
Since Version 8.3, EAGLE supports the association of 3D packages
with devices in libraries, schematics, and board files. Those 3D
packages will not be understood (or retained) with this version.
</note>
</compatibility>
</eagle>
