<?xml version="1.0" encoding="utf-8"?>
<!DOCTYPE eagle SYSTEM "eagle.dtd">
<eagle version="9.6.2">
<drawing>
<settings>
<setting alwaysvectorfont="no"/>
<setting verticaltext="up"/>
</settings>
<grid distance="0.1" unitdist="inch" unit="inch" style="lines" multiple="1" display="no" altdistance="0.01" altunitdist="inch" altunit="inch"/>
<layers>
<layer number="1" name="Top" color="4" fill="1" visible="no" active="no"/>
<layer number="2" name="Route2" color="7" fill="1" visible="no" active="no"/>
<layer number="3" name="Route3" color="7" fill="1" visible="no" active="no"/>
<layer number="4" name="Route4" color="7" fill="1" visible="no" active="no"/>
<layer number="5" name="Route5" color="7" fill="1" visible="no" active="no"/>
<layer number="6" name="Route6" color="7" fill="1" visible="no" active="no"/>
<layer number="7" name="Route7" color="7" fill="1" visible="no" active="no"/>
<layer number="8" name="Route8" color="7" fill="1" visible="no" active="no"/>
<layer number="9" name="Route9" color="7" fill="1" visible="no" active="no"/>
<layer number="10" name="Route10" color="7" fill="1" visible="no" active="no"/>
<layer number="11" name="Route11" color="7" fill="1" visible="no" active="no"/>
<layer number="12" name="Route12" color="7" fill="1" visible="no" active="no"/>
<layer number="13" name="Route13" color="7" fill="1" visible="no" active="no"/>
<layer number="14" name="Route14" color="7" fill="1" visible="no" active="no"/>
<layer number="15" name="Route15" color="7" fill="1" visible="no" active="no"/>
<layer number="16" name="Bottom" color="1" fill="1" visible="no" active="no"/>
<layer number="17" name="Pads" color="2" fill="1" visible="no" active="no"/>
<layer number="18" name="Vias" color="2" fill="1" visible="no" active="no"/>
<layer number="19" name="Unrouted" color="6" fill="1" visible="no" active="no"/>
<layer number="20" name="Dimension" color="15" fill="1" visible="no" active="no"/>
<layer number="21" name="tPlace" color="7" fill="1" visible="no" active="no"/>
<layer number="22" name="bPlace" color="7" fill="1" visible="no" active="no"/>
<layer number="23" name="tOrigins" color="15" fill="1" visible="no" active="no"/>
<layer number="24" name="bOrigins" color="15" fill="1" visible="no" active="no"/>
<layer number="25" name="tNames" color="7" fill="1" visible="no" active="no"/>
<layer number="26" name="bNames" color="7" fill="1" visible="no" active="no"/>
<layer number="27" name="tValues" color="7" fill="1" visible="no" active="no"/>
<layer number="28" name="bValues" color="7" fill="1" visible="no" active="no"/>
<layer number="29" name="tStop" color="7" fill="3" visible="no" active="no"/>
<layer number="30" name="bStop" color="7" fill="6" visible="no" active="no"/>
<layer number="31" name="tCream" color="7" fill="4" visible="no" active="no"/>
<layer number="32" name="bCream" color="7" fill="5" visible="no" active="no"/>
<layer number="33" name="tFinish" color="6" fill="3" visible="no" active="no"/>
<layer number="34" name="bFinish" color="6" fill="6" visible="no" active="no"/>
<layer number="35" name="tGlue" color="7" fill="4" visible="no" active="no"/>
<layer number="36" name="bGlue" color="7" fill="5" visible="no" active="no"/>
<layer number="37" name="tTest" color="7" fill="1" visible="no" active="no"/>
<layer number="38" name="bTest" color="7" fill="1" visible="no" active="no"/>
<layer number="39" name="tKeepout" color="4" fill="11" visible="no" active="no"/>
<layer number="40" name="bKeepout" color="1" fill="11" visible="no" active="no"/>
<layer number="41" name="tRestrict" color="4" fill="10" visible="no" active="no"/>
<layer number="42" name="bRestrict" color="1" fill="10" visible="no" active="no"/>
<layer number="43" name="vRestrict" color="2" fill="10" visible="no" active="no"/>
<layer number="44" name="Drills" color="7" fill="1" visible="no" active="no"/>
<layer number="45" name="Holes" color="7" fill="1" visible="no" active="no"/>
<layer number="46" name="Milling" color="3" fill="1" visible="no" active="no"/>
<layer number="47" name="Measures" color="7" fill="1" visible="no" active="no"/>
<layer number="48" name="Document" color="7" fill="1" visible="no" active="no"/>
<layer number="49" name="Reference" color="7" fill="1" visible="no" active="no"/>
<layer number="50" name="dxf" color="7" fill="1" visible="no" active="no"/>
<layer number="51" name="tDocu" color="7" fill="1" visible="no" active="no"/>
<layer number="52" name="bDocu" color="7" fill="1" visible="no" active="no"/>
<layer number="53" name="tGND_GNDA" color="7" fill="1" visible="no" active="no"/>
<layer number="54" name="bGND_GNDA" color="7" fill="1" visible="no" active="no"/>
<layer number="56" name="wert" color="7" fill="1" visible="no" active="no"/>
<layer number="57" name="tCAD" color="7" fill="1" visible="no" active="no"/>
<layer number="59" name="tCarbon" color="7" fill="1" visible="no" active="no"/>
<layer number="60" name="bCarbon" color="7" fill="1" visible="no" active="no"/>
<layer number="88" name="SimResults" color="9" fill="1" visible="yes" active="yes"/>
<layer number="89" name="SimProbes" color="9" fill="1" visible="yes" active="yes"/>
<layer number="90" name="Modules" color="5" fill="1" visible="yes" active="yes"/>
<layer number="91" name="Nets" color="2" fill="1" visible="yes" active="yes"/>
<layer number="92" name="Busses" color="1" fill="1" visible="yes" active="yes"/>
<layer number="93" name="Pins" color="2" fill="1" visible="no" active="yes"/>
<layer number="94" name="Symbols" color="4" fill="1" visible="yes" active="yes"/>
<layer number="95" name="Names" color="7" fill="1" visible="yes" active="yes"/>
<layer number="96" name="Values" color="7" fill="1" visible="yes" active="yes"/>
<layer number="97" name="Info" color="7" fill="1" visible="yes" active="yes"/>
<layer number="98" name="Guide" color="6" fill="1" visible="yes" active="yes"/>
<layer number="99" name="SpiceOrder" color="5" fill="1" visible="yes" active="yes"/>
<layer number="100" name="Muster" color="7" fill="1" visible="yes" active="yes"/>
<layer number="101" name="Patch_Top" color="7" fill="1" visible="yes" active="yes"/>
<layer number="102" name="Vscore" color="7" fill="1" visible="yes" active="yes"/>
<layer number="103" name="fp3" color="7" fill="1" visible="yes" active="yes"/>
<layer number="104" name="Name" color="7" fill="1" visible="yes" active="yes"/>
<layer number="105" name="Beschreib" color="7" fill="1" visible="yes" active="yes"/>
<layer number="106" name="BGA-Top" color="7" fill="1" visible="yes" active="yes"/>
<layer number="107" name="BD-Top" color="7" fill="1" visible="yes" active="yes"/>
<layer number="108" name="fp8" color="7" fill="1" visible="yes" active="yes"/>
<layer number="109" name="fp9" color="7" fill="1" visible="yes" active="yes"/>
<layer number="110" name="fp0" color="7" fill="1" visible="yes" active="yes"/>
<layer number="111" name="LPC17xx" color="7" fill="1" visible="yes" active="yes"/>
<layer number="112" name="tSilk" color="7" fill="1" visible="yes" active="yes"/>
<layer number="113" name="IDFDebug" color="7" fill="1" visible="yes" active="yes"/>
<layer number="114" name="GND" color="7" fill="1" visible="yes" active="yes"/>
<layer number="115" name="ReferenceISLANDS" color="7" fill="1" visible="yes" active="yes"/>
<layer number="116" name="Patch_BOT" color="7" fill="1" visible="yes" active="yes"/>
<layer number="117" name="BACKMAAT1" color="7" fill="1" visible="yes" active="yes"/>
<layer number="118" name="Rect_Pads" color="7" fill="1" visible="yes" active="yes"/>
<layer number="119" name="KAP_TEKEN" color="7" fill="1" visible="yes" active="yes"/>
<layer number="120" name="KAP_MAAT1" color="7" fill="1" visible="yes" active="yes"/>
<layer number="121" name="_tsilk" color="7" fill="1" visible="yes" active="yes"/>
<layer number="122" name="_bsilk" color="7" fill="1" visible="yes" active="yes"/>
<layer number="123" name="tTestmark" color="7" fill="1" visible="yes" active="yes"/>
<layer number="124" name="bTestmark" color="7" fill="1" visible="yes" active="yes"/>
<layer number="125" name="_tNames" color="7" fill="1" visible="yes" active="yes"/>
<layer number="126" name="_bNames" color="7" fill="1" visible="yes" active="yes"/>
<layer number="127" name="_tValues" color="7" fill="1" visible="yes" active="yes"/>
<layer number="128" name="_bValues" color="7" fill="1" visible="yes" active="yes"/>
<layer number="129" name="Mask" color="7" fill="1" visible="yes" active="yes"/>
<layer number="130" name="SMDSTROOK" color="7" fill="1" visible="yes" active="yes"/>
<layer number="131" name="tAdjust" color="7" fill="1" visible="yes" active="yes"/>
<layer number="132" name="bAdjust" color="7" fill="1" visible="yes" active="yes"/>
<layer number="133" name="bottom_silk" color="7" fill="1" visible="yes" active="yes"/>
<layer number="134" name="silk_top" color="7" fill="1" visible="yes" active="yes"/>
<layer number="135" name="silk_bottom" color="7" fill="1" visible="yes" active="yes"/>
<layer number="136" name="silktop" color="7" fill="1" visible="yes" active="yes"/>
<layer number="137" name="silkbottom" color="7" fill="1" visible="yes" active="yes"/>
<layer number="144" name="Drill_legend" color="7" fill="1" visible="yes" active="yes"/>
<layer number="145" name="DrillLegend_01-16" color="7" fill="1" visible="yes" active="yes"/>
<layer number="146" name="DrillLegend_01-20" color="7" fill="1" visible="yes" active="yes"/>
<layer number="150" name="Notes" color="7" fill="1" visible="yes" active="yes"/>
<layer number="151" name="HeatSink" color="7" fill="1" visible="yes" active="yes"/>
<layer number="152" name="_bDocu" color="7" fill="1" visible="yes" active="yes"/>
<layer number="153" name="FabDoc1" color="7" fill="1" visible="yes" active="yes"/>
<layer number="154" name="FabDoc2" color="7" fill="1" visible="yes" active="yes"/>
<layer number="155" name="FabDoc3" color="7" fill="1" visible="yes" active="yes"/>
<layer number="166" name="AntennaArea" color="7" fill="1" visible="yes" active="yes"/>
<layer number="168" name="4mmHeightArea" color="7" fill="1" visible="yes" active="yes"/>
<layer number="199" name="Contour" color="7" fill="1" visible="yes" active="yes"/>
<layer number="200" name="200bmp" color="7" fill="1" visible="yes" active="yes"/>
<layer number="201" name="201bmp" color="7" fill="1" visible="yes" active="yes"/>
<layer number="202" name="202bmp" color="7" fill="1" visible="yes" active="yes"/>
<layer number="203" name="203bmp" color="7" fill="1" visible="yes" active="yes"/>
<layer number="204" name="204bmp" color="7" fill="1" visible="yes" active="yes"/>
<layer number="205" name="205bmp" color="7" fill="1" visible="yes" active="yes"/>
<layer number="206" name="206bmp" color="7" fill="1" visible="yes" active="yes"/>
<layer number="207" name="207bmp" color="7" fill="1" visible="yes" active="yes"/>
<layer number="208" name="208bmp" color="7" fill="1" visible="yes" active="yes"/>
<layer number="209" name="209bmp" color="7" fill="1" visible="yes" active="yes"/>
<layer number="210" name="210bmp" color="7" fill="1" visible="yes" active="yes"/>
<layer number="211" name="211bmp" color="7" fill="1" visible="yes" active="yes"/>
<layer number="212" name="212bmp" color="7" fill="1" visible="yes" active="yes"/>
<layer number="213" name="213bmp" color="7" fill="1" visible="yes" active="yes"/>
<layer number="214" name="214bmp" color="7" fill="1" visible="yes" active="yes"/>
<layer number="215" name="215bmp" color="7" fill="1" visible="yes" active="yes"/>
<layer number="216" name="216bmp" color="7" fill="1" visible="yes" active="yes"/>
<layer number="217" name="217bmp" color="7" fill="1" visible="yes" active="yes"/>
<layer number="218" name="218bmp" color="7" fill="1" visible="yes" active="yes"/>
<layer number="219" name="219bmp" color="7" fill="1" visible="yes" active="yes"/>
<layer number="220" name="220bmp" color="7" fill="1" visible="yes" active="yes"/>
<layer number="221" name="221bmp" color="7" fill="1" visible="yes" active="yes"/>
<layer number="222" name="222bmp" color="7" fill="1" visible="yes" active="yes"/>
<layer number="223" name="223bmp" color="7" fill="1" visible="yes" active="yes"/>
<layer number="224" name="224bmp" color="7" fill="1" visible="yes" active="yes"/>
<layer number="225" name="225bmp" color="7" fill="1" visible="yes" active="yes"/>
<layer number="226" name="226bmp" color="7" fill="1" visible="yes" active="yes"/>
<layer number="227" name="227bmp" color="7" fill="1" visible="yes" active="yes"/>
<layer number="228" name="228bmp" color="7" fill="1" visible="yes" active="yes"/>
<layer number="229" name="229bmp" color="7" fill="1" visible="yes" active="yes"/>
<layer number="230" name="230bmp" color="7" fill="1" visible="yes" active="yes"/>
<layer number="231" name="231bmp" color="7" fill="1" visible="yes" active="yes"/>
<layer number="232" name="Eagle3D_PG2" color="7" fill="1" visible="yes" active="yes"/>
<layer number="233" name="Eagle3D_PG3" color="7" fill="1" visible="yes" active="yes"/>
<layer number="248" name="Housing" color="7" fill="1" visible="yes" active="yes"/>
<layer number="249" name="Edge" color="7" fill="1" visible="yes" active="yes"/>
<layer number="250" name="Descript" color="7" fill="1" visible="yes" active="yes"/>
<layer number="251" name="SMDround" color="7" fill="1" visible="yes" active="yes"/>
<layer number="254" name="cooling" color="7" fill="1" visible="yes" active="yes"/>
<layer number="255" name="routoute" color="7" fill="1" visible="yes" active="yes"/>
</layers>
<schematic xreflabel="%F%N/%S.%C%R" xrefpart="/%S.%C%R">
<libraries>
<library name="SamacSys_Parts" urn="urn:adsk.eagle:library:19142403">
<description>&lt;b&gt;Lithium Batteries and NC Accus&lt;/b&gt;&lt;p&gt;
&lt;author&gt;Created by librarian@cadsoft.de&lt;/author&gt;</description>
<packages>
<package name="SOP100P1210X475-24N" library_version="7">
<description>&lt;b&gt;SOIC-24&lt;/b&gt;&lt;br&gt;
</description>
<smd name="1" x="-5.425" y="5.5" dx="2.2" dy="0.75" layer="1"/>
<smd name="2" x="-5.425" y="4.5" dx="2.2" dy="0.75" layer="1"/>
<smd name="3" x="-5.425" y="3.5" dx="2.2" dy="0.75" layer="1"/>
<smd name="4" x="-5.425" y="2.5" dx="2.2" dy="0.75" layer="1"/>
<smd name="5" x="-5.425" y="1.5" dx="2.2" dy="0.75" layer="1"/>
<smd name="6" x="-5.425" y="0.5" dx="2.2" dy="0.75" layer="1"/>
<smd name="7" x="-5.425" y="-0.5" dx="2.2" dy="0.75" layer="1"/>
<smd name="8" x="-5.425" y="-1.5" dx="2.2" dy="0.75" layer="1"/>
<smd name="9" x="-5.425" y="-2.5" dx="2.2" dy="0.75" layer="1"/>
<smd name="10" x="-5.425" y="-3.5" dx="2.2" dy="0.75" layer="1"/>
<smd name="11" x="-5.425" y="-4.5" dx="2.2" dy="0.75" layer="1"/>
<smd name="12" x="-5.425" y="-5.5" dx="2.2" dy="0.75" layer="1"/>
<smd name="13" x="5.425" y="-5.5" dx="2.2" dy="0.75" layer="1"/>
<smd name="14" x="5.425" y="-4.5" dx="2.2" dy="0.75" layer="1"/>
<smd name="15" x="5.425" y="-3.5" dx="2.2" dy="0.75" layer="1"/>
<smd name="16" x="5.425" y="-2.5" dx="2.2" dy="0.75" layer="1"/>
<smd name="17" x="5.425" y="-1.5" dx="2.2" dy="0.75" layer="1"/>
<smd name="18" x="5.425" y="-0.5" dx="2.2" dy="0.75" layer="1"/>
<smd name="19" x="5.425" y="0.5" dx="2.2" dy="0.75" layer="1"/>
<smd name="20" x="5.425" y="1.5" dx="2.2" dy="0.75" layer="1"/>
<smd name="21" x="5.425" y="2.5" dx="2.2" dy="0.75" layer="1"/>
<smd name="22" x="5.425" y="3.5" dx="2.2" dy="0.75" layer="1"/>
<smd name="23" x="5.425" y="4.5" dx="2.2" dy="0.75" layer="1"/>
<smd name="24" x="5.425" y="5.5" dx="2.2" dy="0.75" layer="1"/>
<text x="0" y="0" size="1.27" layer="25" align="center">&gt;NAME</text>
<text x="0" y="0" size="1.27" layer="27" align="center">&gt;VALUE</text>
<wire x1="-6.775" y1="7.8" x2="6.775" y2="7.8" width="0.05" layer="51"/>
<wire x1="6.775" y1="7.8" x2="6.775" y2="-7.8" width="0.05" layer="51"/>
<wire x1="6.775" y1="-7.8" x2="-6.775" y2="-7.8" width="0.05" layer="51"/>
<wire x1="-6.775" y1="-7.8" x2="-6.775" y2="7.8" width="0.05" layer="51"/>
<wire x1="-3.55" y1="7.5" x2="3.55" y2="7.5" width="0.1" layer="51"/>
<wire x1="3.55" y1="7.5" x2="3.55" y2="-7.5" width="0.1" layer="51"/>
<wire x1="3.55" y1="-7.5" x2="-3.55" y2="-7.5" width="0.1" layer="51"/>
<wire x1="-3.55" y1="-7.5" x2="-3.55" y2="7.5" width="0.1" layer="51"/>
<wire x1="-3.55" y1="6.5" x2="-2.55" y2="7.5" width="0.1" layer="51"/>
<wire x1="-3.975" y1="7.5" x2="3.975" y2="7.5" width="0.2" layer="21"/>
<wire x1="3.975" y1="7.5" x2="3.975" y2="-7.5" width="0.2" layer="21"/>
<wire x1="3.975" y1="-7.5" x2="-3.975" y2="-7.5" width="0.2" layer="21"/>
<wire x1="-3.975" y1="-7.5" x2="-3.975" y2="7.5" width="0.2" layer="21"/>
<wire x1="-6.525" y1="6.225" x2="-4.325" y2="6.225" width="0.2" layer="21"/>
</package>
</packages>
<symbols>
<symbol name="SCR2100-D08-05" library_version="7">
<wire x1="5.08" y1="2.54" x2="38.1" y2="2.54" width="0.254" layer="94"/>
<wire x1="38.1" y1="-30.48" x2="38.1" y2="2.54" width="0.254" layer="94"/>
<wire x1="38.1" y1="-30.48" x2="5.08" y2="-30.48" width="0.254" layer="94"/>
<wire x1="5.08" y1="2.54" x2="5.08" y2="-30.48" width="0.254" layer="94"/>
<text x="39.37" y="7.62" size="1.778" layer="95" align="center-left">&gt;NAME</text>
<text x="39.37" y="5.08" size="1.778" layer="96" align="center-left">&gt;VALUE</text>
<pin name="HEAT_1" x="0" y="0" length="middle"/>
<pin name="RESERVED_1" x="0" y="-2.54" length="middle"/>
<pin name="EXTRESN" x="0" y="-5.08" length="middle"/>
<pin name="SCK" x="0" y="-7.62" length="middle"/>
<pin name="MISO" x="0" y="-10.16" length="middle"/>
<pin name="VBOOST" x="0" y="-12.7" length="middle"/>
<pin name="LBOOST" x="0" y="-15.24" length="middle"/>
<pin name="DVSS" x="0" y="-17.78" length="middle"/>
<pin name="DVDD" x="0" y="-20.32" length="middle"/>
<pin name="D_EXTC" x="0" y="-22.86" length="middle"/>
<pin name="RESERVED_2" x="0" y="-25.4" length="middle"/>
<pin name="HEAT_2" x="0" y="-27.94" length="middle"/>
<pin name="HEAT_4" x="43.18" y="0" length="middle" rot="R180"/>
<pin name="RESERVED_6" x="43.18" y="-2.54" length="middle" rot="R180"/>
<pin name="RESERVED_5" x="43.18" y="-5.08" length="middle" rot="R180"/>
<pin name="RESERVED_4" x="43.18" y="-7.62" length="middle" rot="R180"/>
<pin name="RESERVED_3" x="43.18" y="-10.16" length="middle" rot="R180"/>
<pin name="MOSI" x="43.18" y="-12.7" length="middle" rot="R180"/>
<pin name="CSB" x="43.18" y="-15.24" length="middle" rot="R180"/>
<pin name="AVSS" x="43.18" y="-17.78" length="middle" rot="R180"/>
<pin name="AVSS_REF" x="43.18" y="-20.32" length="middle" rot="R180"/>
<pin name="A_EXTC" x="43.18" y="-22.86" length="middle" rot="R180"/>
<pin name="AVDD" x="43.18" y="-25.4" length="middle" rot="R180"/>
<pin name="HEAT_3" x="43.18" y="-27.94" length="middle" rot="R180"/>
</symbol>
</symbols>
<devicesets>
<deviceset name="SCR2100-D08-05" prefix="IC" library_version="7">
<description>&lt;b&gt;Murata SCR2100-D08-05, Accelerometer &amp; Gyroscope, +/-125/s, 3  3.6 V, SPI, SMD 24-Pin&lt;/b&gt;&lt;p&gt;
Source: &lt;a href="https://www.murata.com/~/media/webrenewal/products/sensor/gyro/scc2000/scr2100-d08 datasheet 82177700b0.ashx?la=en"&gt; Datasheet &lt;/a&gt;</description>
<gates>
<gate name="G$1" symbol="SCR2100-D08-05" x="0" y="0"/>
</gates>
<devices>
<device name="" package="SOP100P1210X475-24N">
<connects>
<connect gate="G$1" pin="AVDD" pad="14"/>
<connect gate="G$1" pin="AVSS" pad="17"/>
<connect gate="G$1" pin="AVSS_REF" pad="16"/>
<connect gate="G$1" pin="A_EXTC" pad="15"/>
<connect gate="G$1" pin="CSB" pad="18"/>
<connect gate="G$1" pin="DVDD" pad="9"/>
<connect gate="G$1" pin="DVSS" pad="8"/>
<connect gate="G$1" pin="D_EXTC" pad="10"/>
<connect gate="G$1" pin="EXTRESN" pad="3"/>
<connect gate="G$1" pin="HEAT_1" pad="1"/>
<connect gate="G$1" pin="HEAT_2" pad="12"/>
<connect gate="G$1" pin="HEAT_3" pad="13"/>
<connect gate="G$1" pin="HEAT_4" pad="24"/>
<connect gate="G$1" pin="LBOOST" pad="7"/>
<connect gate="G$1" pin="MISO" pad="5"/>
<connect gate="G$1" pin="MOSI" pad="19"/>
<connect gate="G$1" pin="RESERVED_1" pad="2"/>
<connect gate="G$1" pin="RESERVED_2" pad="11"/>
<connect gate="G$1" pin="RESERVED_3" pad="20"/>
<connect gate="G$1" pin="RESERVED_4" pad="21"/>
<connect gate="G$1" pin="RESERVED_5" pad="22"/>
<connect gate="G$1" pin="RESERVED_6" pad="23"/>
<connect gate="G$1" pin="SCK" pad="4"/>
<connect gate="G$1" pin="VBOOST" pad="6"/>
</connects>
<technologies>
<technology name="">
<attribute name="DESCRIPTION" value="Murata SCR2100-D08-05, Accelerometer &amp; Gyroscope, +/-125/s, 3  3.6 V, SPI, SMD 24-Pin" constant="no"/>
<attribute name="HEIGHT" value="4.75mm" constant="no"/>
<attribute name="MANUFACTURER_NAME" value="Murata Electronics" constant="no"/>
<attribute name="MANUFACTURER_PART_NUMBER" value="SCR2100-D08-05" constant="no"/>
<attribute name="MOUSER_PART_NUMBER" value="81-SCR2100-D08-05" constant="no"/>
<attribute name="MOUSER_PRICE-STOCK" value="https://www.mouser.co.uk/ProductDetail/Murata-Electronics/SCR2100-D08-05?qs=u1o5GQxYRwqwX72FamU5oQ%3D%3D" constant="no"/>
</technology>
</technologies>
</device>
</devices>
</deviceset>
</devicesets>
</library>
<library name="adafruit" urn="urn:adsk.eagle:library:420">
<packages>
<package name="1X10-BIG" urn="urn:adsk.eagle:footprint:6240010/1" library_version="2">
<wire x1="-12.7" y1="1.27" x2="12.7" y2="1.27" width="0.127" layer="21"/>
<wire x1="12.7" y1="1.27" x2="12.7" y2="-1.27" width="0.127" layer="21"/>
<wire x1="12.7" y1="-1.27" x2="-12.7" y2="-1.27" width="0.127" layer="21"/>
<wire x1="-12.7" y1="-1.27" x2="-12.7" y2="1.27" width="0.127" layer="21"/>
<pad name="1" x="-11.43" y="0" drill="1.016" diameter="1.778" shape="octagon" rot="R90"/>
<pad name="2" x="-8.89" y="0" drill="1.016" diameter="1.778" shape="octagon" rot="R90"/>
<pad name="3" x="-6.35" y="0" drill="1.016" diameter="1.778" shape="octagon" rot="R90"/>
<pad name="4" x="-3.81" y="0" drill="1.016" diameter="1.778" shape="octagon" rot="R90"/>
<pad name="5" x="-1.27" y="0" drill="1.016" diameter="1.778" shape="octagon" rot="R90"/>
<pad name="6" x="1.27" y="0" drill="1.016" diameter="1.778" shape="octagon" rot="R90"/>
<pad name="7" x="3.81" y="0" drill="1.016" diameter="1.778" shape="octagon" rot="R90"/>
<pad name="8" x="6.35" y="0" drill="1.016" diameter="1.778" shape="octagon" rot="R90"/>
<pad name="9" x="8.89" y="0" drill="1.016" diameter="1.778" shape="octagon" rot="R90"/>
<pad name="10" x="11.43" y="0" drill="1.016" diameter="1.778" shape="octagon" rot="R90"/>
<text x="-11.5062" y="1.8288" size="1.27" layer="25" ratio="10">&gt;NAME</text>
<text x="-11.43" y="-3.175" size="1.27" layer="27">&gt;VALUE</text>
<rectangle x1="3.556" y1="-0.254" x2="4.064" y2="0.254" layer="51"/>
<rectangle x1="1.016" y1="-0.254" x2="1.524" y2="0.254" layer="51"/>
<rectangle x1="-1.524" y1="-0.254" x2="-1.016" y2="0.254" layer="51"/>
<rectangle x1="-4.064" y1="-0.254" x2="-3.556" y2="0.254" layer="51"/>
<rectangle x1="-6.604" y1="-0.254" x2="-6.096" y2="0.254" layer="51"/>
<rectangle x1="-9.144" y1="-0.254" x2="-8.636" y2="0.254" layer="51"/>
<rectangle x1="-11.684" y1="-0.254" x2="-11.176" y2="0.254" layer="51"/>
<rectangle x1="6.096" y1="-0.254" x2="6.604" y2="0.254" layer="51"/>
<rectangle x1="8.636" y1="-0.254" x2="9.144" y2="0.254" layer="51"/>
<rectangle x1="11.176" y1="-0.254" x2="11.684" y2="0.254" layer="51"/>
</package>
</packages>
<packages3d>
<package3d name="1X10-BIG" urn="urn:adsk.eagle:package:6240656/1" type="box" library_version="2">
<packageinstances>
<packageinstance name="1X10-BIG"/>
</packageinstances>
</package3d>
</packages3d>
<symbols>
<symbol name="PINHD10" urn="urn:adsk.eagle:symbol:6239506/1" library_version="2">
<wire x1="-6.35" y1="-15.24" x2="1.27" y2="-15.24" width="0.4064" layer="94"/>
<wire x1="1.27" y1="-15.24" x2="1.27" y2="12.7" width="0.4064" layer="94"/>
<wire x1="1.27" y1="12.7" x2="-6.35" y2="12.7" width="0.4064" layer="94"/>
<wire x1="-6.35" y1="12.7" x2="-6.35" y2="-15.24" width="0.4064" layer="94"/>
<text x="-6.35" y="13.335" size="1.778" layer="95">&gt;NAME</text>
<text x="-6.35" y="-17.78" size="1.778" layer="96">&gt;VALUE</text>
<pin name="1" x="-2.54" y="10.16" visible="pad" length="short" direction="pas" function="dot"/>
<pin name="2" x="-2.54" y="7.62" visible="pad" length="short" direction="pas" function="dot"/>
<pin name="3" x="-2.54" y="5.08" visible="pad" length="short" direction="pas" function="dot"/>
<pin name="4" x="-2.54" y="2.54" visible="pad" length="short" direction="pas" function="dot"/>
<pin name="5" x="-2.54" y="0" visible="pad" length="short" direction="pas" function="dot"/>
<pin name="6" x="-2.54" y="-2.54" visible="pad" length="short" direction="pas" function="dot"/>
<pin name="7" x="-2.54" y="-5.08" visible="pad" length="short" direction="pas" function="dot"/>
<pin name="8" x="-2.54" y="-7.62" visible="pad" length="short" direction="pas" function="dot"/>
<pin name="9" x="-2.54" y="-10.16" visible="pad" length="short" direction="pas" function="dot"/>
<pin name="10" x="-2.54" y="-12.7" visible="pad" length="short" direction="pas" function="dot"/>
</symbol>
</symbols>
<devicesets>
<deviceset name="PINHD-1X10" urn="urn:adsk.eagle:component:6240997/1" library_version="2">
<description>&lt;b&gt;Pin header 1x10 0.1" spacing&lt;/b&gt;
&lt;p&gt;
With round pins</description>
<gates>
<gate name="G$1" symbol="PINHD10" x="0" y="0"/>
</gates>
<devices>
<device name="" package="1X10-BIG">
<connects>
<connect gate="G$1" pin="1" pad="1"/>
<connect gate="G$1" pin="10" pad="10"/>
<connect gate="G$1" pin="2" pad="2"/>
<connect gate="G$1" pin="3" pad="3"/>
<connect gate="G$1" pin="4" pad="4"/>
<connect gate="G$1" pin="5" pad="5"/>
<connect gate="G$1" pin="6" pad="6"/>
<connect gate="G$1" pin="7" pad="7"/>
<connect gate="G$1" pin="8" pad="8"/>
<connect gate="G$1" pin="9" pad="9"/>
</connects>
<package3dinstances>
<package3dinstance package3d_urn="urn:adsk.eagle:package:6240656/1"/>
</package3dinstances>
<technologies>
<technology name=""/>
</technologies>
</device>
</devices>
</deviceset>
</devicesets>
</library>
<library name="SamacSys_Parts">
<packages>
<package name="21-0140L_T1655-2">
<smd name="1" x="-2.4511" y="1.2" dx="0.3556" dy="0.8128" layer="1" rot="R270"/>
<smd name="2" x="-2.4511" y="0.4" dx="0.3556" dy="0.8128" layer="1" rot="R270"/>
<smd name="3" x="-2.4511" y="-0.4" dx="0.3556" dy="0.8128" layer="1" rot="R270"/>
<smd name="4" x="-2.4511" y="-1.2" dx="0.3556" dy="0.8128" layer="1" rot="R270"/>
<smd name="5" x="-1.2" y="-2.4511" dx="0.3556" dy="0.8128" layer="1" rot="R180"/>
<smd name="6" x="-0.4" y="-2.4511" dx="0.3556" dy="0.8128" layer="1" rot="R180"/>
<smd name="7" x="0.4" y="-2.4511" dx="0.3556" dy="0.8128" layer="1" rot="R180"/>
<smd name="8" x="1.2" y="-2.4511" dx="0.3556" dy="0.8128" layer="1" rot="R180"/>
<smd name="9" x="2.4511" y="-1.2" dx="0.3556" dy="0.8128" layer="1" rot="R270"/>
<smd name="10" x="2.4511" y="-0.4" dx="0.3556" dy="0.8128" layer="1" rot="R270"/>
<smd name="11" x="2.4511" y="0.4" dx="0.3556" dy="0.8128" layer="1" rot="R270"/>
<smd name="12" x="2.4511" y="1.2" dx="0.3556" dy="0.8128" layer="1" rot="R270"/>
<smd name="13" x="1.2" y="2.4511" dx="0.3556" dy="0.8128" layer="1" rot="R180"/>
<smd name="14" x="0.4" y="2.4511" dx="0.3556" dy="0.8128" layer="1" rot="R180"/>
<smd name="15" x="-0.4" y="2.4511" dx="0.3556" dy="0.8128" layer="1" rot="R180"/>
<smd name="16" x="-1.2" y="2.4511" dx="0.3556" dy="0.8128" layer="1" rot="R180"/>
<smd name="17" x="0" y="0" dx="3.2004" dy="3.2004" layer="1" cream="no"/>
<wire x1="-2.6924" y1="-2.6924" x2="-1.7018" y2="-2.6924" width="0.1524" layer="21"/>
<wire x1="2.6924" y1="-2.6924" x2="2.6924" y2="-1.7018" width="0.1524" layer="21"/>
<wire x1="2.6924" y1="2.6924" x2="1.7018" y2="2.6924" width="0.1524" layer="21"/>
<wire x1="-2.6924" y1="2.6924" x2="-2.6924" y2="1.7018" width="0.1524" layer="21"/>
<wire x1="-2.6924" y1="-1.7018" x2="-2.6924" y2="-2.6924" width="0.1524" layer="21"/>
<wire x1="1.7018" y1="-2.6924" x2="2.6924" y2="-2.6924" width="0.1524" layer="21"/>
<wire x1="2.6924" y1="1.7018" x2="2.6924" y2="2.6924" width="0.1524" layer="21"/>
<wire x1="-1.7018" y1="2.6924" x2="-2.6924" y2="2.6924" width="0.1524" layer="21"/>
<polygon width="0.0254" layer="21">
<vertex x="3.3655" y="-0.2095"/>
<vertex x="3.3655" y="-0.5905"/>
<vertex x="3.1115" y="-0.5905"/>
<vertex x="3.1115" y="-0.2095"/>
</polygon>
<text x="-4.064" y="0.9652" size="1.27" layer="21" ratio="6" rot="SR0">*</text>
<text x="-1.7272" y="-0.635" size="1.27" layer="21" ratio="6" rot="SR0">&gt;Value</text>
<polygon width="0.0254" layer="31">
<vertex x="-1.5002" y="1.5002"/>
<vertex x="-1.5002" y="0.1"/>
<vertex x="-0.1" y="0.1"/>
<vertex x="-0.1" y="1.5002"/>
</polygon>
<polygon width="0.0254" layer="31">
<vertex x="-1.5002" y="-0.1"/>
<vertex x="-1.5002" y="-1.5002"/>
<vertex x="-0.1" y="-1.5002"/>
<vertex x="-0.1" y="-0.1"/>
</polygon>
<polygon width="0.0254" layer="31">
<vertex x="0.1" y="1.5002"/>
<vertex x="0.1" y="0.1"/>
<vertex x="1.5002" y="0.1"/>
<vertex x="1.5002" y="1.5002"/>
</polygon>
<polygon width="0.0254" layer="31">
<vertex x="0.1" y="-0.1"/>
<vertex x="0.1" y="-1.5002"/>
<vertex x="1.5002" y="-1.5002"/>
<vertex x="1.5002" y="-0.1"/>
</polygon>
<wire x1="-2.54" y1="1.27" x2="-1.27" y2="2.54" width="0.1524" layer="51"/>
<wire x1="1.3716" y1="2.54" x2="1.016" y2="2.54" width="0.1524" layer="51"/>
<wire x1="0.5842" y1="2.54" x2="0.2286" y2="2.54" width="0.1524" layer="51"/>
<wire x1="-0.2286" y1="2.54" x2="-0.5842" y2="2.54" width="0.1524" layer="51"/>
<wire x1="-1.016" y1="2.54" x2="-1.3716" y2="2.54" width="0.1524" layer="51"/>
<wire x1="-2.54" y1="1.3716" x2="-2.54" y2="1.016" width="0.1524" layer="51"/>
<wire x1="-2.54" y1="0.5842" x2="-2.54" y2="0.2286" width="0.1524" layer="51"/>
<wire x1="-2.54" y1="-0.2286" x2="-2.54" y2="-0.5842" width="0.1524" layer="51"/>
<wire x1="-2.54" y1="-1.016" x2="-2.54" y2="-1.3716" width="0.1524" layer="51"/>
<wire x1="-1.3716" y1="-2.54" x2="-1.016" y2="-2.54" width="0.1524" layer="51"/>
<wire x1="-0.5842" y1="-2.54" x2="-0.2286" y2="-2.54" width="0.1524" layer="51"/>
<wire x1="0.2286" y1="-2.54" x2="0.5842" y2="-2.54" width="0.1524" layer="51"/>
<wire x1="1.016" y1="-2.54" x2="1.3716" y2="-2.54" width="0.1524" layer="51"/>
<wire x1="2.54" y1="-1.3716" x2="2.54" y2="-1.016" width="0.1524" layer="51"/>
<wire x1="2.54" y1="-0.5842" x2="2.54" y2="-0.2286" width="0.1524" layer="51"/>
<wire x1="2.54" y1="0.2286" x2="2.54" y2="0.5842" width="0.1524" layer="51"/>
<wire x1="2.54" y1="1.016" x2="2.54" y2="1.3716" width="0.1524" layer="51"/>
<wire x1="-2.54" y1="-2.54" x2="2.54" y2="-2.54" width="0.1524" layer="51"/>
<wire x1="2.54" y1="-2.54" x2="2.54" y2="2.54" width="0.1524" layer="51"/>
<wire x1="2.54" y1="2.54" x2="-2.54" y2="2.54" width="0.1524" layer="51"/>
<wire x1="-2.54" y1="2.54" x2="-2.54" y2="-2.54" width="0.1524" layer="51"/>
<text x="-2.6162" y="0.9652" size="1.27" layer="51" ratio="6" rot="SR0">*</text>
<text x="-3.2766" y="-0.635" size="1.27" layer="25" ratio="6" rot="SR0">&gt;Name</text>
</package>
<package name="21-0140L_T1655-2-M">
<smd name="1" x="-2.5019" y="1.2" dx="0.254" dy="0.9144" layer="1" rot="R270"/>
<smd name="2" x="-2.5019" y="0.4" dx="0.254" dy="0.9144" layer="1" rot="R270"/>
<smd name="3" x="-2.5019" y="-0.4" dx="0.254" dy="0.9144" layer="1" rot="R270"/>
<smd name="4" x="-2.5019" y="-1.2" dx="0.254" dy="0.9144" layer="1" rot="R270"/>
<smd name="5" x="-1.2" y="-2.5019" dx="0.254" dy="0.9144" layer="1" rot="R180"/>
<smd name="6" x="-0.4" y="-2.5019" dx="0.254" dy="0.9144" layer="1" rot="R180"/>
<smd name="7" x="0.4" y="-2.5019" dx="0.254" dy="0.9144" layer="1" rot="R180"/>
<smd name="8" x="1.2" y="-2.5019" dx="0.254" dy="0.9144" layer="1" rot="R180"/>
<smd name="9" x="2.5019" y="-1.2" dx="0.254" dy="0.9144" layer="1" rot="R270"/>
<smd name="10" x="2.5019" y="-0.4" dx="0.254" dy="0.9144" layer="1" rot="R270"/>
<smd name="11" x="2.5019" y="0.4" dx="0.254" dy="0.9144" layer="1" rot="R270"/>
<smd name="12" x="2.5019" y="1.2" dx="0.254" dy="0.9144" layer="1" rot="R270"/>
<smd name="13" x="1.2" y="2.5019" dx="0.254" dy="0.9144" layer="1" rot="R180"/>
<smd name="14" x="0.4" y="2.5019" dx="0.254" dy="0.9144" layer="1" rot="R180"/>
<smd name="15" x="-0.4" y="2.5019" dx="0.254" dy="0.9144" layer="1" rot="R180"/>
<smd name="16" x="-1.2" y="2.5019" dx="0.254" dy="0.9144" layer="1" rot="R180"/>
<smd name="17" x="0" y="0" dx="3.2004" dy="3.2004" layer="1" cream="no"/>
<wire x1="-2.6924" y1="-2.6924" x2="-1.651" y2="-2.6924" width="0.1524" layer="21"/>
<wire x1="2.6924" y1="-2.6924" x2="2.6924" y2="-1.651" width="0.1524" layer="21"/>
<wire x1="2.6924" y1="2.6924" x2="1.651" y2="2.6924" width="0.1524" layer="21"/>
<wire x1="-2.6924" y1="2.6924" x2="-2.6924" y2="1.651" width="0.1524" layer="21"/>
<wire x1="-2.6924" y1="-1.651" x2="-2.6924" y2="-2.6924" width="0.1524" layer="21"/>
<wire x1="1.651" y1="-2.6924" x2="2.6924" y2="-2.6924" width="0.1524" layer="21"/>
<wire x1="2.6924" y1="1.651" x2="2.6924" y2="2.6924" width="0.1524" layer="21"/>
<wire x1="-1.651" y1="2.6924" x2="-2.6924" y2="2.6924" width="0.1524" layer="21"/>
<polygon width="0.0254" layer="21">
<vertex x="3.4671" y="-0.2095"/>
<vertex x="3.4671" y="-0.5905"/>
<vertex x="3.2131" y="-0.5905"/>
<vertex x="3.2131" y="-0.2095"/>
</polygon>
<text x="-4.1656" y="0.9652" size="1.27" layer="21" ratio="6" rot="SR0">*</text>
<text x="-1.7272" y="-0.635" size="1.27" layer="21" ratio="6" rot="SR0">&gt;Value</text>
<polygon width="0.0254" layer="31">
<vertex x="-1.5002" y="1.5002"/>
<vertex x="-1.5002" y="0.1"/>
<vertex x="-0.1" y="0.1"/>
<vertex x="-0.1" y="1.5002"/>
</polygon>
<polygon width="0.0254" layer="31">
<vertex x="-1.5002" y="-0.1"/>
<vertex x="-1.5002" y="-1.5002"/>
<vertex x="-0.1" y="-1.5002"/>
<vertex x="-0.1" y="-0.1"/>
</polygon>
<polygon width="0.0254" layer="31">
<vertex x="0.1" y="1.5002"/>
<vertex x="0.1" y="0.1"/>
<vertex x="1.5002" y="0.1"/>
<vertex x="1.5002" y="1.5002"/>
</polygon>
<polygon width="0.0254" layer="31">
<vertex x="0.1" y="-0.1"/>
<vertex x="0.1" y="-1.5002"/>
<vertex x="1.5002" y="-1.5002"/>
<vertex x="1.5002" y="-0.1"/>
</polygon>
<wire x1="-2.54" y1="1.27" x2="-1.27" y2="2.54" width="0.1524" layer="51"/>
<wire x1="1.3716" y1="2.5654" x2="1.016" y2="2.54" width="0.1524" layer="51"/>
<wire x1="0.5842" y1="2.54" x2="0.2286" y2="2.54" width="0.1524" layer="51"/>
<wire x1="-0.2286" y1="2.54" x2="-0.5842" y2="2.54" width="0.1524" layer="51"/>
<wire x1="-1.016" y1="2.54" x2="-1.3716" y2="2.54" width="0.1524" layer="51"/>
<wire x1="-2.5654" y1="1.3716" x2="-2.54" y2="1.016" width="0.1524" layer="51"/>
<wire x1="-2.54" y1="0.5842" x2="-2.54" y2="0.2286" width="0.1524" layer="51"/>
<wire x1="-2.54" y1="-0.2286" x2="-2.54" y2="-0.5842" width="0.1524" layer="51"/>
<wire x1="-2.54" y1="-1.016" x2="-2.54" y2="-1.3716" width="0.1524" layer="51"/>
<wire x1="-1.3716" y1="-2.54" x2="-1.016" y2="-2.54" width="0.1524" layer="51"/>
<wire x1="-0.5842" y1="-2.54" x2="-0.2286" y2="-2.54" width="0.1524" layer="51"/>
<wire x1="0.2286" y1="-2.54" x2="0.5842" y2="-2.54" width="0.1524" layer="51"/>
<wire x1="1.016" y1="-2.54" x2="1.3716" y2="-2.54" width="0.1524" layer="51"/>
<wire x1="2.5654" y1="-1.3716" x2="2.54" y2="-1.016" width="0.1524" layer="51"/>
<wire x1="2.54" y1="-0.5842" x2="2.54" y2="-0.2286" width="0.1524" layer="51"/>
<wire x1="2.54" y1="0.2286" x2="2.54" y2="0.5842" width="0.1524" layer="51"/>
<wire x1="2.54" y1="1.016" x2="2.54" y2="1.3716" width="0.1524" layer="51"/>
<wire x1="-2.54" y1="-2.54" x2="2.54" y2="-2.54" width="0.1524" layer="51"/>
<wire x1="2.54" y1="-2.54" x2="2.54" y2="2.54" width="0.1524" layer="51"/>
<wire x1="2.54" y1="2.54" x2="-2.54" y2="2.54" width="0.1524" layer="51"/>
<wire x1="-2.54" y1="2.54" x2="-2.54" y2="-2.54" width="0.1524" layer="51"/>
<text x="-2.6162" y="0.9652" size="1.27" layer="51" ratio="6" rot="SR0">*</text>
<text x="-3.2766" y="-0.635" size="1.27" layer="25" ratio="6" rot="SR0">&gt;Name</text>
</package>
<package name="21-0140L_T1655-2-L">
<smd name="1" x="-2.4003" y="1.2" dx="0.254" dy="0.7112" layer="1" rot="R270"/>
<smd name="2" x="-2.4003" y="0.4" dx="0.254" dy="0.7112" layer="1" rot="R270"/>
<smd name="3" x="-2.4003" y="-0.4" dx="0.254" dy="0.7112" layer="1" rot="R270"/>
<smd name="4" x="-2.4003" y="-1.2" dx="0.254" dy="0.7112" layer="1" rot="R270"/>
<smd name="5" x="-1.2" y="-2.4003" dx="0.254" dy="0.7112" layer="1" rot="R180"/>
<smd name="6" x="-0.4" y="-2.4003" dx="0.254" dy="0.7112" layer="1" rot="R180"/>
<smd name="7" x="0.4" y="-2.4003" dx="0.254" dy="0.7112" layer="1" rot="R180"/>
<smd name="8" x="1.2" y="-2.4003" dx="0.254" dy="0.7112" layer="1" rot="R180"/>
<smd name="9" x="2.4003" y="-1.2" dx="0.254" dy="0.7112" layer="1" rot="R270"/>
<smd name="10" x="2.4003" y="-0.4" dx="0.254" dy="0.7112" layer="1" rot="R270"/>
<smd name="11" x="2.4003" y="0.4" dx="0.254" dy="0.7112" layer="1" rot="R270"/>
<smd name="12" x="2.4003" y="1.2" dx="0.254" dy="0.7112" layer="1" rot="R270"/>
<smd name="13" x="1.2" y="2.4003" dx="0.254" dy="0.7112" layer="1" rot="R180"/>
<smd name="14" x="0.4" y="2.4003" dx="0.254" dy="0.7112" layer="1" rot="R180"/>
<smd name="15" x="-0.4" y="2.4003" dx="0.254" dy="0.7112" layer="1" rot="R180"/>
<smd name="16" x="-1.2" y="2.4003" dx="0.254" dy="0.7112" layer="1" rot="R180"/>
<smd name="17" x="0" y="0" dx="3.2004" dy="3.2004" layer="1" cream="no"/>
<wire x1="-2.6924" y1="-2.6924" x2="-1.651" y2="-2.6924" width="0.1524" layer="21"/>
<wire x1="2.6924" y1="-2.6924" x2="2.6924" y2="-1.651" width="0.1524" layer="21"/>
<wire x1="2.6924" y1="2.6924" x2="1.651" y2="2.6924" width="0.1524" layer="21"/>
<wire x1="-2.6924" y1="2.6924" x2="-2.6924" y2="1.651" width="0.1524" layer="21"/>
<wire x1="-2.6924" y1="-1.651" x2="-2.6924" y2="-2.6924" width="0.1524" layer="21"/>
<wire x1="1.651" y1="-2.6924" x2="2.6924" y2="-2.6924" width="0.1524" layer="21"/>
<wire x1="2.6924" y1="1.651" x2="2.6924" y2="2.6924" width="0.1524" layer="21"/>
<wire x1="-1.651" y1="2.6924" x2="-2.6924" y2="2.6924" width="0.1524" layer="21"/>
<polygon width="0.0254" layer="21">
<vertex x="3.2639" y="-0.2095"/>
<vertex x="3.2639" y="-0.5905"/>
<vertex x="3.0099" y="-0.5905"/>
<vertex x="3.0099" y="-0.2095"/>
</polygon>
<text x="-3.9624" y="0.9652" size="1.27" layer="21" ratio="6" rot="SR0">*</text>
<text x="-1.7272" y="-0.635" size="1.27" layer="21" ratio="6" rot="SR0">&gt;Value</text>
<polygon width="0.0254" layer="31">
<vertex x="-1.5002" y="1.5002"/>
<vertex x="-1.5002" y="0.1"/>
<vertex x="-0.1" y="0.1"/>
<vertex x="-0.1" y="1.5002"/>
</polygon>
<polygon width="0.0254" layer="31">
<vertex x="-1.5002" y="-0.1"/>
<vertex x="-1.5002" y="-1.5002"/>
<vertex x="-0.1" y="-1.5002"/>
<vertex x="-0.1" y="-0.1"/>
</polygon>
<polygon width="0.0254" layer="31">
<vertex x="0.1" y="1.5002"/>
<vertex x="0.1" y="0.1"/>
<vertex x="1.5002" y="0.1"/>
<vertex x="1.5002" y="1.5002"/>
</polygon>
<polygon width="0.0254" layer="31">
<vertex x="0.1" y="-0.1"/>
<vertex x="0.1" y="-1.5002"/>
<vertex x="1.5002" y="-1.5002"/>
<vertex x="1.5002" y="-0.1"/>
</polygon>
<wire x1="-2.54" y1="1.27" x2="-1.27" y2="2.54" width="0.1524" layer="51"/>
<wire x1="1.3716" y1="2.5654" x2="1.016" y2="2.54" width="0.1524" layer="51"/>
<wire x1="0.5842" y1="2.54" x2="0.2286" y2="2.54" width="0.1524" layer="51"/>
<wire x1="-0.2286" y1="2.54" x2="-0.5842" y2="2.54" width="0.1524" layer="51"/>
<wire x1="-1.016" y1="2.54" x2="-1.3716" y2="2.54" width="0.1524" layer="51"/>
<wire x1="-2.5654" y1="1.3716" x2="-2.54" y2="1.016" width="0.1524" layer="51"/>
<wire x1="-2.54" y1="0.5842" x2="-2.54" y2="0.2286" width="0.1524" layer="51"/>
<wire x1="-2.54" y1="-0.2286" x2="-2.54" y2="-0.5842" width="0.1524" layer="51"/>
<wire x1="-2.54" y1="-1.016" x2="-2.54" y2="-1.3716" width="0.1524" layer="51"/>
<wire x1="-1.3716" y1="-2.54" x2="-1.016" y2="-2.54" width="0.1524" layer="51"/>
<wire x1="-0.5842" y1="-2.54" x2="-0.2286" y2="-2.54" width="0.1524" layer="51"/>
<wire x1="0.2286" y1="-2.54" x2="0.5842" y2="-2.54" width="0.1524" layer="51"/>
<wire x1="1.016" y1="-2.54" x2="1.3716" y2="-2.54" width="0.1524" layer="51"/>
<wire x1="2.5654" y1="-1.3716" x2="2.54" y2="-1.016" width="0.1524" layer="51"/>
<wire x1="2.54" y1="-0.5842" x2="2.54" y2="-0.2286" width="0.1524" layer="51"/>
<wire x1="2.54" y1="0.2286" x2="2.54" y2="0.5842" width="0.1524" layer="51"/>
<wire x1="2.54" y1="1.016" x2="2.54" y2="1.3716" width="0.1524" layer="51"/>
<wire x1="-2.54" y1="-2.54" x2="2.54" y2="-2.54" width="0.1524" layer="51"/>
<wire x1="2.54" y1="-2.54" x2="2.54" y2="2.54" width="0.1524" layer="51"/>
<wire x1="2.54" y1="2.54" x2="-2.54" y2="2.54" width="0.1524" layer="51"/>
<wire x1="-2.54" y1="2.54" x2="-2.54" y2="-2.54" width="0.1524" layer="51"/>
<text x="-2.6162" y="0.9652" size="1.27" layer="51" ratio="6" rot="SR0">*</text>
<text x="-3.2766" y="-0.635" size="1.27" layer="25" ratio="6" rot="SR0">&gt;Name</text>
</package>
</packages>
<symbols>
<symbol name="MAX1874ETE">
<pin name="DCLV" x="2.54" y="0" length="middle" direction="in"/>
<pin name="DC" x="2.54" y="-2.54" length="middle" direction="in"/>
<pin name="!CHG" x="2.54" y="-5.08" length="middle" direction="out"/>
<pin name="USEL" x="2.54" y="-7.62" length="middle" direction="in"/>
<pin name="EN" x="2.54" y="-10.16" length="middle" direction="in"/>
<pin name="GND" x="2.54" y="-12.7" length="middle" direction="pwr"/>
<pin name="DCI" x="2.54" y="-15.24" length="middle" direction="in"/>
<pin name="THRM" x="2.54" y="-17.78" length="middle" direction="pas"/>
<pin name="REF" x="58.42" y="-20.32" length="middle" direction="out" rot="R180"/>
<pin name="PGND" x="58.42" y="-17.78" length="middle" direction="pwr" rot="R180"/>
<pin name="PYB" x="58.42" y="-15.24" length="middle" direction="in" rot="R180"/>
<pin name="USB" x="58.42" y="-12.7" length="middle" direction="in" rot="R180"/>
<pin name="!UOK" x="58.42" y="-10.16" length="middle" direction="out" rot="R180"/>
<pin name="PON" x="58.42" y="-7.62" length="middle" direction="out" rot="R180"/>
<pin name="BATT" x="58.42" y="-5.08" length="middle" direction="out" rot="R180"/>
<pin name="!DCOK" x="58.42" y="-2.54" length="middle" direction="out" rot="R180"/>
<pin name="17" x="58.42" y="0" length="middle" direction="pas" rot="R180"/>
<wire x1="7.112" y1="0" x2="6.0452" y2="0.508" width="0.1524" layer="94"/>
<wire x1="7.112" y1="0" x2="6.0452" y2="-0.508" width="0.1524" layer="94"/>
<wire x1="7.112" y1="-2.54" x2="6.0452" y2="-2.032" width="0.1524" layer="94"/>
<wire x1="7.112" y1="-2.54" x2="6.0452" y2="-3.048" width="0.1524" layer="94"/>
<wire x1="7.112" y1="-4.572" x2="6.0452" y2="-5.08" width="0.1524" layer="94"/>
<wire x1="7.112" y1="-5.588" x2="6.0452" y2="-5.08" width="0.1524" layer="94"/>
<wire x1="7.112" y1="-7.62" x2="6.0452" y2="-7.112" width="0.1524" layer="94"/>
<wire x1="7.112" y1="-7.62" x2="6.0452" y2="-8.128" width="0.1524" layer="94"/>
<wire x1="7.112" y1="-10.16" x2="6.0452" y2="-9.652" width="0.1524" layer="94"/>
<wire x1="7.112" y1="-10.16" x2="6.0452" y2="-10.668" width="0.1524" layer="94"/>
<wire x1="7.112" y1="-15.24" x2="6.0452" y2="-14.732" width="0.1524" layer="94"/>
<wire x1="7.112" y1="-15.24" x2="6.0452" y2="-15.748" width="0.1524" layer="94"/>
<wire x1="53.848" y1="-19.812" x2="54.9148" y2="-20.32" width="0.1524" layer="94"/>
<wire x1="53.848" y1="-20.828" x2="54.9148" y2="-20.32" width="0.1524" layer="94"/>
<wire x1="53.848" y1="-15.24" x2="54.9148" y2="-14.732" width="0.1524" layer="94"/>
<wire x1="53.848" y1="-15.24" x2="54.9148" y2="-15.748" width="0.1524" layer="94"/>
<wire x1="53.848" y1="-12.7" x2="54.9148" y2="-12.192" width="0.1524" layer="94"/>
<wire x1="53.848" y1="-12.7" x2="54.9148" y2="-13.208" width="0.1524" layer="94"/>
<wire x1="53.848" y1="-9.652" x2="54.9148" y2="-10.16" width="0.1524" layer="94"/>
<wire x1="53.848" y1="-10.668" x2="54.9148" y2="-10.16" width="0.1524" layer="94"/>
<wire x1="53.848" y1="-7.112" x2="54.9148" y2="-7.62" width="0.1524" layer="94"/>
<wire x1="53.848" y1="-8.128" x2="54.9148" y2="-7.62" width="0.1524" layer="94"/>
<wire x1="53.848" y1="-4.572" x2="54.9148" y2="-5.08" width="0.1524" layer="94"/>
<wire x1="53.848" y1="-5.588" x2="54.9148" y2="-5.08" width="0.1524" layer="94"/>
<wire x1="53.848" y1="-2.032" x2="54.9148" y2="-2.54" width="0.1524" layer="94"/>
<wire x1="53.848" y1="-3.048" x2="54.9148" y2="-2.54" width="0.1524" layer="94"/>
<wire x1="7.62" y1="5.08" x2="7.62" y2="-25.4" width="0.1524" layer="94"/>
<wire x1="7.62" y1="-25.4" x2="53.34" y2="-25.4" width="0.1524" layer="94"/>
<wire x1="53.34" y1="-25.4" x2="53.34" y2="5.08" width="0.1524" layer="94"/>
<wire x1="53.34" y1="5.08" x2="7.62" y2="5.08" width="0.1524" layer="94"/>
<text x="25.7556" y="9.1186" size="2.0828" layer="95" ratio="6" rot="SR0">&gt;Name</text>
<text x="25.1206" y="6.5786" size="2.0828" layer="96" ratio="6" rot="SR0">&gt;Value</text>
</symbol>
</symbols>
<devicesets>
<deviceset name="MAX1874ETE+" prefix="U">
<gates>
<gate name="A" symbol="MAX1874ETE" x="0" y="0"/>
</gates>
<devices>
<device name="" package="21-0140L_T1655-2">
<connects>
<connect gate="A" pin="!CHG" pad="3"/>
<connect gate="A" pin="!DCOK" pad="16"/>
<connect gate="A" pin="!UOK" pad="13"/>
<connect gate="A" pin="17" pad="17"/>
<connect gate="A" pin="BATT" pad="15"/>
<connect gate="A" pin="DC" pad="2"/>
<connect gate="A" pin="DCI" pad="7"/>
<connect gate="A" pin="DCLV" pad="1"/>
<connect gate="A" pin="EN" pad="5"/>
<connect gate="A" pin="GND" pad="6"/>
<connect gate="A" pin="PGND" pad="10"/>
<connect gate="A" pin="PON" pad="14"/>
<connect gate="A" pin="PYB" pad="11"/>
<connect gate="A" pin="REF" pad="9"/>
<connect gate="A" pin="THRM" pad="8"/>
<connect gate="A" pin="USB" pad="12"/>
<connect gate="A" pin="USEL" pad="4"/>
</connects>
<technologies>
<technology name="">
<attribute name="BUILT_BY" value="EMA_UL_Team" constant="no"/>
<attribute name="MANUFACTURER_PART_NUMBER" value="MAX1874ETE+" constant="no"/>
<attribute name="VENDOR" value="Maxim Integrated Products" constant="no"/>
</technology>
</technologies>
</device>
<device name="21-0140L_T1655-2-M" package="21-0140L_T1655-2-M">
<connects>
<connect gate="A" pin="!CHG" pad="3"/>
<connect gate="A" pin="!DCOK" pad="16"/>
<connect gate="A" pin="!UOK" pad="13"/>
<connect gate="A" pin="17" pad="17"/>
<connect gate="A" pin="BATT" pad="15"/>
<connect gate="A" pin="DC" pad="2"/>
<connect gate="A" pin="DCI" pad="7"/>
<connect gate="A" pin="DCLV" pad="1"/>
<connect gate="A" pin="EN" pad="5"/>
<connect gate="A" pin="GND" pad="6"/>
<connect gate="A" pin="PGND" pad="10"/>
<connect gate="A" pin="PON" pad="14"/>
<connect gate="A" pin="PYB" pad="11"/>
<connect gate="A" pin="REF" pad="9"/>
<connect gate="A" pin="THRM" pad="8"/>
<connect gate="A" pin="USB" pad="12"/>
<connect gate="A" pin="USEL" pad="4"/>
</connects>
<technologies>
<technology name="">
<attribute name="BUILT_BY" value="EMA_UL_Team" constant="no"/>
<attribute name="MANUFACTURER_PART_NUMBER" value="MAX1874ETE+" constant="no"/>
<attribute name="VENDOR" value="Maxim Integrated Products" constant="no"/>
</technology>
</technologies>
</device>
<device name="21-0140L_T1655-2-L" package="21-0140L_T1655-2-L">
<connects>
<connect gate="A" pin="!CHG" pad="3"/>
<connect gate="A" pin="!DCOK" pad="16"/>
<connect gate="A" pin="!UOK" pad="13"/>
<connect gate="A" pin="17" pad="17"/>
<connect gate="A" pin="BATT" pad="15"/>
<connect gate="A" pin="DC" pad="2"/>
<connect gate="A" pin="DCI" pad="7"/>
<connect gate="A" pin="DCLV" pad="1"/>
<connect gate="A" pin="EN" pad="5"/>
<connect gate="A" pin="GND" pad="6"/>
<connect gate="A" pin="PGND" pad="10"/>
<connect gate="A" pin="PON" pad="14"/>
<connect gate="A" pin="PYB" pad="11"/>
<connect gate="A" pin="REF" pad="9"/>
<connect gate="A" pin="THRM" pad="8"/>
<connect gate="A" pin="USB" pad="12"/>
<connect gate="A" pin="USEL" pad="4"/>
</connects>
<technologies>
<technology name="">
<attribute name="BUILT_BY" value="EMA_UL_Team" constant="no"/>
<attribute name="MANUFACTURER_PART_NUMBER" value="MAX1874ETE+" constant="no"/>
<attribute name="VENDOR" value="Maxim Integrated Products" constant="no"/>
</technology>
</technologies>
</device>
</devices>
</deviceset>
</devicesets>
</library>
</libraries>
<attributes>
</attributes>
<variantdefs>
</variantdefs>
<classes>
<class number="0" name="default" width="0" drill="0">
</class>
</classes>
<parts>
<part name="IC1" library="SamacSys_Parts" library_urn="urn:adsk.eagle:library:19142403" deviceset="SCR2100-D08-05" device=""/>
<part name="TESTPINS" library="adafruit" library_urn="urn:adsk.eagle:library:420" deviceset="PINHD-1X10" device="" package3d_urn="urn:adsk.eagle:package:6240656/1"/>
<part name="U1" library="SamacSys_Parts" deviceset="MAX1874ETE+" device=""/>
<part name="TESTPINS1" library="adafruit" library_urn="urn:adsk.eagle:library:420" deviceset="PINHD-1X10" device="" package3d_urn="urn:adsk.eagle:package:6240656/1"/>
<part name="TESTPINS2" library="adafruit" library_urn="urn:adsk.eagle:library:420" deviceset="PINHD-1X10" device="" package3d_urn="urn:adsk.eagle:package:6240656/1"/>
</parts>
<sheets>
<sheet>
<plain>
</plain>
<instances>
<instance part="IC1" gate="G$1" x="-5.08" y="30.48" smashed="yes">
<attribute name="NAME" x="34.29" y="38.1" size="1.778" layer="95" align="center-left"/>
<attribute name="VALUE" x="34.29" y="35.56" size="1.778" layer="96" align="center-left"/>
</instance>
<instance part="TESTPINS" gate="G$1" x="104.14" y="15.24" smashed="yes">
<attribute name="NAME" x="97.79" y="28.575" size="1.778" layer="95"/>
</instance>
<instance part="U1" gate="A" x="-12.7" y="-17.78" smashed="yes">
<attribute name="VALUE" x="9.8806" y="-26.4414" size="2.0828" layer="96" ratio="6" rot="SR0"/>
</instance>
<instance part="TESTPINS1" gate="G$1" x="73.66" y="-30.48" smashed="yes">
<attribute name="NAME" x="67.31" y="-17.145" size="1.778" layer="95"/>
</instance>
<instance part="TESTPINS2" gate="G$1" x="-35.56" y="-27.94" smashed="yes" rot="MR0">
<attribute name="NAME" x="-29.21" y="-14.605" size="1.778" layer="95" rot="MR0"/>
</instance>
</instances>
<busses>
</busses>
<nets>
<net name="GND" class="0">
<segment>
<wire x1="101.6" y1="25.4" x2="71.12" y2="25.4" width="0.1524" layer="91"/>
<label x="71.12" y="25.4" size="1.778" layer="95"/>
<pinref part="TESTPINS" gate="G$1" pin="1"/>
</segment>
<segment>
<pinref part="U1" gate="A" pin="GND"/>
<wire x1="-10.16" y1="-30.48" x2="-33.02" y2="-30.48" width="0.1524" layer="91"/>
<pinref part="TESTPINS2" gate="G$1" pin="6"/>
</segment>
<segment>
<pinref part="U1" gate="A" pin="PGND"/>
<wire x1="45.72" y1="-35.56" x2="71.12" y2="-35.56" width="0.1524" layer="91"/>
<label x="48.26" y="-35.56" size="1.778" layer="95"/>
<pinref part="TESTPINS1" gate="G$1" pin="7"/>
</segment>
<segment>
<pinref part="IC1" gate="G$1" pin="HEAT_1"/>
<wire x1="-5.08" y1="30.48" x2="-30.48" y2="30.48" width="0.1524" layer="91"/>
<wire x1="-30.48" y1="30.48" x2="-30.48" y2="12.7" width="0.1524" layer="91"/>
<pinref part="IC1" gate="G$1" pin="HEAT_2"/>
<wire x1="-30.48" y1="12.7" x2="-30.48" y2="7.62" width="0.1524" layer="91"/>
<wire x1="-30.48" y1="7.62" x2="-30.48" y2="2.54" width="0.1524" layer="91"/>
<wire x1="-30.48" y1="2.54" x2="-5.08" y2="2.54" width="0.1524" layer="91"/>
<pinref part="IC1" gate="G$1" pin="DVSS"/>
<wire x1="-5.08" y1="12.7" x2="-30.48" y2="12.7" width="0.1524" layer="91"/>
<junction x="-30.48" y="12.7"/>
<label x="-27.94" y="2.54" size="1.778" layer="95"/>
<pinref part="IC1" gate="G$1" pin="D_EXTC"/>
<wire x1="-5.08" y1="7.62" x2="-30.48" y2="7.62" width="0.1524" layer="91"/>
<junction x="-30.48" y="7.62"/>
<pinref part="IC1" gate="G$1" pin="HEAT_4"/>
<wire x1="38.1" y1="30.48" x2="66.04" y2="30.48" width="0.1524" layer="91"/>
<wire x1="66.04" y1="30.48" x2="66.04" y2="50.8" width="0.1524" layer="91"/>
<wire x1="66.04" y1="50.8" x2="-30.48" y2="50.8" width="0.1524" layer="91"/>
<wire x1="-30.48" y1="50.8" x2="-30.48" y2="30.48" width="0.1524" layer="91"/>
<junction x="-30.48" y="30.48"/>
<pinref part="IC1" gate="G$1" pin="AVSS"/>
<wire x1="38.1" y1="12.7" x2="66.04" y2="12.7" width="0.1524" layer="91"/>
<wire x1="66.04" y1="12.7" x2="66.04" y2="30.48" width="0.1524" layer="91"/>
<junction x="66.04" y="30.48"/>
<pinref part="IC1" gate="G$1" pin="AVSS_REF"/>
<wire x1="66.04" y1="12.7" x2="66.04" y2="10.16" width="0.1524" layer="91"/>
<wire x1="66.04" y1="10.16" x2="38.1" y2="10.16" width="0.1524" layer="91"/>
<junction x="66.04" y="12.7"/>
<pinref part="IC1" gate="G$1" pin="HEAT_3"/>
<wire x1="38.1" y1="2.54" x2="66.04" y2="2.54" width="0.1524" layer="91"/>
<wire x1="66.04" y1="2.54" x2="66.04" y2="5.08" width="0.1524" layer="91"/>
<junction x="66.04" y="10.16"/>
<wire x1="66.04" y1="5.08" x2="66.04" y2="7.62" width="0.1524" layer="91"/>
<wire x1="66.04" y1="7.62" x2="66.04" y2="10.16" width="0.1524" layer="91"/>
<wire x1="38.1" y1="5.08" x2="66.04" y2="5.08" width="0.1524" layer="91"/>
<junction x="66.04" y="5.08"/>
<pinref part="IC1" gate="G$1" pin="AVDD"/>
<pinref part="IC1" gate="G$1" pin="A_EXTC"/>
<wire x1="38.1" y1="7.62" x2="66.04" y2="7.62" width="0.1524" layer="91"/>
<junction x="66.04" y="7.62"/>
</segment>
</net>
<net name="VBAT" class="0">
<segment>
<wire x1="101.6" y1="22.86" x2="71.12" y2="22.86" width="0.1524" layer="91"/>
<label x="71.12" y="22.86" size="1.778" layer="95"/>
<pinref part="TESTPINS" gate="G$1" pin="2"/>
</segment>
<segment>
<pinref part="IC1" gate="G$1" pin="DVDD"/>
<wire x1="-5.08" y1="10.16" x2="-27.94" y2="10.16" width="0.1524" layer="91"/>
<label x="-27.94" y="10.16" size="1.778" layer="95"/>
</segment>
</net>
<net name="GYRO_SPI_SCK" class="0">
<segment>
<wire x1="101.6" y1="10.16" x2="71.12" y2="10.16" width="0.1524" layer="91"/>
<label x="71.12" y="10.16" size="1.778" layer="95"/>
<pinref part="TESTPINS" gate="G$1" pin="7"/>
</segment>
<segment>
<pinref part="IC1" gate="G$1" pin="SCK"/>
<wire x1="-5.08" y1="22.86" x2="-27.94" y2="22.86" width="0.1524" layer="91"/>
<label x="-27.94" y="22.86" size="1.778" layer="95"/>
</segment>
</net>
<net name="GYRO_SPI_CSB" class="0">
<segment>
<wire x1="101.6" y1="7.62" x2="71.12" y2="7.62" width="0.1524" layer="91"/>
<label x="71.12" y="7.62" size="1.778" layer="95"/>
<pinref part="TESTPINS" gate="G$1" pin="8"/>
</segment>
<segment>
<pinref part="IC1" gate="G$1" pin="CSB"/>
<wire x1="38.1" y1="15.24" x2="60.96" y2="15.24" width="0.1524" layer="91"/>
<label x="43.18" y="15.24" size="1.778" layer="95"/>
</segment>
</net>
<net name="GYRO_SPI_MOSI" class="0">
<segment>
<wire x1="101.6" y1="15.24" x2="71.12" y2="15.24" width="0.1524" layer="91"/>
<label x="71.12" y="15.24" size="1.778" layer="95"/>
<pinref part="TESTPINS" gate="G$1" pin="5"/>
</segment>
<segment>
<pinref part="IC1" gate="G$1" pin="MOSI"/>
<wire x1="38.1" y1="17.78" x2="60.96" y2="17.78" width="0.1524" layer="91"/>
<label x="43.18" y="17.78" size="1.778" layer="95"/>
</segment>
</net>
<net name="GYRO_SPI_MISO" class="0">
<segment>
<wire x1="101.6" y1="12.7" x2="71.12" y2="12.7" width="0.1524" layer="91"/>
<label x="71.12" y="12.7" size="1.778" layer="95"/>
<pinref part="TESTPINS" gate="G$1" pin="6"/>
</segment>
<segment>
<pinref part="IC1" gate="G$1" pin="MISO"/>
<wire x1="-5.08" y1="20.32" x2="-27.94" y2="20.32" width="0.1524" layer="91"/>
<label x="-27.94" y="20.32" size="1.778" layer="95"/>
</segment>
</net>
<net name="GYRO_PWR_SW" class="0">
<segment>
<wire x1="101.6" y1="17.78" x2="71.12" y2="17.78" width="0.1524" layer="91"/>
<label x="71.12" y="17.78" size="1.778" layer="95"/>
<pinref part="TESTPINS" gate="G$1" pin="4"/>
</segment>
</net>
<net name="GYRO_PWR_FET" class="0">
<segment>
<wire x1="101.6" y1="20.32" x2="71.12" y2="20.32" width="0.1524" layer="91"/>
<label x="71.12" y="20.32" size="1.778" layer="95"/>
<pinref part="TESTPINS" gate="G$1" pin="3"/>
</segment>
</net>
<net name="GYRO_EXT_RSET" class="0">
<segment>
<pinref part="TESTPINS" gate="G$1" pin="9"/>
<wire x1="101.6" y1="5.08" x2="71.12" y2="5.08" width="0.1524" layer="91"/>
<label x="71.12" y="5.08" size="1.778" layer="95"/>
</segment>
<segment>
<pinref part="IC1" gate="G$1" pin="EXTRESN"/>
<wire x1="-5.08" y1="25.4" x2="-27.94" y2="25.4" width="0.1524" layer="91"/>
<label x="-27.94" y="25.4" size="1.778" layer="95"/>
</segment>
</net>
<net name="VBUS_5V" class="0">
<segment>
<pinref part="U1" gate="A" pin="USEL"/>
<wire x1="-10.16" y1="-25.4" x2="-33.02" y2="-25.4" width="0.1524" layer="91"/>
<pinref part="U1" gate="A" pin="DC"/>
<wire x1="-10.16" y1="-20.32" x2="-33.02" y2="-20.32" width="0.1524" layer="91"/>
<pinref part="U1" gate="A" pin="EN"/>
<wire x1="-10.16" y1="-27.94" x2="-33.02" y2="-27.94" width="0.1524" layer="91"/>
<pinref part="TESTPINS2" gate="G$1" pin="2"/>
<pinref part="TESTPINS2" gate="G$1" pin="4"/>
<pinref part="TESTPINS2" gate="G$1" pin="5"/>
</segment>
</net>
<net name="PON" class="0">
<segment>
<pinref part="U1" gate="A" pin="PON"/>
<label x="48.26" y="-25.4" size="1.778" layer="95"/>
<wire x1="71.12" y1="-25.4" x2="45.72" y2="-25.4" width="0.1524" layer="91"/>
<pinref part="TESTPINS1" gate="G$1" pin="3"/>
</segment>
</net>
<net name="BYP" class="0">
<segment>
<pinref part="U1" gate="A" pin="PYB"/>
<wire x1="45.72" y1="-33.02" x2="71.12" y2="-33.02" width="0.1524" layer="91"/>
<label x="48.26" y="-33.02" size="1.778" layer="95"/>
<pinref part="TESTPINS1" gate="G$1" pin="6"/>
</segment>
</net>
<net name="REF" class="0">
<segment>
<pinref part="U1" gate="A" pin="REF"/>
<wire x1="45.72" y1="-38.1" x2="71.12" y2="-38.1" width="0.1524" layer="91"/>
<label x="48.26" y="-38.1" size="1.778" layer="95"/>
<pinref part="TESTPINS1" gate="G$1" pin="8"/>
</segment>
</net>
<net name="THRM" class="0">
<segment>
<wire x1="-33.02" y1="-35.56" x2="-10.16" y2="-35.56" width="0.1524" layer="91"/>
<pinref part="U1" gate="A" pin="THRM"/>
<pinref part="TESTPINS2" gate="G$1" pin="8"/>
</segment>
</net>
<net name="DCOK" class="0">
<segment>
<pinref part="U1" gate="A" pin="!DCOK"/>
<wire x1="45.72" y1="-20.32" x2="71.12" y2="-20.32" width="0.1524" layer="91"/>
<label x="48.26" y="-20.32" size="1.778" layer="95"/>
<pinref part="TESTPINS1" gate="G$1" pin="1"/>
</segment>
</net>
<net name="DCLV" class="0">
<segment>
<pinref part="U1" gate="A" pin="DCLV"/>
<wire x1="-33.02" y1="-17.78" x2="-10.16" y2="-17.78" width="0.1524" layer="91"/>
<label x="-17.78" y="-17.78" size="1.778" layer="95"/>
<pinref part="TESTPINS2" gate="G$1" pin="1"/>
</segment>
</net>
<net name="UOK" class="0">
<segment>
<pinref part="U1" gate="A" pin="!UOK"/>
<wire x1="45.72" y1="-27.94" x2="71.12" y2="-27.94" width="0.1524" layer="91"/>
<pinref part="TESTPINS1" gate="G$1" pin="4"/>
</segment>
</net>
<net name="CHG" class="0">
<segment>
<pinref part="U1" gate="A" pin="!CHG"/>
<wire x1="-10.16" y1="-22.86" x2="-33.02" y2="-22.86" width="0.1524" layer="91"/>
<pinref part="TESTPINS2" gate="G$1" pin="3"/>
</segment>
</net>
<net name="BATT" class="0">
<segment>
<pinref part="U1" gate="A" pin="BATT"/>
<wire x1="45.72" y1="-22.86" x2="71.12" y2="-22.86" width="0.1524" layer="91"/>
<label x="48.26" y="-22.86" size="1.778" layer="95"/>
<pinref part="TESTPINS1" gate="G$1" pin="2"/>
</segment>
</net>
<net name="DCI" class="0">
<segment>
<pinref part="U1" gate="A" pin="DCI"/>
<wire x1="-10.16" y1="-33.02" x2="-33.02" y2="-33.02" width="0.1524" layer="91"/>
<pinref part="TESTPINS2" gate="G$1" pin="7"/>
</segment>
</net>
<net name="USB_IN" class="0">
<segment>
<pinref part="U1" gate="A" pin="USB"/>
<wire x1="71.12" y1="-30.48" x2="45.72" y2="-30.48" width="0.1524" layer="91"/>
<pinref part="TESTPINS1" gate="G$1" pin="5"/>
</segment>
</net>
</nets>
</sheet>
</sheets>
</schematic>
</drawing>
<compatibility>
<note version="8.2" severity="warning">
Since Version 8.2, EAGLE supports online libraries. The ids
of those online libraries will not be understood (or retained)
with this version.
</note>
<note version="8.3" severity="warning">
Since Version 8.3, EAGLE supports URNs for individual library
assets (packages, symbols, and devices). The URNs of those assets
will not be understood (or retained) with this version.
</note>
<note version="8.3" severity="warning">
Since Version 8.3, EAGLE supports the association of 3D packages
with devices in libraries, schematics, and board files. Those 3D
packages will not be understood (or retained) with this version.
</note>
</compatibility>
</eagle>
