<?xml version="1.0" encoding="utf-8"?>
<!DOCTYPE eagle SYSTEM "eagle.dtd">
<eagle version="9.6.2">
<drawing>
<settings>
<setting alwaysvectorfont="no"/>
<setting verticaltext="up"/>
</settings>
<grid distance="0.1" unitdist="inch" unit="inch" style="lines" multiple="1" display="no" altdistance="0.01" altunitdist="inch" altunit="inch"/>
<layers>
<layer number="1" name="Top" color="4" fill="1" visible="no" active="no"/>
<layer number="2" name="Route2" color="1" fill="3" visible="no" active="no"/>
<layer number="3" name="Route3" color="4" fill="3" visible="no" active="no"/>
<layer number="4" name="Route4" color="1" fill="4" visible="no" active="no"/>
<layer number="5" name="Route5" color="4" fill="4" visible="no" active="no"/>
<layer number="6" name="Route6" color="1" fill="8" visible="no" active="no"/>
<layer number="7" name="Route7" color="4" fill="8" visible="no" active="no"/>
<layer number="8" name="Route8" color="1" fill="2" visible="no" active="no"/>
<layer number="9" name="Route9" color="4" fill="2" visible="no" active="no"/>
<layer number="10" name="Route10" color="1" fill="7" visible="no" active="no"/>
<layer number="11" name="Route11" color="4" fill="7" visible="no" active="no"/>
<layer number="12" name="Route12" color="1" fill="5" visible="no" active="no"/>
<layer number="13" name="Route13" color="4" fill="5" visible="no" active="no"/>
<layer number="14" name="Route14" color="1" fill="6" visible="no" active="no"/>
<layer number="15" name="Route15" color="4" fill="6" visible="no" active="no"/>
<layer number="16" name="Bottom" color="1" fill="1" visible="no" active="no"/>
<layer number="17" name="Pads" color="2" fill="1" visible="no" active="no"/>
<layer number="18" name="Vias" color="2" fill="1" visible="no" active="no"/>
<layer number="19" name="Unrouted" color="6" fill="1" visible="no" active="no"/>
<layer number="20" name="Dimension" color="15" fill="1" visible="no" active="no"/>
<layer number="21" name="tPlace" color="7" fill="1" visible="no" active="no"/>
<layer number="22" name="bPlace" color="7" fill="1" visible="no" active="no"/>
<layer number="23" name="tOrigins" color="15" fill="1" visible="no" active="no"/>
<layer number="24" name="bOrigins" color="15" fill="1" visible="no" active="no"/>
<layer number="25" name="tNames" color="7" fill="1" visible="no" active="no"/>
<layer number="26" name="bNames" color="7" fill="1" visible="no" active="no"/>
<layer number="27" name="tValues" color="7" fill="1" visible="no" active="no"/>
<layer number="28" name="bValues" color="7" fill="1" visible="no" active="no"/>
<layer number="29" name="tStop" color="7" fill="3" visible="no" active="no"/>
<layer number="30" name="bStop" color="7" fill="6" visible="no" active="no"/>
<layer number="31" name="tCream" color="7" fill="4" visible="no" active="no"/>
<layer number="32" name="bCream" color="7" fill="5" visible="no" active="no"/>
<layer number="33" name="tFinish" color="6" fill="3" visible="no" active="no"/>
<layer number="34" name="bFinish" color="6" fill="6" visible="no" active="no"/>
<layer number="35" name="tGlue" color="7" fill="4" visible="no" active="no"/>
<layer number="36" name="bGlue" color="7" fill="5" visible="no" active="no"/>
<layer number="37" name="tTest" color="7" fill="1" visible="no" active="no"/>
<layer number="38" name="bTest" color="7" fill="1" visible="no" active="no"/>
<layer number="39" name="tKeepout" color="4" fill="11" visible="no" active="no"/>
<layer number="40" name="bKeepout" color="1" fill="11" visible="no" active="no"/>
<layer number="41" name="tRestrict" color="4" fill="10" visible="no" active="no"/>
<layer number="42" name="bRestrict" color="1" fill="10" visible="no" active="no"/>
<layer number="43" name="vRestrict" color="2" fill="10" visible="no" active="no"/>
<layer number="44" name="Drills" color="7" fill="1" visible="no" active="no"/>
<layer number="45" name="Holes" color="7" fill="1" visible="no" active="no"/>
<layer number="46" name="Milling" color="3" fill="1" visible="no" active="no"/>
<layer number="47" name="Measures" color="7" fill="1" visible="no" active="no"/>
<layer number="48" name="Document" color="7" fill="1" visible="no" active="no"/>
<layer number="49" name="Reference" color="7" fill="1" visible="no" active="no"/>
<layer number="50" name="dxf" color="7" fill="1" visible="no" active="no"/>
<layer number="51" name="tDocu" color="7" fill="1" visible="no" active="no"/>
<layer number="52" name="bDocu" color="7" fill="1" visible="no" active="no"/>
<layer number="53" name="tGND_GNDA" color="7" fill="1" visible="no" active="no"/>
<layer number="54" name="bGND_GNDA" color="7" fill="1" visible="no" active="no"/>
<layer number="56" name="wert" color="7" fill="1" visible="no" active="no"/>
<layer number="57" name="tCAD" color="7" fill="1" visible="no" active="no"/>
<layer number="59" name="tCarbon" color="7" fill="1" visible="no" active="no"/>
<layer number="60" name="bCarbon" color="7" fill="1" visible="no" active="no"/>
<layer number="88" name="SimResults" color="9" fill="1" visible="yes" active="yes"/>
<layer number="89" name="SimProbes" color="9" fill="1" visible="yes" active="yes"/>
<layer number="90" name="Modules" color="5" fill="1" visible="yes" active="yes"/>
<layer number="91" name="Nets" color="2" fill="1" visible="yes" active="yes"/>
<layer number="92" name="Busses" color="1" fill="1" visible="yes" active="yes"/>
<layer number="93" name="Pins" color="2" fill="1" visible="no" active="yes"/>
<layer number="94" name="Symbols" color="4" fill="1" visible="yes" active="yes"/>
<layer number="95" name="Names" color="7" fill="1" visible="yes" active="yes"/>
<layer number="96" name="Values" color="7" fill="1" visible="yes" active="yes"/>
<layer number="97" name="Info" color="7" fill="1" visible="yes" active="yes"/>
<layer number="98" name="Guide" color="6" fill="1" visible="yes" active="yes"/>
<layer number="99" name="SpiceOrder" color="5" fill="1" visible="yes" active="yes"/>
<layer number="100" name="Muster" color="7" fill="1" visible="yes" active="yes"/>
<layer number="101" name="Patch_Top" color="7" fill="1" visible="yes" active="yes"/>
<layer number="102" name="Vscore" color="7" fill="1" visible="yes" active="yes"/>
<layer number="103" name="fp3" color="7" fill="1" visible="yes" active="yes"/>
<layer number="104" name="Name" color="7" fill="1" visible="yes" active="yes"/>
<layer number="105" name="Beschreib" color="7" fill="1" visible="yes" active="yes"/>
<layer number="106" name="BGA-Top" color="7" fill="1" visible="yes" active="yes"/>
<layer number="107" name="BD-Top" color="7" fill="1" visible="yes" active="yes"/>
<layer number="108" name="fp8" color="7" fill="1" visible="yes" active="yes"/>
<layer number="109" name="fp9" color="7" fill="1" visible="yes" active="yes"/>
<layer number="110" name="fp0" color="7" fill="1" visible="yes" active="yes"/>
<layer number="111" name="LPC17xx" color="7" fill="1" visible="yes" active="yes"/>
<layer number="112" name="tSilk" color="7" fill="1" visible="yes" active="yes"/>
<layer number="113" name="IDFDebug" color="7" fill="1" visible="yes" active="yes"/>
<layer number="114" name="GND" color="7" fill="1" visible="yes" active="yes"/>
<layer number="115" name="ReferenceISLANDS" color="7" fill="1" visible="yes" active="yes"/>
<layer number="116" name="Patch_BOT" color="7" fill="1" visible="yes" active="yes"/>
<layer number="117" name="BACKMAAT1" color="7" fill="1" visible="yes" active="yes"/>
<layer number="118" name="Rect_Pads" color="7" fill="1" visible="yes" active="yes"/>
<layer number="119" name="KAP_TEKEN" color="7" fill="1" visible="yes" active="yes"/>
<layer number="120" name="KAP_MAAT1" color="7" fill="1" visible="yes" active="yes"/>
<layer number="121" name="_tsilk" color="7" fill="1" visible="yes" active="yes"/>
<layer number="122" name="_bsilk" color="7" fill="1" visible="yes" active="yes"/>
<layer number="123" name="tTestmark" color="7" fill="1" visible="yes" active="yes"/>
<layer number="124" name="bTestmark" color="7" fill="1" visible="yes" active="yes"/>
<layer number="125" name="_tNames" color="7" fill="1" visible="yes" active="yes"/>
<layer number="126" name="_bNames" color="7" fill="1" visible="yes" active="yes"/>
<layer number="127" name="_tValues" color="7" fill="1" visible="yes" active="yes"/>
<layer number="128" name="_bValues" color="7" fill="1" visible="yes" active="yes"/>
<layer number="129" name="Mask" color="7" fill="1" visible="yes" active="yes"/>
<layer number="130" name="SMDSTROOK" color="7" fill="1" visible="yes" active="yes"/>
<layer number="131" name="tAdjust" color="7" fill="1" visible="yes" active="yes"/>
<layer number="132" name="bAdjust" color="7" fill="1" visible="yes" active="yes"/>
<layer number="133" name="bottom_silk" color="7" fill="1" visible="yes" active="yes"/>
<layer number="134" name="silk_top" color="7" fill="1" visible="yes" active="yes"/>
<layer number="135" name="silk_bottom" color="7" fill="1" visible="yes" active="yes"/>
<layer number="136" name="silktop" color="7" fill="1" visible="yes" active="yes"/>
<layer number="137" name="silkbottom" color="7" fill="1" visible="yes" active="yes"/>
<layer number="144" name="Drill_legend" color="7" fill="1" visible="yes" active="yes"/>
<layer number="145" name="DrillLegend_01-16" color="7" fill="1" visible="yes" active="yes"/>
<layer number="146" name="DrillLegend_01-20" color="7" fill="1" visible="yes" active="yes"/>
<layer number="150" name="Notes" color="7" fill="1" visible="yes" active="yes"/>
<layer number="151" name="HeatSink" color="7" fill="1" visible="yes" active="yes"/>
<layer number="152" name="_bDocu" color="7" fill="1" visible="yes" active="yes"/>
<layer number="153" name="FabDoc1" color="7" fill="1" visible="yes" active="yes"/>
<layer number="154" name="FabDoc2" color="7" fill="1" visible="yes" active="yes"/>
<layer number="155" name="FabDoc3" color="7" fill="1" visible="yes" active="yes"/>
<layer number="166" name="AntennaArea" color="7" fill="1" visible="yes" active="yes"/>
<layer number="168" name="4mmHeightArea" color="7" fill="1" visible="yes" active="yes"/>
<layer number="199" name="Contour" color="7" fill="1" visible="yes" active="yes"/>
<layer number="200" name="200bmp" color="7" fill="1" visible="yes" active="yes"/>
<layer number="201" name="201bmp" color="7" fill="1" visible="yes" active="yes"/>
<layer number="202" name="202bmp" color="7" fill="1" visible="yes" active="yes"/>
<layer number="203" name="203bmp" color="7" fill="1" visible="yes" active="yes"/>
<layer number="204" name="204bmp" color="7" fill="1" visible="yes" active="yes"/>
<layer number="205" name="205bmp" color="7" fill="1" visible="yes" active="yes"/>
<layer number="206" name="206bmp" color="7" fill="1" visible="yes" active="yes"/>
<layer number="207" name="207bmp" color="7" fill="1" visible="yes" active="yes"/>
<layer number="208" name="208bmp" color="7" fill="1" visible="yes" active="yes"/>
<layer number="209" name="209bmp" color="7" fill="1" visible="yes" active="yes"/>
<layer number="210" name="210bmp" color="7" fill="1" visible="yes" active="yes"/>
<layer number="211" name="211bmp" color="7" fill="1" visible="yes" active="yes"/>
<layer number="212" name="212bmp" color="7" fill="1" visible="yes" active="yes"/>
<layer number="213" name="213bmp" color="7" fill="1" visible="yes" active="yes"/>
<layer number="214" name="214bmp" color="7" fill="1" visible="yes" active="yes"/>
<layer number="215" name="215bmp" color="7" fill="1" visible="yes" active="yes"/>
<layer number="216" name="216bmp" color="7" fill="1" visible="yes" active="yes"/>
<layer number="217" name="217bmp" color="7" fill="1" visible="yes" active="yes"/>
<layer number="218" name="218bmp" color="7" fill="1" visible="yes" active="yes"/>
<layer number="219" name="219bmp" color="7" fill="1" visible="yes" active="yes"/>
<layer number="220" name="220bmp" color="7" fill="1" visible="yes" active="yes"/>
<layer number="221" name="221bmp" color="7" fill="1" visible="yes" active="yes"/>
<layer number="222" name="222bmp" color="7" fill="1" visible="yes" active="yes"/>
<layer number="223" name="223bmp" color="7" fill="1" visible="yes" active="yes"/>
<layer number="224" name="224bmp" color="7" fill="1" visible="yes" active="yes"/>
<layer number="225" name="225bmp" color="7" fill="1" visible="yes" active="yes"/>
<layer number="226" name="226bmp" color="7" fill="1" visible="yes" active="yes"/>
<layer number="227" name="227bmp" color="7" fill="1" visible="yes" active="yes"/>
<layer number="228" name="228bmp" color="7" fill="1" visible="yes" active="yes"/>
<layer number="229" name="229bmp" color="7" fill="1" visible="yes" active="yes"/>
<layer number="230" name="230bmp" color="7" fill="1" visible="yes" active="yes"/>
<layer number="231" name="231bmp" color="7" fill="1" visible="yes" active="yes"/>
<layer number="232" name="Eagle3D_PG2" color="7" fill="1" visible="yes" active="yes"/>
<layer number="233" name="Eagle3D_PG3" color="7" fill="1" visible="yes" active="yes"/>
<layer number="248" name="Housing" color="7" fill="1" visible="yes" active="yes"/>
<layer number="249" name="Edge" color="7" fill="1" visible="yes" active="yes"/>
<layer number="250" name="Descript" color="7" fill="1" visible="yes" active="yes"/>
<layer number="251" name="SMDround" color="7" fill="1" visible="yes" active="yes"/>
<layer number="254" name="cooling" color="7" fill="1" visible="yes" active="yes"/>
<layer number="255" name="routoute" color="7" fill="1" visible="yes" active="yes"/>
</layers>
<schematic xreflabel="%F%N/%S.%C%R" xrefpart="/%S.%C%R">
<libraries>
<library name="SamacSys_Parts" urn="urn:adsk.eagle:library:19142403">
<packages>
<package name="XDCR_BMG250" urn="urn:adsk.eagle:footprint:19142499/1" library_version="3">
<wire x1="-1.5" y1="1.25" x2="1.5" y2="1.25" width="0.127" layer="51"/>
<wire x1="1.5" y1="1.25" x2="1.5" y2="-1.25" width="0.127" layer="51"/>
<wire x1="1.5" y1="-1.25" x2="-1.5" y2="-1.25" width="0.127" layer="51"/>
<wire x1="-1.5" y1="-1.25" x2="-1.5" y2="1.25" width="0.127" layer="51"/>
<wire x1="-0.94" y1="1.25" x2="-1.5" y2="1.25" width="0.127" layer="21"/>
<wire x1="0.94" y1="1.25" x2="1.5" y2="1.25" width="0.127" layer="21"/>
<wire x1="0.94" y1="-1.25" x2="1.5" y2="-1.25" width="0.127" layer="21"/>
<wire x1="-0.94" y1="-1.25" x2="-1.5" y2="-1.25" width="0.127" layer="21"/>
<wire x1="-1.85" y1="1.6" x2="1.85" y2="1.6" width="0.05" layer="39"/>
<wire x1="1.85" y1="1.6" x2="1.85" y2="-1.6" width="0.05" layer="39"/>
<wire x1="1.85" y1="-1.6" x2="-1.85" y2="-1.6" width="0.05" layer="39"/>
<wire x1="-1.85" y1="-1.6" x2="-1.85" y2="1.6" width="0.05" layer="39"/>
<circle x="-2.2" y="0.9" radius="0.1" width="0.2" layer="21"/>
<circle x="-2.2" y="0.9" radius="0.1" width="0.2" layer="51"/>
<text x="-2.413" y="1.905" size="1.27" layer="25">&gt;NAME</text>
<text x="-2.413" y="-3.048" size="1.27" layer="27">&gt;VALUE</text>
<smd name="2" x="-1.2625" y="0.25" dx="0.675" dy="0.25" layer="1"/>
<smd name="1" x="-1.2625" y="0.75" dx="0.675" dy="0.25" layer="1"/>
<smd name="3" x="-1.2625" y="-0.25" dx="0.675" dy="0.25" layer="1"/>
<smd name="4" x="-1.2625" y="-0.75" dx="0.675" dy="0.25" layer="1"/>
<smd name="11" x="1.2625" y="0.75" dx="0.675" dy="0.25" layer="1"/>
<smd name="10" x="1.2625" y="0.25" dx="0.675" dy="0.25" layer="1"/>
<smd name="9" x="1.2625" y="-0.25" dx="0.675" dy="0.25" layer="1"/>
<smd name="8" x="1.2625" y="-0.75" dx="0.675" dy="0.25" layer="1"/>
<smd name="14" x="-0.5" y="1.0125" dx="0.675" dy="0.25" layer="1" rot="R90"/>
<smd name="13" x="0" y="1.0125" dx="0.675" dy="0.25" layer="1" rot="R90"/>
<smd name="12" x="0.5" y="1.0125" dx="0.675" dy="0.25" layer="1" rot="R90"/>
<smd name="5" x="-0.5" y="-1.0125" dx="0.675" dy="0.25" layer="1" rot="R90"/>
<smd name="6" x="0" y="-1.0125" dx="0.675" dy="0.25" layer="1" rot="R90"/>
<smd name="7" x="0.5" y="-1.0125" dx="0.675" dy="0.25" layer="1" rot="R90"/>
</package>
</packages>
<packages3d>
<package3d name="XDCR_BMG250" urn="urn:adsk.eagle:package:19142547/1" type="box" library_version="3">
<packageinstances>
<packageinstance name="XDCR_BMG250"/>
</packageinstances>
</package3d>
</packages3d>
<symbols>
<symbol name="BMG250" urn="urn:adsk.eagle:symbol:19142450/1" library_version="3">
<wire x1="-10.16" y1="20.32" x2="10.16" y2="20.32" width="0.254" layer="94"/>
<wire x1="10.16" y1="20.32" x2="10.16" y2="-20.32" width="0.254" layer="94"/>
<wire x1="10.16" y1="-20.32" x2="-10.16" y2="-20.32" width="0.254" layer="94"/>
<wire x1="-10.16" y1="-20.32" x2="-10.16" y2="20.32" width="0.254" layer="94"/>
<text x="-10.16" y="21.082" size="1.778" layer="95">&gt;NAME</text>
<text x="-10.16" y="-22.86" size="1.778" layer="96">&gt;VALUE</text>
<pin name="SDO" x="-15.24" y="-10.16" length="middle"/>
<pin name="ASDX" x="-15.24" y="7.62" length="middle"/>
<pin name="ASCX" x="-15.24" y="10.16" length="middle" direction="in"/>
<pin name="INT1" x="15.24" y="-2.54" length="middle" rot="R180"/>
<pin name="VDDIO" x="15.24" y="15.24" length="middle" direction="pwr" rot="R180"/>
<pin name="GNDIO" x="15.24" y="-15.24" length="middle" direction="pwr" rot="R180"/>
<pin name="GND" x="15.24" y="-17.78" length="middle" direction="pwr" rot="R180"/>
<pin name="VDD" x="15.24" y="17.78" length="middle" direction="pwr" rot="R180"/>
<pin name="OSCB" x="-15.24" y="5.08" length="middle"/>
<pin name="OSCO" x="-15.24" y="2.54" length="middle"/>
<pin name="CSB" x="-15.24" y="-2.54" length="middle" direction="in"/>
<pin name="INT2" x="15.24" y="-5.08" length="middle" rot="R180"/>
<pin name="SCX" x="-15.24" y="-5.08" length="middle" direction="in"/>
<pin name="SDX" x="-15.24" y="-7.62" length="middle"/>
</symbol>
</symbols>
<devicesets>
<deviceset name="BMG250" urn="urn:adsk.eagle:component:19142603/1" prefix="U" library_version="3">
<description>BMG250 Series 3.6 V 3200 Hz 850 ÂµA Low Noise Low Power Triaxial Gyroscope-LGA-14</description>
<gates>
<gate name="G$1" symbol="BMG250" x="0" y="0"/>
</gates>
<devices>
<device name="" package="XDCR_BMG250">
<connects>
<connect gate="G$1" pin="ASCX" pad="3"/>
<connect gate="G$1" pin="ASDX" pad="2"/>
<connect gate="G$1" pin="CSB" pad="12"/>
<connect gate="G$1" pin="GND" pad="7"/>
<connect gate="G$1" pin="GNDIO" pad="6"/>
<connect gate="G$1" pin="INT1" pad="4"/>
<connect gate="G$1" pin="INT2" pad="9"/>
<connect gate="G$1" pin="OSCB" pad="10"/>
<connect gate="G$1" pin="OSCO" pad="11"/>
<connect gate="G$1" pin="SCX" pad="13"/>
<connect gate="G$1" pin="SDO" pad="1"/>
<connect gate="G$1" pin="SDX" pad="14"/>
<connect gate="G$1" pin="VDD" pad="8"/>
<connect gate="G$1" pin="VDDIO" pad="5"/>
</connects>
<package3dinstances>
<package3dinstance package3d_urn="urn:adsk.eagle:package:19142547/1"/>
</package3dinstances>
<technologies>
<technology name="">
<attribute name="AVAILABILITY" value="Unavailable"/>
<attribute name="DESCRIPTION" value=" Gyroscope X _Pitch_, Y _Roll_, Z _Yaw_ Â±125, 250, 500, 1000, 2000 25Hz ~ 3200Hz IÂ²C, SPI "/>
<attribute name="MF" value="Bosch"/>
<attribute name="MP" value="BMG250"/>
<attribute name="PACKAGE" value="LGA-14 Bosch Tools"/>
<attribute name="PRICE" value="None"/>
</technology>
</technologies>
</device>
</devices>
</deviceset>
</devicesets>
</library>
<library name="DE6E3KJ472MB3B">
<packages>
<package name="CAP_DE6E3KJ472MB3B">
<wire x1="6" y1="-3.5" x2="-6" y2="-3.5" width="0.127" layer="21"/>
<wire x1="-6" y1="-3.5" x2="-6" y2="3.5" width="0.127" layer="51"/>
<wire x1="-6" y1="3.5" x2="6" y2="3.5" width="0.127" layer="51"/>
<wire x1="6" y1="3.5" x2="6" y2="-3.5" width="0.127" layer="51"/>
<wire x1="6" y1="-3.5" x2="-6" y2="-3.5" width="0.127" layer="51"/>
<wire x1="-6.25" y1="-3.75" x2="-6.25" y2="3.75" width="0.05" layer="39"/>
<wire x1="-6.25" y1="3.75" x2="6.25" y2="3.75" width="0.05" layer="39"/>
<wire x1="6.25" y1="3.75" x2="6.25" y2="-3.75" width="0.05" layer="39"/>
<wire x1="6.25" y1="-3.75" x2="-6.25" y2="-3.75" width="0.05" layer="39"/>
<text x="-6.25" y="3.8" size="1.27" layer="25">&gt;NAME</text>
<text x="-6.25" y="-5.15" size="1.27" layer="27">&gt;VALUE</text>
<wire x1="6" y1="3.5" x2="-6" y2="3.5" width="0.127" layer="21"/>
<wire x1="-6" y1="3.5" x2="-6" y2="-3.5" width="0.127" layer="21"/>
<wire x1="6" y1="3.5" x2="6" y2="-3.5" width="0.127" layer="21"/>
<pad name="1" x="-3.75" y="0" drill="0.85" diameter="1.28"/>
<pad name="2" x="3.75" y="0" drill="0.85" diameter="1.28"/>
</package>
</packages>
<symbols>
<symbol name="DE6E3KJ472MB3B">
<text x="0" y="3.81093125" size="1.77843125" layer="95">&gt;NAME</text>
<text x="0" y="-5.08848125" size="1.78096875" layer="96">&gt;VALUE</text>
<rectangle x1="0" y1="-1.906859375" x2="0.635" y2="1.905" layer="94"/>
<rectangle x1="1.90685" y1="-1.90685" x2="2.54" y2="1.905" layer="94"/>
<pin name="2" x="5.08" y="0" visible="pad" length="short" direction="pas" rot="R180"/>
<pin name="1" x="-2.54" y="0" visible="pad" length="short" direction="pas"/>
</symbol>
</symbols>
<devicesets>
<deviceset name="DE6E3KJ472MB3B" prefix="C">
<description>CAP CER 4700PF 300VAC RADIAL &lt;a href="https://snapeda.com/parts/DE6E3KJ472MB3B/Murata/view-part/?ref=eda"&gt;Check prices&lt;/a&gt;</description>
<gates>
<gate name="G$1" symbol="DE6E3KJ472MB3B" x="0" y="0"/>
</gates>
<devices>
<device name="" package="CAP_DE6E3KJ472MB3B">
<connects>
<connect gate="G$1" pin="1" pad="1"/>
<connect gate="G$1" pin="2" pad="2"/>
</connects>
<technologies>
<technology name="">
<attribute name="AVAILABILITY" value="Warning"/>
<attribute name="DESCRIPTION" value=" Lead capacitor E(JIS) with Capacitance 4700pF, Rated Voltage 300Vac(r.m.s.) "/>
<attribute name="MF" value="Murata"/>
<attribute name="MOUSER-PURCHASE-URL" value="https://snapeda.com/shop?store=Mouser&amp;id=1664984"/>
<attribute name="MP" value="DE6E3KJ472MB3B"/>
<attribute name="PACKAGE" value="NONSTANDARD "/>
<attribute name="PRICE" value="None"/>
</technology>
</technologies>
</device>
</devices>
</deviceset>
</devicesets>
</library>
<library name="ngspice-simulation" urn="urn:adsk.eagle:library:527439">
<description>SPICE compatible library parts</description>
<packages>
</packages>
<symbols>
<symbol name="0" urn="urn:adsk.eagle:symbol:527455/1" library_version="18">
<description>Simulation ground symbol (spice node 0)</description>
<wire x1="-2.54" y1="0" x2="2.54" y2="0" width="0.1524" layer="94"/>
<wire x1="2.54" y1="0" x2="0" y2="-2.54" width="0.1524" layer="94"/>
<wire x1="0" y1="-2.54" x2="-2.54" y2="0" width="0.1524" layer="94"/>
<pin name="0" x="0" y="0" visible="off" length="point" direction="sup"/>
</symbol>
</symbols>
<devicesets>
<deviceset name="GND" urn="urn:adsk.eagle:component:527478/1" prefix="X_" library_version="18">
<description>Simulation ground symbol (spice node 0)</description>
<gates>
<gate name="G$1" symbol="0" x="0" y="0"/>
</gates>
<devices>
<device name="">
<technologies>
<technology name="">
<attribute name="SPICEGROUND" value=""/>
<attribute name="_EXTERNAL_" value=""/>
</technology>
</technologies>
</device>
</devices>
</deviceset>
</devicesets>
</library>
<library name="TO229P994X240-3N">
<packages>
<package name="TO229P994X240-3N">
<rectangle x1="1.665" y1="-0.655" x2="3.195" y2="0.655" layer="31"/>
<rectangle x1="-0.445" y1="-0.655" x2="1.085" y2="0.655" layer="31"/>
<rectangle x1="3.775" y1="-0.655" x2="5.305" y2="0.655" layer="31"/>
<rectangle x1="-0.445" y1="1.235" x2="1.085" y2="2.545" layer="31"/>
<rectangle x1="1.665" y1="1.235" x2="3.195" y2="2.545" layer="31"/>
<rectangle x1="3.775" y1="1.235" x2="5.305" y2="2.545" layer="31"/>
<rectangle x1="-0.445" y1="-2.545" x2="1.085" y2="-1.235" layer="31"/>
<rectangle x1="1.665" y1="-2.545" x2="3.195" y2="-1.235" layer="31"/>
<rectangle x1="3.775" y1="-2.545" x2="5.305" y2="-1.235" layer="31"/>
<wire x1="4.055" y1="3.2825" x2="4.055" y2="-3.2825" width="0.127" layer="51"/>
<wire x1="4.055" y1="-3.2825" x2="-2.045" y2="-3.2825" width="0.127" layer="51"/>
<wire x1="-2.045" y1="-3.2825" x2="-2.045" y2="3.2825" width="0.127" layer="51"/>
<wire x1="-2.045" y1="3.2825" x2="4.055" y2="3.2825" width="0.127" layer="51"/>
<wire x1="-2.045" y1="3.2825" x2="4.055" y2="3.2825" width="0.127" layer="21"/>
<wire x1="-2.045" y1="-3.2825" x2="-2.045" y2="3.2825" width="0.127" layer="21"/>
<wire x1="4.055" y1="-3.2825" x2="-2.045" y2="-3.2825" width="0.127" layer="21"/>
<wire x1="5.845" y1="3.5325" x2="-5.845" y2="3.5325" width="0.05" layer="39"/>
<wire x1="-5.845" y1="3.5325" x2="-5.845" y2="-3.5325" width="0.05" layer="39"/>
<wire x1="-5.845" y1="-3.5325" x2="5.845" y2="-3.5325" width="0.05" layer="39"/>
<wire x1="5.845" y1="-3.5325" x2="5.845" y2="3.5325" width="0.05" layer="39"/>
<circle x="-6.095" y="2.29" radius="0.1" width="0.2" layer="21"/>
<circle x="-6.095" y="2.29" radius="0.1" width="0.2" layer="51"/>
<text x="-4" y="4" size="1.27" layer="25">&gt;NAME</text>
<text x="-4" y="-5" size="1.27" layer="27">&gt;VALUE</text>
<smd name="1" x="-4.19" y="2.29" dx="2.81" dy="0.98" layer="1"/>
<smd name="3" x="-4.19" y="-2.29" dx="2.81" dy="0.98" layer="1"/>
<smd name="2" x="2.43" y="0" dx="5.67" dy="6.33" layer="1" rot="R90" cream="no"/>
</package>
</packages>
<symbols>
<symbol name="FDD9411L-F085">
<pin name="SOURCE" x="-7.62" y="0" length="middle"/>
<pin name="DRAIN" x="-7.62" y="2.54" length="middle"/>
<pin name="GATE" x="-7.62" y="5.08" length="middle"/>
<wire x1="-2.54" y1="7.62" x2="-2.54" y2="-2.54" width="0.254" layer="94"/>
<wire x1="-2.54" y1="-2.54" x2="10.16" y2="-2.54" width="0.254" layer="94"/>
<wire x1="10.16" y1="-2.54" x2="10.16" y2="7.62" width="0.254" layer="94"/>
<wire x1="10.16" y1="7.62" x2="-2.54" y2="7.62" width="0.254" layer="94"/>
</symbol>
</symbols>
<devicesets>
<deviceset name="FDD9411L-F085" uservalue="yes">
<gates>
<gate name="G$1" symbol="FDD9411L-F085" x="-2.54" y="-2.54"/>
</gates>
<devices>
<device name="" package="TO229P994X240-3N">
<connects>
<connect gate="G$1" pin="DRAIN" pad="2"/>
<connect gate="G$1" pin="GATE" pad="1"/>
<connect gate="G$1" pin="SOURCE" pad="3"/>
</connects>
<technologies>
<technology name=""/>
</technologies>
</device>
</devices>
</deviceset>
</devicesets>
</library>
<library name="OY333KE">
<packages>
<package name="RESAD2550W80L1900D700">
<wire x1="-9.5" y1="3.5" x2="-9.5" y2="0" width="0.127" layer="21"/>
<wire x1="-9.5" y1="0" x2="-9.5" y2="-3.5" width="0.127" layer="21"/>
<wire x1="-9.5" y1="-3.5" x2="9.5" y2="-3.5" width="0.127" layer="51"/>
<wire x1="9.5" y1="-3.5" x2="9.5" y2="0" width="0.127" layer="21"/>
<wire x1="9.5" y1="0" x2="9.5" y2="3.5" width="0.127" layer="21"/>
<wire x1="9.5" y1="3.5" x2="-9.5" y2="3.5" width="0.127" layer="51"/>
<wire x1="-12.7" y1="0" x2="-9.5" y2="0" width="0.127" layer="51"/>
<wire x1="9.5" y1="0" x2="12.7" y2="0" width="0.127" layer="51"/>
<wire x1="-9.5" y1="3.5" x2="-9.5" y2="-3.5" width="0.127" layer="51"/>
<wire x1="9.5" y1="-3.5" x2="9.5" y2="3.5" width="0.127" layer="51"/>
<wire x1="-5.07" y1="3.5" x2="-9.5" y2="3.5" width="0.127" layer="21"/>
<wire x1="9.5" y1="3.5" x2="5.07" y2="3.5" width="0.127" layer="21"/>
<wire x1="-5.07" y1="-3.5" x2="-9.5" y2="-3.5" width="0.127" layer="21"/>
<wire x1="9.5" y1="-3.5" x2="5.07" y2="-3.5" width="0.127" layer="21"/>
<wire x1="-9.5" y1="0" x2="-11.5" y2="0" width="0.127" layer="21"/>
<wire x1="9.5" y1="0" x2="11.5" y2="0" width="0.127" layer="21"/>
<wire x1="-9.75" y1="3.75" x2="-9.75" y2="1.05" width="0.05" layer="39"/>
<wire x1="-9.75" y1="1.05" x2="-13.8" y2="1.05" width="0.05" layer="39"/>
<wire x1="-13.8" y1="1.05" x2="-13.8" y2="-1.05" width="0.05" layer="39"/>
<wire x1="-13.8" y1="-1.05" x2="-9.75" y2="-1.05" width="0.05" layer="39"/>
<wire x1="-9.75" y1="-1.05" x2="-9.75" y2="-3.75" width="0.05" layer="39"/>
<wire x1="-9.75" y1="-3.75" x2="9.75" y2="-3.75" width="0.05" layer="39"/>
<wire x1="9.75" y1="-3.75" x2="9.75" y2="-1.05" width="0.05" layer="39"/>
<wire x1="9.75" y1="-1.05" x2="13.8" y2="-1.05" width="0.05" layer="39"/>
<wire x1="13.8" y1="-1.05" x2="13.8" y2="1.05" width="0.05" layer="39"/>
<wire x1="13.8" y1="1.05" x2="9.75" y2="1.05" width="0.05" layer="39"/>
<wire x1="9.75" y1="1.05" x2="9.75" y2="3.75" width="0.05" layer="39"/>
<wire x1="9.75" y1="3.75" x2="-9.75" y2="3.75" width="0.05" layer="39"/>
<text x="-9" y="4" size="1.27" layer="25">&gt;NAME</text>
<text x="-9" y="-4" size="1.27" layer="27" align="top-left">&gt;VALUE</text>
<pad name="1" x="-12.75" y="0" drill="1.05"/>
<pad name="2" x="12.75" y="0" drill="1.05"/>
</package>
</packages>
<symbols>
<symbol name="OY333KE">
<wire x1="-5.08" y1="0" x2="-4.445" y2="1.905" width="0.254" layer="94"/>
<wire x1="-4.445" y1="1.905" x2="-3.175" y2="-1.905" width="0.254" layer="94"/>
<wire x1="-3.175" y1="-1.905" x2="-1.905" y2="1.905" width="0.254" layer="94"/>
<wire x1="-1.905" y1="1.905" x2="-0.635" y2="-1.905" width="0.254" layer="94"/>
<wire x1="-0.635" y1="-1.905" x2="0.635" y2="1.905" width="0.254" layer="94"/>
<wire x1="0.635" y1="1.905" x2="1.905" y2="-1.905" width="0.254" layer="94"/>
<wire x1="1.905" y1="-1.905" x2="3.175" y2="1.905" width="0.254" layer="94"/>
<wire x1="3.175" y1="1.905" x2="4.445" y2="-1.905" width="0.254" layer="94"/>
<wire x1="4.445" y1="-1.905" x2="5.08" y2="0" width="0.254" layer="94"/>
<text x="-7.624440625" y="2.54148125" size="2.54148125" layer="95">&gt;NAME</text>
<text x="-7.62996875" y="-5.086640625" size="2.54331875" layer="96">&gt;VALUE</text>
<pin name="1" x="-10.16" y="0" visible="off" length="middle" direction="pas"/>
<pin name="2" x="10.16" y="0" visible="off" length="middle" direction="pas" rot="R180"/>
</symbol>
</symbols>
<devicesets>
<deviceset name="OY333KE" prefix="R">
<description>33 kOhms Â±10% 2W Through Hole Resistor Axial Moisture Resistant, Pulse Withstanding Ceramic &lt;a href="https://snapeda.com/parts/OY333KE/Ohmite/view-part/?ref=eda"&gt;Check prices&lt;/a&gt;</description>
<gates>
<gate name="G$1" symbol="OY333KE" x="0" y="0"/>
</gates>
<devices>
<device name="" package="RESAD2550W80L1900D700">
<connects>
<connect gate="G$1" pin="1" pad="1"/>
<connect gate="G$1" pin="2" pad="2"/>
</connects>
<technologies>
<technology name="">
<attribute name="AVAILABILITY" value="Good"/>
<attribute name="DESCRIPTION" value=" 33 kOhms Â±10% 2W Through Hole Resistor Axial Moisture Resistant, Pulse Withstanding Ceramic "/>
<attribute name="DIGIKEY-PURCHASE-URL" value="https://snapeda.com/shop?store=DigiKey&amp;id=1373355"/>
<attribute name="MF" value="Ohmite"/>
<attribute name="MOUSER-PURCHASE-URL" value="https://snapeda.com/shop?store=Mouser&amp;id=1373355"/>
<attribute name="MP" value="OY333KE"/>
<attribute name="PACKAGE" value="Axial Ohmite"/>
<attribute name="PRICE" value="None"/>
</technology>
</technologies>
</device>
</devices>
</deviceset>
</devicesets>
</library>
<library name="adafruit" urn="urn:adsk.eagle:library:420">
<packages>
<package name="1X10-BIG" urn="urn:adsk.eagle:footprint:6240010/1" library_version="2">
<wire x1="-12.7" y1="1.27" x2="12.7" y2="1.27" width="0.127" layer="21"/>
<wire x1="12.7" y1="1.27" x2="12.7" y2="-1.27" width="0.127" layer="21"/>
<wire x1="12.7" y1="-1.27" x2="-12.7" y2="-1.27" width="0.127" layer="21"/>
<wire x1="-12.7" y1="-1.27" x2="-12.7" y2="1.27" width="0.127" layer="21"/>
<pad name="1" x="-11.43" y="0" drill="1.016" diameter="1.778" shape="octagon" rot="R90"/>
<pad name="2" x="-8.89" y="0" drill="1.016" diameter="1.778" shape="octagon" rot="R90"/>
<pad name="3" x="-6.35" y="0" drill="1.016" diameter="1.778" shape="octagon" rot="R90"/>
<pad name="4" x="-3.81" y="0" drill="1.016" diameter="1.778" shape="octagon" rot="R90"/>
<pad name="5" x="-1.27" y="0" drill="1.016" diameter="1.778" shape="octagon" rot="R90"/>
<pad name="6" x="1.27" y="0" drill="1.016" diameter="1.778" shape="octagon" rot="R90"/>
<pad name="7" x="3.81" y="0" drill="1.016" diameter="1.778" shape="octagon" rot="R90"/>
<pad name="8" x="6.35" y="0" drill="1.016" diameter="1.778" shape="octagon" rot="R90"/>
<pad name="9" x="8.89" y="0" drill="1.016" diameter="1.778" shape="octagon" rot="R90"/>
<pad name="10" x="11.43" y="0" drill="1.016" diameter="1.778" shape="octagon" rot="R90"/>
<text x="-11.5062" y="1.8288" size="1.27" layer="25" ratio="10">&gt;NAME</text>
<text x="-11.43" y="-3.175" size="1.27" layer="27">&gt;VALUE</text>
<rectangle x1="3.556" y1="-0.254" x2="4.064" y2="0.254" layer="51"/>
<rectangle x1="1.016" y1="-0.254" x2="1.524" y2="0.254" layer="51"/>
<rectangle x1="-1.524" y1="-0.254" x2="-1.016" y2="0.254" layer="51"/>
<rectangle x1="-4.064" y1="-0.254" x2="-3.556" y2="0.254" layer="51"/>
<rectangle x1="-6.604" y1="-0.254" x2="-6.096" y2="0.254" layer="51"/>
<rectangle x1="-9.144" y1="-0.254" x2="-8.636" y2="0.254" layer="51"/>
<rectangle x1="-11.684" y1="-0.254" x2="-11.176" y2="0.254" layer="51"/>
<rectangle x1="6.096" y1="-0.254" x2="6.604" y2="0.254" layer="51"/>
<rectangle x1="8.636" y1="-0.254" x2="9.144" y2="0.254" layer="51"/>
<rectangle x1="11.176" y1="-0.254" x2="11.684" y2="0.254" layer="51"/>
</package>
</packages>
<packages3d>
<package3d name="1X10-BIG" urn="urn:adsk.eagle:package:6240656/1" type="box" library_version="2">
<packageinstances>
<packageinstance name="1X10-BIG"/>
</packageinstances>
</package3d>
</packages3d>
<symbols>
<symbol name="PINHD10" urn="urn:adsk.eagle:symbol:6239506/1" library_version="2">
<wire x1="-6.35" y1="-15.24" x2="1.27" y2="-15.24" width="0.4064" layer="94"/>
<wire x1="1.27" y1="-15.24" x2="1.27" y2="12.7" width="0.4064" layer="94"/>
<wire x1="1.27" y1="12.7" x2="-6.35" y2="12.7" width="0.4064" layer="94"/>
<wire x1="-6.35" y1="12.7" x2="-6.35" y2="-15.24" width="0.4064" layer="94"/>
<text x="-6.35" y="13.335" size="1.778" layer="95">&gt;NAME</text>
<text x="-6.35" y="-17.78" size="1.778" layer="96">&gt;VALUE</text>
<pin name="1" x="-2.54" y="10.16" visible="pad" length="short" direction="pas" function="dot"/>
<pin name="2" x="-2.54" y="7.62" visible="pad" length="short" direction="pas" function="dot"/>
<pin name="3" x="-2.54" y="5.08" visible="pad" length="short" direction="pas" function="dot"/>
<pin name="4" x="-2.54" y="2.54" visible="pad" length="short" direction="pas" function="dot"/>
<pin name="5" x="-2.54" y="0" visible="pad" length="short" direction="pas" function="dot"/>
<pin name="6" x="-2.54" y="-2.54" visible="pad" length="short" direction="pas" function="dot"/>
<pin name="7" x="-2.54" y="-5.08" visible="pad" length="short" direction="pas" function="dot"/>
<pin name="8" x="-2.54" y="-7.62" visible="pad" length="short" direction="pas" function="dot"/>
<pin name="9" x="-2.54" y="-10.16" visible="pad" length="short" direction="pas" function="dot"/>
<pin name="10" x="-2.54" y="-12.7" visible="pad" length="short" direction="pas" function="dot"/>
</symbol>
</symbols>
<devicesets>
<deviceset name="PINHD-1X10" urn="urn:adsk.eagle:component:6240997/1" library_version="2">
<description>&lt;b&gt;Pin header 1x10 0.1" spacing&lt;/b&gt;
&lt;p&gt;
With round pins</description>
<gates>
<gate name="G$1" symbol="PINHD10" x="0" y="0"/>
</gates>
<devices>
<device name="" package="1X10-BIG">
<connects>
<connect gate="G$1" pin="1" pad="1"/>
<connect gate="G$1" pin="10" pad="10"/>
<connect gate="G$1" pin="2" pad="2"/>
<connect gate="G$1" pin="3" pad="3"/>
<connect gate="G$1" pin="4" pad="4"/>
<connect gate="G$1" pin="5" pad="5"/>
<connect gate="G$1" pin="6" pad="6"/>
<connect gate="G$1" pin="7" pad="7"/>
<connect gate="G$1" pin="8" pad="8"/>
<connect gate="G$1" pin="9" pad="9"/>
</connects>
<package3dinstances>
<package3dinstance package3d_urn="urn:adsk.eagle:package:6240656/1"/>
</package3dinstances>
<technologies>
<technology name=""/>
</technologies>
</device>
</devices>
</deviceset>
</devicesets>
</library>
</libraries>
<attributes>
</attributes>
<variantdefs>
</variantdefs>
<classes>
<class number="0" name="default" width="0" drill="0">
</class>
</classes>
<parts>
<part name="U3" library="SamacSys_Parts" library_urn="urn:adsk.eagle:library:19142403" deviceset="BMG250" device="" package3d_urn="urn:adsk.eagle:package:19142547/1" value="GYR"/>
<part name="X_2" library="ngspice-simulation" library_urn="urn:adsk.eagle:library:527439" deviceset="GND" device=""/>
<part name="U$1" library="TO229P994X240-3N" deviceset="FDD9411L-F085" device="" value="Gyro Power Fet"/>
<part name="R1" library="OY333KE" deviceset="OY333KE" device=""/>
<part name="R2" library="OY333KE" deviceset="OY333KE" device=""/>
<part name="C7" library="DE6E3KJ472MB3B" deviceset="DE6E3KJ472MB3B" device=""/>
<part name="TESTPINS" library="adafruit" library_urn="urn:adsk.eagle:library:420" deviceset="PINHD-1X10" device="" package3d_urn="urn:adsk.eagle:package:6240656/1"/>
</parts>
<sheets>
<sheet>
<plain>
<text x="271.78" y="88.9" size="12.7" layer="97">Test Pins</text>
<text x="-38.1" y="114.3" size="12.7" layer="97">Gyroscope</text>
<text x="106.68" y="25.4" size="12.7" layer="97">Power Switching</text>
</plain>
<instances>
<instance part="U3" gate="G$1" x="33.02" y="48.26" smashed="yes">
<attribute name="NAME" x="22.86" y="69.342" size="1.778" layer="95"/>
<attribute name="VALUE" x="22.86" y="25.4" size="1.778" layer="96"/>
</instance>
<instance part="X_2" gate="G$1" x="160.02" y="-25.4" smashed="yes"/>
<instance part="U$1" gate="G$1" x="198.12" y="-2.54" smashed="yes"/>
<instance part="R1" gate="G$1" x="-10.16" y="55.88" smashed="yes" rot="R90">
<attribute name="NAME" x="-12.70148125" y="48.255559375" size="2.54148125" layer="95" rot="R90"/>
</instance>
<instance part="R2" gate="G$1" x="-5.08" y="55.88" smashed="yes" rot="R90">
<attribute name="NAME" x="-0.00148125" y="45.715559375" size="2.54148125" layer="95" rot="R90"/>
</instance>
<instance part="C7" gate="G$1" x="160.02" y="-7.62" smashed="yes" rot="R270">
<attribute name="NAME" x="163.83093125" y="-7.62" size="1.77843125" layer="95" rot="R270"/>
</instance>
<instance part="TESTPINS" gate="G$1" x="320.04" y="50.8" smashed="yes">
<attribute name="NAME" x="313.69" y="64.135" size="1.778" layer="95"/>
</instance>
</instances>
<busses>
</busses>
<nets>
<net name="GND" class="0">
<segment>
<wire x1="50.8" y1="30.48" x2="50.8" y2="33.02" width="0.1524" layer="91"/>
<label x="63.5" y="30.48" size="1.778" layer="95"/>
<pinref part="U3" gate="G$1" pin="GNDIO"/>
<wire x1="48.26" y1="33.02" x2="50.8" y2="33.02" width="0.1524" layer="91"/>
<pinref part="U3" gate="G$1" pin="GND"/>
<wire x1="48.26" y1="30.48" x2="50.8" y2="30.48" width="0.1524" layer="91"/>
<wire x1="50.8" y1="30.48" x2="66.04" y2="30.48" width="0.1524" layer="91"/>
<junction x="50.8" y="30.48"/>
</segment>
<segment>
<pinref part="U3" gate="G$1" pin="SDO"/>
<wire x1="17.78" y1="38.1" x2="-10.16" y2="38.1" width="0.1524" layer="91"/>
<label x="-10.16" y="38.1" size="1.778" layer="95"/>
</segment>
<segment>
<wire x1="317.5" y1="60.96" x2="287.02" y2="60.96" width="0.1524" layer="91"/>
<label x="287.02" y="60.96" size="1.778" layer="95"/>
<pinref part="TESTPINS" gate="G$1" pin="1"/>
</segment>
<segment>
<pinref part="C7" gate="G$1" pin="2"/>
<pinref part="X_2" gate="G$1" pin="0"/>
<wire x1="160.02" y1="-12.7" x2="160.02" y2="-25.4" width="0.1524" layer="91"/>
<label x="160.02" y="-20.32" size="1.778" layer="95"/>
</segment>
</net>
<net name="VBAT" class="0">
<segment>
<label x="167.64" y="-2.54" size="1.778" layer="95"/>
<wire x1="190.5" y1="-2.54" x2="160.02" y2="-2.54" width="0.1524" layer="91"/>
<pinref part="U$1" gate="G$1" pin="SOURCE"/>
<pinref part="C7" gate="G$1" pin="1"/>
<wire x1="160.02" y1="-2.54" x2="160.02" y2="-5.08" width="0.1524" layer="91"/>
</segment>
<segment>
<wire x1="317.5" y1="58.42" x2="287.02" y2="58.42" width="0.1524" layer="91"/>
<label x="287.02" y="58.42" size="1.778" layer="95"/>
<pinref part="TESTPINS" gate="G$1" pin="2"/>
</segment>
</net>
<net name="I2C_MC_SCL" class="0">
<segment>
<pinref part="U3" gate="G$1" pin="SCX"/>
<wire x1="17.78" y1="43.18" x2="-10.16" y2="43.18" width="0.1524" layer="91"/>
<label x="-30.48" y="43.18" size="1.778" layer="95"/>
<wire x1="-10.16" y1="43.18" x2="-30.48" y2="43.18" width="0.1524" layer="91"/>
<wire x1="-10.16" y1="43.18" x2="-10.16" y2="45.72" width="0.1524" layer="91"/>
<junction x="-10.16" y="43.18"/>
<pinref part="R1" gate="G$1" pin="1"/>
</segment>
<segment>
<wire x1="317.5" y1="45.72" x2="287.02" y2="45.72" width="0.1524" layer="91"/>
<label x="287.02" y="45.72" size="1.778" layer="95"/>
<pinref part="TESTPINS" gate="G$1" pin="7"/>
</segment>
</net>
<net name="I2C_MC_SDA" class="0">
<segment>
<pinref part="U3" gate="G$1" pin="SDX"/>
<wire x1="17.78" y1="40.64" x2="-5.08" y2="40.64" width="0.1524" layer="91"/>
<label x="-30.48" y="40.64" size="1.778" layer="95"/>
<wire x1="-5.08" y1="40.64" x2="-30.48" y2="40.64" width="0.1524" layer="91"/>
<wire x1="-5.08" y1="40.64" x2="-5.08" y2="45.72" width="0.1524" layer="91"/>
<junction x="-5.08" y="40.64"/>
<pinref part="R2" gate="G$1" pin="1"/>
</segment>
<segment>
<wire x1="317.5" y1="43.18" x2="287.02" y2="43.18" width="0.1524" layer="91"/>
<label x="287.02" y="43.18" size="1.778" layer="95"/>
<pinref part="TESTPINS" gate="G$1" pin="8"/>
</segment>
</net>
<net name="GYRO_PMU_TRIG_INT" class="0">
<segment>
<pinref part="U3" gate="G$1" pin="INT2"/>
<wire x1="48.26" y1="43.18" x2="83.82" y2="43.18" width="0.1524" layer="91"/>
<label x="55.88" y="43.18" size="1.778" layer="95"/>
</segment>
<segment>
<wire x1="317.5" y1="50.8" x2="287.02" y2="50.8" width="0.1524" layer="91"/>
<label x="287.02" y="50.8" size="1.778" layer="95"/>
<pinref part="TESTPINS" gate="G$1" pin="5"/>
</segment>
</net>
<net name="GYRO_DATA_RDY_INT" class="0">
<segment>
<pinref part="U3" gate="G$1" pin="INT1"/>
<wire x1="48.26" y1="45.72" x2="83.82" y2="45.72" width="0.1524" layer="91"/>
<label x="55.88" y="45.72" size="1.778" layer="95"/>
</segment>
<segment>
<wire x1="317.5" y1="48.26" x2="287.02" y2="48.26" width="0.1524" layer="91"/>
<label x="287.02" y="48.26" size="1.778" layer="95"/>
<pinref part="TESTPINS" gate="G$1" pin="6"/>
</segment>
</net>
<net name="GYRO_PWR_SW" class="0">
<segment>
<wire x1="167.64" y1="2.54" x2="190.5" y2="2.54" width="0.1524" layer="91"/>
<label x="167.64" y="2.54" size="1.778" layer="95"/>
<pinref part="U$1" gate="G$1" pin="GATE"/>
</segment>
<segment>
<wire x1="317.5" y1="53.34" x2="287.02" y2="53.34" width="0.1524" layer="91"/>
<label x="287.02" y="53.34" size="1.778" layer="95"/>
<pinref part="TESTPINS" gate="G$1" pin="4"/>
</segment>
</net>
<net name="GYRO_PWR_FET" class="0">
<segment>
<wire x1="167.64" y1="0" x2="190.5" y2="0" width="0.1524" layer="91"/>
<label x="167.64" y="0" size="1.778" layer="95"/>
<pinref part="U$1" gate="G$1" pin="DRAIN"/>
</segment>
<segment>
<wire x1="20.32" y1="73.66" x2="20.32" y2="106.68" width="0.1524" layer="91"/>
<label x="20.32" y="86.36" size="1.778" layer="95" rot="MR90"/>
<pinref part="U3" gate="G$1" pin="CSB"/>
<wire x1="17.78" y1="45.72" x2="7.62" y2="45.72" width="0.1524" layer="91"/>
<wire x1="7.62" y1="45.72" x2="7.62" y2="73.66" width="0.1524" layer="91"/>
<wire x1="7.62" y1="73.66" x2="20.32" y2="73.66" width="0.1524" layer="91"/>
<wire x1="20.32" y1="73.66" x2="55.88" y2="73.66" width="0.1524" layer="91"/>
<junction x="20.32" y="73.66"/>
<pinref part="U3" gate="G$1" pin="VDD"/>
<wire x1="48.26" y1="66.04" x2="55.88" y2="66.04" width="0.1524" layer="91"/>
<wire x1="55.88" y1="66.04" x2="55.88" y2="73.66" width="0.1524" layer="91"/>
<pinref part="U3" gate="G$1" pin="VDDIO"/>
<wire x1="48.26" y1="63.5" x2="55.88" y2="63.5" width="0.1524" layer="91"/>
<wire x1="55.88" y1="66.04" x2="55.88" y2="63.5" width="0.1524" layer="91"/>
<junction x="55.88" y="66.04"/>
</segment>
<segment>
<wire x1="-7.62" y1="71.12" x2="-7.62" y2="93.98" width="0.1524" layer="91"/>
<label x="-7.62" y="73.66" size="1.778" layer="95" rot="R90"/>
<wire x1="-10.16" y1="66.04" x2="-7.62" y2="71.12" width="0.1524" layer="91"/>
<wire x1="-5.08" y1="66.04" x2="-7.62" y2="71.12" width="0.1524" layer="91"/>
<junction x="-7.62" y="71.12"/>
<pinref part="R1" gate="G$1" pin="2"/>
<pinref part="R2" gate="G$1" pin="2"/>
</segment>
<segment>
<wire x1="317.5" y1="55.88" x2="287.02" y2="55.88" width="0.1524" layer="91"/>
<label x="287.02" y="55.88" size="1.778" layer="95"/>
<pinref part="TESTPINS" gate="G$1" pin="3"/>
</segment>
</net>
</nets>
</sheet>
</sheets>
<errors>
<approved hash="102,1,160.02,-25.4,0,GND,,,,"/>
<approved hash="104,1,48.26,63.5,U3,VDDIO,GYRO_PWR_FET,,,"/>
<approved hash="104,1,48.26,33.02,U3,GNDIO,GND,,,"/>
<approved hash="104,1,48.26,66.04,U3,VDD,GYRO_PWR_FET,,,"/>
</errors>
</schematic>
</drawing>
<compatibility>
<note version="8.2" severity="warning">
Since Version 8.2, EAGLE supports online libraries. The ids
of those online libraries will not be understood (or retained)
with this version.
</note>
<note version="8.3" severity="warning">
Since Version 8.3, EAGLE supports URNs for individual library
assets (packages, symbols, and devices). The URNs of those assets
will not be understood (or retained) with this version.
</note>
<note version="8.3" severity="warning">
Since Version 8.3, EAGLE supports the association of 3D packages
with devices in libraries, schematics, and board files. Those 3D
packages will not be understood (or retained) with this version.
</note>
</compatibility>
</eagle>
