%TF.GenerationSoftware,Altium Limited,Altium Designer,20.1.14 (287)*%
G04 Layer_Color=32768*
%FSLAX45Y45*%
%MOMM*%
%TF.SameCoordinates,6DB32AA4-5486-4306-ADC8-C0D8F975F6BB*%
%TF.FilePolarity,Positive*%
%TF.FileFunction,Other,Unrouted*%
%TF.Part,Single*%
G01*
G75*
%TA.AperFunction,NonConductor*%
%ADD60C,0.10000*%
%ADD97C,0.05000*%
D60*
X6676304Y4999D02*
Y1334999D01*
X5151303D02*
X6676304D01*
X5151303Y4999D02*
Y1334999D01*
Y4999D02*
X6676304D01*
X3874303Y3086100D02*
X3974302D01*
X3924300Y3036098D02*
Y3136102D01*
X5366898Y2332700D02*
X5466898D01*
X5416901Y2282703D02*
Y2382703D01*
X1600200Y203998D02*
Y304002D01*
X1550198Y254000D02*
X1650197D01*
X4864501Y901700D02*
X4914499D01*
X4889500Y876701D02*
Y926699D01*
X2806700Y2858298D02*
Y2958302D01*
X2756698Y2908300D02*
X2856697D01*
X2806700Y2274103D02*
Y2374102D01*
X2756703Y2324100D02*
X2856702D01*
X3530600Y3036098D02*
Y3136102D01*
X3480603Y3086100D02*
X3580602D01*
X2692400Y712003D02*
Y812002D01*
X2642403Y762000D02*
X2742402D01*
X3213100Y2312198D02*
Y2412197D01*
X3163098Y2362200D02*
X3263097D01*
D97*
X2212899Y3084002D02*
Y3392998D01*
Y3084002D02*
X2536901D01*
Y3392998D01*
X2212899D02*
X2536901D01*
X2374900Y3188503D02*
Y3288502D01*
X2324903Y3238500D02*
X2424902D01*
X3709299Y2956098D02*
Y3216102D01*
X4139301Y2956098D02*
Y3216102D01*
X3709299D02*
X4139301D01*
X3709299Y2956098D02*
X4139301D01*
X1414902Y2451903D02*
X1556898D01*
Y2297902D02*
Y2451903D01*
X1414902Y2297902D02*
X1556898D01*
X1414902D02*
Y2451903D01*
X1447002Y2110598D02*
X1855003D01*
Y1902602D02*
Y2110598D01*
X1447002Y1902602D02*
X1855003D01*
X1447002D02*
Y2110598D01*
X5111902Y1777700D02*
X6111900D01*
X5111902Y2887701D02*
X6111900D01*
Y1777700D02*
Y2887701D01*
X5111902Y1777700D02*
Y2887701D01*
X1420200Y58999D02*
X1780200D01*
X1420200Y449001D02*
X1780200D01*
X1420200Y58999D02*
Y449001D01*
X1780200Y58999D02*
Y449001D01*
X4826803Y215900D02*
X4926802D01*
X4876800Y165903D02*
Y265902D01*
X4714799Y370398D02*
X5038801D01*
Y61402D02*
Y370398D01*
X4714799Y61402D02*
X5038801D01*
X4714799D02*
Y370398D01*
X2629703Y215900D02*
X2729702D01*
X2679700Y165903D02*
Y265902D01*
X2517699Y370398D02*
X2841701D01*
Y61402D02*
Y370398D01*
X2517699Y61402D02*
X2841701D01*
X2517699D02*
Y370398D01*
X165903Y2806700D02*
X265902D01*
X215900Y2756703D02*
Y2856702D01*
X53899Y2961198D02*
X377901D01*
Y2652202D02*
Y2961198D01*
X53899Y2652202D02*
X377901D01*
X53899D02*
Y2961198D01*
X1360500Y2513498D02*
Y2947502D01*
X1560500D01*
Y2513498D02*
Y2947502D01*
X1360500Y2513498D02*
X1560500D01*
X5014498Y851698D02*
Y951697D01*
X4764502Y851698D02*
X5014498D01*
X4764502Y951697D02*
X5014498D01*
X4764502Y851698D02*
Y951697D01*
X3404403Y1346200D02*
X3504402D01*
X3454400Y1296203D02*
Y1396202D01*
X3292399Y1500698D02*
X3616401D01*
Y1191702D02*
Y1500698D01*
X3292399Y1191702D02*
X3616401D01*
X3292399D02*
Y1500698D01*
X2248703Y1892300D02*
X2348702D01*
X2298700Y1842303D02*
Y1942302D01*
X2136699Y2046798D02*
X2460701D01*
Y1737802D02*
Y2046798D01*
X2136699Y1737802D02*
X2460701D01*
X2136699D02*
Y2046798D01*
X1969303Y2743200D02*
X2069302D01*
X2019300Y2693203D02*
Y2793202D01*
X1857299Y2897698D02*
X2181301D01*
Y2588702D02*
Y2897698D01*
X1857299Y2588702D02*
X2181301D01*
X1857299D02*
Y2897698D01*
X2681702Y2688300D02*
X2931698D01*
X2681702Y3128300D02*
X2931698D01*
X2681702Y2688300D02*
Y3128300D01*
X2931698Y2688300D02*
Y3128300D01*
X2706700Y2154098D02*
X2906700D01*
X2706700Y2494102D02*
X2906700D01*
X2706700Y2154098D02*
Y2494102D01*
X2906700Y2154098D02*
Y2494102D01*
X3391703Y927100D02*
X3491702D01*
X3441700Y877103D02*
Y977102D01*
X3279699Y1081598D02*
X3603701D01*
Y772602D02*
Y1081598D01*
X3279699Y772602D02*
X3603701D01*
X3279699D02*
Y1081598D01*
X3391703Y596900D02*
X3491702D01*
X3441700Y546903D02*
Y646902D01*
X3279699Y751398D02*
X3603701D01*
Y442402D02*
Y751398D01*
X3279699Y442402D02*
X3603701D01*
X3279699D02*
Y751398D01*
X3417103Y1765300D02*
X3517102D01*
X3467100Y1715303D02*
Y1815302D01*
X3305099Y1919798D02*
X3629101D01*
Y1610802D02*
Y1919798D01*
X3305099Y1610802D02*
X3629101D01*
X3305099D02*
Y1919798D01*
X4547403Y2247900D02*
X4647402D01*
X4597400Y2197903D02*
Y2297902D01*
X4435399Y2402398D02*
X4759401D01*
Y2093402D02*
Y2402398D01*
X4435399Y2093402D02*
X4759401D01*
X4435399D02*
Y2402398D01*
X3874303Y215900D02*
X3974302D01*
X3924300Y165903D02*
Y265902D01*
X3762299Y370398D02*
X4086301D01*
Y61402D02*
Y370398D01*
X3762299Y61402D02*
X4086301D01*
X3762299D02*
Y370398D01*
X3404403Y2679700D02*
X3504402D01*
X3454400Y2629703D02*
Y2729702D01*
X3292399Y2834198D02*
X3616401D01*
Y2525202D02*
Y2834198D01*
X3292399Y2525202D02*
X3616401D01*
X3292399D02*
Y2834198D01*
X3785403Y2679700D02*
X3885402D01*
X3835400Y2629703D02*
Y2729702D01*
X3673399Y2834198D02*
X3997401D01*
Y2525202D02*
Y2834198D01*
X3673399Y2525202D02*
X3997401D01*
X3673399D02*
Y2834198D01*
X5347503Y3175000D02*
X5447502D01*
X5397500Y3125003D02*
Y3225002D01*
X5235499Y3329498D02*
X5559501D01*
Y3020502D02*
Y3329498D01*
X5235499Y3020502D02*
X5559501D01*
X5235499D02*
Y3329498D01*
X3315599Y2956098D02*
X3745601D01*
X3315599Y3216102D02*
X3745601D01*
Y2956098D02*
Y3216102D01*
X3315599Y2956098D02*
Y3216102D01*
X2592400Y591998D02*
X2792400D01*
X2592400Y932002D02*
X2792400D01*
X2592400Y591998D02*
Y932002D01*
X2792400Y591998D02*
Y932002D01*
X3163098Y2487198D02*
X3263097D01*
Y2237202D02*
Y2487198D01*
X3163098Y2237202D02*
Y2487198D01*
Y2237202D02*
X3263097D01*
%TF.MD5,96960f339b55d9cbc026cc8864c1e6fc*%
M02*
