%TF.GenerationSoftware,Altium Limited,Altium Designer,20.1.14 (287)*%
G04 Layer_Color=8421504*
%FSLAX45Y45*%
%MOMM*%
%TF.SameCoordinates,6DB32AA4-5486-4306-ADC8-C0D8F975F6BB*%
%TF.FilePolarity,Positive*%
%TF.FileFunction,Paste,Top*%
%TF.Part,Single*%
G01*
G75*
%TA.AperFunction,SMDPad,CuDef*%
%ADD10R,0.67488X0.24994*%
%ADD11R,0.24994X0.67488*%
%TA.AperFunction,ConnectorPad*%
%ADD12R,1.10000X1.55000*%
%ADD13R,1.70000X0.70000*%
%TA.AperFunction,SMDPad,CuDef*%
%ADD14R,1.35000X1.55000*%
%ADD15R,0.50000X0.50000*%
%ADD16R,0.50000X0.50000*%
%ADD17R,0.44000X1.24000*%
%ADD18R,1.12000X1.78000*%
%ADD19R,2.50000X2.00000*%
%ADD20R,2.30000X0.50000*%
%ADD21R,0.75006X0.59995*%
%ADD24R,3.20040X3.20040*%
%ADD25R,0.35560X0.81280*%
%ADD26R,0.81280X0.35560*%
%ADD27R,0.60000X1.50000*%
G04:AMPARAMS|DCode=28|XSize=1.07mm|YSize=1.03mm|CornerRadius=0.27295mm|HoleSize=0mm|Usage=FLASHONLY|Rotation=90.000|XOffset=0mm|YOffset=0mm|HoleType=Round|Shape=RoundedRectangle|*
%AMROUNDEDRECTD28*
21,1,1.07000,0.48410,0,0,90.0*
21,1,0.52410,1.03000,0,0,90.0*
1,1,0.54590,0.24205,0.26205*
1,1,0.54590,0.24205,-0.26205*
1,1,0.54590,-0.24205,-0.26205*
1,1,0.54590,-0.24205,0.26205*
%
%ADD28ROUNDEDRECTD28*%
%ADD29R,0.45999X0.42012*%
%ADD30R,0.43993X0.46507*%
%ADD31R,0.80000X0.80000*%
%ADD32R,1.70002X1.70002*%
%ADD33R,0.29997X0.84988*%
%ADD34R,0.84988X0.29997*%
%ADD35R,1.05004X0.40005*%
%ADD36R,1.50000X1.25000*%
%ADD37R,1.45000X1.15000*%
%ADD38R,0.80000X0.80000*%
%ADD39R,0.42012X0.45999*%
G36*
X2021688Y1247292D02*
Y1107288D01*
X2161692D01*
Y1247292D01*
X2021688D01*
D01*
D02*
G37*
G36*
Y1407312D02*
Y1267308D01*
X2161692D01*
Y1407312D01*
X2021688D01*
D01*
D02*
G37*
G36*
X2181708Y1247292D02*
Y1107288D01*
X2321712D01*
Y1247292D01*
X2181708D01*
D01*
D02*
G37*
G36*
Y1407312D02*
Y1267308D01*
X2321712D01*
Y1407312D01*
X2181708D01*
D01*
D02*
G37*
D10*
X3747262Y2285594D02*
D03*
Y2335606D02*
D03*
Y2235606D02*
D03*
Y2185594D02*
D03*
X3999738Y2335606D02*
D03*
Y2285594D02*
D03*
Y2235606D02*
D03*
Y2185594D02*
D03*
D11*
X3823487Y2361844D02*
D03*
X3873500D02*
D03*
X3923513D02*
D03*
X3823487Y2159356D02*
D03*
X3873500D02*
D03*
X3923513D02*
D03*
D12*
X5530804Y1157498D02*
D03*
X5911804D02*
D03*
Y182494D02*
D03*
X5530804D02*
D03*
D13*
X5336301Y987994D02*
D03*
Y733994D02*
D03*
Y479994D02*
D03*
D14*
X3826800Y3086100D02*
D03*
X4021800D02*
D03*
X3628100D02*
D03*
X3433100D02*
D03*
D15*
X4839498Y736600D02*
D03*
X4939497D02*
D03*
X3887003Y1524000D02*
D03*
X3987002D02*
D03*
X4787102Y2781300D02*
D03*
X4687103D02*
D03*
X4799797Y3111500D02*
D03*
X4699798D02*
D03*
D16*
X1714500Y2553503D02*
D03*
Y2653502D02*
D03*
D17*
X1451900Y2374900D02*
D03*
X1519900D02*
D03*
D18*
X1518001Y2006600D02*
D03*
X1783999D02*
D03*
D19*
X5976899Y2777703D02*
D03*
Y1887703D02*
D03*
X5426898Y2777703D02*
D03*
Y1887703D02*
D03*
D20*
X5416901Y2492700D02*
D03*
Y2412700D02*
D03*
Y2332700D02*
D03*
Y2252701D02*
D03*
Y2172701D02*
D03*
D21*
X2264791Y787400D02*
D03*
X2154809D02*
D03*
D24*
X2171700Y1257300D02*
D03*
D25*
X2051710Y1502410D02*
D03*
X2131695D02*
D03*
X2211705D02*
D03*
X2291690D02*
D03*
Y1012190D02*
D03*
X2211705D02*
D03*
X2131695D02*
D03*
X2051710D02*
D03*
D26*
X2416810Y1377290D02*
D03*
Y1297305D02*
D03*
Y1217295D02*
D03*
Y1137310D02*
D03*
X1926590D02*
D03*
Y1217295D02*
D03*
Y1297305D02*
D03*
Y1377290D02*
D03*
D27*
X1505199Y158999D02*
D03*
X1695201D02*
D03*
X1600200Y349001D02*
D03*
D28*
X1460500Y2582001D02*
D03*
Y2878999D02*
D03*
D29*
X1955800Y2425700D02*
D03*
X1889811D02*
D03*
X2659405Y1295400D02*
D03*
X2725395D02*
D03*
X3777005Y1181100D02*
D03*
X3842995D02*
D03*
X3497605Y342900D02*
D03*
X3563595D02*
D03*
X2738095Y1130300D02*
D03*
X2672105D02*
D03*
D30*
X2806700Y1773098D02*
D03*
Y1706702D02*
D03*
D31*
X4964501Y901700D02*
D03*
X4814499D02*
D03*
D32*
X4152905Y825500D02*
D03*
D33*
X4077899Y970509D02*
D03*
X4127911D02*
D03*
X4177899D02*
D03*
X4227911D02*
D03*
Y680491D02*
D03*
X4177899D02*
D03*
X4127911D02*
D03*
X4077899D02*
D03*
D34*
X4297914Y900506D02*
D03*
Y850494D02*
D03*
Y800506D02*
D03*
Y750494D02*
D03*
X4007896D02*
D03*
Y800506D02*
D03*
Y850494D02*
D03*
Y900506D02*
D03*
D35*
X2342896Y2427199D02*
D03*
Y2362200D02*
D03*
Y2297201D02*
D03*
X2152904D02*
D03*
Y2362200D02*
D03*
Y2427199D02*
D03*
X4501896Y1665199D02*
D03*
Y1600200D02*
D03*
Y1535201D02*
D03*
X4311904D02*
D03*
Y1600200D02*
D03*
Y1665199D02*
D03*
D36*
X2806700Y2803301D02*
D03*
Y3013299D02*
D03*
D37*
Y2236602D02*
D03*
Y2411598D02*
D03*
X2692400Y674502D02*
D03*
Y849498D02*
D03*
D38*
X3213100Y2437201D02*
D03*
Y2287199D02*
D03*
D39*
X4470400Y286995D02*
D03*
Y221005D02*
D03*
%TF.MD5,e0920b03f3ce2d0983e6312773de1224*%
M02*
