<?xml version="1.0" encoding="utf-8"?>
<!DOCTYPE eagle SYSTEM "eagle.dtd">
<eagle version="9.5.2">
<drawing>
<settings>
<setting alwaysvectorfont="no"/>
<setting verticaltext="up"/>
</settings>
<grid distance="0.1" unitdist="inch" unit="inch" style="lines" multiple="1" display="no" altdistance="0.01" altunitdist="inch" altunit="inch"/>
<layers>
<layer number="1" name="Top" color="4" fill="1" visible="no" active="no"/>
<layer number="2" name="Route2" color="1" fill="3" visible="no" active="no"/>
<layer number="3" name="Route3" color="4" fill="3" visible="no" active="no"/>
<layer number="4" name="Route4" color="1" fill="4" visible="no" active="no"/>
<layer number="5" name="Route5" color="4" fill="4" visible="no" active="no"/>
<layer number="6" name="Route6" color="1" fill="8" visible="no" active="no"/>
<layer number="7" name="Route7" color="4" fill="8" visible="no" active="no"/>
<layer number="8" name="Route8" color="1" fill="2" visible="no" active="no"/>
<layer number="9" name="Route9" color="4" fill="2" visible="no" active="no"/>
<layer number="10" name="Route10" color="1" fill="7" visible="no" active="no"/>
<layer number="11" name="Route11" color="4" fill="7" visible="no" active="no"/>
<layer number="12" name="Route12" color="1" fill="5" visible="no" active="no"/>
<layer number="13" name="Route13" color="4" fill="5" visible="no" active="no"/>
<layer number="14" name="Route14" color="1" fill="6" visible="no" active="no"/>
<layer number="15" name="Route15" color="4" fill="6" visible="no" active="no"/>
<layer number="16" name="Bottom" color="1" fill="1" visible="no" active="no"/>
<layer number="17" name="Pads" color="2" fill="1" visible="no" active="no"/>
<layer number="18" name="Vias" color="2" fill="1" visible="no" active="no"/>
<layer number="19" name="Unrouted" color="6" fill="1" visible="no" active="no"/>
<layer number="20" name="Dimension" color="15" fill="1" visible="no" active="no"/>
<layer number="21" name="tPlace" color="7" fill="1" visible="no" active="no"/>
<layer number="22" name="bPlace" color="7" fill="1" visible="no" active="no"/>
<layer number="23" name="tOrigins" color="15" fill="1" visible="no" active="no"/>
<layer number="24" name="bOrigins" color="15" fill="1" visible="no" active="no"/>
<layer number="25" name="tNames" color="7" fill="1" visible="no" active="no"/>
<layer number="26" name="bNames" color="7" fill="1" visible="no" active="no"/>
<layer number="27" name="tValues" color="7" fill="1" visible="no" active="no"/>
<layer number="28" name="bValues" color="7" fill="1" visible="no" active="no"/>
<layer number="29" name="tStop" color="7" fill="3" visible="no" active="no"/>
<layer number="30" name="bStop" color="7" fill="6" visible="no" active="no"/>
<layer number="31" name="tCream" color="7" fill="4" visible="no" active="no"/>
<layer number="32" name="bCream" color="7" fill="5" visible="no" active="no"/>
<layer number="33" name="tFinish" color="6" fill="3" visible="no" active="no"/>
<layer number="34" name="bFinish" color="6" fill="6" visible="no" active="no"/>
<layer number="35" name="tGlue" color="7" fill="4" visible="no" active="no"/>
<layer number="36" name="bGlue" color="7" fill="5" visible="no" active="no"/>
<layer number="37" name="tTest" color="7" fill="1" visible="no" active="no"/>
<layer number="38" name="bTest" color="7" fill="1" visible="no" active="no"/>
<layer number="39" name="tKeepout" color="4" fill="11" visible="no" active="no"/>
<layer number="40" name="bKeepout" color="1" fill="11" visible="no" active="no"/>
<layer number="41" name="tRestrict" color="4" fill="10" visible="no" active="no"/>
<layer number="42" name="bRestrict" color="1" fill="10" visible="no" active="no"/>
<layer number="43" name="vRestrict" color="2" fill="10" visible="no" active="no"/>
<layer number="44" name="Drills" color="7" fill="1" visible="no" active="no"/>
<layer number="45" name="Holes" color="7" fill="1" visible="no" active="no"/>
<layer number="46" name="Milling" color="3" fill="1" visible="no" active="no"/>
<layer number="47" name="Measures" color="7" fill="1" visible="no" active="no"/>
<layer number="48" name="Document" color="7" fill="1" visible="no" active="no"/>
<layer number="49" name="Reference" color="7" fill="1" visible="no" active="no"/>
<layer number="50" name="dxf" color="7" fill="1" visible="no" active="no"/>
<layer number="51" name="tDocu" color="7" fill="1" visible="no" active="no"/>
<layer number="52" name="bDocu" color="7" fill="1" visible="no" active="no"/>
<layer number="53" name="tGND_GNDA" color="7" fill="1" visible="no" active="no"/>
<layer number="54" name="bGND_GNDA" color="7" fill="1" visible="no" active="no"/>
<layer number="56" name="wert" color="7" fill="1" visible="no" active="no"/>
<layer number="57" name="tCAD" color="7" fill="1" visible="no" active="no"/>
<layer number="59" name="tCarbon" color="7" fill="1" visible="no" active="no"/>
<layer number="60" name="bCarbon" color="7" fill="1" visible="no" active="no"/>
<layer number="88" name="SimResults" color="9" fill="1" visible="yes" active="yes"/>
<layer number="89" name="SimProbes" color="9" fill="1" visible="yes" active="yes"/>
<layer number="90" name="Modules" color="5" fill="1" visible="yes" active="yes"/>
<layer number="91" name="Nets" color="2" fill="1" visible="yes" active="yes"/>
<layer number="92" name="Busses" color="1" fill="1" visible="yes" active="yes"/>
<layer number="93" name="Pins" color="2" fill="1" visible="no" active="yes"/>
<layer number="94" name="Symbols" color="4" fill="1" visible="yes" active="yes"/>
<layer number="95" name="Names" color="7" fill="1" visible="yes" active="yes"/>
<layer number="96" name="Values" color="7" fill="1" visible="yes" active="yes"/>
<layer number="97" name="Info" color="7" fill="1" visible="yes" active="yes"/>
<layer number="98" name="Guide" color="6" fill="1" visible="yes" active="yes"/>
<layer number="99" name="SpiceOrder" color="5" fill="1" visible="yes" active="yes"/>
<layer number="100" name="Muster" color="7" fill="1" visible="yes" active="yes"/>
<layer number="101" name="Patch_Top" color="7" fill="1" visible="yes" active="yes"/>
<layer number="102" name="Vscore" color="7" fill="1" visible="yes" active="yes"/>
<layer number="103" name="fp3" color="7" fill="1" visible="yes" active="yes"/>
<layer number="104" name="Name" color="7" fill="1" visible="yes" active="yes"/>
<layer number="105" name="Beschreib" color="7" fill="1" visible="yes" active="yes"/>
<layer number="106" name="BGA-Top" color="7" fill="1" visible="yes" active="yes"/>
<layer number="107" name="BD-Top" color="7" fill="1" visible="yes" active="yes"/>
<layer number="108" name="fp8" color="7" fill="1" visible="yes" active="yes"/>
<layer number="109" name="fp9" color="7" fill="1" visible="yes" active="yes"/>
<layer number="110" name="fp0" color="7" fill="1" visible="yes" active="yes"/>
<layer number="111" name="LPC17xx" color="7" fill="1" visible="yes" active="yes"/>
<layer number="112" name="tSilk" color="7" fill="1" visible="yes" active="yes"/>
<layer number="113" name="IDFDebug" color="7" fill="1" visible="yes" active="yes"/>
<layer number="114" name="GND" color="7" fill="1" visible="yes" active="yes"/>
<layer number="115" name="ReferenceISLANDS" color="7" fill="1" visible="yes" active="yes"/>
<layer number="116" name="Patch_BOT" color="7" fill="1" visible="yes" active="yes"/>
<layer number="117" name="BACKMAAT1" color="7" fill="1" visible="yes" active="yes"/>
<layer number="118" name="Rect_Pads" color="7" fill="1" visible="yes" active="yes"/>
<layer number="119" name="KAP_TEKEN" color="7" fill="1" visible="yes" active="yes"/>
<layer number="120" name="KAP_MAAT1" color="7" fill="1" visible="yes" active="yes"/>
<layer number="121" name="_tsilk" color="7" fill="1" visible="yes" active="yes"/>
<layer number="122" name="_bsilk" color="7" fill="1" visible="yes" active="yes"/>
<layer number="123" name="tTestmark" color="7" fill="1" visible="yes" active="yes"/>
<layer number="124" name="bTestmark" color="7" fill="1" visible="yes" active="yes"/>
<layer number="125" name="_tNames" color="7" fill="1" visible="yes" active="yes"/>
<layer number="126" name="_bNames" color="7" fill="1" visible="yes" active="yes"/>
<layer number="127" name="_tValues" color="7" fill="1" visible="yes" active="yes"/>
<layer number="128" name="_bValues" color="7" fill="1" visible="yes" active="yes"/>
<layer number="129" name="Mask" color="7" fill="1" visible="yes" active="yes"/>
<layer number="130" name="SMDSTROOK" color="7" fill="1" visible="yes" active="yes"/>
<layer number="131" name="tAdjust" color="7" fill="1" visible="yes" active="yes"/>
<layer number="132" name="bAdjust" color="7" fill="1" visible="yes" active="yes"/>
<layer number="133" name="bottom_silk" color="7" fill="1" visible="yes" active="yes"/>
<layer number="134" name="silk_top" color="7" fill="1" visible="yes" active="yes"/>
<layer number="135" name="silk_bottom" color="7" fill="1" visible="yes" active="yes"/>
<layer number="136" name="silktop" color="7" fill="1" visible="yes" active="yes"/>
<layer number="137" name="silkbottom" color="7" fill="1" visible="yes" active="yes"/>
<layer number="144" name="Drill_legend" color="7" fill="1" visible="yes" active="yes"/>
<layer number="145" name="DrillLegend_01-16" color="7" fill="1" visible="yes" active="yes"/>
<layer number="146" name="DrillLegend_01-20" color="7" fill="1" visible="yes" active="yes"/>
<layer number="150" name="Notes" color="7" fill="1" visible="yes" active="yes"/>
<layer number="151" name="HeatSink" color="7" fill="1" visible="yes" active="yes"/>
<layer number="152" name="_bDocu" color="7" fill="1" visible="yes" active="yes"/>
<layer number="153" name="FabDoc1" color="7" fill="1" visible="yes" active="yes"/>
<layer number="154" name="FabDoc2" color="7" fill="1" visible="yes" active="yes"/>
<layer number="155" name="FabDoc3" color="7" fill="1" visible="yes" active="yes"/>
<layer number="166" name="AntennaArea" color="7" fill="1" visible="yes" active="yes"/>
<layer number="168" name="4mmHeightArea" color="7" fill="1" visible="yes" active="yes"/>
<layer number="199" name="Contour" color="7" fill="1" visible="yes" active="yes"/>
<layer number="200" name="200bmp" color="7" fill="1" visible="yes" active="yes"/>
<layer number="201" name="201bmp" color="7" fill="1" visible="yes" active="yes"/>
<layer number="202" name="202bmp" color="7" fill="1" visible="yes" active="yes"/>
<layer number="203" name="203bmp" color="7" fill="1" visible="yes" active="yes"/>
<layer number="204" name="204bmp" color="7" fill="1" visible="yes" active="yes"/>
<layer number="205" name="205bmp" color="7" fill="1" visible="yes" active="yes"/>
<layer number="206" name="206bmp" color="7" fill="1" visible="yes" active="yes"/>
<layer number="207" name="207bmp" color="7" fill="1" visible="yes" active="yes"/>
<layer number="208" name="208bmp" color="7" fill="1" visible="yes" active="yes"/>
<layer number="209" name="209bmp" color="7" fill="1" visible="yes" active="yes"/>
<layer number="210" name="210bmp" color="7" fill="1" visible="yes" active="yes"/>
<layer number="211" name="211bmp" color="7" fill="1" visible="yes" active="yes"/>
<layer number="212" name="212bmp" color="7" fill="1" visible="yes" active="yes"/>
<layer number="213" name="213bmp" color="7" fill="1" visible="yes" active="yes"/>
<layer number="214" name="214bmp" color="7" fill="1" visible="yes" active="yes"/>
<layer number="215" name="215bmp" color="7" fill="1" visible="yes" active="yes"/>
<layer number="216" name="216bmp" color="7" fill="1" visible="yes" active="yes"/>
<layer number="217" name="217bmp" color="7" fill="1" visible="yes" active="yes"/>
<layer number="218" name="218bmp" color="7" fill="1" visible="yes" active="yes"/>
<layer number="219" name="219bmp" color="7" fill="1" visible="yes" active="yes"/>
<layer number="220" name="220bmp" color="7" fill="1" visible="yes" active="yes"/>
<layer number="221" name="221bmp" color="7" fill="1" visible="yes" active="yes"/>
<layer number="222" name="222bmp" color="7" fill="1" visible="yes" active="yes"/>
<layer number="223" name="223bmp" color="7" fill="1" visible="yes" active="yes"/>
<layer number="224" name="224bmp" color="7" fill="1" visible="yes" active="yes"/>
<layer number="225" name="225bmp" color="7" fill="1" visible="yes" active="yes"/>
<layer number="226" name="226bmp" color="7" fill="1" visible="yes" active="yes"/>
<layer number="227" name="227bmp" color="7" fill="1" visible="yes" active="yes"/>
<layer number="228" name="228bmp" color="7" fill="1" visible="yes" active="yes"/>
<layer number="229" name="229bmp" color="7" fill="1" visible="yes" active="yes"/>
<layer number="230" name="230bmp" color="7" fill="1" visible="yes" active="yes"/>
<layer number="231" name="231bmp" color="7" fill="1" visible="yes" active="yes"/>
<layer number="232" name="Eagle3D_PG2" color="7" fill="1" visible="yes" active="yes"/>
<layer number="233" name="Eagle3D_PG3" color="7" fill="1" visible="yes" active="yes"/>
<layer number="248" name="Housing" color="7" fill="1" visible="yes" active="yes"/>
<layer number="249" name="Edge" color="7" fill="1" visible="yes" active="yes"/>
<layer number="250" name="Descript" color="7" fill="1" visible="yes" active="yes"/>
<layer number="251" name="SMDround" color="7" fill="1" visible="yes" active="yes"/>
<layer number="254" name="cooling" color="7" fill="1" visible="yes" active="yes"/>
<layer number="255" name="routoute" color="7" fill="1" visible="yes" active="yes"/>
</layers>
<schematic xreflabel="%F%N/%S.%C%R" xrefpart="/%S.%C%R">
<fusionteam huburn="a.YnVzaW5lc3M6bXlteTM0MjE" projecturn="a.YnVzaW5lc3M6bXlteTM0MjEjMjAyMDAyMjYyNjkyMjE1NzY" folderUrn="urn:adsk.wipprod:fs.folder:co.TYQ2Mfm6ScGrANJmpQtFkw" urn="urn:adsk.wipprod:dm.lineage:T5OatjyETJWq3FsrXlVVbA"  versionUrn="urn:adsk.wipprod:fs.file:vf.T5OatjyETJWq3FsrXlVVbA?version=1" camFileUrn="" camFileVersionUrn="" lastpublishedchangeguid="f8886489-1226-a715-685f-b7bcd7923cea"/>
<libraries>
<library name="con-cypressindustries" urn="urn:adsk.eagle:library:138">
<description>&lt;b&gt;Connectors from Cypress Industries&lt;/b&gt;&lt;p&gt;
www.cypressindustries.com&lt;br&gt;
&lt;author&gt;Created by librarian@cadsoft.de&lt;/author&gt;</description>
<packages>
<package name="32005-201" urn="urn:adsk.eagle:footprint:6404/1" library_version="2">
<description>&lt;b&gt;MINI USB-B R/A SMT W/ REAR&lt;/b&gt;&lt;p&gt;
Source: http://www.cypressindustries.com/pdf/32005-201.pdf</description>
<wire x1="-5.9182" y1="3.8416" x2="-3.6879" y2="3.8416" width="0.1016" layer="51"/>
<wire x1="-3.6879" y1="3.8416" x2="-3.6879" y2="4.8799" width="0.1016" layer="51"/>
<wire x1="-3.6879" y1="4.8799" x2="-3.3245" y2="4.8799" width="0.1016" layer="51"/>
<wire x1="-3.3245" y1="4.8799" x2="-3.3245" y2="4.4646" width="0.1016" layer="51"/>
<wire x1="-3.3245" y1="4.4646" x2="-2.7015" y2="4.4646" width="0.1016" layer="51"/>
<wire x1="-2.7015" y1="4.4646" x2="-2.7015" y2="4.8799" width="0.1016" layer="51"/>
<wire x1="-2.7015" y1="4.8799" x2="-2.3093" y2="4.8799" width="0.1016" layer="51"/>
<wire x1="-2.3093" y1="4.8799" x2="-2.3093" y2="3.8416" width="0.1016" layer="51"/>
<wire x1="-1.5825" y1="3.8416" x2="0.7266" y2="3.8416" width="0.1016" layer="21"/>
<wire x1="2.8032" y1="3.8416" x2="0.7266" y2="3.8416" width="0.1016" layer="51"/>
<wire x1="0.7266" y1="3.8416" x2="0.519" y2="4.0492" width="0.1016" layer="21" curve="-90"/>
<wire x1="0.519" y1="4.0492" x2="0.519" y2="4.205" width="0.1016" layer="21"/>
<wire x1="0.519" y1="4.205" x2="2.907" y2="4.205" width="0.1016" layer="51"/>
<wire x1="2.907" y1="4.205" x2="3.4781" y2="3.6339" width="0.1016" layer="51" curve="-90"/>
<wire x1="-5.9182" y1="-3.8415" x2="-5.9182" y2="-3.8414" width="0.1016" layer="21"/>
<wire x1="-5.9182" y1="-3.8414" x2="-5.9182" y2="3.8416" width="0.1016" layer="21"/>
<wire x1="-1.8171" y1="2.9591" x2="-4.5685" y2="2.7514" width="0.1016" layer="21"/>
<wire x1="-4.5685" y1="2.7514" x2="-4.828" y2="2.5438" width="0.1016" layer="21" curve="68.629849"/>
<wire x1="-4.828" y1="2.5438" x2="-4.828" y2="1.9727" width="0.1016" layer="21" curve="34.099487"/>
<wire x1="-4.828" y1="1.9727" x2="-4.5685" y2="1.7651" width="0.1016" layer="21" curve="68.629849"/>
<wire x1="-4.5685" y1="1.7651" x2="-1.8171" y2="1.5055" width="0.1016" layer="21"/>
<wire x1="-1.8171" y1="1.5055" x2="-1.8171" y2="1.7132" width="0.1016" layer="21"/>
<wire x1="-1.8171" y1="1.7132" x2="-4.2051" y2="1.9727" width="0.1016" layer="21"/>
<wire x1="-4.2051" y1="1.9727" x2="-4.2051" y2="2.4919" width="0.1016" layer="21"/>
<wire x1="-4.2051" y1="2.4919" x2="-1.8171" y2="2.7514" width="0.1016" layer="21"/>
<wire x1="-1.8171" y1="2.7514" x2="-1.8171" y2="2.9591" width="0.1016" layer="21"/>
<wire x1="2.8032" y1="3.8416" x2="3.0627" y2="3.5821" width="0.1016" layer="51" curve="-90"/>
<wire x1="3.0627" y1="3.5821" x2="3.0627" y2="3.011" width="0.1016" layer="51"/>
<wire x1="3.0627" y1="3.011" x2="3.4261" y2="3.011" width="0.1016" layer="21"/>
<wire x1="1.713" y1="4.2569" x2="1.713" y2="4.8799" width="0.1016" layer="51"/>
<wire x1="1.713" y1="4.8799" x2="2.1283" y2="4.8799" width="0.1016" layer="51"/>
<wire x1="2.1283" y1="4.8799" x2="2.1283" y2="4.4646" width="0.1016" layer="51"/>
<wire x1="2.1283" y1="4.4646" x2="2.6474" y2="4.4646" width="0.1016" layer="51"/>
<wire x1="2.6474" y1="4.4646" x2="2.6474" y2="4.8799" width="0.1016" layer="51"/>
<wire x1="2.6474" y1="4.8799" x2="3.0627" y2="4.8799" width="0.1016" layer="51"/>
<wire x1="3.0627" y1="4.8799" x2="3.0627" y2="4.2569" width="0.1016" layer="51"/>
<wire x1="0.5709" y1="1.7651" x2="0.5709" y2="-1.765" width="0.1016" layer="21"/>
<wire x1="1.0381" y1="-1.8169" x2="1.0381" y2="1.817" width="0.1016" layer="21"/>
<wire x1="1.0381" y1="1.817" x2="0.8305" y2="2.0246" width="0.1016" layer="21" curve="90.055225"/>
<wire x1="0.8305" y1="2.0246" x2="0.8304" y2="2.0246" width="0.1016" layer="21"/>
<wire x1="0.8304" y1="2.0246" x2="0.5709" y2="1.7651" width="0.1016" layer="21" curve="89.955858"/>
<wire x1="1.5573" y1="-2.0246" x2="3.4261" y2="-2.0246" width="0.1016" layer="21"/>
<wire x1="3.0627" y1="-1.9726" x2="3.0627" y2="1.9727" width="0.1016" layer="51"/>
<wire x1="-4.5684" y1="1.2459" x2="-0.5192" y2="1.0383" width="0.1016" layer="21"/>
<wire x1="-0.5192" y1="1.0383" x2="-0.3116" y2="0.8306" width="0.1016" layer="21" curve="-83.771817"/>
<wire x1="-4.5685" y1="1.2459" x2="-4.7761" y2="1.0383" width="0.1016" layer="21" curve="90"/>
<wire x1="-4.7761" y1="1.0383" x2="-4.7761" y2="1.0382" width="0.1016" layer="21"/>
<wire x1="-4.7761" y1="1.0382" x2="-4.5685" y2="0.8306" width="0.1016" layer="21" curve="90"/>
<wire x1="-4.5685" y1="0.8306" x2="-1.1422" y2="0.623" width="0.1016" layer="21"/>
<wire x1="-5.9182" y1="-3.8414" x2="-3.6879" y2="-3.8414" width="0.1016" layer="51"/>
<wire x1="-3.6879" y1="-3.8414" x2="-3.6879" y2="-4.8797" width="0.1016" layer="51"/>
<wire x1="-3.6879" y1="-4.8797" x2="-3.3245" y2="-4.8797" width="0.1016" layer="51"/>
<wire x1="-3.3245" y1="-4.8797" x2="-3.3245" y2="-4.4644" width="0.1016" layer="51"/>
<wire x1="-3.3245" y1="-4.4644" x2="-2.7015" y2="-4.4644" width="0.1016" layer="51"/>
<wire x1="-2.7015" y1="-4.4644" x2="-2.7015" y2="-4.8797" width="0.1016" layer="51"/>
<wire x1="-2.7015" y1="-4.8797" x2="-2.3093" y2="-4.8797" width="0.1016" layer="51"/>
<wire x1="-2.3093" y1="-4.8797" x2="-2.3093" y2="-3.8414" width="0.1016" layer="51"/>
<wire x1="-2.3093" y1="-3.8414" x2="2.8032" y2="-3.8414" width="0.1016" layer="51"/>
<wire x1="0.7266" y1="-3.8414" x2="0.519" y2="-4.049" width="0.1016" layer="21" curve="90"/>
<wire x1="0.519" y1="-4.049" x2="0.519" y2="-4.2048" width="0.1016" layer="21"/>
<wire x1="0.519" y1="-4.2048" x2="2.907" y2="-4.2048" width="0.1016" layer="51"/>
<wire x1="2.907" y1="-4.2048" x2="3.4781" y2="-3.6337" width="0.1016" layer="51" curve="90.020069"/>
<wire x1="-1.8171" y1="-2.9589" x2="-4.5685" y2="-2.7512" width="0.1016" layer="21"/>
<wire x1="-4.5685" y1="-2.7512" x2="-4.828" y2="-2.5436" width="0.1016" layer="21" curve="-68.629849"/>
<wire x1="-4.828" y1="-2.5436" x2="-4.828" y2="-1.9725" width="0.1016" layer="21" curve="-34.099487"/>
<wire x1="-4.828" y1="-1.9725" x2="-4.5685" y2="-1.7649" width="0.1016" layer="21" curve="-68.629849"/>
<wire x1="-4.5685" y1="-1.7649" x2="-1.8171" y2="-1.5053" width="0.1016" layer="21"/>
<wire x1="-1.8171" y1="-1.5053" x2="-1.8171" y2="-1.713" width="0.1016" layer="21"/>
<wire x1="-1.8171" y1="-1.713" x2="-4.2051" y2="-1.9725" width="0.1016" layer="21"/>
<wire x1="-4.2051" y1="-1.9725" x2="-4.2051" y2="-2.4917" width="0.1016" layer="21"/>
<wire x1="-4.2051" y1="-2.4917" x2="-1.8171" y2="-2.7512" width="0.1016" layer="21"/>
<wire x1="-1.8171" y1="-2.7512" x2="-1.8171" y2="-2.9589" width="0.1016" layer="21"/>
<wire x1="2.8032" y1="-3.8414" x2="3.0627" y2="-3.5819" width="0.1016" layer="51" curve="90.044176"/>
<wire x1="3.0627" y1="-3.5819" x2="3.0627" y2="-3.0108" width="0.1016" layer="51"/>
<wire x1="3.0627" y1="-3.0108" x2="3.4261" y2="-3.0108" width="0.1016" layer="21"/>
<wire x1="1.713" y1="-4.2567" x2="1.713" y2="-4.8797" width="0.1016" layer="51"/>
<wire x1="1.713" y1="-4.8797" x2="2.1283" y2="-4.8797" width="0.1016" layer="51"/>
<wire x1="2.1283" y1="-4.8797" x2="2.1283" y2="-4.4644" width="0.1016" layer="51"/>
<wire x1="2.1283" y1="-4.4644" x2="2.6474" y2="-4.4644" width="0.1016" layer="51"/>
<wire x1="2.6474" y1="-4.4644" x2="2.6474" y2="-4.8797" width="0.1016" layer="51"/>
<wire x1="2.6474" y1="-4.8797" x2="3.0627" y2="-4.8797" width="0.1016" layer="51"/>
<wire x1="3.0627" y1="-4.8797" x2="3.0627" y2="-4.2567" width="0.1016" layer="51"/>
<wire x1="1.0381" y1="-1.8168" x2="0.8305" y2="-2.0244" width="0.1016" layer="21" curve="-90.055225"/>
<wire x1="0.8304" y1="-2.0244" x2="0.5709" y2="-1.7649" width="0.1016" layer="21" curve="-89.867677"/>
<wire x1="1.5573" y1="-1.9725" x2="1.5573" y2="2.0248" width="0.1016" layer="51"/>
<wire x1="1.5573" y1="2.0248" x2="3.4261" y2="2.0248" width="0.1016" layer="21"/>
<wire x1="-4.5684" y1="-1.2457" x2="-0.5192" y2="-1.0381" width="0.1016" layer="21"/>
<wire x1="-0.5192" y1="-1.0381" x2="-0.3116" y2="-0.8304" width="0.1016" layer="21" curve="83.722654"/>
<wire x1="-0.3116" y1="-0.8304" x2="-0.3116" y2="0.8307" width="0.1016" layer="21"/>
<wire x1="-4.5685" y1="-1.2457" x2="-4.7761" y2="-1.0381" width="0.1016" layer="21" curve="-90"/>
<wire x1="-4.7761" y1="-1.038" x2="-4.5685" y2="-0.8304" width="0.1016" layer="21" curve="-90"/>
<wire x1="-4.5685" y1="-0.8304" x2="-1.1422" y2="-0.6228" width="0.1016" layer="21"/>
<wire x1="-1.1422" y1="-0.6228" x2="-1.1422" y2="0.6232" width="0.1016" layer="21"/>
<wire x1="-1.5826" y1="-3.8414" x2="0.7267" y2="-3.8415" width="0.1016" layer="21"/>
<wire x1="-5.9182" y1="-3.8414" x2="-4.4146" y2="-3.8414" width="0.1016" layer="21"/>
<wire x1="-5.9182" y1="3.8416" x2="-4.4147" y2="3.8415" width="0.1016" layer="21"/>
<wire x1="-2.3093" y1="3.8416" x2="0.7265" y2="3.8415" width="0.1016" layer="51"/>
<wire x1="3.4781" y1="-2.0245" x2="3.4781" y2="-3.0109" width="0.1016" layer="21"/>
<wire x1="3.4781" y1="3.634" x2="3.478" y2="-3.0109" width="0.1016" layer="51"/>
<wire x1="3.4782" y1="3.011" x2="3.4782" y2="2.0246" width="0.1016" layer="21"/>
<smd name="M1" x="-3" y="-4.45" dx="2.5" dy="2" layer="1"/>
<smd name="M2" x="-3" y="4.45" dx="2.5" dy="2" layer="1"/>
<smd name="M4" x="2.9" y="-4.45" dx="3.3" dy="2" layer="1"/>
<smd name="M3" x="2.9" y="4.45" dx="3.3" dy="2" layer="1"/>
<smd name="1" x="3" y="1.6" dx="3.1" dy="0.5" layer="1"/>
<smd name="2" x="3" y="0.8" dx="3.1" dy="0.5" layer="1"/>
<smd name="3" x="3" y="0" dx="3.1" dy="0.5" layer="1"/>
<smd name="4" x="3" y="-0.8" dx="3.1" dy="0.5" layer="1"/>
<smd name="5" x="3" y="-1.6" dx="3.1" dy="0.5" layer="1"/>
<text x="-4.445" y="5.715" size="1.27" layer="25">&gt;NAME</text>
<text x="-4.445" y="-6.985" size="1.27" layer="27">&gt;VALUE</text>
<hole x="0" y="2.2" drill="0.9"/>
<hole x="0" y="-2.2" drill="0.9"/>
</package>
<package name="32005-301" urn="urn:adsk.eagle:footprint:6405/1" library_version="2">
<description>&lt;b&gt;MINI USB-B R/A SMT W/O REAR&lt;/b&gt;&lt;p&gt;
Source: http://www.cypressindustries.com/pdf/32005-301.pdf</description>
<wire x1="-5.9228" y1="3.8473" x2="3.1598" y2="3.8473" width="0.1016" layer="51"/>
<wire x1="2.9404" y1="3.7967" x2="2.9404" y2="2.5986" width="0.1016" layer="51"/>
<wire x1="2.9404" y1="2.5986" x2="1.8098" y2="2.5986" width="0.1016" layer="21"/>
<wire x1="1.8098" y1="3.7798" x2="1.8098" y2="-3.8473" width="0.1016" layer="51"/>
<wire x1="3.1597" y1="-3.8473" x2="-5.9228" y2="-3.8473" width="0.1016" layer="51"/>
<wire x1="-5.9228" y1="-3.8473" x2="-5.9228" y2="3.8473" width="0.1016" layer="21"/>
<wire x1="2.9573" y1="-3.8217" x2="2.9573" y2="-2.6998" width="0.1016" layer="51"/>
<wire x1="2.9573" y1="-2.6998" x2="1.8098" y2="-2.6998" width="0.1016" layer="21"/>
<wire x1="-5.9182" y1="3.8416" x2="-3.6879" y2="3.8416" width="0.1016" layer="51"/>
<wire x1="-3.6879" y1="3.8416" x2="-3.6879" y2="4.8799" width="0.1016" layer="51"/>
<wire x1="-3.6879" y1="4.8799" x2="-3.3245" y2="4.8799" width="0.1016" layer="51"/>
<wire x1="-3.3245" y1="4.8799" x2="-3.3245" y2="4.4646" width="0.1016" layer="51"/>
<wire x1="-3.3245" y1="4.4646" x2="-2.7015" y2="4.4646" width="0.1016" layer="51"/>
<wire x1="-2.7015" y1="4.4646" x2="-2.7015" y2="4.8799" width="0.1016" layer="51"/>
<wire x1="-2.7015" y1="4.8799" x2="-2.3093" y2="4.8799" width="0.1016" layer="51"/>
<wire x1="-2.3093" y1="4.8799" x2="-2.3093" y2="3.8416" width="0.1016" layer="51"/>
<wire x1="-5.9182" y1="-3.8415" x2="-5.9182" y2="-3.8414" width="0.1016" layer="21"/>
<wire x1="-5.9182" y1="-3.8414" x2="-5.9182" y2="3.8416" width="0.1016" layer="21"/>
<wire x1="-1.8171" y1="2.9591" x2="-4.5685" y2="2.7514" width="0.1016" layer="21"/>
<wire x1="-4.5685" y1="2.7514" x2="-4.828" y2="2.5438" width="0.1016" layer="21" curve="68.629849"/>
<wire x1="-4.828" y1="2.5438" x2="-4.828" y2="1.9727" width="0.1016" layer="21" curve="34.099487"/>
<wire x1="-4.828" y1="1.9727" x2="-4.5685" y2="1.7651" width="0.1016" layer="21" curve="68.629849"/>
<wire x1="-4.5685" y1="1.7651" x2="-1.8171" y2="1.5055" width="0.1016" layer="21"/>
<wire x1="-1.8171" y1="1.5055" x2="-1.8171" y2="1.7132" width="0.1016" layer="21"/>
<wire x1="-1.8171" y1="1.7132" x2="-4.2051" y2="1.9727" width="0.1016" layer="21"/>
<wire x1="-4.2051" y1="1.9727" x2="-4.2051" y2="2.4919" width="0.1016" layer="21"/>
<wire x1="-4.2051" y1="2.4919" x2="-1.8171" y2="2.7514" width="0.1016" layer="21"/>
<wire x1="-1.8171" y1="2.7514" x2="-1.8171" y2="2.9591" width="0.1016" layer="21"/>
<wire x1="1.713" y1="3.8856" x2="1.713" y2="4.8799" width="0.1016" layer="51"/>
<wire x1="1.713" y1="4.8799" x2="2.1283" y2="4.8799" width="0.1016" layer="51"/>
<wire x1="2.1283" y1="4.8799" x2="2.1283" y2="4.4646" width="0.1016" layer="51"/>
<wire x1="2.1283" y1="4.4646" x2="2.6474" y2="4.4646" width="0.1016" layer="51"/>
<wire x1="2.6474" y1="4.4646" x2="2.6474" y2="4.8799" width="0.1016" layer="51"/>
<wire x1="2.6474" y1="4.8799" x2="3.1639" y2="4.8799" width="0.1016" layer="51"/>
<wire x1="3.1639" y1="4.8799" x2="3.1639" y2="3.8519" width="0.1016" layer="51"/>
<wire x1="-4.5684" y1="1.2459" x2="-0.5192" y2="1.0383" width="0.1016" layer="21"/>
<wire x1="-0.5192" y1="1.0383" x2="-0.3116" y2="0.8306" width="0.1016" layer="21" curve="-83.771817"/>
<wire x1="-4.5685" y1="1.2459" x2="-4.7761" y2="1.0383" width="0.1016" layer="21" curve="90"/>
<wire x1="-4.7761" y1="1.0383" x2="-4.7761" y2="1.0382" width="0.1016" layer="21"/>
<wire x1="-4.7761" y1="1.0382" x2="-4.5685" y2="0.8306" width="0.1016" layer="21" curve="90"/>
<wire x1="-4.5685" y1="0.8306" x2="-1.1422" y2="0.623" width="0.1016" layer="21"/>
<wire x1="-5.9182" y1="-3.8414" x2="-3.6879" y2="-3.8414" width="0.1016" layer="51"/>
<wire x1="-3.6879" y1="-3.8414" x2="-3.6879" y2="-4.8797" width="0.1016" layer="51"/>
<wire x1="-3.6879" y1="-4.8797" x2="-3.3245" y2="-4.8797" width="0.1016" layer="51"/>
<wire x1="-3.3245" y1="-4.8797" x2="-3.3245" y2="-4.4644" width="0.1016" layer="51"/>
<wire x1="-3.3245" y1="-4.4644" x2="-2.7015" y2="-4.4644" width="0.1016" layer="51"/>
<wire x1="-2.7015" y1="-4.4644" x2="-2.7015" y2="-4.8797" width="0.1016" layer="51"/>
<wire x1="-2.7015" y1="-4.8797" x2="-2.3093" y2="-4.8797" width="0.1016" layer="51"/>
<wire x1="-2.3093" y1="-4.8797" x2="-2.3093" y2="-3.8414" width="0.1016" layer="51"/>
<wire x1="-1.8171" y1="-2.9589" x2="-4.5685" y2="-2.7512" width="0.1016" layer="21"/>
<wire x1="-4.5685" y1="-2.7512" x2="-4.828" y2="-2.5436" width="0.1016" layer="21" curve="-68.629849"/>
<wire x1="-4.828" y1="-2.5436" x2="-4.828" y2="-1.9725" width="0.1016" layer="21" curve="-34.099487"/>
<wire x1="-4.828" y1="-1.9725" x2="-4.5685" y2="-1.7649" width="0.1016" layer="21" curve="-68.629849"/>
<wire x1="-4.5685" y1="-1.7649" x2="-1.8171" y2="-1.5053" width="0.1016" layer="21"/>
<wire x1="-1.8171" y1="-1.5053" x2="-1.8171" y2="-1.713" width="0.1016" layer="21"/>
<wire x1="-1.8171" y1="-1.713" x2="-4.2051" y2="-1.9725" width="0.1016" layer="21"/>
<wire x1="-4.2051" y1="-1.9725" x2="-4.2051" y2="-2.4917" width="0.1016" layer="21"/>
<wire x1="-4.2051" y1="-2.4917" x2="-1.8171" y2="-2.7512" width="0.1016" layer="21"/>
<wire x1="-1.8171" y1="-2.7512" x2="-1.8171" y2="-2.9589" width="0.1016" layer="21"/>
<wire x1="1.713" y1="-3.8855" x2="1.713" y2="-4.8797" width="0.1016" layer="51"/>
<wire x1="1.713" y1="-4.8797" x2="2.1283" y2="-4.8797" width="0.1016" layer="51"/>
<wire x1="2.1283" y1="-4.8797" x2="2.1283" y2="-4.4644" width="0.1016" layer="51"/>
<wire x1="2.1283" y1="-4.4644" x2="2.6474" y2="-4.4644" width="0.1016" layer="51"/>
<wire x1="2.6474" y1="-4.4644" x2="2.6474" y2="-4.8797" width="0.1016" layer="51"/>
<wire x1="2.6474" y1="-4.8797" x2="3.1627" y2="-4.8797" width="0.1016" layer="51"/>
<wire x1="3.1627" y1="-4.8797" x2="3.1627" y2="-3.8518" width="0.1016" layer="51"/>
<wire x1="-4.5684" y1="-1.2457" x2="-0.5192" y2="-1.0381" width="0.1016" layer="21"/>
<wire x1="-0.5192" y1="-1.0381" x2="-0.3116" y2="-0.8304" width="0.1016" layer="21" curve="83.722654"/>
<wire x1="-0.3116" y1="-0.8304" x2="-0.3116" y2="0.8307" width="0.1016" layer="21"/>
<wire x1="-4.5685" y1="-1.2457" x2="-4.7761" y2="-1.0381" width="0.1016" layer="21" curve="-90"/>
<wire x1="-4.7761" y1="-1.038" x2="-4.5685" y2="-0.8304" width="0.1016" layer="21" curve="-90"/>
<wire x1="-4.5685" y1="-0.8304" x2="-1.1422" y2="-0.6228" width="0.1016" layer="21"/>
<wire x1="-1.1422" y1="-0.6228" x2="-1.1422" y2="0.6232" width="0.1016" layer="21"/>
<wire x1="-5.9182" y1="-3.8414" x2="-4.4146" y2="-3.8414" width="0.1016" layer="21"/>
<wire x1="-5.9182" y1="3.8416" x2="-4.4147" y2="3.8415" width="0.1016" layer="21"/>
<wire x1="1.0842" y1="-3.8472" x2="-1.6031" y2="-3.8472" width="0.1016" layer="21"/>
<wire x1="-1.5523" y1="3.8472" x2="0.9831" y2="3.8473" width="0.1016" layer="21"/>
<wire x1="2.9404" y1="3.3243" x2="2.9404" y2="2.5986" width="0.1016" layer="21"/>
<wire x1="1.8098" y1="2.5986" x2="1.8099" y2="3.3243" width="0.1016" layer="21"/>
<wire x1="1.8098" y1="-2.6999" x2="1.8098" y2="-3.3242" width="0.1016" layer="21"/>
<wire x1="2.9573" y1="-3.3324" x2="2.9573" y2="-2.6998" width="0.1016" layer="21"/>
<smd name="M1" x="-3" y="-4.45" dx="2.5" dy="2" layer="1"/>
<smd name="M2" x="-3" y="4.45" dx="2.5" dy="2" layer="1"/>
<smd name="M4" x="2.9" y="-4.45" dx="3.3" dy="2" layer="1"/>
<smd name="M3" x="2.9" y="4.45" dx="3.3" dy="2" layer="1"/>
<smd name="1" x="3" y="1.6" dx="3.1" dy="0.5" layer="1"/>
<smd name="2" x="3" y="0.8" dx="3.1" dy="0.5" layer="1"/>
<smd name="3" x="3" y="0" dx="3.1" dy="0.5" layer="1"/>
<smd name="4" x="3" y="-0.8" dx="3.1" dy="0.5" layer="1"/>
<smd name="5" x="3" y="-1.6" dx="3.1" dy="0.5" layer="1"/>
<text x="-4.445" y="5.715" size="1.27" layer="25">&gt;NAME</text>
<text x="-4.445" y="-6.985" size="1.27" layer="27">&gt;VALUE</text>
<hole x="0" y="2.2" drill="0.9"/>
<hole x="0" y="-2.2" drill="0.9"/>
</package>
</packages>
<packages3d>
<package3d name="32005-201" urn="urn:adsk.eagle:package:6443/1" type="box" library_version="2">
<description>MINI USB-B R/A SMT W/ REAR
Source: http://www.cypressindustries.com/pdf/32005-201.pdf</description>
<packageinstances>
<packageinstance name="32005-201"/>
</packageinstances>
</package3d>
<package3d name="32005-301" urn="urn:adsk.eagle:package:6446/1" type="box" library_version="2">
<description>MINI USB-B R/A SMT W/O REAR
Source: http://www.cypressindustries.com/pdf/32005-301.pdf</description>
<packageinstances>
<packageinstance name="32005-301"/>
</packageinstances>
</package3d>
</packages3d>
<symbols>
<symbol name="MINI-USB-5" urn="urn:adsk.eagle:symbol:6403/1" library_version="2">
<wire x1="-2.54" y1="6.35" x2="-2.54" y2="-6.35" width="0.254" layer="94"/>
<wire x1="-2.54" y1="-6.35" x2="-1.27" y2="-7.62" width="0.254" layer="94" curve="90"/>
<wire x1="-1.27" y1="-7.62" x2="0" y2="-7.62" width="0.254" layer="94"/>
<wire x1="0" y1="-7.62" x2="1.016" y2="-8.128" width="0.254" layer="94" curve="-53.130102"/>
<wire x1="1.016" y1="-8.128" x2="2.54" y2="-8.89" width="0.254" layer="94" curve="53.130102"/>
<wire x1="2.54" y1="-8.89" x2="5.08" y2="-8.89" width="0.254" layer="94"/>
<wire x1="5.08" y1="-8.89" x2="6.35" y2="-7.62" width="0.254" layer="94" curve="90"/>
<wire x1="6.35" y1="-7.62" x2="6.35" y2="7.62" width="0.254" layer="94"/>
<wire x1="-2.54" y1="6.35" x2="-1.27" y2="7.62" width="0.254" layer="94" curve="-90"/>
<wire x1="-1.27" y1="7.62" x2="0" y2="7.62" width="0.254" layer="94"/>
<wire x1="0" y1="7.62" x2="1.016" y2="8.128" width="0.254" layer="94" curve="53.130102"/>
<wire x1="1.016" y1="8.128" x2="2.54" y2="8.89" width="0.254" layer="94" curve="-53.130102"/>
<wire x1="2.54" y1="8.89" x2="5.08" y2="8.89" width="0.254" layer="94"/>
<wire x1="5.08" y1="8.89" x2="6.35" y2="7.62" width="0.254" layer="94" curve="-90"/>
<wire x1="0" y1="5.08" x2="0" y2="-5.08" width="0.254" layer="94"/>
<wire x1="0" y1="-5.08" x2="1.27" y2="-6.35" width="0.254" layer="94"/>
<wire x1="1.27" y1="-6.35" x2="3.81" y2="-6.35" width="0.254" layer="94"/>
<wire x1="3.81" y1="-6.35" x2="3.81" y2="6.35" width="0.254" layer="94"/>
<wire x1="3.81" y1="6.35" x2="1.27" y2="6.35" width="0.254" layer="94"/>
<wire x1="1.27" y1="6.35" x2="0" y2="5.08" width="0.254" layer="94"/>
<text x="-2.54" y="11.43" size="1.778" layer="95">&gt;NAME</text>
<text x="10.16" y="-7.62" size="1.778" layer="96" rot="R90">&gt;VALUE</text>
<pin name="1" x="-5.08" y="5.08" visible="pin" direction="pas"/>
<pin name="2" x="-5.08" y="2.54" visible="pin" direction="pas"/>
<pin name="3" x="-5.08" y="0" visible="pin" direction="pas"/>
<pin name="4" x="-5.08" y="-2.54" visible="pin" direction="pas"/>
<pin name="5" x="-5.08" y="-5.08" visible="pin" direction="pas"/>
</symbol>
</symbols>
<devicesets>
<deviceset name="MINI-USB-" urn="urn:adsk.eagle:component:6467/2" prefix="X" library_version="2">
<description>&lt;b&gt;MINI USB-B Conector&lt;/b&gt;&lt;p&gt;
Source: www.cypressindustries.com</description>
<gates>
<gate name="G$1" symbol="MINI-USB-5" x="0" y="0"/>
</gates>
<devices>
<device name="32005-201" package="32005-201">
<connects>
<connect gate="G$1" pin="1" pad="1"/>
<connect gate="G$1" pin="2" pad="2"/>
<connect gate="G$1" pin="3" pad="3"/>
<connect gate="G$1" pin="4" pad="4"/>
<connect gate="G$1" pin="5" pad="5"/>
</connects>
<package3dinstances>
<package3dinstance package3d_urn="urn:adsk.eagle:package:6443/1"/>
</package3dinstances>
<technologies>
<technology name="">
<attribute name="MF" value="" constant="no"/>
<attribute name="MPN" value="" constant="no"/>
<attribute name="OC_FARNELL" value="unknown" constant="no"/>
<attribute name="OC_NEWARK" value="unknown" constant="no"/>
<attribute name="POPULARITY" value="5" constant="no"/>
</technology>
</technologies>
</device>
<device name="32005-301" package="32005-301">
<connects>
<connect gate="G$1" pin="1" pad="1"/>
<connect gate="G$1" pin="2" pad="2"/>
<connect gate="G$1" pin="3" pad="3"/>
<connect gate="G$1" pin="4" pad="4"/>
<connect gate="G$1" pin="5" pad="5"/>
</connects>
<package3dinstances>
<package3dinstance package3d_urn="urn:adsk.eagle:package:6446/1"/>
</package3dinstances>
<technologies>
<technology name="">
<attribute name="MF" value="" constant="no"/>
<attribute name="MPN" value="" constant="no"/>
<attribute name="OC_FARNELL" value="unknown" constant="no"/>
<attribute name="OC_NEWARK" value="unknown" constant="no"/>
<attribute name="POPULARITY" value="0" constant="no"/>
</technology>
</technologies>
</device>
</devices>
</deviceset>
</devicesets>
</library>
<library name="SamacSys_Parts">
<packages>
<package name="CAPC0603X33N">
<description>&lt;b&gt;GRM03_0.03 L=0.6mm W=0.3mm T=0.3mm&lt;/b&gt;&lt;br&gt;
</description>
<smd name="1" x="-0.33" y="0" dx="0.46" dy="0.42" layer="1"/>
<smd name="2" x="0.33" y="0" dx="0.46" dy="0.42" layer="1"/>
<text x="0" y="0" size="1.27" layer="25" align="center">&gt;NAME</text>
<text x="0" y="0" size="1.27" layer="27" align="center">&gt;VALUE</text>
<wire x1="-0.71" y1="0.36" x2="0.71" y2="0.36" width="0.05" layer="51"/>
<wire x1="0.71" y1="0.36" x2="0.71" y2="-0.36" width="0.05" layer="51"/>
<wire x1="0.71" y1="-0.36" x2="-0.71" y2="-0.36" width="0.05" layer="51"/>
<wire x1="-0.71" y1="-0.36" x2="-0.71" y2="0.36" width="0.05" layer="51"/>
<wire x1="-0.3" y1="0.15" x2="0.3" y2="0.15" width="0.1" layer="51"/>
<wire x1="0.3" y1="0.15" x2="0.3" y2="-0.15" width="0.1" layer="51"/>
<wire x1="0.3" y1="-0.15" x2="-0.3" y2="-0.15" width="0.1" layer="51"/>
<wire x1="-0.3" y1="-0.15" x2="-0.3" y2="0.15" width="0.1" layer="51"/>
</package>
<package name="QFP40P1600X1600X120-128N">
<description>&lt;b&gt;TQFP (128)&lt;/b&gt;&lt;br&gt;
</description>
<smd name="1" x="-7.725" y="6.2" dx="1.45" dy="0.2" layer="1"/>
<smd name="2" x="-7.725" y="5.8" dx="1.45" dy="0.2" layer="1"/>
<smd name="3" x="-7.725" y="5.4" dx="1.45" dy="0.2" layer="1"/>
<smd name="4" x="-7.725" y="5" dx="1.45" dy="0.2" layer="1"/>
<smd name="5" x="-7.725" y="4.6" dx="1.45" dy="0.2" layer="1"/>
<smd name="6" x="-7.725" y="4.2" dx="1.45" dy="0.2" layer="1"/>
<smd name="7" x="-7.725" y="3.8" dx="1.45" dy="0.2" layer="1"/>
<smd name="8" x="-7.725" y="3.4" dx="1.45" dy="0.2" layer="1"/>
<smd name="9" x="-7.725" y="3" dx="1.45" dy="0.2" layer="1"/>
<smd name="10" x="-7.725" y="2.6" dx="1.45" dy="0.2" layer="1"/>
<smd name="11" x="-7.725" y="2.2" dx="1.45" dy="0.2" layer="1"/>
<smd name="12" x="-7.725" y="1.8" dx="1.45" dy="0.2" layer="1"/>
<smd name="13" x="-7.725" y="1.4" dx="1.45" dy="0.2" layer="1"/>
<smd name="14" x="-7.725" y="1" dx="1.45" dy="0.2" layer="1"/>
<smd name="15" x="-7.725" y="0.6" dx="1.45" dy="0.2" layer="1"/>
<smd name="16" x="-7.725" y="0.2" dx="1.45" dy="0.2" layer="1"/>
<smd name="17" x="-7.725" y="-0.2" dx="1.45" dy="0.2" layer="1"/>
<smd name="18" x="-7.725" y="-0.6" dx="1.45" dy="0.2" layer="1"/>
<smd name="19" x="-7.725" y="-1" dx="1.45" dy="0.2" layer="1"/>
<smd name="20" x="-7.725" y="-1.4" dx="1.45" dy="0.2" layer="1"/>
<smd name="21" x="-7.725" y="-1.8" dx="1.45" dy="0.2" layer="1"/>
<smd name="22" x="-7.725" y="-2.2" dx="1.45" dy="0.2" layer="1"/>
<smd name="23" x="-7.725" y="-2.6" dx="1.45" dy="0.2" layer="1"/>
<smd name="24" x="-7.725" y="-3" dx="1.45" dy="0.2" layer="1"/>
<smd name="25" x="-7.725" y="-3.4" dx="1.45" dy="0.2" layer="1"/>
<smd name="26" x="-7.725" y="-3.8" dx="1.45" dy="0.2" layer="1"/>
<smd name="27" x="-7.725" y="-4.2" dx="1.45" dy="0.2" layer="1"/>
<smd name="28" x="-7.725" y="-4.6" dx="1.45" dy="0.2" layer="1"/>
<smd name="29" x="-7.725" y="-5" dx="1.45" dy="0.2" layer="1"/>
<smd name="30" x="-7.725" y="-5.4" dx="1.45" dy="0.2" layer="1"/>
<smd name="31" x="-7.725" y="-5.8" dx="1.45" dy="0.2" layer="1"/>
<smd name="32" x="-7.725" y="-6.2" dx="1.45" dy="0.2" layer="1"/>
<smd name="33" x="-6.2" y="-7.725" dx="1.45" dy="0.2" layer="1" rot="R90"/>
<smd name="34" x="-5.8" y="-7.725" dx="1.45" dy="0.2" layer="1" rot="R90"/>
<smd name="35" x="-5.4" y="-7.725" dx="1.45" dy="0.2" layer="1" rot="R90"/>
<smd name="36" x="-5" y="-7.725" dx="1.45" dy="0.2" layer="1" rot="R90"/>
<smd name="37" x="-4.6" y="-7.725" dx="1.45" dy="0.2" layer="1" rot="R90"/>
<smd name="38" x="-4.2" y="-7.725" dx="1.45" dy="0.2" layer="1" rot="R90"/>
<smd name="39" x="-3.8" y="-7.725" dx="1.45" dy="0.2" layer="1" rot="R90"/>
<smd name="40" x="-3.4" y="-7.725" dx="1.45" dy="0.2" layer="1" rot="R90"/>
<smd name="41" x="-3" y="-7.725" dx="1.45" dy="0.2" layer="1" rot="R90"/>
<smd name="42" x="-2.6" y="-7.725" dx="1.45" dy="0.2" layer="1" rot="R90"/>
<smd name="43" x="-2.2" y="-7.725" dx="1.45" dy="0.2" layer="1" rot="R90"/>
<smd name="44" x="-1.8" y="-7.725" dx="1.45" dy="0.2" layer="1" rot="R90"/>
<smd name="45" x="-1.4" y="-7.725" dx="1.45" dy="0.2" layer="1" rot="R90"/>
<smd name="46" x="-1" y="-7.725" dx="1.45" dy="0.2" layer="1" rot="R90"/>
<smd name="47" x="-0.6" y="-7.725" dx="1.45" dy="0.2" layer="1" rot="R90"/>
<smd name="48" x="-0.2" y="-7.725" dx="1.45" dy="0.2" layer="1" rot="R90"/>
<smd name="49" x="0.2" y="-7.725" dx="1.45" dy="0.2" layer="1" rot="R90"/>
<smd name="50" x="0.6" y="-7.725" dx="1.45" dy="0.2" layer="1" rot="R90"/>
<smd name="51" x="1" y="-7.725" dx="1.45" dy="0.2" layer="1" rot="R90"/>
<smd name="52" x="1.4" y="-7.725" dx="1.45" dy="0.2" layer="1" rot="R90"/>
<smd name="53" x="1.8" y="-7.725" dx="1.45" dy="0.2" layer="1" rot="R90"/>
<smd name="54" x="2.2" y="-7.725" dx="1.45" dy="0.2" layer="1" rot="R90"/>
<smd name="55" x="2.6" y="-7.725" dx="1.45" dy="0.2" layer="1" rot="R90"/>
<smd name="56" x="3" y="-7.725" dx="1.45" dy="0.2" layer="1" rot="R90"/>
<smd name="57" x="3.4" y="-7.725" dx="1.45" dy="0.2" layer="1" rot="R90"/>
<smd name="58" x="3.8" y="-7.725" dx="1.45" dy="0.2" layer="1" rot="R90"/>
<smd name="59" x="4.2" y="-7.725" dx="1.45" dy="0.2" layer="1" rot="R90"/>
<smd name="60" x="4.6" y="-7.725" dx="1.45" dy="0.2" layer="1" rot="R90"/>
<smd name="61" x="5" y="-7.725" dx="1.45" dy="0.2" layer="1" rot="R90"/>
<smd name="62" x="5.4" y="-7.725" dx="1.45" dy="0.2" layer="1" rot="R90"/>
<smd name="63" x="5.8" y="-7.725" dx="1.45" dy="0.2" layer="1" rot="R90"/>
<smd name="64" x="6.2" y="-7.725" dx="1.45" dy="0.2" layer="1" rot="R90"/>
<smd name="65" x="7.725" y="-6.2" dx="1.45" dy="0.2" layer="1"/>
<smd name="66" x="7.725" y="-5.8" dx="1.45" dy="0.2" layer="1"/>
<smd name="67" x="7.725" y="-5.4" dx="1.45" dy="0.2" layer="1"/>
<smd name="68" x="7.725" y="-5" dx="1.45" dy="0.2" layer="1"/>
<smd name="69" x="7.725" y="-4.6" dx="1.45" dy="0.2" layer="1"/>
<smd name="70" x="7.725" y="-4.2" dx="1.45" dy="0.2" layer="1"/>
<smd name="71" x="7.725" y="-3.8" dx="1.45" dy="0.2" layer="1"/>
<smd name="72" x="7.725" y="-3.4" dx="1.45" dy="0.2" layer="1"/>
<smd name="73" x="7.725" y="-3" dx="1.45" dy="0.2" layer="1"/>
<smd name="74" x="7.725" y="-2.6" dx="1.45" dy="0.2" layer="1"/>
<smd name="75" x="7.725" y="-2.2" dx="1.45" dy="0.2" layer="1"/>
<smd name="76" x="7.725" y="-1.8" dx="1.45" dy="0.2" layer="1"/>
<smd name="77" x="7.725" y="-1.4" dx="1.45" dy="0.2" layer="1"/>
<smd name="78" x="7.725" y="-1" dx="1.45" dy="0.2" layer="1"/>
<smd name="79" x="7.725" y="-0.6" dx="1.45" dy="0.2" layer="1"/>
<smd name="80" x="7.725" y="-0.2" dx="1.45" dy="0.2" layer="1"/>
<smd name="81" x="7.725" y="0.2" dx="1.45" dy="0.2" layer="1"/>
<smd name="82" x="7.725" y="0.6" dx="1.45" dy="0.2" layer="1"/>
<smd name="83" x="7.725" y="1" dx="1.45" dy="0.2" layer="1"/>
<smd name="84" x="7.725" y="1.4" dx="1.45" dy="0.2" layer="1"/>
<smd name="85" x="7.725" y="1.8" dx="1.45" dy="0.2" layer="1"/>
<smd name="86" x="7.725" y="2.2" dx="1.45" dy="0.2" layer="1"/>
<smd name="87" x="7.725" y="2.6" dx="1.45" dy="0.2" layer="1"/>
<smd name="88" x="7.725" y="3" dx="1.45" dy="0.2" layer="1"/>
<smd name="89" x="7.725" y="3.4" dx="1.45" dy="0.2" layer="1"/>
<smd name="90" x="7.725" y="3.8" dx="1.45" dy="0.2" layer="1"/>
<smd name="91" x="7.725" y="4.2" dx="1.45" dy="0.2" layer="1"/>
<smd name="92" x="7.725" y="4.6" dx="1.45" dy="0.2" layer="1"/>
<smd name="93" x="7.725" y="5" dx="1.45" dy="0.2" layer="1"/>
<smd name="94" x="7.725" y="5.4" dx="1.45" dy="0.2" layer="1"/>
<smd name="95" x="7.725" y="5.8" dx="1.45" dy="0.2" layer="1"/>
<smd name="96" x="7.725" y="6.2" dx="1.45" dy="0.2" layer="1"/>
<smd name="97" x="6.2" y="7.725" dx="1.45" dy="0.2" layer="1" rot="R90"/>
<smd name="98" x="5.8" y="7.725" dx="1.45" dy="0.2" layer="1" rot="R90"/>
<smd name="99" x="5.4" y="7.725" dx="1.45" dy="0.2" layer="1" rot="R90"/>
<smd name="100" x="5" y="7.725" dx="1.45" dy="0.2" layer="1" rot="R90"/>
<smd name="101" x="4.6" y="7.725" dx="1.45" dy="0.2" layer="1" rot="R90"/>
<smd name="102" x="4.2" y="7.725" dx="1.45" dy="0.2" layer="1" rot="R90"/>
<smd name="103" x="3.8" y="7.725" dx="1.45" dy="0.2" layer="1" rot="R90"/>
<smd name="104" x="3.4" y="7.725" dx="1.45" dy="0.2" layer="1" rot="R90"/>
<smd name="105" x="3" y="7.725" dx="1.45" dy="0.2" layer="1" rot="R90"/>
<smd name="106" x="2.6" y="7.725" dx="1.45" dy="0.2" layer="1" rot="R90"/>
<smd name="107" x="2.2" y="7.725" dx="1.45" dy="0.2" layer="1" rot="R90"/>
<smd name="108" x="1.8" y="7.725" dx="1.45" dy="0.2" layer="1" rot="R90"/>
<smd name="109" x="1.4" y="7.725" dx="1.45" dy="0.2" layer="1" rot="R90"/>
<smd name="110" x="1" y="7.725" dx="1.45" dy="0.2" layer="1" rot="R90"/>
<smd name="111" x="0.6" y="7.725" dx="1.45" dy="0.2" layer="1" rot="R90"/>
<smd name="112" x="0.2" y="7.725" dx="1.45" dy="0.2" layer="1" rot="R90"/>
<smd name="113" x="-0.2" y="7.725" dx="1.45" dy="0.2" layer="1" rot="R90"/>
<smd name="114" x="-0.6" y="7.725" dx="1.45" dy="0.2" layer="1" rot="R90"/>
<smd name="115" x="-1" y="7.725" dx="1.45" dy="0.2" layer="1" rot="R90"/>
<smd name="116" x="-1.4" y="7.725" dx="1.45" dy="0.2" layer="1" rot="R90"/>
<smd name="117" x="-1.8" y="7.725" dx="1.45" dy="0.2" layer="1" rot="R90"/>
<smd name="118" x="-2.2" y="7.725" dx="1.45" dy="0.2" layer="1" rot="R90"/>
<smd name="119" x="-2.6" y="7.725" dx="1.45" dy="0.2" layer="1" rot="R90"/>
<smd name="120" x="-3" y="7.725" dx="1.45" dy="0.2" layer="1" rot="R90"/>
<smd name="121" x="-3.4" y="7.725" dx="1.45" dy="0.2" layer="1" rot="R90"/>
<smd name="122" x="-3.8" y="7.725" dx="1.45" dy="0.2" layer="1" rot="R90"/>
<smd name="123" x="-4.2" y="7.725" dx="1.45" dy="0.2" layer="1" rot="R90"/>
<smd name="124" x="-4.6" y="7.725" dx="1.45" dy="0.2" layer="1" rot="R90"/>
<smd name="125" x="-5" y="7.725" dx="1.45" dy="0.2" layer="1" rot="R90"/>
<smd name="126" x="-5.4" y="7.725" dx="1.45" dy="0.2" layer="1" rot="R90"/>
<smd name="127" x="-5.8" y="7.725" dx="1.45" dy="0.2" layer="1" rot="R90"/>
<smd name="128" x="-6.2" y="7.725" dx="1.45" dy="0.2" layer="1" rot="R90"/>
<text x="0" y="0" size="1.27" layer="25" align="center">&gt;NAME</text>
<text x="0" y="0" size="1.27" layer="27" align="center">&gt;VALUE</text>
<wire x1="-8.7" y1="8.7" x2="8.7" y2="8.7" width="0.05" layer="51"/>
<wire x1="8.7" y1="8.7" x2="8.7" y2="-8.7" width="0.05" layer="51"/>
<wire x1="8.7" y1="-8.7" x2="-8.7" y2="-8.7" width="0.05" layer="51"/>
<wire x1="-8.7" y1="-8.7" x2="-8.7" y2="8.7" width="0.05" layer="51"/>
<wire x1="-7" y1="7" x2="7" y2="7" width="0.1" layer="51"/>
<wire x1="7" y1="7" x2="7" y2="-7" width="0.1" layer="51"/>
<wire x1="7" y1="-7" x2="-7" y2="-7" width="0.1" layer="51"/>
<wire x1="-7" y1="-7" x2="-7" y2="7" width="0.1" layer="51"/>
<wire x1="-7" y1="6.6" x2="-6.6" y2="7" width="0.1" layer="51"/>
<wire x1="-6.65" y1="6.65" x2="6.65" y2="6.65" width="0.2" layer="21"/>
<wire x1="6.65" y1="6.65" x2="6.65" y2="-6.65" width="0.2" layer="21"/>
<wire x1="6.65" y1="-6.65" x2="-6.65" y2="-6.65" width="0.2" layer="21"/>
<wire x1="-6.65" y1="-6.65" x2="-6.65" y2="6.65" width="0.2" layer="21"/>
<circle x="-8.25" y="6.8" radius="0.1" width="0.2" layer="25"/>
</package>
<package name="PJS008-2003-0">
<description>&lt;b&gt;PJS008-2003-0&lt;/b&gt;&lt;br&gt;
</description>
<smd name="1" x="-2.675" y="0.124" dx="1.6" dy="0.8" layer="1" rot="R90"/>
<smd name="2" x="-1.575" y="0.124" dx="1.6" dy="0.8" layer="1" rot="R90"/>
<smd name="3" x="-0.475" y="0.124" dx="1.6" dy="0.8" layer="1" rot="R90"/>
<smd name="4" x="0.625" y="0.124" dx="1.6" dy="0.8" layer="1" rot="R90"/>
<smd name="5" x="1.725" y="0.124" dx="1.6" dy="0.8" layer="1" rot="R90"/>
<smd name="6" x="2.825" y="0.124" dx="1.6" dy="0.8" layer="1" rot="R90"/>
<smd name="7" x="3.925" y="0.124" dx="1.6" dy="0.8" layer="1" rot="R90"/>
<smd name="8" x="5.025" y="0.124" dx="1.6" dy="0.8" layer="1" rot="R90"/>
<smd name="9" x="6.125" y="0.124" dx="1.6" dy="0.8" layer="1" rot="R90"/>
<smd name="10" x="7.55" y="-1.526" dx="3.1" dy="1.4" layer="1" rot="R90"/>
<smd name="11" x="7.075" y="-10.076" dx="1.95" dy="1.4" layer="1"/>
<smd name="12" x="7.3" y="-13.026" dx="3.5" dy="1.5" layer="1" rot="R90"/>
<smd name="13" x="-7.65" y="-13.026" dx="3.5" dy="1.5" layer="1" rot="R90"/>
<smd name="14" x="-7.55" y="-2.026" dx="3.5" dy="1.6" layer="1" rot="R90"/>
<text x="3.178" y="-5.072" size="1.27" layer="25" align="center">&gt;NAME</text>
<text x="3.178" y="-5.072" size="1.27" layer="27" align="center">&gt;VALUE</text>
<circle x="-2.635" y="1.412" radius="0.1042" width="0.254" layer="25"/>
<wire x1="-7.25" y1="0" x2="7.25" y2="0" width="0.254" layer="51"/>
<wire x1="7.25" y1="0" x2="7.25" y2="-15" width="0.254" layer="51"/>
<wire x1="7.25" y1="-15" x2="-7.25" y2="-15" width="0.254" layer="51"/>
<wire x1="-7.25" y1="-15" x2="-7.25" y2="0" width="0.254" layer="51"/>
<wire x1="-7.25" y1="-15" x2="7.25" y2="-15" width="0.254" layer="21"/>
<wire x1="-7.25" y1="-4.122" x2="-7.25" y2="-10.93" width="0.254" layer="21"/>
<wire x1="7.25" y1="-3.428" x2="7.25" y2="-9.032" width="0.254" layer="21"/>
<wire x1="-7.25" y1="0" x2="-3.445" y2="0" width="0.254" layer="21"/>
</package>
</packages>
<symbols>
<symbol name="GRM033R61C104KE14D">
<wire x1="5.588" y1="2.54" x2="5.588" y2="-2.54" width="0.254" layer="94"/>
<wire x1="7.112" y1="2.54" x2="7.112" y2="-2.54" width="0.254" layer="94"/>
<wire x1="5.08" y1="0" x2="5.588" y2="0" width="0.254" layer="94"/>
<wire x1="7.112" y1="0" x2="7.62" y2="0" width="0.254" layer="94"/>
<text x="8.89" y="6.35" size="1.778" layer="95" align="center-left">&gt;NAME</text>
<text x="8.89" y="3.81" size="1.778" layer="96" align="center-left">&gt;VALUE</text>
<pin name="1" x="0" y="0" visible="pad" length="middle"/>
<pin name="2" x="12.7" y="0" visible="pad" length="middle" rot="R180"/>
</symbol>
<symbol name="MSP432E401YTPDTR">
<wire x1="5.08" y1="22.86" x2="88.9" y2="22.86" width="0.254" layer="94"/>
<wire x1="88.9" y1="-93.98" x2="88.9" y2="22.86" width="0.254" layer="94"/>
<wire x1="88.9" y1="-93.98" x2="5.08" y2="-93.98" width="0.254" layer="94"/>
<wire x1="5.08" y1="22.86" x2="5.08" y2="-93.98" width="0.254" layer="94"/>
<text x="90.17" y="27.94" size="1.778" layer="95" align="center-left">&gt;NAME</text>
<text x="90.17" y="25.4" size="1.778" layer="96" align="center-left">&gt;VALUE</text>
<pin name="PD0" x="0" y="0" length="middle"/>
<pin name="PD1" x="0" y="-2.54" length="middle"/>
<pin name="PD2" x="0" y="-5.08" length="middle"/>
<pin name="PD3" x="0" y="-7.62" length="middle"/>
<pin name="PQ0" x="0" y="-10.16" length="middle"/>
<pin name="PQ1" x="0" y="-12.7" length="middle"/>
<pin name="VDD_1" x="0" y="-15.24" length="middle"/>
<pin name="VDDA" x="0" y="-17.78" length="middle"/>
<pin name="VREFA+" x="0" y="-20.32" length="middle"/>
<pin name="GNDA" x="0" y="-22.86" length="middle"/>
<pin name="PQ2" x="0" y="-25.4" length="middle"/>
<pin name="PE3" x="0" y="-27.94" length="middle"/>
<pin name="PE2" x="0" y="-30.48" length="middle"/>
<pin name="PE1" x="0" y="-33.02" length="middle"/>
<pin name="PE0" x="0" y="-35.56" length="middle"/>
<pin name="VDD_2" x="0" y="-38.1" length="middle"/>
<pin name="GND_1" x="0" y="-40.64" length="middle"/>
<pin name="PK0" x="0" y="-43.18" length="middle"/>
<pin name="PK1" x="0" y="-45.72" length="middle"/>
<pin name="PK2" x="0" y="-48.26" length="middle"/>
<pin name="PK3" x="0" y="-50.8" length="middle"/>
<pin name="PC7" x="0" y="-53.34" length="middle"/>
<pin name="PC6" x="0" y="-55.88" length="middle"/>
<pin name="PC5" x="0" y="-58.42" length="middle"/>
<pin name="PC4" x="0" y="-60.96" length="middle"/>
<pin name="VDD_3" x="0" y="-63.5" length="middle"/>
<pin name="PQ3" x="0" y="-66.04" length="middle"/>
<pin name="VDD_4" x="0" y="-68.58" length="middle"/>
<pin name="PH0" x="0" y="-71.12" length="middle"/>
<pin name="PH1" x="0" y="-73.66" length="middle"/>
<pin name="PH2" x="0" y="-76.2" length="middle"/>
<pin name="PH3" x="0" y="-78.74" length="middle"/>
<pin name="PA0" x="7.62" y="-99.06" length="middle" rot="R90"/>
<pin name="PA1" x="10.16" y="-99.06" length="middle" rot="R90"/>
<pin name="PA2" x="12.7" y="-99.06" length="middle" rot="R90"/>
<pin name="PA3" x="15.24" y="-99.06" length="middle" rot="R90"/>
<pin name="PA4" x="17.78" y="-99.06" length="middle" rot="R90"/>
<pin name="PA5" x="20.32" y="-99.06" length="middle" rot="R90"/>
<pin name="VDD_5" x="22.86" y="-99.06" length="middle" rot="R90"/>
<pin name="PA6" x="25.4" y="-99.06" length="middle" rot="R90"/>
<pin name="PA7" x="27.94" y="-99.06" length="middle" rot="R90"/>
<pin name="PF0" x="30.48" y="-99.06" length="middle" rot="R90"/>
<pin name="PF1" x="33.02" y="-99.06" length="middle" rot="R90"/>
<pin name="PF2" x="35.56" y="-99.06" length="middle" rot="R90"/>
<pin name="PF3" x="38.1" y="-99.06" length="middle" rot="R90"/>
<pin name="PF4" x="40.64" y="-99.06" length="middle" rot="R90"/>
<pin name="VDD_6" x="43.18" y="-99.06" length="middle" rot="R90"/>
<pin name="GND_2" x="45.72" y="-99.06" length="middle" rot="R90"/>
<pin name="PG0" x="48.26" y="-99.06" length="middle" rot="R90"/>
<pin name="PG1" x="50.8" y="-99.06" length="middle" rot="R90"/>
<pin name="VDD_7" x="53.34" y="-99.06" length="middle" rot="R90"/>
<pin name="VDD_8" x="55.88" y="-99.06" length="middle" rot="R90"/>
<pin name="EN0RXIN" x="58.42" y="-99.06" length="middle" rot="R90"/>
<pin name="EN0RXIP" x="60.96" y="-99.06" length="middle" rot="R90"/>
<pin name="GND_3" x="63.5" y="-99.06" length="middle" rot="R90"/>
<pin name="EN0TXON" x="66.04" y="-99.06" length="middle" rot="R90"/>
<pin name="EN0TXOP" x="68.58" y="-99.06" length="middle" rot="R90"/>
<pin name="GND_4" x="71.12" y="-99.06" length="middle" rot="R90"/>
<pin name="RBIAS" x="73.66" y="-99.06" length="middle" rot="R90"/>
<pin name="PK7" x="76.2" y="-99.06" length="middle" rot="R90"/>
<pin name="PK6" x="78.74" y="-99.06" length="middle" rot="R90"/>
<pin name="PK5" x="81.28" y="-99.06" length="middle" rot="R90"/>
<pin name="PK4" x="83.82" y="-99.06" length="middle" rot="R90"/>
<pin name="!WAKE" x="86.36" y="-99.06" length="middle" rot="R90"/>
<pin name="PB1" x="93.98" y="0" length="middle" rot="R180"/>
<pin name="PB0" x="93.98" y="-2.54" length="middle" rot="R180"/>
<pin name="PL6" x="93.98" y="-5.08" length="middle" rot="R180"/>
<pin name="PL7" x="93.98" y="-7.62" length="middle" rot="R180"/>
<pin name="PB3" x="93.98" y="-10.16" length="middle" rot="R180"/>
<pin name="PB2" x="93.98" y="-12.7" length="middle" rot="R180"/>
<pin name="VDD_11" x="93.98" y="-15.24" length="middle" rot="R180"/>
<pin name="OSC1" x="93.98" y="-17.78" length="middle" rot="R180"/>
<pin name="OSC0" x="93.98" y="-20.32" length="middle" rot="R180"/>
<pin name="VDDC_1" x="93.98" y="-22.86" length="middle" rot="R180"/>
<pin name="PL5" x="93.98" y="-25.4" length="middle" rot="R180"/>
<pin name="PL4" x="93.98" y="-27.94" length="middle" rot="R180"/>
<pin name="PL3" x="93.98" y="-30.48" length="middle" rot="R180"/>
<pin name="PL2" x="93.98" y="-33.02" length="middle" rot="R180"/>
<pin name="PL1" x="93.98" y="-35.56" length="middle" rot="R180"/>
<pin name="PL0" x="93.98" y="-38.1" length="middle" rot="R180"/>
<pin name="GND_5" x="93.98" y="-40.64" length="middle" rot="R180"/>
<pin name="VDD_10" x="93.98" y="-43.18" length="middle" rot="R180"/>
<pin name="PM0" x="93.98" y="-45.72" length="middle" rot="R180"/>
<pin name="PM1" x="93.98" y="-48.26" length="middle" rot="R180"/>
<pin name="PM2" x="93.98" y="-50.8" length="middle" rot="R180"/>
<pin name="PM3" x="93.98" y="-53.34" length="middle" rot="R180"/>
<pin name="PM4" x="93.98" y="-55.88" length="middle" rot="R180"/>
<pin name="PM5" x="93.98" y="-58.42" length="middle" rot="R180"/>
<pin name="PM6" x="93.98" y="-60.96" length="middle" rot="R180"/>
<pin name="PM7" x="93.98" y="-63.5" length="middle" rot="R180"/>
<pin name="!RST" x="93.98" y="-66.04" length="middle" rot="R180"/>
<pin name="VDD_9" x="93.98" y="-68.58" length="middle" rot="R180"/>
<pin name="VBAT" x="93.98" y="-71.12" length="middle" rot="R180"/>
<pin name="XOSC1" x="93.98" y="-73.66" length="middle" rot="R180"/>
<pin name="XOSC0" x="93.98" y="-76.2" length="middle" rot="R180"/>
<pin name="!HIB" x="93.98" y="-78.74" length="middle" rot="R180"/>
<pin name="PD7" x="7.62" y="27.94" length="middle" rot="R270"/>
<pin name="PD6" x="10.16" y="27.94" length="middle" rot="R270"/>
<pin name="PD5" x="12.7" y="27.94" length="middle" rot="R270"/>
<pin name="PD4" x="15.24" y="27.94" length="middle" rot="R270"/>
<pin name="PE5" x="17.78" y="27.94" length="middle" rot="R270"/>
<pin name="PE4" x="20.32" y="27.94" length="middle" rot="R270"/>
<pin name="VDD_14" x="22.86" y="27.94" length="middle" rot="R270"/>
<pin name="PB4" x="25.4" y="27.94" length="middle" rot="R270"/>
<pin name="PB5" x="27.94" y="27.94" length="middle" rot="R270"/>
<pin name="PP1" x="30.48" y="27.94" length="middle" rot="R270"/>
<pin name="PP0" x="33.02" y="27.94" length="middle" rot="R270"/>
<pin name="PJ1" x="35.56" y="27.94" length="middle" rot="R270"/>
<pin name="PJ0" x="38.1" y="27.94" length="middle" rot="R270"/>
<pin name="VDDC_2" x="40.64" y="27.94" length="middle" rot="R270"/>
<pin name="GND_6" x="43.18" y="27.94" length="middle" rot="R270"/>
<pin name="VDD_13" x="45.72" y="27.94" length="middle" rot="R270"/>
<pin name="PN5" x="48.26" y="27.94" length="middle" rot="R270"/>
<pin name="PN4" x="50.8" y="27.94" length="middle" rot="R270"/>
<pin name="PN3" x="53.34" y="27.94" length="middle" rot="R270"/>
<pin name="PN2" x="55.88" y="27.94" length="middle" rot="R270"/>
<pin name="PN1" x="58.42" y="27.94" length="middle" rot="R270"/>
<pin name="PN0" x="60.96" y="27.94" length="middle" rot="R270"/>
<pin name="PP5" x="63.5" y="27.94" length="middle" rot="R270"/>
<pin name="PP4" x="66.04" y="27.94" length="middle" rot="R270"/>
<pin name="PP3" x="68.58" y="27.94" length="middle" rot="R270"/>
<pin name="PP2" x="71.12" y="27.94" length="middle" rot="R270"/>
<pin name="PQ4" x="73.66" y="27.94" length="middle" rot="R270"/>
<pin name="VDD_12" x="76.2" y="27.94" length="middle" rot="R270"/>
<pin name="PC0/TCK/SWCLK" x="78.74" y="27.94" length="middle" rot="R270"/>
<pin name="PC1/TMS/SWDIO" x="81.28" y="27.94" length="middle" rot="R270"/>
<pin name="PC2/TDI" x="83.82" y="27.94" length="middle" rot="R270"/>
<pin name="PC3/TDO/SWO" x="86.36" y="27.94" length="middle" rot="R270"/>
</symbol>
<symbol name="PJS008-2003-0">
<wire x1="5.08" y1="2.54" x2="33.02" y2="2.54" width="0.254" layer="94"/>
<wire x1="33.02" y1="-17.78" x2="33.02" y2="2.54" width="0.254" layer="94"/>
<wire x1="33.02" y1="-17.78" x2="5.08" y2="-17.78" width="0.254" layer="94"/>
<wire x1="5.08" y1="2.54" x2="5.08" y2="-17.78" width="0.254" layer="94"/>
<text x="34.29" y="7.62" size="1.778" layer="95" align="center-left">&gt;NAME</text>
<text x="34.29" y="5.08" size="1.778" layer="96" align="center-left">&gt;VALUE</text>
<pin name="1" x="0" y="0" length="middle"/>
<pin name="2" x="0" y="-2.54" length="middle"/>
<pin name="3" x="0" y="-5.08" length="middle"/>
<pin name="4" x="0" y="-7.62" length="middle"/>
<pin name="5" x="0" y="-10.16" length="middle"/>
<pin name="6" x="0" y="-12.7" length="middle"/>
<pin name="7" x="0" y="-15.24" length="middle"/>
<pin name="8" x="38.1" y="0" length="middle" rot="R180"/>
<pin name="9" x="38.1" y="-2.54" length="middle" rot="R180"/>
<pin name="CARD_DETECT_SW2" x="38.1" y="-5.08" length="middle" rot="R180"/>
<pin name="CARD_DETECT_SW1" x="38.1" y="-7.62" length="middle" rot="R180"/>
<pin name="SHELL_TERM_1" x="38.1" y="-10.16" length="middle" rot="R180"/>
<pin name="SHELL_TERM_2" x="38.1" y="-12.7" length="middle" rot="R180"/>
<pin name="SHELL_TERM_3" x="38.1" y="-15.24" length="middle" rot="R180"/>
</symbol>
</symbols>
<devicesets>
<deviceset name="GRM033R61C104KE14D" prefix="C">
<description>&lt;b&gt;0201 .1uF&lt;p&gt;Multilayer Ceramic Capacitors MLCC - SMD/SMT 16volts X5R 10%&lt;/b&gt;&lt;p&gt;
Source: &lt;a href="https://componentsearchengine.com/Datasheets/1/GRM033R61C104KE14D.pdf"&gt; Datasheet &lt;/a&gt;</description>
<gates>
<gate name="G$1" symbol="GRM033R61C104KE14D" x="0" y="0"/>
</gates>
<devices>
<device name="" package="CAPC0603X33N">
<connects>
<connect gate="G$1" pin="1" pad="1"/>
<connect gate="G$1" pin="2" pad="2"/>
</connects>
<technologies>
<technology name="">
<attribute name="DESCRIPTION" value="Multilayer Ceramic Capacitors MLCC - SMD/SMT 0201 0.1uF 16volts X5R 10%" constant="no"/>
<attribute name="HEIGHT" value="0.33mm" constant="no"/>
<attribute name="MANUFACTURER_NAME" value="Murata Electronics" constant="no"/>
<attribute name="MANUFACTURER_PART_NUMBER" value="GRM033R61C104KE14D" constant="no"/>
<attribute name="MOUSER_PART_NUMBER" value="81-GRM033R61C104KE4D" constant="no"/>
<attribute name="MOUSER_PRICE-STOCK" value="https://www.mouser.com/Search/Refine.aspx?Keyword=81-GRM033R61C104KE4D" constant="no"/>
</technology>
</technologies>
</device>
</devices>
</deviceset>
<deviceset name="MSP432E401YTPDTR" prefix="IC">
<description>&lt;b&gt;SimpleLink Ethernet Microcontroller&lt;/b&gt;&lt;p&gt;
Source: &lt;a href="http://www.ti.com/lit/gpn/msp432e401y"&gt; Datasheet &lt;/a&gt;</description>
<gates>
<gate name="G$1" symbol="MSP432E401YTPDTR" x="0" y="0"/>
</gates>
<devices>
<device name="" package="QFP40P1600X1600X120-128N">
<connects>
<connect gate="G$1" pin="!HIB" pad="65"/>
<connect gate="G$1" pin="!RST" pad="70"/>
<connect gate="G$1" pin="!WAKE" pad="64"/>
<connect gate="G$1" pin="EN0RXIN" pad="53"/>
<connect gate="G$1" pin="EN0RXIP" pad="54"/>
<connect gate="G$1" pin="EN0TXON" pad="56"/>
<connect gate="G$1" pin="EN0TXOP" pad="57"/>
<connect gate="G$1" pin="GNDA" pad="10"/>
<connect gate="G$1" pin="GND_1" pad="17"/>
<connect gate="G$1" pin="GND_2" pad="48"/>
<connect gate="G$1" pin="GND_3" pad="55"/>
<connect gate="G$1" pin="GND_4" pad="58"/>
<connect gate="G$1" pin="GND_5" pad="80"/>
<connect gate="G$1" pin="GND_6" pad="114"/>
<connect gate="G$1" pin="OSC0" pad="88"/>
<connect gate="G$1" pin="OSC1" pad="89"/>
<connect gate="G$1" pin="PA0" pad="33"/>
<connect gate="G$1" pin="PA1" pad="34"/>
<connect gate="G$1" pin="PA2" pad="35"/>
<connect gate="G$1" pin="PA3" pad="36"/>
<connect gate="G$1" pin="PA4" pad="37"/>
<connect gate="G$1" pin="PA5" pad="38"/>
<connect gate="G$1" pin="PA6" pad="40"/>
<connect gate="G$1" pin="PA7" pad="41"/>
<connect gate="G$1" pin="PB0" pad="95"/>
<connect gate="G$1" pin="PB1" pad="96"/>
<connect gate="G$1" pin="PB2" pad="91"/>
<connect gate="G$1" pin="PB3" pad="92"/>
<connect gate="G$1" pin="PB4" pad="121"/>
<connect gate="G$1" pin="PB5" pad="120"/>
<connect gate="G$1" pin="PC0/TCK/SWCLK" pad="100"/>
<connect gate="G$1" pin="PC1/TMS/SWDIO" pad="99"/>
<connect gate="G$1" pin="PC2/TDI" pad="98"/>
<connect gate="G$1" pin="PC3/TDO/SWO" pad="97"/>
<connect gate="G$1" pin="PC4" pad="25"/>
<connect gate="G$1" pin="PC5" pad="24"/>
<connect gate="G$1" pin="PC6" pad="23"/>
<connect gate="G$1" pin="PC7" pad="22"/>
<connect gate="G$1" pin="PD0" pad="1"/>
<connect gate="G$1" pin="PD1" pad="2"/>
<connect gate="G$1" pin="PD2" pad="3"/>
<connect gate="G$1" pin="PD3" pad="4"/>
<connect gate="G$1" pin="PD4" pad="125"/>
<connect gate="G$1" pin="PD5" pad="126"/>
<connect gate="G$1" pin="PD6" pad="127"/>
<connect gate="G$1" pin="PD7" pad="128"/>
<connect gate="G$1" pin="PE0" pad="15"/>
<connect gate="G$1" pin="PE1" pad="14"/>
<connect gate="G$1" pin="PE2" pad="13"/>
<connect gate="G$1" pin="PE3" pad="12"/>
<connect gate="G$1" pin="PE4" pad="123"/>
<connect gate="G$1" pin="PE5" pad="124"/>
<connect gate="G$1" pin="PF0" pad="42"/>
<connect gate="G$1" pin="PF1" pad="43"/>
<connect gate="G$1" pin="PF2" pad="44"/>
<connect gate="G$1" pin="PF3" pad="45"/>
<connect gate="G$1" pin="PF4" pad="46"/>
<connect gate="G$1" pin="PG0" pad="49"/>
<connect gate="G$1" pin="PG1" pad="50"/>
<connect gate="G$1" pin="PH0" pad="29"/>
<connect gate="G$1" pin="PH1" pad="30"/>
<connect gate="G$1" pin="PH2" pad="31"/>
<connect gate="G$1" pin="PH3" pad="32"/>
<connect gate="G$1" pin="PJ0" pad="116"/>
<connect gate="G$1" pin="PJ1" pad="117"/>
<connect gate="G$1" pin="PK0" pad="18"/>
<connect gate="G$1" pin="PK1" pad="19"/>
<connect gate="G$1" pin="PK2" pad="20"/>
<connect gate="G$1" pin="PK3" pad="21"/>
<connect gate="G$1" pin="PK4" pad="63"/>
<connect gate="G$1" pin="PK5" pad="62"/>
<connect gate="G$1" pin="PK6" pad="61"/>
<connect gate="G$1" pin="PK7" pad="60"/>
<connect gate="G$1" pin="PL0" pad="81"/>
<connect gate="G$1" pin="PL1" pad="82"/>
<connect gate="G$1" pin="PL2" pad="83"/>
<connect gate="G$1" pin="PL3" pad="84"/>
<connect gate="G$1" pin="PL4" pad="85"/>
<connect gate="G$1" pin="PL5" pad="86"/>
<connect gate="G$1" pin="PL6" pad="94"/>
<connect gate="G$1" pin="PL7" pad="93"/>
<connect gate="G$1" pin="PM0" pad="78"/>
<connect gate="G$1" pin="PM1" pad="77"/>
<connect gate="G$1" pin="PM2" pad="76"/>
<connect gate="G$1" pin="PM3" pad="75"/>
<connect gate="G$1" pin="PM4" pad="74"/>
<connect gate="G$1" pin="PM5" pad="73"/>
<connect gate="G$1" pin="PM6" pad="72"/>
<connect gate="G$1" pin="PM7" pad="71"/>
<connect gate="G$1" pin="PN0" pad="107"/>
<connect gate="G$1" pin="PN1" pad="108"/>
<connect gate="G$1" pin="PN2" pad="109"/>
<connect gate="G$1" pin="PN3" pad="110"/>
<connect gate="G$1" pin="PN4" pad="111"/>
<connect gate="G$1" pin="PN5" pad="112"/>
<connect gate="G$1" pin="PP0" pad="118"/>
<connect gate="G$1" pin="PP1" pad="119"/>
<connect gate="G$1" pin="PP2" pad="103"/>
<connect gate="G$1" pin="PP3" pad="104"/>
<connect gate="G$1" pin="PP4" pad="105"/>
<connect gate="G$1" pin="PP5" pad="106"/>
<connect gate="G$1" pin="PQ0" pad="5"/>
<connect gate="G$1" pin="PQ1" pad="6"/>
<connect gate="G$1" pin="PQ2" pad="11"/>
<connect gate="G$1" pin="PQ3" pad="27"/>
<connect gate="G$1" pin="PQ4" pad="102"/>
<connect gate="G$1" pin="RBIAS" pad="59"/>
<connect gate="G$1" pin="VBAT" pad="68"/>
<connect gate="G$1" pin="VDDA" pad="8"/>
<connect gate="G$1" pin="VDDC_1" pad="87"/>
<connect gate="G$1" pin="VDDC_2" pad="115"/>
<connect gate="G$1" pin="VDD_1" pad="7"/>
<connect gate="G$1" pin="VDD_10" pad="79"/>
<connect gate="G$1" pin="VDD_11" pad="90"/>
<connect gate="G$1" pin="VDD_12" pad="101"/>
<connect gate="G$1" pin="VDD_13" pad="113"/>
<connect gate="G$1" pin="VDD_14" pad="122"/>
<connect gate="G$1" pin="VDD_2" pad="16"/>
<connect gate="G$1" pin="VDD_3" pad="26"/>
<connect gate="G$1" pin="VDD_4" pad="28"/>
<connect gate="G$1" pin="VDD_5" pad="39"/>
<connect gate="G$1" pin="VDD_6" pad="47"/>
<connect gate="G$1" pin="VDD_7" pad="51"/>
<connect gate="G$1" pin="VDD_8" pad="52"/>
<connect gate="G$1" pin="VDD_9" pad="69"/>
<connect gate="G$1" pin="VREFA+" pad="9"/>
<connect gate="G$1" pin="XOSC0" pad="66"/>
<connect gate="G$1" pin="XOSC1" pad="67"/>
</connects>
<technologies>
<technology name="">
<attribute name="DESCRIPTION" value="SimpleLink Ethernet Microcontroller" constant="no"/>
<attribute name="HEIGHT" value="1.2mm" constant="no"/>
<attribute name="MANUFACTURER_NAME" value="Texas Instruments" constant="no"/>
<attribute name="MANUFACTURER_PART_NUMBER" value="MSP432E401YTPDTR" constant="no"/>
<attribute name="MOUSER_PART_NUMBER" value="595-MSP432E401YTPDTR" constant="no"/>
<attribute name="MOUSER_PRICE-STOCK" value="https://www.mouser.com/Search/Refine.aspx?Keyword=595-MSP432E401YTPDTR" constant="no"/>
</technology>
</technologies>
</device>
</devices>
</deviceset>
<deviceset name="PJS008-2003-0" prefix="J">
<description>&lt;b&gt;Memory Card Connectors MicroSD Card Conn Revrs Mnt Push-Push&lt;/b&gt;&lt;p&gt;
Source: &lt;a href="https://componentsearchengine.com/Datasheets/1/PJS008-2003-0.pdf"&gt; Datasheet &lt;/a&gt;</description>
<gates>
<gate name="G$1" symbol="PJS008-2003-0" x="0" y="0"/>
</gates>
<devices>
<device name="" package="PJS008-2003-0">
<connects>
<connect gate="G$1" pin="1" pad="1"/>
<connect gate="G$1" pin="2" pad="2"/>
<connect gate="G$1" pin="3" pad="3"/>
<connect gate="G$1" pin="4" pad="4"/>
<connect gate="G$1" pin="5" pad="5"/>
<connect gate="G$1" pin="6" pad="6"/>
<connect gate="G$1" pin="7" pad="7"/>
<connect gate="G$1" pin="8" pad="8"/>
<connect gate="G$1" pin="9" pad="9"/>
<connect gate="G$1" pin="CARD_DETECT_SW1" pad="11"/>
<connect gate="G$1" pin="CARD_DETECT_SW2" pad="10"/>
<connect gate="G$1" pin="SHELL_TERM_1" pad="12"/>
<connect gate="G$1" pin="SHELL_TERM_2" pad="13"/>
<connect gate="G$1" pin="SHELL_TERM_3" pad="14"/>
</connects>
<technologies>
<technology name="">
<attribute name="DESCRIPTION" value="Memory Card Connectors MicroSD Card Conn Revrs Mnt Push-Push" constant="no"/>
<attribute name="HEIGHT" value="mm" constant="no"/>
<attribute name="MANUFACTURER_NAME" value="Yamaichi" constant="no"/>
<attribute name="MANUFACTURER_PART_NUMBER" value="PJS008-2003-0" constant="no"/>
<attribute name="MOUSER_PART_NUMBER" value="945-PJS008-2003-0" constant="no"/>
<attribute name="MOUSER_PRICE-STOCK" value="https://www.mouser.com/Search/Refine.aspx?Keyword=945-PJS008-2003-0" constant="no"/>
</technology>
</technologies>
</device>
</devices>
</deviceset>
</devicesets>
</library>
</libraries>
<attributes>
</attributes>
<variantdefs>
</variantdefs>
<classes>
<class number="0" name="default" width="0" drill="0">
</class>
</classes>
<parts>
<part name="X1" library="con-cypressindustries" library_urn="urn:adsk.eagle:library:138" deviceset="MINI-USB-" device="32005-301" package3d_urn="urn:adsk.eagle:package:6446/1"/>
<part name="IC4" library="SamacSys_Parts" deviceset="MSP432E401YTPDTR" device=""/>
<part name="J4" library="SamacSys_Parts" deviceset="PJS008-2003-0" device=""/>
<part name="C4" library="SamacSys_Parts" deviceset="GRM033R61C104KE14D" device="" value=".1uf"/>
</parts>
<sheets>
<sheet>
<plain>
<text x="83.82" y="241.3" size="12.7" layer="97">Control</text>
<text x="302.26" y="152.4" size="12.7" layer="97">Memory</text>
</plain>
<instances>
<instance part="X1" gate="G$1" x="243.84" y="124.46" smashed="yes"/>
<instance part="IC4" gate="G$1" x="63.5" y="144.78" smashed="yes">
<attribute name="NAME" x="153.67" y="172.72" size="1.778" layer="95" align="center-left"/>
</instance>
<instance part="J4" gate="G$1" x="314.96" y="132.08" smashed="yes">
<attribute name="NAME" x="349.25" y="139.7" size="1.778" layer="95" align="center-left"/>
</instance>
<instance part="C4" gate="G$1" x="20.32" y="101.6" smashed="yes" rot="R180">
<attribute name="NAME" x="11.43" y="102.87" size="1.778" layer="95" rot="R180" align="center-left"/>
<attribute name="VALUE" x="19.05" y="102.87" size="1.778" layer="96" rot="R180" align="center-left"/>
</instance>
</instances>
<busses>
</busses>
<nets>
<net name="GND" class="0">
<segment>
<pinref part="X1" gate="G$1" pin="4"/>
<wire x1="238.76" y1="121.92" x2="228.6" y2="121.92" width="0.1524" layer="91"/>
<label x="223.52" y="121.92" size="1.778" layer="95"/>
</segment>
<segment>
<pinref part="IC4" gate="G$1" pin="GND_6"/>
<wire x1="106.68" y1="172.72" x2="106.68" y2="198.12" width="0.1524" layer="91"/>
<label x="106.68" y="193.04" size="1.778" layer="95" rot="R90"/>
</segment>
<segment>
<pinref part="IC4" gate="G$1" pin="GND_5"/>
<wire x1="157.48" y1="104.14" x2="180.34" y2="104.14" width="0.1524" layer="91"/>
<label x="175.26" y="104.14" size="1.778" layer="95"/>
</segment>
<segment>
<pinref part="IC4" gate="G$1" pin="GNDA"/>
<wire x1="63.5" y1="121.92" x2="38.1" y2="121.92" width="0.1524" layer="91"/>
<label x="38.1" y="121.92" size="1.778" layer="95"/>
</segment>
<segment>
<pinref part="IC4" gate="G$1" pin="GND_1"/>
<wire x1="63.5" y1="104.14" x2="38.1" y2="104.14" width="0.1524" layer="91"/>
<label x="38.1" y="104.14" size="1.778" layer="95"/>
</segment>
<segment>
<pinref part="IC4" gate="G$1" pin="GND_2"/>
<wire x1="109.22" y1="45.72" x2="109.22" y2="2.54" width="0.1524" layer="91"/>
<label x="121.92" y="2.54" size="1.778" layer="95" rot="R180"/>
<pinref part="IC4" gate="G$1" pin="GND_3"/>
<wire x1="127" y1="45.72" x2="127" y2="2.54" width="0.1524" layer="91"/>
<pinref part="IC4" gate="G$1" pin="GND_4"/>
<wire x1="134.62" y1="45.72" x2="134.62" y2="2.54" width="0.1524" layer="91"/>
<wire x1="127" y1="2.54" x2="134.62" y2="2.54" width="0.1524" layer="91"/>
<junction x="127" y="2.54"/>
<wire x1="109.22" y1="2.54" x2="127" y2="2.54" width="0.1524" layer="91"/>
</segment>
<segment>
<pinref part="J4" gate="G$1" pin="1"/>
<wire x1="314.96" y1="132.08" x2="287.02" y2="132.08" width="0.1524" layer="91"/>
<label x="287.02" y="132.08" size="1.778" layer="95"/>
</segment>
<segment>
<pinref part="J4" gate="G$1" pin="6"/>
<wire x1="314.96" y1="119.38" x2="287.02" y2="119.38" width="0.1524" layer="91"/>
<label x="287.02" y="119.38" size="1.778" layer="95"/>
</segment>
<segment>
<pinref part="J4" gate="G$1" pin="8"/>
<wire x1="353.06" y1="132.08" x2="375.92" y2="132.08" width="0.1524" layer="91"/>
<pinref part="J4" gate="G$1" pin="9"/>
<wire x1="353.06" y1="129.54" x2="375.92" y2="129.54" width="0.1524" layer="91"/>
<label x="370.84" y="129.54" size="1.778" layer="95"/>
<wire x1="375.92" y1="132.08" x2="375.92" y2="129.54" width="0.1524" layer="91"/>
</segment>
<segment>
<wire x1="7.62" y1="101.6" x2="-7.62" y2="101.6" width="0.1524" layer="91"/>
<label x="-7.62" y="101.6" size="1.778" layer="95"/>
<pinref part="C4" gate="G$1" pin="2"/>
</segment>
</net>
<net name="USB_D+" class="0">
<segment>
<pinref part="X1" gate="G$1" pin="3"/>
<wire x1="238.76" y1="124.46" x2="228.6" y2="124.46" width="0.1524" layer="91"/>
<label x="223.52" y="124.46" size="1.778" layer="95"/>
</segment>
<segment>
<pinref part="IC4" gate="G$1" pin="PL6"/>
<wire x1="157.48" y1="139.7" x2="180.34" y2="139.7" width="0.1524" layer="91"/>
<label x="172.72" y="139.7" size="1.778" layer="95"/>
</segment>
</net>
<net name="USB_D-" class="0">
<segment>
<pinref part="X1" gate="G$1" pin="2"/>
<wire x1="238.76" y1="127" x2="228.6" y2="127" width="0.1524" layer="91"/>
<label x="223.52" y="127" size="1.778" layer="95"/>
</segment>
<segment>
<pinref part="IC4" gate="G$1" pin="PL7"/>
<wire x1="157.48" y1="137.16" x2="180.34" y2="137.16" width="0.1524" layer="91"/>
<label x="172.72" y="137.16" size="1.778" layer="95"/>
</segment>
</net>
<net name="VBUS_5V" class="0">
<segment>
<pinref part="X1" gate="G$1" pin="1"/>
<wire x1="238.76" y1="129.54" x2="228.6" y2="129.54" width="0.1524" layer="91"/>
<label x="223.52" y="129.54" size="1.778" layer="95"/>
</segment>
<segment>
<pinref part="IC4" gate="G$1" pin="PB1"/>
<wire x1="157.48" y1="144.78" x2="180.34" y2="144.78" width="0.1524" layer="91"/>
<label x="170.18" y="144.78" size="1.778" layer="95"/>
</segment>
</net>
<net name="VBAT" class="0">
<segment>
<pinref part="IC4" gate="G$1" pin="VDD_12"/>
<wire x1="139.7" y1="172.72" x2="139.7" y2="203.2" width="0.1524" layer="91"/>
<pinref part="IC4" gate="G$1" pin="VDD_14"/>
<wire x1="86.36" y1="172.72" x2="86.36" y2="203.2" width="0.1524" layer="91"/>
<pinref part="IC4" gate="G$1" pin="VDDC_2"/>
<wire x1="104.14" y1="172.72" x2="104.14" y2="203.2" width="0.1524" layer="91"/>
<wire x1="86.36" y1="203.2" x2="104.14" y2="203.2" width="0.1524" layer="91"/>
<wire x1="139.7" y1="203.2" x2="109.22" y2="203.2" width="0.1524" layer="91"/>
<junction x="104.14" y="203.2"/>
<label x="129.54" y="203.2" size="1.778" layer="95"/>
<wire x1="109.22" y1="203.2" x2="104.14" y2="203.2" width="0.1524" layer="91"/>
<pinref part="IC4" gate="G$1" pin="VDD_13"/>
<wire x1="109.22" y1="172.72" x2="109.22" y2="203.2" width="0.1524" layer="91"/>
<junction x="109.22" y="203.2"/>
</segment>
<segment>
<pinref part="IC4" gate="G$1" pin="VDD_1"/>
<wire x1="63.5" y1="129.54" x2="38.1" y2="129.54" width="0.1524" layer="91"/>
<pinref part="IC4" gate="G$1" pin="VDDA"/>
<wire x1="63.5" y1="127" x2="38.1" y2="127" width="0.1524" layer="91"/>
<pinref part="IC4" gate="G$1" pin="VREFA+"/>
<wire x1="63.5" y1="124.46" x2="38.1" y2="124.46" width="0.1524" layer="91"/>
<wire x1="38.1" y1="124.46" x2="38.1" y2="127" width="0.1524" layer="91"/>
<wire x1="38.1" y1="129.54" x2="38.1" y2="127" width="0.1524" layer="91"/>
<junction x="38.1" y="127"/>
<wire x1="38.1" y1="127" x2="33.02" y2="127" width="0.1524" layer="91"/>
<wire x1="33.02" y1="127" x2="33.02" y2="101.6" width="0.1524" layer="91"/>
<pinref part="IC4" gate="G$1" pin="VDD_3"/>
<wire x1="33.02" y1="101.6" x2="33.02" y2="78.74" width="0.1524" layer="91"/>
<wire x1="63.5" y1="81.28" x2="38.1" y2="81.28" width="0.1524" layer="91"/>
<pinref part="IC4" gate="G$1" pin="VDD_4"/>
<wire x1="63.5" y1="76.2" x2="38.1" y2="76.2" width="0.1524" layer="91"/>
<wire x1="38.1" y1="81.28" x2="38.1" y2="78.74" width="0.1524" layer="91"/>
<wire x1="38.1" y1="78.74" x2="38.1" y2="76.2" width="0.1524" layer="91"/>
<wire x1="33.02" y1="78.74" x2="38.1" y2="78.74" width="0.1524" layer="91"/>
<junction x="38.1" y="78.74"/>
<wire x1="20.32" y1="101.6" x2="33.02" y2="101.6" width="0.1524" layer="91"/>
<junction x="33.02" y="101.6"/>
<label x="25.4" y="101.6" size="1.778" layer="95"/>
<pinref part="C4" gate="G$1" pin="1"/>
</segment>
<segment>
<pinref part="IC4" gate="G$1" pin="VDD_2"/>
<wire x1="63.5" y1="106.68" x2="38.1" y2="106.68" width="0.1524" layer="91"/>
<label x="38.1" y="106.68" size="1.778" layer="95"/>
</segment>
<segment>
<pinref part="IC4" gate="G$1" pin="VDD_5"/>
<wire x1="86.36" y1="45.72" x2="86.36" y2="7.62" width="0.1524" layer="91"/>
<pinref part="IC4" gate="G$1" pin="VDD_6"/>
<wire x1="106.68" y1="45.72" x2="106.68" y2="7.62" width="0.1524" layer="91"/>
<pinref part="IC4" gate="G$1" pin="VDD_8"/>
<wire x1="119.38" y1="45.72" x2="119.38" y2="7.62" width="0.1524" layer="91"/>
<pinref part="IC4" gate="G$1" pin="VDD_7"/>
<wire x1="116.84" y1="45.72" x2="116.84" y2="7.62" width="0.1524" layer="91"/>
<wire x1="119.38" y1="7.62" x2="116.84" y2="7.62" width="0.1524" layer="91"/>
<wire x1="106.68" y1="7.62" x2="116.84" y2="7.62" width="0.1524" layer="91"/>
<junction x="116.84" y="7.62"/>
<label x="109.22" y="7.62" size="1.778" layer="95"/>
<wire x1="86.36" y1="7.62" x2="106.68" y2="7.62" width="0.1524" layer="91"/>
<junction x="106.68" y="7.62"/>
</segment>
<segment>
<pinref part="IC4" gate="G$1" pin="VDD_9"/>
<wire x1="157.48" y1="76.2" x2="190.5" y2="76.2" width="0.1524" layer="91"/>
<pinref part="IC4" gate="G$1" pin="VBAT"/>
<wire x1="157.48" y1="73.66" x2="190.5" y2="73.66" width="0.1524" layer="91"/>
<wire x1="190.5" y1="76.2" x2="190.5" y2="73.66" width="0.1524" layer="91"/>
<pinref part="IC4" gate="G$1" pin="VDDC_1"/>
<wire x1="157.48" y1="121.92" x2="190.5" y2="121.92" width="0.1524" layer="91"/>
<pinref part="IC4" gate="G$1" pin="VDD_10"/>
<wire x1="157.48" y1="101.6" x2="190.5" y2="101.6" width="0.1524" layer="91"/>
<pinref part="IC4" gate="G$1" pin="VDD_11"/>
<wire x1="157.48" y1="129.54" x2="190.5" y2="129.54" width="0.1524" layer="91"/>
<wire x1="190.5" y1="101.6" x2="190.5" y2="121.92" width="0.1524" layer="91"/>
<wire x1="190.5" y1="121.92" x2="190.5" y2="129.54" width="0.1524" layer="91"/>
<junction x="190.5" y="121.92"/>
<wire x1="190.5" y1="76.2" x2="190.5" y2="101.6" width="0.1524" layer="91"/>
<junction x="190.5" y="76.2"/>
<junction x="190.5" y="101.6"/>
<label x="175.26" y="101.6" size="1.778" layer="95"/>
</segment>
<segment>
<pinref part="J4" gate="G$1" pin="4"/>
<wire x1="314.96" y1="124.46" x2="287.02" y2="124.46" width="0.1524" layer="91"/>
<label x="287.02" y="124.46" size="1.778" layer="95"/>
</segment>
</net>
<net name="I2C_MC_SCL" class="0">
<segment>
<pinref part="IC4" gate="G$1" pin="PG0"/>
<wire x1="111.76" y1="45.72" x2="111.76" y2="15.24" width="0.1524" layer="91"/>
<label x="111.76" y="15.24" size="1.778" layer="95" rot="R90"/>
</segment>
</net>
<net name="I2C_MC_SDA" class="0">
<segment>
<pinref part="IC4" gate="G$1" pin="PG1"/>
<wire x1="114.3" y1="45.72" x2="114.3" y2="15.24" width="0.1524" layer="91"/>
<label x="114.3" y="15.24" size="1.778" layer="95" rot="R90"/>
</segment>
</net>
<net name="ACC_X" class="0">
<segment>
<pinref part="IC4" gate="G$1" pin="PE3"/>
<wire x1="63.5" y1="116.84" x2="38.1" y2="116.84" width="0.1524" layer="91"/>
<label x="38.1" y="116.84" size="1.778" layer="95"/>
</segment>
</net>
<net name="ACC_Y" class="0">
<segment>
<pinref part="IC4" gate="G$1" pin="PE2"/>
<wire x1="63.5" y1="114.3" x2="38.1" y2="114.3" width="0.1524" layer="91"/>
<label x="38.1" y="114.3" size="1.778" layer="95"/>
</segment>
</net>
<net name="ACC_Z" class="0">
<segment>
<pinref part="IC4" gate="G$1" pin="PE1"/>
<wire x1="63.5" y1="111.76" x2="38.1" y2="111.76" width="0.1524" layer="91"/>
<label x="38.1" y="111.76" size="1.778" layer="95"/>
</segment>
</net>
<net name="GYRO_PMU_TRIG_INT" class="0">
<segment>
<pinref part="IC4" gate="G$1" pin="PC1/TMS/SWDIO"/>
<wire x1="144.78" y1="172.72" x2="144.78" y2="203.2" width="0.1524" layer="91"/>
<label x="144.78" y="177.8" size="1.778" layer="95" rot="R90"/>
</segment>
</net>
<net name="GYRO_DATA_RDY_INT" class="0">
<segment>
<pinref part="IC4" gate="G$1" pin="PC2/TDI"/>
<wire x1="147.32" y1="172.72" x2="147.32" y2="203.2" width="0.1524" layer="91"/>
<label x="147.32" y="177.8" size="1.778" layer="95" rot="R90"/>
</segment>
</net>
<net name="SSI_3_FSS" class="0">
<segment>
<pinref part="IC4" gate="G$1" pin="PF2"/>
<wire x1="99.06" y1="45.72" x2="99.06" y2="15.24" width="0.1524" layer="91"/>
<label x="99.06" y="15.24" size="1.778" layer="95" rot="R90"/>
</segment>
<segment>
<pinref part="J4" gate="G$1" pin="2"/>
<wire x1="314.96" y1="129.54" x2="287.02" y2="129.54" width="0.1524" layer="91"/>
<label x="287.02" y="129.54" size="1.778" layer="95"/>
</segment>
</net>
<net name="SSI_3_CLK" class="0">
<segment>
<pinref part="IC4" gate="G$1" pin="PF3"/>
<wire x1="101.6" y1="45.72" x2="101.6" y2="15.24" width="0.1524" layer="91"/>
<label x="101.6" y="15.24" size="1.778" layer="95" rot="R90"/>
</segment>
<segment>
<pinref part="J4" gate="G$1" pin="5"/>
<wire x1="314.96" y1="121.92" x2="287.02" y2="121.92" width="0.1524" layer="91"/>
<label x="287.02" y="121.92" size="1.778" layer="95"/>
</segment>
</net>
<net name="ACC_PWR_SW" class="0">
<segment>
<pinref part="IC4" gate="G$1" pin="PM3"/>
<wire x1="157.48" y1="91.44" x2="180.34" y2="91.44" width="0.1524" layer="91"/>
<label x="162.56" y="91.44" size="1.778" layer="95"/>
</segment>
</net>
<net name="GYRO_PWR_SW" class="0">
<segment>
<pinref part="IC4" gate="G$1" pin="PM2"/>
<wire x1="157.48" y1="93.98" x2="180.34" y2="93.98" width="0.1524" layer="91"/>
<label x="162.56" y="93.98" size="1.778" layer="95"/>
</segment>
</net>
<net name="ACC_SELF_TEST" class="0">
<segment>
<pinref part="IC4" gate="G$1" pin="PM0"/>
<wire x1="157.48" y1="99.06" x2="180.34" y2="99.06" width="0.1524" layer="91"/>
<label x="162.56" y="99.06" size="1.778" layer="95"/>
</segment>
</net>
<net name="N$1" class="0">
<segment>
<pinref part="J4" gate="G$1" pin="SHELL_TERM_1"/>
<wire x1="353.06" y1="121.92" x2="358.14" y2="121.92" width="0.1524" layer="91"/>
<wire x1="358.14" y1="121.92" x2="358.14" y2="119.38" width="0.1524" layer="91"/>
<pinref part="J4" gate="G$1" pin="SHELL_TERM_3"/>
<wire x1="358.14" y1="119.38" x2="358.14" y2="116.84" width="0.1524" layer="91"/>
<wire x1="358.14" y1="116.84" x2="353.06" y2="116.84" width="0.1524" layer="91"/>
<pinref part="J4" gate="G$1" pin="SHELL_TERM_2"/>
<wire x1="353.06" y1="119.38" x2="358.14" y2="119.38" width="0.1524" layer="91"/>
<junction x="358.14" y="119.38"/>
</segment>
</net>
<net name="SD_DET_SW_2" class="0">
<segment>
<pinref part="J4" gate="G$1" pin="CARD_DETECT_SW2"/>
<wire x1="353.06" y1="127" x2="375.92" y2="127" width="0.1524" layer="91"/>
<label x="358.14" y="127" size="1.778" layer="95"/>
</segment>
<segment>
<pinref part="IC4" gate="G$1" pin="PN1"/>
<wire x1="121.92" y1="172.72" x2="121.92" y2="198.12" width="0.1524" layer="91"/>
<label x="121.92" y="180.34" size="1.778" layer="95" rot="R90"/>
</segment>
</net>
<net name="SD_DET_SW_1" class="0">
<segment>
<pinref part="J4" gate="G$1" pin="CARD_DETECT_SW1"/>
<wire x1="353.06" y1="124.46" x2="375.92" y2="124.46" width="0.1524" layer="91"/>
<label x="358.14" y="124.46" size="1.778" layer="95"/>
</segment>
<segment>
<pinref part="IC4" gate="G$1" pin="PN0"/>
<wire x1="124.46" y1="172.72" x2="124.46" y2="198.12" width="0.1524" layer="91"/>
<label x="124.46" y="180.34" size="1.778" layer="95" rot="R90"/>
</segment>
</net>
<net name="SSI_3_XDAT0_MOSI" class="0">
<segment>
<pinref part="IC4" gate="G$1" pin="PF1"/>
<wire x1="96.52" y1="45.72" x2="96.52" y2="15.24" width="0.1524" layer="91"/>
<label x="96.52" y="15.24" size="1.778" layer="95" rot="R90"/>
</segment>
<segment>
<pinref part="J4" gate="G$1" pin="3"/>
<wire x1="314.96" y1="127" x2="287.02" y2="127" width="0.1524" layer="91"/>
<label x="287.02" y="127" size="1.778" layer="95"/>
</segment>
</net>
<net name="SSI_3_XDAT1_MISO" class="0">
<segment>
<pinref part="IC4" gate="G$1" pin="PF0"/>
<wire x1="93.98" y1="45.72" x2="93.98" y2="15.24" width="0.1524" layer="91"/>
<label x="93.98" y="15.24" size="1.778" layer="95" rot="R90"/>
</segment>
<segment>
<pinref part="J4" gate="G$1" pin="7"/>
<wire x1="314.96" y1="116.84" x2="287.02" y2="116.84" width="0.1524" layer="91"/>
<label x="287.02" y="116.84" size="1.778" layer="95"/>
</segment>
</net>
</nets>
</sheet>
</sheets>
<errors>
<approved hash="104,1,50.8,7.62,U1,PGND,GND,,,"/>
<approved hash="104,1,-215.9,12.7,U3,VDDIO,GYRO_PWR_FET,,,"/>
<approved hash="104,1,-215.9,-17.78,U3,GNDIO,GND,,,"/>
<approved hash="104,1,-215.9,15.24,U3,VDD,GYRO_PWR_FET,,,"/>
</errors>
</schematic>
</drawing>
<compatibility>
<note version="8.2" severity="warning">
Since Version 8.2, EAGLE supports online libraries. The ids
of those online libraries will not be understood (or retained)
with this version.
</note>
<note version="8.3" severity="warning">
Since Version 8.3, EAGLE supports URNs for individual library
assets (packages, symbols, and devices). The URNs of those assets
will not be understood (or retained) with this version.
</note>
<note version="8.3" severity="warning">
Since Version 8.3, EAGLE supports the association of 3D packages
with devices in libraries, schematics, and board files. Those 3D
packages will not be understood (or retained) with this version.
</note>
</compatibility>
</eagle>
