G04 EAGLE Gerber RS-274X export*
G75*
%MOMM*%
%FSLAX34Y34*%
%LPD*%
%INSoldermask Top*%
%IPPOS*%
%AMOC8*
5,1,8,0,0,1.08239X$1,22.5*%
G01*
%ADD10R,0.668200X0.643200*%
%ADD11R,0.803200X0.823200*%
%ADD12R,0.663200X0.623200*%
%ADD13R,0.703200X1.253200*%
%ADD14C,0.505344*%
%ADD15R,1.253200X0.603200*%
%ADD16R,0.828200X0.603200*%
%ADD17R,0.643200X0.623200*%
%ADD18R,0.903200X0.803200*%
%ADD19R,0.953200X0.803200*%
%ADD20R,1.016000X0.558800*%
%ADD21R,0.558800X1.016000*%
%ADD22R,3.403600X3.403600*%
%ADD23R,2.703200X2.203200*%
%ADD24R,3.503200X2.203200*%
%ADD25R,3.303200X0.703200*%
%ADD26C,1.103200*%
%ADD27P,3.629037X8X112.500000*%
%ADD28R,1.053200X0.503200*%
%ADD29R,0.503200X1.053200*%
%ADD30R,1.903200X1.903200*%
%ADD31R,0.878200X0.453200*%
%ADD32R,0.453200X0.878200*%
%ADD33R,1.653200X0.403200*%
%ADD34R,0.403200X1.653200*%
%ADD35R,1.003200X1.803200*%
%ADD36R,1.603200X3.303200*%
%ADD37R,2.153200X1.603200*%
%ADD38R,1.703200X3.703200*%
%ADD39R,1.803200X3.703200*%
%ADD40R,0.803200X0.903200*%
%ADD41C,0.959600*%


D10*
X188449Y299747D03*
X181809Y299747D03*
D11*
X191896Y290248D03*
X182696Y290248D03*
D12*
X189223Y264300D03*
X182623Y264300D03*
X188626Y280664D03*
X182026Y280664D03*
X188875Y272454D03*
X182275Y272454D03*
D13*
X209248Y69165D03*
X209248Y91925D03*
X210173Y112065D03*
X210173Y134825D03*
D14*
X381505Y279916D02*
X381505Y286896D01*
X381505Y279916D02*
X374525Y279916D01*
X374525Y286896D01*
X381505Y286896D01*
X381505Y284716D02*
X374525Y284716D01*
X363965Y286896D02*
X363965Y279916D01*
X356985Y279916D01*
X356985Y286896D01*
X363965Y286896D01*
X363965Y284716D02*
X356985Y284716D01*
D15*
X156526Y148987D03*
X156526Y142487D03*
X156526Y135987D03*
X175526Y135987D03*
X175526Y142487D03*
X175526Y148987D03*
X156110Y108238D03*
X156110Y101738D03*
X156110Y95238D03*
X175110Y95238D03*
X175110Y101738D03*
X175110Y108238D03*
D16*
X153895Y299183D03*
X162135Y299183D03*
D17*
X152551Y289520D03*
X159351Y289520D03*
D16*
X153968Y279976D03*
X162208Y279976D03*
X153853Y270077D03*
X162093Y270077D03*
D18*
X165468Y259141D03*
X154468Y259141D03*
X154366Y247246D03*
X165366Y247246D03*
D19*
X104711Y293376D03*
X115711Y293376D03*
D20*
X149787Y211667D03*
X149787Y203667D03*
X149787Y195667D03*
X149787Y187667D03*
D21*
X162298Y175156D03*
X170298Y175156D03*
X178298Y175156D03*
X186298Y175156D03*
D20*
X198809Y187667D03*
X198809Y195667D03*
X198809Y203667D03*
X198809Y211667D03*
D21*
X186298Y224178D03*
X178298Y224178D03*
X170298Y224178D03*
X162298Y224178D03*
D22*
X174298Y199667D03*
D23*
X669575Y299775D03*
X669575Y210775D03*
D24*
X610575Y299775D03*
X610575Y210775D03*
D25*
X609575Y239275D03*
X609575Y247275D03*
X609575Y255275D03*
X609575Y263275D03*
X609575Y271275D03*
D26*
X639575Y233275D03*
X639575Y277275D03*
D27*
X108600Y58420D03*
X28696Y58420D03*
X57800Y294640D03*
D28*
X453323Y241590D03*
X453323Y236590D03*
X453323Y231590D03*
X453323Y226590D03*
D29*
X460323Y219590D03*
X465323Y219590D03*
X470323Y219590D03*
X475323Y219590D03*
D28*
X482323Y226590D03*
X482323Y231590D03*
X482323Y236590D03*
X482323Y241590D03*
D29*
X475323Y248590D03*
X470323Y248590D03*
X465323Y248590D03*
X460323Y248590D03*
D30*
X467823Y234090D03*
D31*
X454799Y109114D03*
X454799Y114114D03*
X454799Y104114D03*
X454799Y99114D03*
X480049Y114114D03*
X480049Y109114D03*
X480049Y104114D03*
X480049Y99114D03*
D32*
X462424Y116739D03*
X467424Y116739D03*
X472424Y116739D03*
X462424Y96489D03*
X467424Y96489D03*
X472424Y96489D03*
D33*
X248328Y232811D03*
X248328Y228811D03*
X248328Y224811D03*
X248328Y220811D03*
X248328Y216811D03*
X248328Y212811D03*
X248328Y208811D03*
X248328Y204811D03*
X248328Y200811D03*
X248328Y196811D03*
X248328Y192811D03*
X248328Y188811D03*
X248328Y184811D03*
X248328Y180811D03*
X248328Y176811D03*
X248328Y172811D03*
X248328Y168811D03*
X248328Y164811D03*
X248328Y160811D03*
X248328Y156811D03*
X248328Y152811D03*
X248328Y148811D03*
X248328Y144811D03*
X248328Y140811D03*
X248328Y136811D03*
X248328Y132811D03*
X248328Y128811D03*
X248328Y124811D03*
X248328Y120811D03*
X248328Y116811D03*
X248328Y112811D03*
X248328Y108811D03*
D34*
X263578Y93561D03*
X267578Y93561D03*
X271578Y93561D03*
X275578Y93561D03*
X279578Y93561D03*
X283578Y93561D03*
X287578Y93561D03*
X291578Y93561D03*
X295578Y93561D03*
X299578Y93561D03*
X303578Y93561D03*
X307578Y93561D03*
X311578Y93561D03*
X315578Y93561D03*
X319578Y93561D03*
X323578Y93561D03*
X327578Y93561D03*
X331578Y93561D03*
X335578Y93561D03*
X339578Y93561D03*
X343578Y93561D03*
X347578Y93561D03*
X351578Y93561D03*
X355578Y93561D03*
X359578Y93561D03*
X363578Y93561D03*
X367578Y93561D03*
X371578Y93561D03*
X375578Y93561D03*
X379578Y93561D03*
X383578Y93561D03*
X387578Y93561D03*
D33*
X402828Y108811D03*
X402828Y112811D03*
X402828Y116811D03*
X402828Y120811D03*
X402828Y124811D03*
X402828Y128811D03*
X402828Y132811D03*
X402828Y136811D03*
X402828Y140811D03*
X402828Y144811D03*
X402828Y148811D03*
X402828Y152811D03*
X402828Y156811D03*
X402828Y160811D03*
X402828Y164811D03*
X402828Y168811D03*
X402828Y172811D03*
X402828Y176811D03*
X402828Y180811D03*
X402828Y184811D03*
X402828Y188811D03*
X402828Y192811D03*
X402828Y196811D03*
X402828Y200811D03*
X402828Y204811D03*
X402828Y208811D03*
X402828Y212811D03*
X402828Y216811D03*
X402828Y220811D03*
X402828Y224811D03*
X402828Y228811D03*
X402828Y232811D03*
D34*
X387578Y248061D03*
X383578Y248061D03*
X379578Y248061D03*
X375578Y248061D03*
X371578Y248061D03*
X367578Y248061D03*
X363578Y248061D03*
X359578Y248061D03*
X355578Y248061D03*
X351578Y248061D03*
X347578Y248061D03*
X343578Y248061D03*
X339578Y248061D03*
X335578Y248061D03*
X331578Y248061D03*
X327578Y248061D03*
X323578Y248061D03*
X319578Y248061D03*
X315578Y248061D03*
X311578Y248061D03*
X307578Y248061D03*
X303578Y248061D03*
X299578Y248061D03*
X295578Y248061D03*
X291578Y248061D03*
X287578Y248061D03*
X283578Y248061D03*
X279578Y248061D03*
X275578Y248061D03*
X271578Y248061D03*
X267578Y248061D03*
X263578Y248061D03*
D35*
X574473Y191291D03*
X585473Y191291D03*
X596473Y191291D03*
X607473Y191291D03*
X618473Y191291D03*
X629473Y191291D03*
X640473Y191291D03*
X651473Y191291D03*
X662473Y191291D03*
D36*
X676723Y174791D03*
D37*
X671973Y89291D03*
D38*
X674223Y59791D03*
X524723Y59791D03*
D39*
X525723Y169791D03*
D15*
X456977Y178975D03*
X456977Y172475D03*
X456977Y165975D03*
X475977Y165975D03*
X475977Y172475D03*
X475977Y178975D03*
D40*
X499366Y112404D03*
X499366Y101404D03*
D18*
X465560Y137632D03*
X476560Y137632D03*
D12*
X189673Y247561D03*
X183073Y247561D03*
X189211Y256241D03*
X182611Y256241D03*
D41*
X131250Y292500D03*
X131250Y273750D03*
X171250Y127500D03*
X452500Y253750D03*
X512500Y253750D03*
X422500Y203750D03*
X390000Y171250D03*
X477500Y193750D03*
X278750Y147500D03*
X433750Y241250D03*
X577500Y241250D03*
X405000Y247500D03*
X588750Y247500D03*
X133750Y203750D03*
X133750Y190000D03*
X421250Y233750D03*
X588750Y233750D03*
X256250Y88750D03*
X193750Y231250D03*
X145000Y108750D03*
X215000Y203750D03*
X215000Y280000D03*
X197500Y263750D03*
X173750Y287500D03*
X208750Y188750D03*
X213750Y176250D03*
X113750Y283750D03*
X145000Y142500D03*
X165000Y233750D03*
X140000Y211250D03*
X152500Y157500D03*
X237500Y290000D03*
X218750Y102500D03*
X165000Y118750D03*
X196250Y298750D03*
X145000Y292500D03*
X221250Y212500D03*
X193750Y138750D03*
X203750Y220000D03*
X138750Y300000D03*
X203750Y232500D03*
X187500Y102500D03*
X161250Y87500D03*
X350000Y282500D03*
X197500Y168750D03*
X212500Y301250D03*
X203750Y271250D03*
X182500Y237500D03*
X130000Y133750D03*
X133750Y238750D03*
X452500Y137500D03*
X327500Y80000D03*
X337500Y107500D03*
X442500Y131250D03*
X453750Y212500D03*
X372500Y212500D03*
X440000Y225000D03*
X277500Y185000D03*
X461250Y187500D03*
X325000Y165000D03*
X485000Y127500D03*
X385000Y222500D03*
X395000Y98750D03*
X383750Y232500D03*
X307500Y77500D03*
X576250Y205000D03*
X475000Y70000D03*
X608750Y176250D03*
X435000Y172500D03*
X390000Y153750D03*
X493750Y171250D03*
X441250Y152500D03*
X487500Y178750D03*
X487500Y138750D03*
X540000Y155000D03*
X540000Y135000D03*
X568750Y226250D03*
X620000Y175000D03*
X445000Y260000D03*
X658750Y102500D03*
X535000Y121250D03*
X591250Y177500D03*
X295000Y80000D03*
X632500Y205000D03*
M02*
