Removed Pin From Net: NetName=VBAT Pin=C4-1
Removed Pin From Net: NetName=BATT Pin=C7-1
Removed Pin From Net: NetName=GND Pin=C7-2
Removed Pin From Net: NetName=VBAT Pin=D1-2
Removed Pin From Net: NetName=VBUS_5V Pin=D3-1
Removed Pin From Net: NetName=VBAT Pin=D3-2
Removed Pin From Net: NetName=VBAT Pin=IC4-7
Removed Pin From Net: NetName=VBAT Pin=IC4-8
Removed Pin From Net: NetName=VBAT Pin=IC4-9
Removed Pin From Net: NetName=VBAT Pin=IC4-26
Removed Pin From Net: NetName=VBAT Pin=IC4-28
Removed Pin From Net: NetName=VBAT Pin=IC4-39
Removed Pin From Net: NetName=VBAT Pin=IC4-47
Removed Pin From Net: NetName=VBAT Pin=IC4-51
Removed Pin From Net: NetName=VBAT Pin=IC4-52
Removed Pin From Net: NetName=BYP Pin=LED1-A
Removed Pin From Net: NetName=VBUS_5V Pin=Q6-3
Removed Pin From Net: NetName=GND Pin=Q6-4
Removed Pin From Net: NetName=GND Pin=Q6-5
Removed Pin From Net: NetName=GND Pin=Q6-6
Removed Pin From Net: NetName=VBUS_5V Pin=Q7-3
Removed Pin From Net: NetName=VBAT Pin=Q7-6
Removed Pin From Net: NetName=USB Pin=R1-1
Removed Pin From Net: NetName=UOK Pin=R1-2
Removed Pin From Net: NetName=REF Pin=R3-1
Removed Pin From Net: NetName=GND Pin=R5-2
Removed Pin From Net: NetName=VBUS_5V Pin=R7-1
Removed Pin From Net: NetName=VBUS_5V Pin=U1-2
Removed Pin From Net: NetName=VBUS_5V Pin=U1-4
Removed Pin From Net: NetName=VBUS_5V Pin=U1-5
Change Component Footprint: Designator=C2 Old Footprint=CAPC1005X55N New Footprint=CAPC0603X33N
Change Component Comment : Designator=R2 Old Comment= New Comment=1k
Change Component Comment : Designator=R8 Old Comment= New Comment=1k
Change Component Comment : Designator=C6 Old Comment= New Comment=2.2uF
Change Component Comment : Designator=C7 Old Comment= New Comment=2.2uF
Change Component Comment : Designator=R6 Old Comment= New Comment=3k
Change Component Comment : Designator=C1 Old Comment= New Comment=4.7uF
Change Component Comment : Designator=R1 Old Comment= New Comment=10k
Change Component Comment : Designator=R4 Old Comment= New Comment=10k
Change Component Comment : Designator=RT1 Old Comment= New Comment=10k at 25C
Change Component Comment : Designator=C2 Old Comment= New Comment=201 .1uF
Change Component Comment : Designator=C3 Old Comment= New Comment=.1uF
Change Component Comment : Designator=C4 Old Comment= New Comment=.1uf
Change Component Comment : Designator=C9 Old Comment= New Comment=.1uf
Change Component Comment : Designator=AC1 Old Comment= New Comment=ADXL377BCPZ-RL7
Change Component Comment : Designator=U1 Old Comment= New Comment=MAX1874ETE+
Change Component Comment : Designator=X1 Old Comment= New Comment=MINI-USB-32005-301
Change Component Comment : Designator=IC4 Old Comment= New Comment=MSP432E401YTPDTR
Change Component Comment : Designator=Q1 Old Comment= New Comment=nFet3
Change Component Comment : Designator=J4 Old Comment= New Comment=PJS008-2003-0
Change Component Designator: OldDesignator=C1 NewDesignator=C7
Change Component Designator: OldDesignator=C3 NewDesignator=C5
Change Component Designator: OldDesignator=C4 NewDesignator=C9
Change Component Designator: OldDesignator=C7 NewDesignator=C8
Change Component Designator: OldDesignator=C9 NewDesignator=C1
Change component parameters: Designator = "G1" ("G1"); Footprint = "ICP651321PA_120MAH"; UniqueID = "\GSEABLQB" ("\GSEABLQB")
Change component parameters (AddParameter): Name = "DeviceName"; Value = ""; VariantName = "[No Variations]"
Change component parameters (AddParameter): Name = "DeviceSetName"; Value = "ICP651321PA_120MAH"; VariantName = "[No Variations]"
Change component parameters (AddParameter): Name = "GateName_1"; Value = "G$1"; VariantName = "[No Variations]"
Change component parameters (AddParameter): Name = "LibraryName"; Value = "SamacSys_Parts"; VariantName = "[No Variations]"
Change component parameters (AddParameter): Name = "POPULARITY"; Value = "0"; VariantName = "[No Variations]"
Change component parameters (AddParameter): Name = "SymbolName_1"; Value = "1V2-2"; VariantName = "[No Variations]"
Change component parameters: Designator = "U1" ("U1"); Footprint = "21-0140L_T1655-2"; UniqueID = "\LFEBSSIO" ("\LFEBSSIO")
Change component parameters (AddParameter): Name = "BUILT_BY"; Value = "EMA_UL_Team"; VariantName = "[No Variations]"
Change component parameters (AddParameter): Name = "DeviceName"; Value = ""; VariantName = "[No Variations]"
Change component parameters (AddParameter): Name = "DeviceSetName"; Value = "MAX1874ETE+"; VariantName = "[No Variations]"
Change component parameters (AddParameter): Name = "GateName_1"; Value = "A"; VariantName = "[No Variations]"
Change component parameters (AddParameter): Name = "LibraryName"; Value = "SamacSys_Parts"; VariantName = "[No Variations]"
Change component parameters (AddParameter): Name = "MANUFACTURER_PART_NUMBER"; Value = "MAX1874ETE+"; VariantName = "[No Variations]"
Change component parameters (AddParameter): Name = "SymbolName_1"; Value = "MAX1874ETE"; VariantName = "[No Variations]"
Change component parameters (AddParameter): Name = "VENDOR"; Value = "Maxim Integrated Products"; VariantName = "[No Variations]"
Change component parameters: Designator = "U3" ("U3"); Footprint = "XDCR_BMG250"; UniqueID = "\PVVAGDEI" ("\PVVAGDEI")
Change component parameters (AddParameter): Name = "AVAILABILITY"; Value = "Unavailable"; VariantName = "[No Variations]"
Change component parameters (AddParameter): Name = "DeviceName"; Value = ""; VariantName = "[No Variations]"
Change component parameters (AddParameter): Name = "DeviceSetName"; Value = "BMG250"; VariantName = "[No Variations]"
Change component parameters (AddParameter): Name = "GateName_1"; Value = "G$1"; VariantName = "[No Variations]"
Change component parameters (AddParameter): Name = "LibraryName"; Value = "SamacSys_Parts"; VariantName = "[No Variations]"
Change component parameters (AddParameter): Name = "MF"; Value = "Bosch"; VariantName = "[No Variations]"
Change component parameters (AddParameter): Name = "MP"; Value = "BMG250"; VariantName = "[No Variations]"
Change component parameters (AddParameter): Name = "PACKAGE"; Value = "LGA-14 Bosch Tools"; VariantName = "[No Variations]"
Change component parameters (AddParameter): Name = "PRICE"; Value = "None"; VariantName = "[No Variations]"
Change component parameters (AddParameter): Name = "SymbolName_1"; Value = "BMG250"; VariantName = "[No Variations]"
Change component parameters: Designator = "C1" ("C7"); Footprint = "CAPC0603X55N"; UniqueID = "\HVMEGVIY" ("\HVMEGVIY")
Change component parameters (AddParameter): Name = "DeviceName"; Value = ""; VariantName = "[No Variations]"
Change component parameters (AddParameter): Name = "DeviceSetName"; Value = "GRM035R60J475ME15D"; VariantName = "[No Variations]"
Change component parameters (AddParameter): Name = "GateName_1"; Value = "G$1"; VariantName = "[No Variations]"
Change component parameters (AddParameter): Name = "HEIGHT"; Value = "0.55mm"; VariantName = "[No Variations]"
Change component parameters (AddParameter): Name = "LibraryName"; Value = "SamacSys_Parts"; VariantName = "[No Variations]"
Change component parameters (AddParameter): Name = "MANUFACTURER_NAME"; Value = "Murata Electronics"; VariantName = "[No Variations]"
Change component parameters (AddParameter): Name = "MANUFACTURER_PART_NUMBER"; Value = "GRM035R60J475ME15D"; VariantName = "[No Variations]"
Change component parameters (AddParameter): Name = "MOUSER_PART_NUMBER"; Value = "81-GRM035R60J475ME5D"; VariantName = "[No Variations]"
Change component parameters (AddParameter): Name = "MOUSER_PRICE-STOCK"; Value = "https://www.mouser.com/Search/Refine.aspx?Keyword=81-GRM035R60J475ME5D"; VariantName = "[No Variations]"
Change component parameters (AddParameter): Name = "SymbolName_1"; Value = "GRM035R60J475ME15D"; VariantName = "[No Variations]"
Change component parameters: Designator = "C3" ("C5"); Footprint = "CAPC0603X33N"; UniqueID = "\DCIEIHLL" ("\DCIEIHLL")
Change component parameters (AddParameter): Name = "DeviceName"; Value = ""; VariantName = "[No Variations]"
Change component parameters (AddParameter): Name = "DeviceSetName"; Value = "GRM033R61C104KE14D"; VariantName = "[No Variations]"
Change component parameters (AddParameter): Name = "GateName_1"; Value = "G$1"; VariantName = "[No Variations]"
Change component parameters (AddParameter): Name = "HEIGHT"; Value = "0.33mm"; VariantName = "[No Variations]"
Change component parameters (AddParameter): Name = "LibraryName"; Value = "SamacSys_Parts"; VariantName = "[No Variations]"
Change component parameters (AddParameter): Name = "MANUFACTURER_NAME"; Value = "Murata Electronics"; VariantName = "[No Variations]"
Change component parameters (AddParameter): Name = "MANUFACTURER_PART_NUMBER"; Value = "GRM033R61C104KE14D"; VariantName = "[No Variations]"
Change component parameters (AddParameter): Name = "MOUSER_PART_NUMBER"; Value = "81-GRM033R61C104KE4D"; VariantName = "[No Variations]"
Change component parameters (AddParameter): Name = "MOUSER_PRICE-STOCK"; Value = "https://www.mouser.com/Search/Refine.aspx?Keyword=81-GRM033R61C104KE4D"; VariantName = "[No Variations]"
Change component parameters (AddParameter): Name = "SymbolName_1"; Value = "GRM033R61C104KE14D"; VariantName = "[No Variations]"
Change component parameters: Designator = "C4" ("C9"); Footprint = "CAPC0603X33N"; UniqueID = "\SSPNNARJ" ("\SSPNNARJ")
Change component parameters (AddParameter): Name = "DeviceName"; Value = ""; VariantName = "[No Variations]"
Change component parameters (AddParameter): Name = "DeviceSetName"; Value = "GRM033R61C104KE14D"; VariantName = "[No Variations]"
Change component parameters (AddParameter): Name = "GateName_1"; Value = "G$1"; VariantName = "[No Variations]"
Change component parameters (AddParameter): Name = "HEIGHT"; Value = "0.33mm"; VariantName = "[No Variations]"
Change component parameters (AddParameter): Name = "LibraryName"; Value = "SamacSys_Parts"; VariantName = "[No Variations]"
Change component parameters (AddParameter): Name = "MANUFACTURER_NAME"; Value = "Murata Electronics"; VariantName = "[No Variations]"
Change component parameters (AddParameter): Name = "MANUFACTURER_PART_NUMBER"; Value = "GRM033R61C104KE14D"; VariantName = "[No Variations]"
Change component parameters (AddParameter): Name = "MOUSER_PART_NUMBER"; Value = "81-GRM033R61C104KE4D"; VariantName = "[No Variations]"
Change component parameters (AddParameter): Name = "MOUSER_PRICE-STOCK"; Value = "https://www.mouser.com/Search/Refine.aspx?Keyword=81-GRM033R61C104KE4D"; VariantName = "[No Variations]"
Change component parameters (AddParameter): Name = "SymbolName_1"; Value = "GRM033R61C104KE14D"; VariantName = "[No Variations]"
Change component parameters: Designator = "C6" ("C6"); Footprint = "CAPC0603X33N"; UniqueID = "\BGXHHRRL" ("\BGXHHRRL")
Change component parameters (AddParameter): Name = "DeviceName"; Value = ""; VariantName = "[No Variations]"
Change component parameters (AddParameter): Name = "DeviceSetName"; Value = "GRM033R61A225KE47J"; VariantName = "[No Variations]"
Change component parameters (AddParameter): Name = "GateName_1"; Value = "G$1"; VariantName = "[No Variations]"
Change component parameters (AddParameter): Name = "HEIGHT"; Value = "0.33mm"; VariantName = "[No Variations]"
Change component parameters (AddParameter): Name = "LibraryName"; Value = "SamacSys_Parts"; VariantName = "[No Variations]"
Change component parameters (AddParameter): Name = "MANUFACTURER_NAME"; Value = "Murata Electronics"; VariantName = "[No Variations]"
Change component parameters (AddParameter): Name = "MANUFACTURER_PART_NUMBER"; Value = "GRM033R61A225KE47J"; VariantName = "[No Variations]"
Change component parameters (AddParameter): Name = "MOUSER_PART_NUMBER"; Value = "81-GRM033R61A225KE7J"; VariantName = "[No Variations]"
Change component parameters (AddParameter): Name = "MOUSER_PRICE-STOCK"; Value = "https://www.mouser.com/Search/Refine.aspx?Keyword=81-GRM033R61A225KE7J"; VariantName = "[No Variations]"
Change component parameters (AddParameter): Name = "SymbolName_1"; Value = "GRM033R61A225KE47J"; VariantName = "[No Variations]"
Change component parameters: Designator = "C7" ("C8"); Footprint = "CAPC0603X33N"; UniqueID = "\YMTJTYEX" ("\YMTJTYEX")
Change component parameters (AddParameter): Name = "DeviceName"; Value = ""; VariantName = "[No Variations]"
Change component parameters (AddParameter): Name = "DeviceSetName"; Value = "GRM033R61A225KE47J"; VariantName = "[No Variations]"
Change component parameters (AddParameter): Name = "GateName_1"; Value = "G$1"; VariantName = "[No Variations]"
Change component parameters (AddParameter): Name = "HEIGHT"; Value = "0.33mm"; VariantName = "[No Variations]"
Change component parameters (AddParameter): Name = "LibraryName"; Value = "SamacSys_Parts"; VariantName = "[No Variations]"
Change component parameters (AddParameter): Name = "MANUFACTURER_NAME"; Value = "Murata Electronics"; VariantName = "[No Variations]"
Change component parameters (AddParameter): Name = "MANUFACTURER_PART_NUMBER"; Value = "GRM033R61A225KE47J"; VariantName = "[No Variations]"
Change component parameters (AddParameter): Name = "MOUSER_PART_NUMBER"; Value = "81-GRM033R61A225KE7J"; VariantName = "[No Variations]"
Change component parameters (AddParameter): Name = "MOUSER_PRICE-STOCK"; Value = "https://www.mouser.com/Search/Refine.aspx?Keyword=81-GRM033R61A225KE7J"; VariantName = "[No Variations]"
Change component parameters (AddParameter): Name = "SymbolName_1"; Value = "GRM033R61A225KE47J"; VariantName = "[No Variations]"
Change component parameters: Designator = "C9" ("C1"); Footprint = "CAPC0603X33N"; UniqueID = "\GPELTUEK" ("\GPELTUEK")
Change component parameters (AddParameter): Name = "DeviceName"; Value = ""; VariantName = "[No Variations]"
Change component parameters (AddParameter): Name = "DeviceSetName"; Value = "GRM033R61C104KE14D"; VariantName = "[No Variations]"
Change component parameters (AddParameter): Name = "GateName_1"; Value = "G$1"; VariantName = "[No Variations]"
Change component parameters (AddParameter): Name = "HEIGHT"; Value = "0.33mm"; VariantName = "[No Variations]"
Change component parameters (AddParameter): Name = "LibraryName"; Value = "SamacSys_Parts"; VariantName = "[No Variations]"
Change component parameters (AddParameter): Name = "MANUFACTURER_NAME"; Value = "Murata Electronics"; VariantName = "[No Variations]"
Change component parameters (AddParameter): Name = "MANUFACTURER_PART_NUMBER"; Value = "GRM033R61C104KE14D"; VariantName = "[No Variations]"
Change component parameters (AddParameter): Name = "MOUSER_PART_NUMBER"; Value = "81-GRM033R61C104KE4D"; VariantName = "[No Variations]"
Change component parameters (AddParameter): Name = "MOUSER_PRICE-STOCK"; Value = "https://www.mouser.com/Search/Refine.aspx?Keyword=81-GRM033R61C104KE4D"; VariantName = "[No Variations]"
Change component parameters (AddParameter): Name = "SymbolName_1"; Value = "GRM033R61C104KE14D"; VariantName = "[No Variations]"
Change component parameters: Designator = "IC4" ("IC4"); Footprint = "QFP40P1600X1600X120-128N"; UniqueID = "\IRHOBKAY" ("\IRHOBKAY")
Change component parameters (AddParameter): Name = "DeviceName"; Value = ""; VariantName = "[No Variations]"
Change component parameters (AddParameter): Name = "DeviceSetName"; Value = "MSP432E401YTPDTR"; VariantName = "[No Variations]"
Change component parameters (AddParameter): Name = "GateName_1"; Value = "G$1"; VariantName = "[No Variations]"
Change component parameters (AddParameter): Name = "HEIGHT"; Value = "1.2mm"; VariantName = "[No Variations]"
Change component parameters (AddParameter): Name = "LibraryName"; Value = "SamacSys_Parts"; VariantName = "[No Variations]"
Change component parameters (AddParameter): Name = "MANUFACTURER_NAME"; Value = "Texas Instruments"; VariantName = "[No Variations]"
Change component parameters (AddParameter): Name = "MANUFACTURER_PART_NUMBER"; Value = "MSP432E401YTPDTR"; VariantName = "[No Variations]"
Change component parameters (AddParameter): Name = "MOUSER_PART_NUMBER"; Value = "595-MSP432E401YTPDTR"; VariantName = "[No Variations]"
Change component parameters (AddParameter): Name = "MOUSER_PRICE-STOCK"; Value = "https://www.mouser.com/Search/Refine.aspx?Keyword=595-MSP432E401YTPDTR"; VariantName = "[No Variations]"
Change component parameters (AddParameter): Name = "SymbolName_1"; Value = "MSP432E401YTPDTR"; VariantName = "[No Variations]"
Change component parameters: Designator = "J4" ("J4"); Footprint = "PJS008-2003-0"; UniqueID = "\WRYTOKCA" ("\WRYTOKCA")
Change component parameters (AddParameter): Name = "DeviceName"; Value = ""; VariantName = "[No Variations]"
Change component parameters (AddParameter): Name = "DeviceSetName"; Value = "PJS008-2003-0"; VariantName = "[No Variations]"
Change component parameters (AddParameter): Name = "GateName_1"; Value = "G$1"; VariantName = "[No Variations]"
Change component parameters (AddParameter): Name = "HEIGHT"; Value = "mm"; VariantName = "[No Variations]"
Change component parameters (AddParameter): Name = "LibraryName"; Value = "SamacSys_Parts"; VariantName = "[No Variations]"
Change component parameters (AddParameter): Name = "MANUFACTURER_NAME"; Value = "Yamaichi"; VariantName = "[No Variations]"
Change component parameters (AddParameter): Name = "MANUFACTURER_PART_NUMBER"; Value = "PJS008-2003-0"; VariantName = "[No Variations]"
Change component parameters (AddParameter): Name = "MOUSER_PART_NUMBER"; Value = "945-PJS008-2003-0"; VariantName = "[No Variations]"
Change component parameters (AddParameter): Name = "MOUSER_PRICE-STOCK"; Value = "https://www.mouser.com/Search/Refine.aspx?Keyword=945-PJS008-2003-0"; VariantName = "[No Variations]"
Change component parameters (AddParameter): Name = "SymbolName_1"; Value = "PJS008-2003-0"; VariantName = "[No Variations]"
Change component parameters: Designator = "Q1" ("Q1"); Footprint = "SOT65P210X110-6N"; UniqueID = "\CAAJUPPL" ("\CAAJUPPL")
Change component parameters (AddParameter): Name = "DeviceName"; Value = ""; VariantName = "[No Variations]"
Change component parameters (AddParameter): Name = "DeviceSetName"; Value = "NTJD5121NT1G"; VariantName = "[No Variations]"
Change component parameters (AddParameter): Name = "GateName_1"; Value = "G$1"; VariantName = "[No Variations]"
Change component parameters (AddParameter): Name = "HEIGHT"; Value = "1.1mm"; VariantName = "[No Variations]"
Change component parameters (AddParameter): Name = "LibraryName"; Value = "SamacSys_Parts"; VariantName = "[No Variations]"
Change component parameters (AddParameter): Name = "MANUFACTURER_NAME"; Value = "ON Semiconductor"; VariantName = "[No Variations]"
Change component parameters (AddParameter): Name = "MANUFACTURER_PART_NUMBER"; Value = "NTJD5121NT1G"; VariantName = "[No Variations]"
Change component parameters (AddParameter): Name = "MOUSER_PART_NUMBER"; Value = "863-NTJD5121NT1G"; VariantName = "[No Variations]"
Change component parameters (AddParameter): Name = "MOUSER_PRICE-STOCK"; Value = "https://www.mouser.com/Search/Refine.aspx?Keyword=863-NTJD5121NT1G"; VariantName = "[No Variations]"
Change component parameters (AddParameter): Name = "SymbolName_1"; Value = "NTJD5121NT1G"; VariantName = "[No Variations]"
Change component parameters: Designator = "Q7" ("Q7"); Footprint = "SOT65P210X110-6N"; UniqueID = "\THJVEULL" ("\THJVEULL")
Change component parameters (AddParameter): Name = "DeviceName"; Value = ""; VariantName = "[No Variations]"
Change component parameters (AddParameter): Name = "DeviceSetName"; Value = "NTJD5121NT1G"; VariantName = "[No Variations]"
Change component parameters (AddParameter): Name = "GateName_1"; Value = "G$1"; VariantName = "[No Variations]"
Change component parameters (AddParameter): Name = "HEIGHT"; Value = "1.1mm"; VariantName = "[No Variations]"
Change component parameters (AddParameter): Name = "LibraryName"; Value = "SamacSys_Parts"; VariantName = "[No Variations]"
Change component parameters (AddParameter): Name = "MANUFACTURER_NAME"; Value = "ON Semiconductor"; VariantName = "[No Variations]"
Change component parameters (AddParameter): Name = "MANUFACTURER_PART_NUMBER"; Value = "NTJD5121NT1G"; VariantName = "[No Variations]"
Change component parameters (AddParameter): Name = "MOUSER_PART_NUMBER"; Value = "863-NTJD5121NT1G"; VariantName = "[No Variations]"
Change component parameters (AddParameter): Name = "MOUSER_PRICE-STOCK"; Value = "https://www.mouser.com/Search/Refine.aspx?Keyword=863-NTJD5121NT1G"; VariantName = "[No Variations]"
Change component parameters (AddParameter): Name = "SymbolName_1"; Value = "NTJD5121NT1G"; VariantName = "[No Variations]"
Change component parameters: Designator = "R1" ("R1"); Footprint = "RESC0603X28N"; UniqueID = "\TUKWKWTC" ("\TUKWKWTC")
Change component parameters (AddParameter): Name = "DeviceName"; Value = ""; VariantName = "[No Variations]"
Change component parameters (AddParameter): Name = "DeviceSetName"; Value = "CPF0201D10KC1"; VariantName = "[No Variations]"
Change component parameters (AddParameter): Name = "GateName_1"; Value = "G$1"; VariantName = "[No Variations]"
Change component parameters (AddParameter): Name = "HEIGHT"; Value = "0.28mm"; VariantName = "[No Variations]"
Change component parameters (AddParameter): Name = "LibraryName"; Value = "SamacSys_Parts"; VariantName = "[No Variations]"
Change component parameters (AddParameter): Name = "MANUFACTURER_NAME"; Value = "TE Connectivity"; VariantName = "[No Variations]"
Change component parameters (AddParameter): Name = "MANUFACTURER_PART_NUMBER"; Value = "CPF0201D10KC1"; VariantName = "[No Variations]"
Change component parameters (AddParameter): Name = "MOUSER_PART_NUMBER"; Value = "279-CPF0201D10KC1"; VariantName = "[No Variations]"
Change component parameters (AddParameter): Name = "MOUSER_PRICE-STOCK"; Value = "https://www.mouser.com/Search/Refine.aspx?Keyword=279-CPF0201D10KC1"; VariantName = "[No Variations]"
Change component parameters (AddParameter): Name = "SymbolName_1"; Value = "CPF0201D10KC1"; VariantName = "[No Variations]"
Change component parameters: Designator = "R2" ("R2"); Footprint = "RESC1005X40N"; UniqueID = "\JAONGABA" ("\JAONGABA")
Change component parameters (AddParameter): Name = "DeviceName"; Value = ""; VariantName = "[No Variations]"
Change component parameters (AddParameter): Name = "DeviceSetName"; Value = "RN73R1ETTP1001F50"; VariantName = "[No Variations]"
Change component parameters (AddParameter): Name = "GateName_1"; Value = "G$1"; VariantName = "[No Variations]"
Change component parameters (AddParameter): Name = "HEIGHT"; Value = "0.4mm"; VariantName = "[No Variations]"
Change component parameters (AddParameter): Name = "LibraryName"; Value = "SamacSys_Parts"; VariantName = "[No Variations]"
Change component parameters (AddParameter): Name = "MANUFACTURER_NAME"; Value = "KOA Speer"; VariantName = "[No Variations]"
Change component parameters (AddParameter): Name = "MANUFACTURER_PART_NUMBER"; Value = "RN73R1ETTP1001F50"; VariantName = "[No Variations]"
Change component parameters (AddParameter): Name = "MOUSER_PART_NUMBER"; Value = "MOUSER_PART_NUMBER"; VariantName = "[No Variations]"
Change component parameters (AddParameter): Name = "MOUSER_PRICE-STOCK"; Value = "MOUSER_PRICE-STOCK"; VariantName = "[No Variations]"
Change component parameters (AddParameter): Name = "SymbolName_1"; Value = "RN73R1ETTP1001F50"; VariantName = "[No Variations]"
Change component parameters: Designator = "R4" ("R4"); Footprint = "RESC0603X28N"; UniqueID = "\HTASDSMQ" ("\HTASDSMQ")
Change component parameters (AddParameter): Name = "DeviceName"; Value = ""; VariantName = "[No Variations]"
Change component parameters (AddParameter): Name = "DeviceSetName"; Value = "CPF0201D10KC1"; VariantName = "[No Variations]"
Change component parameters (AddParameter): Name = "GateName_1"; Value = "G$1"; VariantName = "[No Variations]"
Change component parameters (AddParameter): Name = "HEIGHT"; Value = "0.28mm"; VariantName = "[No Variations]"
Change component parameters (AddParameter): Name = "LibraryName"; Value = "SamacSys_Parts"; VariantName = "[No Variations]"
Change component parameters (AddParameter): Name = "MANUFACTURER_NAME"; Value = "TE Connectivity"; VariantName = "[No Variations]"
Change component parameters (AddParameter): Name = "MANUFACTURER_PART_NUMBER"; Value = "CPF0201D10KC1"; VariantName = "[No Variations]"
Change component parameters (AddParameter): Name = "MOUSER_PART_NUMBER"; Value = "279-CPF0201D10KC1"; VariantName = "[No Variations]"
Change component parameters (AddParameter): Name = "MOUSER_PRICE-STOCK"; Value = "https://www.mouser.com/Search/Refine.aspx?Keyword=279-CPF0201D10KC1"; VariantName = "[No Variations]"
Change component parameters (AddParameter): Name = "SymbolName_1"; Value = "CPF0201D10KC1"; VariantName = "[No Variations]"
Change component parameters: Designator = "R6" ("R6"); Footprint = "RESC1005X40N"; UniqueID = "\VDHLEDNR" ("\VDHLEDNR")
Change component parameters (AddParameter): Name = "DeviceName"; Value = ""; VariantName = "[No Variations]"
Change component parameters (AddParameter): Name = "DeviceSetName"; Value = "RN73R1ETTP1001F50"; VariantName = "[No Variations]"
Change component parameters (AddParameter): Name = "GateName_1"; Value = "G$1"; VariantName = "[No Variations]"
Change component parameters (AddParameter): Name = "HEIGHT"; Value = "0.4mm"; VariantName = "[No Variations]"
Change component parameters (AddParameter): Name = "LibraryName"; Value = "SamacSys_Parts"; VariantName = "[No Variations]"
Change component parameters (AddParameter): Name = "MANUFACTURER_NAME"; Value = "KOA Speer"; VariantName = "[No Variations]"
Change component parameters (AddParameter): Name = "MANUFACTURER_PART_NUMBER"; Value = "RN73R1ETTP1001F50"; VariantName = "[No Variations]"
Change component parameters (AddParameter): Name = "MOUSER_PART_NUMBER"; Value = "MOUSER_PART_NUMBER"; VariantName = "[No Variations]"
Change component parameters (AddParameter): Name = "MOUSER_PRICE-STOCK"; Value = "MOUSER_PRICE-STOCK"; VariantName = "[No Variations]"
Change component parameters (AddParameter): Name = "SymbolName_1"; Value = "RN73R1ETTP1001F50"; VariantName = "[No Variations]"
Change component parameters: Designator = "R8" ("R8"); Footprint = "RESC1005X40N"; UniqueID = "\FPSBPRBN" ("\FPSBPRBN")
Change component parameters (AddParameter): Name = "DeviceName"; Value = ""; VariantName = "[No Variations]"
Change component parameters (AddParameter): Name = "DeviceSetName"; Value = "RN73R1ETTP1001F50"; VariantName = "[No Variations]"
Change component parameters (AddParameter): Name = "GateName_1"; Value = "G$1"; VariantName = "[No Variations]"
Change component parameters (AddParameter): Name = "HEIGHT"; Value = "0.4mm"; VariantName = "[No Variations]"
Change component parameters (AddParameter): Name = "LibraryName"; Value = "SamacSys_Parts"; VariantName = "[No Variations]"
Change component parameters (AddParameter): Name = "MANUFACTURER_NAME"; Value = "KOA Speer"; VariantName = "[No Variations]"
Change component parameters (AddParameter): Name = "MANUFACTURER_PART_NUMBER"; Value = "RN73R1ETTP1001F50"; VariantName = "[No Variations]"
Change component parameters (AddParameter): Name = "MOUSER_PART_NUMBER"; Value = "MOUSER_PART_NUMBER"; VariantName = "[No Variations]"
Change component parameters (AddParameter): Name = "MOUSER_PRICE-STOCK"; Value = "MOUSER_PRICE-STOCK"; VariantName = "[No Variations]"
Change component parameters (AddParameter): Name = "SymbolName_1"; Value = "RN73R1ETTP1001F50"; VariantName = "[No Variations]"
Change component parameters: Designator = "RT1" ("RT1"); Footprint = "THRMC1005X55N"; UniqueID = "\TOLRJCXW" ("\TOLRJCXW")
Change component parameters (AddParameter): Name = "DeviceName"; Value = ""; VariantName = "[No Variations]"
Change component parameters (AddParameter): Name = "DeviceSetName"; Value = "NCU15XH103D6SRC"; VariantName = "[No Variations]"
Change component parameters (AddParameter): Name = "GateName_1"; Value = "G$1"; VariantName = "[No Variations]"
Change component parameters (AddParameter): Name = "HEIGHT"; Value = "0.55mm"; VariantName = "[No Variations]"
Change component parameters (AddParameter): Name = "LibraryName"; Value = "SamacSys_Parts"; VariantName = "[No Variations]"
Change component parameters (AddParameter): Name = "MANUFACTURER_NAME"; Value = "Murata Electronics"; VariantName = "[No Variations]"
Change component parameters (AddParameter): Name = "MANUFACTURER_PART_NUMBER"; Value = "NCU15XH103D6SRC"; VariantName = "[No Variations]"
Change component parameters (AddParameter): Name = "MOUSER_PART_NUMBER"; Value = "81-NCU15XH103D6SRC"; VariantName = "[No Variations]"
Change component parameters (AddParameter): Name = "MOUSER_PRICE-STOCK"; Value = "https://www.mouser.com/Search/Refine.aspx?Keyword=81-NCU15XH103D6SRC"; VariantName = "[No Variations]"
Change component parameters (AddParameter): Name = "SymbolName_1"; Value = "NCU15XH103D6SRC"; VariantName = "[No Variations]"
Change component parameters: Designator = "X1" ("X1"); Footprint = "32005-301"; UniqueID = "\AOXOAIOU" ("\AOXOAIOU")
Change component parameters (AddParameter): Name = "DeviceName"; Value = "32005-301"; VariantName = "[No Variations]"
Change component parameters (AddParameter): Name = "DeviceSetName"; Value = "MINI-USB-"; VariantName = "[No Variations]"
Change component parameters (AddParameter): Name = "GateName_1"; Value = "G$1"; VariantName = "[No Variations]"
Change component parameters (AddParameter): Name = "LibraryName"; Value = "con-cypressindustries"; VariantName = "[No Variations]"
Change component parameters (AddParameter): Name = "MF"; Value = "MF"; VariantName = "[No Variations]"
Change component parameters (AddParameter): Name = "MPN"; Value = "MPN"; VariantName = "[No Variations]"
Change component parameters (AddParameter): Name = "OC_FARNELL"; Value = "unknown"; VariantName = "[No Variations]"
Change component parameters (AddParameter): Name = "OC_NEWARK"; Value = "unknown"; VariantName = "[No Variations]"
Change component parameters (AddParameter): Name = "POPULARITY"; Value = "0"; VariantName = "[No Variations]"
Change component parameters (AddParameter): Name = "SymbolName_1"; Value = "MINI-USB-5"; VariantName = "[No Variations]"
Change component parameters: Designator = "C2" ("C2"); Footprint = "CAPC1005X55N"; UniqueID = "\LUANFOHK" ("\LUANFOHK")
Change component parameters (AddParameter): Name = "DeviceName"; Value = ""; VariantName = "[No Variations]"
Change component parameters (AddParameter): Name = "DeviceSetName"; Value = "GRM033R61C104KE14D"; VariantName = "[No Variations]"
Change component parameters (AddParameter): Name = "GateName_1"; Value = "G$1"; VariantName = "[No Variations]"
Change component parameters (AddParameter): Name = "HEIGHT"; Value = "0.33mm"; VariantName = "[No Variations]"
Change component parameters (AddParameter): Name = "LibraryName"; Value = "SamacSys_Parts"; VariantName = "[No Variations]"
Change component parameters (AddParameter): Name = "MANUFACTURER_NAME"; Value = "Murata Electronics"; VariantName = "[No Variations]"
Change component parameters (AddParameter): Name = "MANUFACTURER_PART_NUMBER"; Value = "GRM033R61C104KE14D"; VariantName = "[No Variations]"
Change component parameters (AddParameter): Name = "MOUSER_PART_NUMBER"; Value = "81-GRM033R61C104KE4D"; VariantName = "[No Variations]"
Change component parameters (AddParameter): Name = "MOUSER_PRICE-STOCK"; Value = "https://www.mouser.com/Search/Refine.aspx?Keyword=81-GRM033R61C104KE4D"; VariantName = "[No Variations]"
Change component parameters (AddParameter): Name = "Package"; Value = "CAPC0603X33N"; VariantName = "[No Variations]"
Change component parameters (AddParameter): Name = "SymbolName_1"; Value = "GRM033R61C104KE14D"; VariantName = "[No Variations]"
Change component parameters: Designator = "AC1" ("AC1"); Footprint = "QFN50P300X300X150-17N"; UniqueID = "\DBQDXBTB" ("\DBQDXBTB")
Change component parameters (AddParameter): Name = "DeviceName"; Value = ""; VariantName = "[No Variations]"
Change component parameters (AddParameter): Name = "DeviceSetName"; Value = "ADXL377BCPZ-RL7"; VariantName = "[No Variations]"
Change component parameters (AddParameter): Name = "GateName_1"; Value = "G$1"; VariantName = "[No Variations]"
Change component parameters (AddParameter): Name = "HEIGHT"; Value = "1.5mm"; VariantName = "[No Variations]"
Change component parameters (AddParameter): Name = "LibraryName"; Value = "SamacSys_Parts"; VariantName = "[No Variations]"
Change component parameters (AddParameter): Name = "MANUFACTURER_NAME"; Value = "Analog Devices"; VariantName = "[No Variations]"
Change component parameters (AddParameter): Name = "MANUFACTURER_PART_NUMBER"; Value = "ADXL377BCPZ-RL7"; VariantName = "[No Variations]"
Change component parameters (AddParameter): Name = "MOUSER_PART_NUMBER"; Value = "584-ADXL377BCPZ-R7"; VariantName = "[No Variations]"
Change component parameters (AddParameter): Name = "MOUSER_PRICE-STOCK"; Value = "https://www.mouser.com/Search/Refine.aspx?Keyword=584-ADXL377BCPZ-R7"; VariantName = "[No Variations]"
Change component parameters (AddParameter): Name = "RS_PART_NUMBER"; Value = "1832638P"; VariantName = "[No Variations]"
Change component parameters (AddParameter): Name = "RS_PRICE-STOCK"; Value = "http://uk.rs-online.com/web/p/products/1832638P"; VariantName = "[No Variations]"
Change component parameters (AddParameter): Name = "SymbolName_1"; Value = "ADXL377BCPZ-RL7"; VariantName = "[No Variations]"
Added Component: Designator=C3(CAPC0603X33N)
Add component (AddParameter): Name = "DeviceName"; Value = ""; VariantName = "[No Variations]"
Add component (AddParameter): Name = "DeviceSetName"; Value = "GRM033R61C104KE14D"; VariantName = "[No Variations]"
Add component (AddParameter): Name = "GateName_1"; Value = "G$1"; VariantName = "[No Variations]"
Add component (AddParameter): Name = "HEIGHT"; Value = "0.33mm"; VariantName = "[No Variations]"
Add component (AddParameter): Name = "LibraryName"; Value = "SamacSys_Parts"; VariantName = "[No Variations]"
Add component (AddParameter): Name = "MANUFACTURER_NAME"; Value = "Murata Electronics"; VariantName = "[No Variations]"
Add component (AddParameter): Name = "MANUFACTURER_PART_NUMBER"; Value = "GRM033R61C104KE14D"; VariantName = "[No Variations]"
Add component (AddParameter): Name = "MOUSER_PART_NUMBER"; Value = "81-GRM033R61C104KE4D"; VariantName = "[No Variations]"
Add component (AddParameter): Name = "MOUSER_PRICE-STOCK"; Value = "https://www.mouser.com/Search/Refine.aspx?Keyword=81-GRM033R61C104KE4D"; VariantName = "[No Variations]"
Add component (AddParameter): Name = "Package"; Value = "CAPC0603X33N"; VariantName = "[No Variations]"
Add component (AddParameter): Name = "SymbolName_1"; Value = "GRM033R61C104KE14D"; VariantName = "[No Variations]"
Added Component: Designator=C4(CAPC0603X33N)
Add component (AddParameter): Name = "DeviceName"; Value = ""; VariantName = "[No Variations]"
Add component (AddParameter): Name = "DeviceSetName"; Value = "GRM033R61C104KE14D"; VariantName = "[No Variations]"
Add component (AddParameter): Name = "GateName_1"; Value = "G$1"; VariantName = "[No Variations]"
Add component (AddParameter): Name = "HEIGHT"; Value = "0.33mm"; VariantName = "[No Variations]"
Add component (AddParameter): Name = "LibraryName"; Value = "SamacSys_Parts"; VariantName = "[No Variations]"
Add component (AddParameter): Name = "MANUFACTURER_NAME"; Value = "Murata Electronics"; VariantName = "[No Variations]"
Add component (AddParameter): Name = "MANUFACTURER_PART_NUMBER"; Value = "GRM033R61C104KE14D"; VariantName = "[No Variations]"
Add component (AddParameter): Name = "MOUSER_PART_NUMBER"; Value = "81-GRM033R61C104KE4D"; VariantName = "[No Variations]"
Add component (AddParameter): Name = "MOUSER_PRICE-STOCK"; Value = "https://www.mouser.com/Search/Refine.aspx?Keyword=81-GRM033R61C104KE4D"; VariantName = "[No Variations]"
Add component (AddParameter): Name = "Package"; Value = "CAPC0603X33N"; VariantName = "[No Variations]"
Add component (AddParameter): Name = "SymbolName_1"; Value = "GRM033R61C104KE14D"; VariantName = "[No Variations]"
Added Component: Designator=DS1(LITE-ON-LTST-C191KRKT-2_V)
Add component (AddParameter): Name = "Chip Material"; Value = "AlGaInP"; VariantName = "[No Variations]"
Add component (AddParameter): Name = "Datasheet URL"; Value = "http://download.siliconexpert.com/pdfs/2007/08/26/semi_b/manual/lot/ds/ltst-c191kgkt.pdf"; VariantName = "[No Variations]"
Add component (AddParameter): Name = "Datasheet Version"; Value = "Jan-07"; VariantName = "[No Variations]"
Add component (AddParameter): Name = "DELETED"; Value = "Compliant"; VariantName = "[No Variations]"
Add component (AddParameter): Name = "Dominant Wave Length"; Value = "571nm"; VariantName = "[No Variations]"
Add component (AddParameter): Name = "Emitting Color"; Value = "YellowGreen"; VariantName = "[No Variations]"
Add component (AddParameter): Name = "Forward Current"; Value = "30mA"; VariantName = "[No Variations]"
Add component (AddParameter): Name = "Forward Voltage"; Value = "2.4V"; VariantName = "[No Variations]"
Add component (AddParameter): Name = "High Brightness"; Value = "Yes"; VariantName = "[No Variations]"
Add component (AddParameter): Name = "Lens Dimensions"; Value = "1.1X0.8X0.37mm"; VariantName = "[No Variations]"
Add component (AddParameter): Name = "Lum Intensity"; Value = "35mcd"; VariantName = "[No Variations]"
Add component (AddParameter): Name = "Luminous Intensity"; Value = "35mcd"; VariantName = "[No Variations]"
Add component (AddParameter): Name = "Main Category"; Value = "ChipLED"; VariantName = "[No Variations]"
Add component (AddParameter): Name = "Manufacturer"; Value = "Lite-On"; VariantName = "[No Variations]"
Add component (AddParameter): Name = "Manufacturer URL"; Value = "http://www.us.liteon.com/"; VariantName = "[No Variations]"
Add component (AddParameter): Name = "Mounting"; Value = "SurfaceMount"; VariantName = "[No Variations]"
Add component (AddParameter): Name = "Number of Elements"; Value = "1"; VariantName = "[No Variations]"
Add component (AddParameter): Name = "Operating Temp Range"; Value = "-55Cto85C"; VariantName = "[No Variations]"
Add component (AddParameter): Name = "Operating Temperature Classification"; Value = "Industrial"; VariantName = "[No Variations]"
Add component (AddParameter): Name = "Package Type"; Value = "ChipLed"; VariantName = "[No Variations]"
Add component (AddParameter): Name = "Packaging"; Value = "TapeandReel"; VariantName = "[No Variations]"
Add component (AddParameter): Name = "Peak Wavelength"; Value = "574nm"; VariantName = "[No Variations]"
Add component (AddParameter): Name = "Pin Count"; Value = "2"; VariantName = "[No Variations]"
Add component (AddParameter): Name = "Power Dissipation"; Value = "75W"; VariantName = "[No Variations]"
Add component (AddParameter): Name = "Product Depth (mm)"; Value = "0.8mm"; VariantName = "[No Variations]"
Add component (AddParameter): Name = "Product Height (mm)"; Value = "0.55mm"; VariantName = "[No Variations]"
Add component (AddParameter): Name = "Product Length (mm)"; Value = "1.6mm"; VariantName = "[No Variations]"
Add component (AddParameter): Name = "Rad Hardened"; Value = "No"; VariantName = "[No Variations]"
Add component (AddParameter): Name = "Reverse Voltage"; Value = "5V"; VariantName = "[No Variations]"
Add component (AddParameter): Name = "Shape Type"; Value = "Rectangular"; VariantName = "[No Variations]"
Add component (AddParameter): Name = "Test Current (It)"; Value = "20mA"; VariantName = "[No Variations]"
Add component (AddParameter): Name = "Type"; Value = "Uni-Color"; VariantName = "[No Variations]"
Add component (AddParameter): Name = "Viewing Angle"; Value = "130deg"; VariantName = "[No Variations]"
Added Component: Designator=D(SODFL260X160X90L70X90N)
Add component (AddParameter): Name = "Availability"; Value = "Unavailable"; VariantName = "[No Variations]"
Add component (AddParameter): Name = "Case/Package"; Value = "SOD-123 Rohm"; VariantName = "[No Variations]"
Add component (AddParameter): Name = "Component Type"; Value = "Standard"; VariantName = "[No Variations]"
Add component (AddParameter): Name = "Design Item ID"; Value = "RB161M-20TR"; VariantName = "[No Variations]"
Add component (AddParameter): Name = "MF"; Value = "Rohm"; VariantName = "[No Variations]"
Add component (AddParameter): Name = "MP"; Value = "RB161M-20TR"; VariantName = "[No Variations]"
Add component (AddParameter): Name = "Pins"; Value = "2"; VariantName = "[No Variations]"
Add component (AddParameter): Name = "Price"; Value = "None"; VariantName = "[No Variations]"
Add component (AddParameter): Name = "SnapEDA_Link"; Value = "https://www.snapeda.com/parts/RB161M-20TR/Rohm/view-part/804629/?ref=snap"; VariantName = "[No Variations]"
Add component (AddParameter): Name = "Source"; Value = "SnapEDAsch.SchLib"; VariantName = "[No Variations]"
Add component (AddParameter): Name = "Value"; Value = ""; VariantName = "[No Variations]"
Added Component: Designator=U?(SOT-23-TT3_N)
Add component (AddParameter): Name = "Code_IPC"; Value = "SOT23-3"; VariantName = "[No Variations]"
Add component (AddParameter): Name = "DatasheetVersion"; Value = "revB, Feb-2007"; VariantName = "[No Variations]"
Add component (AddParameter): Name = "PackageDescription"; Value = "3-Lead Plastic Small Outline Transistor (TT) [SOT-23]"; VariantName = "[No Variations]"
Add component (AddParameter): Name = "PackageReference"; Value = "SOT-23-TT3"; VariantName = "[No Variations]"
Add component (AddParameter): Name = "PackageVersion"; Value = "revBB, Aug-2009"; VariantName = "[No Variations]"
Added Pin To Net: NetName=ACC_Y Pin=C2-1
Added Pin To Net: NetName=ACC_X Pin=C3-1
Added Pin To Net: NetName=GND Pin=C3-2
Added Pin To Net: NetName=ACC_Z Pin=C4-1
Added Pin To Net: NetName=ACC_PWR_FET Pin=C4-2
Added Pin To Net: NetName=GND Pin=DS1-2
Added Pin To Net: NetName=USB Pin=R1-2
Added Pin To Net: NetName=GND Pin=U?-1
Change Net Name : Old Net Name=N$1 New Net Name=NetJ4_12
Change Net Name : Old Net Name=USB New Net Name=NetC7_1
Change Net Name : Old Net Name=VBAT New Net Name=LDO_OUT_3V3
Change Net Color : Old Net Color=RGB(158, 161, 117) New Net Color=RGB(0, 190, 0)
Added Pin To Net: NetName=LDO_VIN Pin=D-1
Added Pin To Net: NetName=LDO_VIN Pin=Q7-3
Added Pin To Net: NetName=LDO_VIN Pin=U?-3
Added Net: Name=LDO_VIN
Added Pin To Net: NetName=NetC9_1 Pin=C9-1
Added Pin To Net: NetName=NetC9_1 Pin=IC4-7
Added Pin To Net: NetName=NetC9_1 Pin=IC4-8
Added Pin To Net: NetName=NetC9_1 Pin=IC4-9
Added Pin To Net: NetName=NetC9_1 Pin=IC4-26
Added Pin To Net: NetName=NetC9_1 Pin=IC4-28
Added Net: Name=NetC9_1
Added Pin To Net: NetName=NetIC4_39 Pin=IC4-39
Added Pin To Net: NetName=NetIC4_39 Pin=IC4-47
Added Pin To Net: NetName=NetIC4_39 Pin=IC4-51
Added Pin To Net: NetName=NetIC4_39 Pin=IC4-52
Added Net: Name=NetIC4_39
Added Pin To Net: NetName=USB_5V_FET_OUT Pin=D-2
Added Pin To Net: NetName=USB_5V_FET_OUT Pin=Q7-6
Added Net: Name=USB_5V_FET_OUT
Added Class: Name=CombinedSystem
Added Room: Name=CombinedSystem
