Added Pin To Net: NetName=GND Pin=C8-2
Added Pin To Net: NetName=PWR_SW_3V3 Pin=DS2-1
Added Pin To Net: NetName=GND Pin=DS2-2
Added Pin To Net: NetName=GND Pin=GYRO-2
Added Pin To Net: NetName=GND Pin=GYRO-3
Added Pin To Net: NetName=GND Pin=GYRO-10
Added Pin To Net: NetName=GND Pin=GYRO-11
Change Net Name : Old Net Name=NetJ4_1 New Net Name=CHG
Change Net Name : Old Net Name=NetJ6_1 New Net Name=LDO_VOUT_3V3
Added Pin To Net: NetName=USB_IN Pin=MAX18-5
Added Net: Name=USB_IN
Added Room: Name=CombinedSystem_p2_2layer.
