%TF.GenerationSoftware,Altium Limited,Altium Designer,20.1.14 (287)*%
G04 Layer_Color=16711935*
%FSLAX45Y45*%
%MOMM*%
%TF.SameCoordinates,6F4D694E-8BFC-4A65-A99F-D966751FDA60*%
%TF.FilePolarity,Positive*%
%TF.FileFunction,Other,Dimension*%
%TF.Part,Single*%
G01*
G75*
%TA.AperFunction,NonConductor*%
%ADD55C,0.25400*%
%ADD74C,0.15240*%
D55*
X25400Y5372100D02*
X7518400D01*
X25400Y12700D02*
X7518400D01*
X7493000Y3162148D02*
Y5372100D01*
Y12700D02*
Y2141372D01*
X7442200Y5219700D02*
X7493000Y5372100D01*
X7543800Y5219700D01*
X7493000Y12700D02*
X7543800Y165100D01*
X7442200D02*
X7493000Y12700D01*
X7048500Y25400D02*
Y5842000D01*
X0Y38100D02*
Y5842000D01*
X4019390Y5816600D02*
X7048500D01*
X0D02*
X2947830D01*
X6896100Y5867400D02*
X7048500Y5816600D01*
X6896100Y5765800D02*
X7048500Y5816600D01*
X0D02*
X152400Y5765800D01*
X0Y5816600D02*
X152400Y5867400D01*
D74*
X7584415Y2283579D02*
Y2182012D01*
X7482848Y2283579D01*
X7457457D01*
X7432065Y2258187D01*
Y2207404D01*
X7457457Y2182012D01*
X7584415Y2334363D02*
Y2385146D01*
Y2359754D01*
X7432065D01*
X7457457Y2334363D01*
X7584415Y2461321D02*
Y2512105D01*
Y2486713D01*
X7432065D01*
X7457457Y2461321D01*
Y2588280D02*
X7432065Y2613672D01*
Y2664456D01*
X7457457Y2689848D01*
X7559023D01*
X7584415Y2664456D01*
Y2613672D01*
X7559023Y2588280D01*
X7457457D01*
X7584415Y2740631D02*
X7559023D01*
Y2766023D01*
X7584415D01*
Y2740631D01*
X7457457Y2867590D02*
X7432065Y2892982D01*
Y2943765D01*
X7457457Y2969157D01*
X7559023D01*
X7584415Y2943765D01*
Y2892982D01*
X7559023Y2867590D01*
X7457457D01*
Y3019941D02*
X7432065Y3045332D01*
Y3096116D01*
X7457457Y3121508D01*
X7559023D01*
X7584415Y3096116D01*
Y3045332D01*
X7559023Y3019941D01*
X7457457D01*
X3090037Y5725185D02*
X2988470D01*
X3090037Y5826752D01*
Y5852143D01*
X3064645Y5877535D01*
X3013862D01*
X2988470Y5852143D01*
X3140821Y5877535D02*
X3242388D01*
Y5852143D01*
X3140821Y5750577D01*
Y5725185D01*
X3293171Y5877535D02*
X3394739D01*
Y5852143D01*
X3293171Y5750577D01*
Y5725185D01*
X3547089Y5877535D02*
X3445522D01*
Y5801360D01*
X3496306Y5826752D01*
X3521698D01*
X3547089Y5801360D01*
Y5750577D01*
X3521698Y5725185D01*
X3470914D01*
X3445522Y5750577D01*
X3597873Y5725185D02*
Y5750577D01*
X3623265D01*
Y5725185D01*
X3597873D01*
X3724832Y5852143D02*
X3750224Y5877535D01*
X3801007D01*
X3826399Y5852143D01*
Y5750577D01*
X3801007Y5725185D01*
X3750224D01*
X3724832Y5750577D01*
Y5852143D01*
X3877182D02*
X3902574Y5877535D01*
X3953358D01*
X3978750Y5852143D01*
Y5750577D01*
X3953358Y5725185D01*
X3902574D01*
X3877182Y5750577D01*
Y5852143D01*
%TF.MD5,b45e94176b214bef480febd40cae4449*%
M02*
