%TF.GenerationSoftware,Altium Limited,Altium Designer,20.1.14 (287)*%
G04 Layer_Color=255*
%FSLAX45Y45*%
%MOMM*%
%TF.SameCoordinates,6F4D694E-8BFC-4A65-A99F-D966751FDA60*%
%TF.FilePolarity,Positive*%
%TF.FileFunction,Pads,Top*%
%TF.Part,Single*%
G01*
G75*
%TA.AperFunction,SMDPad,CuDef*%
%ADD10R,1.45000X1.15000*%
%ADD11R,1.05004X0.40005*%
%ADD12R,0.70000X1.70000*%
%ADD13R,1.55000X1.10000*%
%ADD14R,0.84988X0.29997*%
%ADD15R,0.29997X0.84988*%
%ADD16R,1.70002X1.70002*%
%ADD17R,0.50000X2.30000*%
%ADD18R,2.00000X2.50000*%
%ADD19R,0.35560X0.81280*%
%ADD20R,0.81280X0.35560*%
%ADD21R,3.20040X3.20040*%
%ADD22R,0.24994X0.67488*%
%ADD23R,0.67488X0.24994*%
%ADD24R,0.59995X0.75006*%
%ADD25R,1.50000X0.60000*%
G04:AMPARAMS|DCode=26|XSize=1.07mm|YSize=1.03mm|CornerRadius=0.27295mm|HoleSize=0mm|Usage=FLASHONLY|Rotation=180.000|XOffset=0mm|YOffset=0mm|HoleType=Round|Shape=RoundedRectangle|*
%AMROUNDEDRECTD26*
21,1,1.07000,0.48410,0,0,180.0*
21,1,0.52410,1.03000,0,0,180.0*
1,1,0.54590,-0.26205,0.24205*
1,1,0.54590,0.26205,0.24205*
1,1,0.54590,0.26205,-0.24205*
1,1,0.54590,-0.26205,-0.24205*
%
%ADD26ROUNDEDRECTD26*%
%TA.AperFunction,ComponentPad*%
%ADD29R,1.60000X1.60000*%
%ADD30C,1.60000*%
%ADD31C,1.30000*%
%ADD32R,1.30000X1.30000*%
%ADD33C,1.68000*%
%ADD34C,1.57480*%
%ADD35R,1.30000X1.30000*%
%ADD36R,1.60000X1.60000*%
%ADD37C,0.60000*%
G04:AMPARAMS|DCode=38|XSize=3.1496mm|YSize=3.1496mm|CornerRadius=0mm|HoleSize=0mm|Usage=FLASHONLY|Rotation=90.000|XOffset=0mm|YOffset=0mm|HoleType=Round|Shape=Octagon|*
%AMOCTAGOND38*
4,1,8,0.78740,1.57480,-0.78740,1.57480,-1.57480,0.78740,-1.57480,-0.78740,-0.78740,-1.57480,0.78740,-1.57480,1.57480,-0.78740,1.57480,0.78740,0.78740,1.57480,0.0*
%
%ADD38OCTAGOND38*%

D10*
X1054100Y4061196D02*
D03*
Y3886200D02*
D03*
X5334000Y1296800D02*
D03*
Y1471800D02*
D03*
D11*
X3524504Y2731999D02*
D03*
Y2667000D02*
D03*
Y2602001D02*
D03*
X3714496D02*
D03*
Y2667000D02*
D03*
Y2731999D02*
D03*
X5022596Y3392399D02*
D03*
Y3327400D02*
D03*
Y3262401D02*
D03*
X4832604D02*
D03*
Y3327400D02*
D03*
Y3392399D02*
D03*
D12*
X3530600Y1384300D02*
D03*
X3784600D02*
D03*
X4038600D02*
D03*
D13*
X3233100Y1189797D02*
D03*
Y808797D02*
D03*
X4208104D02*
D03*
Y1189797D02*
D03*
D14*
X5392196Y2195906D02*
D03*
Y2145894D02*
D03*
Y2095906D02*
D03*
Y2045894D02*
D03*
X5682214D02*
D03*
Y2095906D02*
D03*
Y2145894D02*
D03*
Y2195906D02*
D03*
D15*
X5462199Y1975891D02*
D03*
X5512211D02*
D03*
X5562199D02*
D03*
X5612211D02*
D03*
Y2265909D02*
D03*
X5562199D02*
D03*
X5512211D02*
D03*
X5462199D02*
D03*
D16*
X5537205Y2120900D02*
D03*
D17*
X2003100Y856899D02*
D03*
X2083100D02*
D03*
X2163100D02*
D03*
X2243099D02*
D03*
X2323099D02*
D03*
D18*
X1718102Y846902D02*
D03*
X2608102D02*
D03*
X1718102Y296901D02*
D03*
X2608102D02*
D03*
D19*
X1440790Y4715510D02*
D03*
X1360805D02*
D03*
X1280795D02*
D03*
X1200810D02*
D03*
Y4225290D02*
D03*
X1280795D02*
D03*
X1360805D02*
D03*
X1440790D02*
D03*
D20*
X1075690Y4590390D02*
D03*
Y4510405D02*
D03*
Y4430395D02*
D03*
Y4350410D02*
D03*
X1565910D02*
D03*
Y4430395D02*
D03*
Y4510405D02*
D03*
Y4590390D02*
D03*
D21*
X1320800Y4470400D02*
D03*
D22*
X4838294Y4507738D02*
D03*
X4888306D02*
D03*
X4788306D02*
D03*
X4738294D02*
D03*
X4888306Y4255262D02*
D03*
X4838294D02*
D03*
X4788306D02*
D03*
X4738294D02*
D03*
D23*
X4914544Y4431513D02*
D03*
Y4381500D02*
D03*
Y4331487D02*
D03*
X4712056Y4431513D02*
D03*
Y4381500D02*
D03*
Y4331487D02*
D03*
D24*
X1117600Y3623691D02*
D03*
Y3513709D02*
D03*
D25*
X3193801Y4362699D02*
D03*
Y4552701D02*
D03*
X3003799Y4457700D02*
D03*
D26*
X3132999Y2743200D02*
D03*
X2836001D02*
D03*
D29*
X2425700Y3275899D02*
D03*
X508000Y3606800D02*
D03*
D30*
X2425700Y4775901D02*
D03*
X508000Y5106802D02*
D03*
X6757101Y5067300D02*
D03*
Y4648200D02*
D03*
X4648200Y1104900D02*
D03*
X3835400Y5067300D02*
D03*
X5067300Y1473200D02*
D03*
X952500Y5067300D02*
D03*
X914400Y3187700D02*
D03*
X457200D02*
D03*
X5537200Y2806700D02*
D03*
X4076700Y3556000D02*
D03*
X1993900Y4737100D02*
D03*
X4648200Y711200D02*
D03*
X4432300Y4787900D02*
D03*
X4813300Y3987800D02*
D03*
X6400800Y215900D02*
D03*
X4660900Y5118100D02*
D03*
X5676900Y4178300D02*
D03*
D31*
X1968500Y4140200D02*
D03*
X5194300Y533400D02*
D03*
X3924300Y3962400D02*
D03*
X3327400Y5067300D02*
D03*
X6692900Y2095500D02*
D03*
X6629400Y1739900D02*
D03*
X6184900D02*
D03*
X6794500Y723900D02*
D03*
X6680200Y2527300D02*
D03*
X3479800Y3517900D02*
D03*
X5194300Y977900D02*
D03*
X2336800Y2717800D02*
D03*
X1778000Y3175000D02*
D03*
X3479800Y3962400D02*
D03*
D32*
X1968500Y3632200D02*
D03*
X3924300Y4470400D02*
D03*
X6629400Y1231900D02*
D03*
X6184900D02*
D03*
D33*
X4660900Y2019300D02*
D03*
X4914900D02*
D03*
X2032000Y1790700D02*
D03*
Y2044700D02*
D03*
D34*
X3771900Y1803400D02*
D03*
X3263900D02*
D03*
X5397500Y3657600D02*
D03*
Y3149600D02*
D03*
X4406900Y3632200D02*
D03*
Y3124200D02*
D03*
X4660900Y3733800D02*
D03*
X5168900D02*
D03*
X4584700Y2794000D02*
D03*
X5092700D02*
D03*
X2755900Y2286000D02*
D03*
X3263900D02*
D03*
X3771900Y2044700D02*
D03*
X3263900D02*
D03*
X2641600Y1943100D02*
D03*
Y1435100D02*
D03*
D35*
X5702300Y533400D02*
D03*
X2819400Y5067300D02*
D03*
X6184900Y2095500D02*
D03*
X6286500Y723900D02*
D03*
X6172200Y2527300D02*
D03*
X2971800Y3517900D02*
D03*
X5702300Y977900D02*
D03*
X1828800Y2717800D02*
D03*
X1270000Y3175000D02*
D03*
X2971800Y3962400D02*
D03*
D36*
X5257099Y5067300D02*
D03*
Y4648200D02*
D03*
D37*
X2383099Y596900D02*
D03*
X1943100D02*
D03*
D38*
X1219200Y457200D02*
D03*
X420167D02*
D03*
X711200Y2819400D02*
D03*
%TF.MD5,65c0cea357e1c037ca143cb83070b4b1*%
M02*
