%TF.GenerationSoftware,Altium Limited,Altium Designer,20.1.14 (287)*%
G04 Layer_Color=16711935*
%FSLAX45Y45*%
%MOMM*%
%TF.SameCoordinates,6F4D694E-8BFC-4A65-A99F-D966751FDA60*%
%TF.FilePolarity,Positive*%
%TF.FileFunction,Other,tValues*%
%TF.Part,Single*%
G01*
G75*
%TF.MD5,d2faad6103d44404cfb28708cd653215*%
M02*
