AC1	46.78	23.41	0.00	ADXL377BCPZ-RL7	QFN50P300X300X150-17N
C1	18.51	29.97	180.00	4.7uF	CAPC0603X55N
C2	18.73	29.02	180.00	1uF	CAPC1005X55N
C3	18.59	26.43	180.00	.1uF	CAPC0603X33N
C4	18.64	24.76	180.00	.1uf	CAPC0603X33N
C6	18.53	28.07	180.00	2.2uF	CAPC0603X33N
C7	18.56	27.25	180.00	2.2uF	CAPC0603X33N
C9	18.59	25.62	180.00	.1uf	CAPC0603X33N
D1	20.92	8.05	90.00	CUS520,H3F	SOD2513X115N
D3	21.02	12.34	90.00	CUS520,H3F	SOD2513X115N
IC4	32.56	17.08	0.00	MSP432E401YTPDTR	QFP40P1600X1600X120-128N
J4	60.07	12.55	0.00	PJS008-2003-0	PJS008-2003-0
LED1	36.92	28.34	90.00	LED-BLUE	0603-BLUE
Q1	46.65	17.25	0.00	nFet3	SOT65P210X110-6N
Q6	16.60	14.25	0.00	nFet2	SOT65P210X110-6N
Q7	16.56	10.17	0.00	nFet1	SOT65P210X110-6N
R1	15.80	29.92	0.00	10k	RESC0603X28N
R2	49.94	10.69	270.00	1k	RESC1005X40N
R3	15.60	28.95	0.00	100k	RESC0603X26N
R4	15.81	28.00	0.00	10k	RESC0603X28N
R5	15.80	27.01	0.00	300k	RESC0603X28N
R6	16.00	25.91	180.00	3k	RESC1005X40N
R7	15.99	24.72	0.00	1k	RESC1005X40N
R8	47.11	13.76	0.00	1k	RESC1005X40N
RT1	11.02	29.34	0.00	10k at 25C	THRMC1005X55N
U1	17.43	19.97	0.00	MAX1874ETE+	21-0140L_T1655-2
U3	46.74	10.66	0.00	GYR	XDCR_BMG250
X1	63.96	25.53	180.00	MINI-USB-32005-301	32005-301
