%TF.GenerationSoftware,Altium Limited,Altium Designer,20.1.14 (287)*%
G04 Layer_Color=128*
%FSLAX45Y45*%
%MOMM*%
%TF.SameCoordinates,D5A835FB-7470-4E95-99DA-6ED893557D25*%
%TF.FilePolarity,Positive*%
%TF.FileFunction,Drillmap*%
%TF.Part,Single*%
G01*
G75*
%TA.AperFunction,NonConductor*%
%ADD58C,0.12700*%
D58*
X4720590Y1651000D02*
X4829810D01*
X4775200Y1596390D02*
Y1705610D01*
X4720590Y2159000D02*
X4829810D01*
X4775200Y2104390D02*
Y2213610D01*
X2439699Y558800D02*
X2529699D01*
X2484699Y513800D02*
Y603800D01*
X1999700Y558800D02*
X2089700D01*
X2044700Y513800D02*
Y603800D01*
X4821800Y939800D02*
X4931800D01*
X4876800Y884800D02*
Y994800D01*
X4022090Y2235200D02*
X4131310D01*
X4076700Y2180590D02*
Y2289810D01*
X4022090Y1727200D02*
X4131310D01*
X4076700Y1672590D02*
Y1781810D01*
X4707890Y2362200D02*
X4817110D01*
X4762500Y2307590D02*
Y2416810D01*
X4199890Y2362200D02*
X4309110D01*
X4254500Y2307590D02*
Y2416810D01*
X4517390Y1447800D02*
X4626610D01*
X4572000Y1393190D02*
Y1502410D01*
X4517390Y939800D02*
X4626610D01*
X4572000Y885190D02*
Y994410D01*
X2688590Y3225800D02*
X2797810D01*
X2743200Y3171190D02*
Y3280410D01*
X3196590Y3225800D02*
X3305810D01*
X3251200Y3171190D02*
Y3280410D01*
X3590290Y1727200D02*
X3699510D01*
X3644900Y1672590D02*
Y1781810D01*
X3082290Y1727200D02*
X3191510D01*
X3136900Y1672590D02*
Y1781810D01*
X3196590Y2755900D02*
X3305810D01*
X3251200Y2701290D02*
Y2810510D01*
X2688590Y2755900D02*
X2797810D01*
X2743200Y2701290D02*
Y2810510D01*
X2904490Y1511300D02*
X3013710D01*
X2959100Y1456690D02*
Y1565910D01*
X2904490Y1003300D02*
X3013710D01*
X2959100Y948690D02*
Y1057910D01*
X4059800Y3035300D02*
X4169800D01*
X4114800Y2980300D02*
Y3090300D01*
X5787000Y254000D02*
X5897000D01*
X5842000Y199000D02*
Y309000D01*
X1127760Y342900D02*
X1259840D01*
X1193800Y276860D02*
Y408940D01*
X328727Y342900D02*
X460807D01*
X394767Y276860D02*
Y408940D01*
X619760Y2705100D02*
X751840D01*
X685800Y2639060D02*
Y2771140D01*
X1659500Y2857500D02*
X1769500D01*
X1714500Y2802500D02*
Y2912500D01*
X1659500Y1460500D02*
X1769500D01*
X1714500Y1405500D02*
Y1515500D01*
X160900Y3048000D02*
X270900D01*
X215900Y2993000D02*
Y3103000D01*
X4948800Y1409700D02*
X5058800D01*
X5003800Y1354700D02*
Y1464700D01*
X3348600Y2209800D02*
X3458600D01*
X3403600Y2154800D02*
Y2264800D01*
X2370700Y2844800D02*
X2480700D01*
X2425700Y2789800D02*
Y2899800D01*
X4567800Y622300D02*
X4677800D01*
X4622800Y567300D02*
Y677300D01*
X4478900Y2590800D02*
X4588900D01*
X4533900Y2535800D02*
Y2645800D01*
X5571100Y2349500D02*
X5681100D01*
X5626100Y2294500D02*
Y2404500D01*
X5012300Y469900D02*
X5122300D01*
X5067300Y414900D02*
Y524900D01*
X4390000Y3162300D02*
X4500000D01*
X4445000Y3107300D02*
Y3217300D01*
X5126600Y2870200D02*
X5236600D01*
X5181600Y2815200D02*
Y2925200D01*
X5400040Y1892300D02*
X5471160D01*
X5435600Y1856740D02*
Y1927860D01*
X5888000Y1282700D02*
X5923000D01*
X5905500Y1265200D02*
Y1300200D01*
X4719600Y1231900D02*
X4754600D01*
X4737100Y1214400D02*
Y1249400D01*
X4447540Y2908300D02*
X4518660D01*
X4483100Y2872740D02*
Y2943860D01*
X5595900Y711200D02*
X5630900D01*
X5613400Y693700D02*
Y728700D01*
X5946140Y2667000D02*
X6017260D01*
X5981700Y2631440D02*
Y2702560D01*
X5095240Y2082800D02*
X5166360D01*
X5130800Y2047240D02*
Y2118360D01*
X2502180Y2211705D02*
X2537180D01*
X2519680Y2194205D02*
Y2229205D01*
X3944900Y2641600D02*
X3979900D01*
X3962400Y2624100D02*
Y2659100D01*
X3944900Y1922780D02*
X3979900D01*
X3962400Y1905280D02*
Y1940280D01*
X2489480Y2131695D02*
X2524480D01*
X2506980Y2114195D02*
Y2149195D01*
%TF.MD5,53615382e3e1c9ffae3104ad22063d99*%
M02*
