%TF.GenerationSoftware,Altium Limited,Altium Designer,20.1.14 (287)*%
G04 Layer_Physical_Order=2*
G04 Layer_Color=16711680*
%FSLAX45Y45*%
%MOMM*%
%TF.SameCoordinates,D5A835FB-7470-4E95-99DA-6ED893557D25*%
%TF.FilePolarity,Positive*%
%TF.FileFunction,Copper,L2,Bot,Signal*%
%TF.Part,Single*%
G01*
G75*
%TA.AperFunction,Conductor*%
%ADD38C,0.25400*%
%ADD39C,0.15240*%
%TA.AperFunction,ComponentPad*%
%ADD40C,1.57480*%
%ADD41C,0.60000*%
%ADD42C,1.60000*%
G04:AMPARAMS|DCode=43|XSize=3.1496mm|YSize=3.1496mm|CornerRadius=0mm|HoleSize=0mm|Usage=FLASHONLY|Rotation=90.000|XOffset=0mm|YOffset=0mm|HoleType=Round|Shape=Octagon|*
%AMOCTAGOND43*
4,1,8,0.78740,1.57480,-0.78740,1.57480,-1.57480,0.78740,-1.57480,-0.78740,-0.78740,-1.57480,0.78740,-1.57480,1.57480,-0.78740,1.57480,0.78740,0.78740,1.57480,0.0*
%
%ADD43OCTAGOND43*%

%TA.AperFunction,ViaPad*%
%ADD44C,1.27000*%
%ADD45C,0.75640*%
%TA.AperFunction,NonConductor*%
%ADD46C,0.20320*%
%ADD47C,0.25400*%
D38*
X5854700Y2311400D02*
Y2590800D01*
X5435600Y1892300D02*
X5854700Y2311400D01*
X4833102Y1892300D02*
X5435600D01*
X4622800Y2102602D02*
X4833102Y1892300D01*
X5839821Y1217021D02*
X5905500Y1282700D01*
X4737100Y1231900D02*
X4800600Y1168400D01*
X5839821D02*
Y1217021D01*
X4483100Y2908300D02*
X4660900D01*
X4749800Y2819400D01*
Y2641600D02*
Y2819400D01*
X4800600Y1168400D02*
X5839821D01*
X4597272Y851028D02*
X4686300Y762000D01*
X4813300Y711200D02*
X5613400D01*
X4686300Y762000D02*
X4762500D01*
X4813300Y711200D01*
X4622800Y2102602D02*
Y2514600D01*
X4749800Y2641600D01*
X4572000Y939800D02*
X4597272Y914528D01*
Y851028D02*
Y914528D01*
X558800Y2705100D02*
X685800D01*
X215900Y3048000D02*
X558800Y2705100D01*
X685800D02*
X934720Y2954020D01*
X2479040D01*
X2519680Y2913380D01*
Y2211705D02*
Y2913380D01*
X3962400Y1922780D02*
Y2641600D01*
X5854700Y2590800D02*
X5943600Y2679700D01*
D39*
X2425700Y2212975D02*
Y2844800D01*
Y2212975D02*
X2506980Y2131695D01*
D40*
X4775200Y1651000D02*
D03*
Y2159000D02*
D03*
X4076700Y2235200D02*
D03*
Y1727200D02*
D03*
X4762500Y2362200D02*
D03*
X4254500D02*
D03*
X4572000Y1447800D02*
D03*
Y939800D02*
D03*
X2743200Y3225800D02*
D03*
X3251200D02*
D03*
X3644900Y1727200D02*
D03*
X3136900D02*
D03*
X3251200Y2755900D02*
D03*
X2743200D02*
D03*
X2959100Y1511300D02*
D03*
Y1003300D02*
D03*
D41*
X2484699Y558800D02*
D03*
X2044700D02*
D03*
D42*
X4876800Y939800D02*
D03*
X4114800Y3035300D02*
D03*
X5842000Y254000D02*
D03*
X1714500Y2857500D02*
D03*
Y1460500D02*
D03*
X215900Y3048000D02*
D03*
X5003800Y1409700D02*
D03*
X3403600Y2209800D02*
D03*
X2425700Y2844800D02*
D03*
X4622800Y622300D02*
D03*
X4533900Y2590800D02*
D03*
X5626100Y2349500D02*
D03*
X5067300Y469900D02*
D03*
X4445000Y3162300D02*
D03*
X5181600Y2870200D02*
D03*
D43*
X1193800Y342900D02*
D03*
X394767D02*
D03*
X685800Y2705100D02*
D03*
D44*
X5435600Y1892300D02*
D03*
X4483100Y2908300D02*
D03*
X5981700Y2667000D02*
D03*
X5130800Y2082800D02*
D03*
D45*
X5905500Y1282700D02*
D03*
X4737100Y1231900D02*
D03*
X5613400Y711200D02*
D03*
X2519680Y2211705D02*
D03*
X3962400Y2641600D02*
D03*
Y1922780D02*
D03*
X2506980Y2131695D02*
D03*
D46*
X5959766Y2663534D02*
G03*
X5966463Y2679700I-16166J16166D01*
G01*
D02*
G03*
X5927434Y2695866I-22863J0D01*
G01*
X4772663Y2819400D02*
G03*
X4765966Y2835566I-22863J0D01*
G01*
X4772663Y2819400D02*
G03*
X4765966Y2835566I-22863J0D01*
G01*
X5838534Y2606966D02*
G03*
X5831837Y2590800I16166J-16166D01*
G01*
X5838534Y2606966D02*
G03*
X5831837Y2590800I16166J-16166D01*
G01*
X4765966Y2625434D02*
G03*
X4772663Y2641600I-16166J16166D01*
G01*
X4765966Y2625434D02*
G03*
X4772663Y2641600I-16166J16166D01*
G01*
X4677066Y2924466D02*
G03*
X4660900Y2931163I-16166J-16166D01*
G01*
X4677066Y2924466D02*
G03*
X4660900Y2931163I-16166J-16166D01*
G01*
X2542543Y2913380D02*
G03*
X2535846Y2929546I-22863J0D01*
G01*
X4483100Y2931163D02*
G03*
X4483100Y2885437I0J-22863D01*
G01*
X4606634Y2530766D02*
G03*
X4599937Y2514600I16166J-16166D01*
G01*
X4606634Y2530766D02*
G03*
X4599937Y2514600I16166J-16166D01*
G01*
X5870866Y2295234D02*
G03*
X5877563Y2311400I-16166J16166D01*
G01*
X5870866Y2295234D02*
G03*
X5877563Y2311400I-16166J16166D01*
G01*
X5435600Y1869437D02*
G03*
X5451766Y1876134I0J22863D01*
G01*
X5435600Y1869437D02*
G03*
X5451766Y1876134I0J22863D01*
G01*
X4624063Y2590800D02*
G03*
X4624063Y2590800I-90163J0D01*
G01*
X2567663Y2211705D02*
G03*
X2542543Y2253891I-47983J0D01*
G01*
X2538734Y2167668D02*
G03*
X2567663Y2211705I-19054J44037D01*
G01*
X4816936Y1876134D02*
G03*
X4833102Y1869437I16166J16166D01*
G01*
X4816936Y1876134D02*
G03*
X4833102Y1869437I16166J16166D01*
G01*
X4599937Y2102602D02*
G03*
X4606634Y2086436I22863J0D01*
G01*
X2554963Y2131695D02*
G03*
X2538734Y2167667I-47983J0D01*
G01*
X4599937Y2102602D02*
G03*
X4606634Y2086436I22863J0D01*
G01*
X2495206Y2970186D02*
G03*
X2479040Y2976883I-16166J-16166D01*
G01*
X2495206Y2970186D02*
G03*
X2479040Y2976883I-16166J-16166D01*
G01*
X2542543Y2913380D02*
G03*
X2535846Y2929546I-22863J0D01*
G01*
X2399783Y2931157D02*
G03*
X2407917Y2756408I25917J-86357D01*
G01*
X1804663Y2857500D02*
G03*
X1766499Y2931157I-90163J0D01*
G01*
X1662501D02*
G03*
X1804663Y2857500I51999J-73657D01*
G01*
X934720Y2976883D02*
G03*
X918554Y2970186I0J-22863D01*
G01*
X934720Y2976883D02*
G03*
X918554Y2970186I0J-22863D01*
G01*
X306063Y3048000D02*
G03*
X261405Y2970163I-90163J0D01*
G01*
X293737Y3002495D02*
G03*
X306063Y3048000I-77837J45505D01*
G01*
X2407917Y2212975D02*
G03*
X2413126Y2200401I17783J0D01*
G01*
X2462893Y2150633D02*
G03*
X2554963Y2131695I44087J-18938D01*
G01*
X2407917Y2212975D02*
G03*
X2413126Y2200401I17783J0D01*
G01*
X5838534Y2606966D02*
X5927434Y2695866D01*
X4772663Y2641600D02*
Y2819400D01*
X5877563Y2581330D02*
X5959766Y2663534D01*
X4645663Y2505130D02*
X4765966Y2625434D01*
X4677066Y2924466D02*
X4765966Y2835566D01*
X4483100Y2931163D02*
X4660900D01*
X4726937Y2651070D02*
Y2809930D01*
X4651430Y2885437D02*
X4726937Y2809930D01*
X4606634Y2530766D02*
X4726937Y2651070D01*
X4483100Y2885437D02*
X4651430D01*
X5877563Y2311400D02*
Y2581330D01*
X6044215Y115523D02*
Y3339115D01*
X5831837Y2320870D02*
Y2590800D01*
X5426130Y1915163D02*
X5831837Y2320870D01*
X5451766Y1876134D02*
X5870866Y2295234D01*
X4842572Y1915163D02*
X5426130D01*
X4645663Y2112072D02*
X4842572Y1915163D01*
X4833102Y1869437D02*
X5435600D01*
X4645663Y2112072D02*
Y2505130D01*
X4599937Y2102602D02*
Y2514600D01*
X2542543Y2253891D02*
Y2913380D01*
X4606634Y2086436D02*
X4816936Y1876134D01*
X2495206Y2970186D02*
X2535846Y2929546D01*
X115285Y3339115D02*
X6044215D01*
X934720Y2976883D02*
X2479040D01*
X944190Y2931157D02*
X1662501D01*
X1766499D02*
X2399783D01*
X827698Y2814665D02*
X944190Y2931157D01*
X795365Y2846998D02*
X918554Y2970186D01*
X293737Y3002495D02*
X518157Y2778075D01*
X769621Y2872743D02*
X795366Y2846998D01*
X601979Y2872743D02*
X769621D01*
X827698Y2814666D02*
X853443Y2788921D01*
X518157D02*
X601979Y2872743D01*
X518157Y2778075D02*
Y2788921D01*
X261405Y2970163D02*
X518157Y2713410D01*
X2413126Y2200401D02*
X2462893Y2150633D01*
X2407917Y2212975D02*
Y2756408D01*
X1097280Y535940D02*
X1290320D01*
X1386840Y246380D02*
Y439420D01*
X1290320Y535940D02*
X1386840Y439420D01*
X1290320Y149860D02*
X1386840Y246380D01*
X1097280Y149860D02*
X1290320D01*
X115285Y127748D02*
X6044215Y115523D01*
X769621Y2537457D02*
X853443Y2621279D01*
Y2788921D01*
X601979Y2537457D02*
X769621D01*
X518157Y2621279D02*
X601979Y2537457D01*
X518157Y2621279D02*
Y2713410D01*
X115285Y127748D02*
Y3339115D01*
X1000760Y439420D02*
X1097280Y535940D01*
X1000760Y246380D02*
Y439420D01*
Y246380D02*
X1097280Y149860D01*
D47*
X1193800Y342900D02*
X1376680D01*
X1193800D02*
Y525780D01*
X1010920Y342900D02*
X1193800D01*
Y160020D02*
Y342900D01*
%TF.MD5,512978de50ecf9c5646e3b01b90a28b0*%
M02*
