%TF.GenerationSoftware,Altium Limited,Altium Designer,20.1.14 (287)*%
G04 Layer_Physical_Order=1*
G04 Layer_Color=255*
%FSLAX45Y45*%
%MOMM*%
%TF.SameCoordinates,D5A835FB-7470-4E95-99DA-6ED893557D25*%
%TF.FilePolarity,Positive*%
%TF.FileFunction,Copper,L1,Top,Signal*%
%TF.Part,Single*%
G01*
G75*
%TA.AperFunction,SMDPad,CuDef*%
%ADD10R,1.35000X1.55000*%
%ADD11R,0.95000X1.35000*%
%ADD12R,1.35000X0.95000*%
%ADD13R,0.84988X0.29997*%
%ADD14R,0.29997X0.84988*%
%ADD15R,1.70002X1.70002*%
%ADD16R,0.50000X2.30000*%
%ADD17R,2.00000X2.50000*%
%ADD18R,0.35560X0.81280*%
%ADD19R,0.81280X0.35560*%
%ADD20R,3.20040X3.20040*%
%ADD21R,1.35000X0.55000*%
%ADD22R,1.50000X1.55000*%
%ADD23R,0.95000X1.35000*%
%ADD24R,1.55000X1.50000*%
%ADD25R,1.35000X1.10000*%
%ADD26R,0.67488X0.24994*%
%ADD27R,0.24994X0.67488*%
%TA.AperFunction,ConnectorPad*%
%ADD28R,1.55000X1.10000*%
%ADD29R,0.70000X1.70000*%
%TA.AperFunction,SMDPad,CuDef*%
%ADD30R,0.59995X0.75006*%
%ADD31R,1.50000X0.60000*%
G04:AMPARAMS|DCode=32|XSize=1.07mm|YSize=1.03mm|CornerRadius=0.27295mm|HoleSize=0mm|Usage=FLASHONLY|Rotation=180.000|XOffset=0mm|YOffset=0mm|HoleType=Round|Shape=RoundedRectangle|*
%AMROUNDEDRECTD32*
21,1,1.07000,0.48410,0,0,180.0*
21,1,0.52410,1.03000,0,0,180.0*
1,1,0.54590,-0.26205,0.24205*
1,1,0.54590,0.26205,0.24205*
1,1,0.54590,0.26205,-0.24205*
1,1,0.54590,-0.26205,-0.24205*
%
%ADD32ROUNDEDRECTD32*%
%ADD33R,0.80000X0.80000*%
%ADD34R,1.05004X0.40005*%
%ADD35R,1.50000X1.25000*%
%ADD36R,1.45000X1.15000*%
%ADD37R,0.80000X0.80000*%
%TA.AperFunction,Conductor*%
%ADD38C,0.25400*%
%ADD39C,0.15240*%
%TA.AperFunction,ComponentPad*%
%ADD40C,1.57480*%
%ADD41C,0.60000*%
%ADD42C,1.60000*%
G04:AMPARAMS|DCode=43|XSize=3.1496mm|YSize=3.1496mm|CornerRadius=0mm|HoleSize=0mm|Usage=FLASHONLY|Rotation=90.000|XOffset=0mm|YOffset=0mm|HoleType=Round|Shape=Octagon|*
%AMOCTAGOND43*
4,1,8,0.78740,1.57480,-0.78740,1.57480,-1.57480,0.78740,-1.57480,-0.78740,-0.78740,-1.57480,0.78740,-1.57480,1.57480,-0.78740,1.57480,0.78740,0.78740,1.57480,0.0*
%
%ADD43OCTAGOND43*%

%TA.AperFunction,ViaPad*%
%ADD44C,1.27000*%
%ADD45C,0.75640*%
D10*
X4936200Y3162300D02*
D03*
X4741200D02*
D03*
X5198400Y3175000D02*
D03*
X5393400D02*
D03*
D11*
X5385999Y469900D02*
D03*
X5536001D02*
D03*
X3859601Y2108200D02*
D03*
X3709599D02*
D03*
X3859601Y2527300D02*
D03*
X3709599D02*
D03*
X5701101Y2692400D02*
D03*
X5551099D02*
D03*
X5701101Y2971800D02*
D03*
X5551099D02*
D03*
X4560499Y342900D02*
D03*
X4710501D02*
D03*
D12*
X5664200Y1484701D02*
D03*
Y1334699D02*
D03*
X4102100Y2528499D02*
D03*
Y2678501D02*
D03*
X5321300Y1484701D02*
D03*
Y1334699D02*
D03*
D13*
X5188991Y1014806D02*
D03*
Y964794D02*
D03*
Y914806D02*
D03*
Y864794D02*
D03*
X5479009D02*
D03*
Y914806D02*
D03*
Y964794D02*
D03*
Y1014806D02*
D03*
D14*
X5258994Y794791D02*
D03*
X5309006D02*
D03*
X5358994D02*
D03*
X5409006D02*
D03*
Y1084809D02*
D03*
X5358994D02*
D03*
X5309006D02*
D03*
X5258994D02*
D03*
D15*
X5334000Y939800D02*
D03*
D16*
X2104700Y818799D02*
D03*
X2184700D02*
D03*
X2264700D02*
D03*
X2344699D02*
D03*
X2424699D02*
D03*
D17*
X1819702Y808802D02*
D03*
X2709702D02*
D03*
X1819702Y258801D02*
D03*
X2709702D02*
D03*
D18*
X2253590Y2416810D02*
D03*
X2173605D02*
D03*
X2093595D02*
D03*
X2013610D02*
D03*
Y1926590D02*
D03*
X2093595D02*
D03*
X2173605D02*
D03*
X2253590D02*
D03*
D19*
X1888490Y2291690D02*
D03*
Y2211705D02*
D03*
Y2131695D02*
D03*
Y2051710D02*
D03*
X2378710D02*
D03*
Y2131695D02*
D03*
Y2211705D02*
D03*
Y2291690D02*
D03*
D20*
X2133600Y2171700D02*
D03*
D21*
X2692400Y1570700D02*
D03*
Y1375700D02*
D03*
D22*
X2780203Y2476500D02*
D03*
X2960202D02*
D03*
D23*
X3704600Y2311400D02*
D03*
X3864600D02*
D03*
D24*
X2451100Y1563202D02*
D03*
Y1383198D02*
D03*
D25*
X2184400Y1530502D02*
D03*
Y1390498D02*
D03*
D26*
X5042662Y2450694D02*
D03*
Y2500706D02*
D03*
Y2400706D02*
D03*
Y2350694D02*
D03*
X5295138Y2500706D02*
D03*
Y2450694D02*
D03*
Y2400706D02*
D03*
Y2350694D02*
D03*
D27*
X5118887Y2526944D02*
D03*
X5168900D02*
D03*
X5218913D02*
D03*
X5118887Y2324456D02*
D03*
X5168900D02*
D03*
X5218913D02*
D03*
D28*
X4234002Y1187496D02*
D03*
Y806496D02*
D03*
X3258998D02*
D03*
Y1187496D02*
D03*
D29*
X4064498Y1381999D02*
D03*
X3810498D02*
D03*
X3556498D02*
D03*
D30*
X2006600Y1515491D02*
D03*
Y1405509D02*
D03*
D31*
X3714501Y2838699D02*
D03*
Y3028701D02*
D03*
X3524499Y2933700D02*
D03*
D32*
X3132999Y3009900D02*
D03*
X2836001D02*
D03*
D33*
X3315899Y1879600D02*
D03*
X3465901D02*
D03*
D34*
X3028696Y2274799D02*
D03*
Y2209800D02*
D03*
Y2144801D02*
D03*
X2838704D02*
D03*
Y2209800D02*
D03*
Y2274799D02*
D03*
X4521200Y1982699D02*
D03*
Y1917700D02*
D03*
Y1852701D02*
D03*
X4331208D02*
D03*
Y1917700D02*
D03*
Y1982699D02*
D03*
D35*
X2095500Y2650901D02*
D03*
Y2860899D02*
D03*
D36*
X2857500Y1754002D02*
D03*
Y1928998D02*
D03*
X1676400Y1752600D02*
D03*
Y1927596D02*
D03*
D37*
X1612900Y2589601D02*
D03*
Y2439599D02*
D03*
D38*
X5435600Y1892300D02*
Y2086927D01*
Y1765300D02*
Y1892300D01*
X5321300Y1651000D02*
X5435600Y1765300D01*
X5256822Y2265705D02*
X5435600Y2086927D01*
X5321300Y1484701D02*
Y1651000D01*
X5118887Y2324456D02*
X5119091Y2324252D01*
Y2094509D02*
Y2324252D01*
Y2094509D02*
X5130800Y2082800D01*
X5384368Y2692400D02*
X5448300Y2756332D01*
X5551099Y2951800D02*
Y2971800D01*
X5448300Y2849001D02*
X5551099Y2951800D01*
X5448300Y2756332D02*
Y2849001D01*
X4936200Y3162300D02*
X4940300Y3158200D01*
X5664200Y1334699D02*
X5853501D01*
X5905500Y1282700D01*
X4597400Y2794000D02*
X4734782D01*
X5021618Y2507164D01*
X4156898Y2583297D02*
X4367601Y2794000D01*
X4597400D01*
X5536001Y469900D02*
Y502920D01*
X4483100Y2908300D02*
X4597400Y2794000D01*
X4762500Y1663700D02*
X4775200Y1651000D01*
X4597400Y1663700D02*
X4762500D01*
X4521200Y1917700D02*
X4553702D01*
X4521200D02*
X4553699D01*
X4775200Y2139201D01*
Y2159000D01*
X5531404Y1334699D02*
X5664200D01*
X5309006Y794791D02*
Y914806D01*
X5358994Y794791D02*
Y914806D01*
X5334000Y939800D02*
X5358994Y914806D01*
X5309006D02*
X5334000Y939800D01*
X5309006Y1084809D02*
X5358994D01*
X5093097Y796395D02*
X5159197Y862495D01*
X5316733Y1120033D02*
X5328976Y1132276D01*
X5461000Y1181100D02*
X5613400Y1028700D01*
X5309006Y1112307D02*
X5316733Y1120033D01*
X5377801Y1181100D02*
X5461000D01*
X5309006Y1084809D02*
Y1112307D01*
X5328976Y1132276D02*
X5377801Y1181100D01*
X5613400Y711200D02*
Y1028700D01*
X3098800Y1460500D02*
Y1612900D01*
X2692400Y1375700D02*
X3014000D01*
X3098800Y1460500D01*
X3048000Y1778000D02*
Y1956161D01*
X3001371Y1710329D02*
X3098800Y1612900D01*
X3001371Y1710329D02*
Y1731371D01*
X3048000Y1778000D01*
Y1956161D02*
X3062879Y1971040D01*
X3798641D01*
X2414880Y2578100D02*
X2858602D01*
X2960202Y2476500D02*
Y2479000D01*
X2858602Y2578100D02*
X2895402Y2541300D01*
X2897902D01*
X2960202Y2479000D01*
X4572000Y939800D02*
Y1066800D01*
X4737100Y1231900D01*
X5301300Y1334699D02*
X5321300D01*
X5095817D02*
X5301300D01*
X5020816Y1409700D02*
X5095817Y1334699D01*
X5003800Y1409700D02*
X5020816D01*
X5258994Y1084809D02*
Y1292393D01*
X5301300Y1334699D01*
X5021618Y2500909D02*
X5021821Y2500706D01*
X5021618Y2500909D02*
Y2507164D01*
X5021821Y2500706D02*
X5042662D01*
X5218913Y2303615D02*
X5256822Y2265705D01*
X5168900Y2303615D02*
Y2324456D01*
Y2303615D02*
X5206809Y2265705D01*
X5256822D01*
X5029200Y647700D02*
X5093097Y711597D01*
Y796395D01*
X4622800Y425201D02*
Y622300D01*
X4560499Y362900D02*
X4622800Y425201D01*
X4560499Y342900D02*
Y362900D01*
X4622800Y622300D02*
X4648200Y647700D01*
X5029200D01*
X4876800Y266700D02*
X5352801D01*
X5378201Y292100D01*
X4710501Y342900D02*
X4800600D01*
X4876800Y266700D01*
X3937000Y190500D02*
X5778500D01*
X3644900Y482600D02*
Y1727200D01*
Y482600D02*
X3937000Y190500D01*
X5067300Y469900D02*
X5214305Y616905D01*
X5258994D01*
X5218913Y2303615D02*
Y2324456D01*
X4762500Y2362200D02*
X4787772Y2336928D01*
X4838572D01*
X5065308Y2110192D01*
X5075915D01*
X5841997Y254003D02*
X5842000Y254005D01*
X5841997Y253997D02*
Y254003D01*
X5778500Y190500D02*
X5841997Y253997D01*
X4076700Y2204707D02*
X4298709Y1982699D01*
X4076700Y2204707D02*
Y2235200D01*
X4298709Y1982699D02*
X4331208D01*
X5377801Y1181100D02*
X5531404Y1334699D01*
X4076700Y1727200D02*
Y1739900D01*
X5914319Y1484701D02*
X6045200Y1353820D01*
X5941060Y502920D02*
X6045200Y607060D01*
Y1353820D01*
X5664200Y1484701D02*
X5914319D01*
X5527040Y502920D02*
X5941060D01*
X5334000Y695960D02*
Y939800D01*
X3859601Y1929201D02*
Y2032000D01*
Y2108200D01*
X2255520Y1390498D02*
X2265680D01*
X1950720Y2211705D02*
X1988820D01*
X1888490D02*
X1950720D01*
X2265680Y1390498D02*
X2313940D01*
X3007360Y1794642D02*
Y2144801D01*
X2857500Y1612900D02*
X2899700Y1570700D01*
X2253590Y1905000D02*
X2292482D01*
X2519680Y2211705D02*
X2575560D01*
X3365500Y2933700D02*
X3522980D01*
Y2799080D02*
Y2933700D01*
X3999301Y2678501D02*
X4082100D01*
X2253590Y2416810D02*
X2414880Y2578100D01*
X2692400Y1570700D02*
X2899700D01*
X2959100Y1511300D01*
X3315899Y1879600D02*
X3468299Y1727200D01*
X3644900D01*
X2836001Y3009900D02*
Y3132999D01*
X2743200Y3225800D02*
X2836001Y3132999D01*
Y2848701D02*
Y3009900D01*
X2743200Y2755900D02*
X2836001Y2848701D01*
X3289300Y3009900D02*
X3365500Y2933700D01*
X3132999Y3009900D02*
X3289300D01*
X2780203Y2333300D02*
Y2476500D01*
Y2333300D02*
X2838704Y2274799D01*
X2857500Y1612900D02*
Y1754002D01*
X3798641Y1971040D02*
X3859601Y2032000D01*
X2378710Y2211705D02*
X2519680D01*
X3522980Y2933700D02*
X3524499D01*
X3522980Y2799080D02*
X3709599Y2612461D01*
Y2527300D02*
Y2612461D01*
X3962400Y2641600D02*
X3999301Y2678501D01*
X3810498Y1770878D02*
X3962400Y1922780D01*
X3810498Y1381999D02*
Y1770878D01*
X3007360Y2144801D02*
X3028696D01*
X2966720Y1754002D02*
X3007360Y1794642D01*
X2857500Y1754002D02*
X2966720D01*
X2133600Y1737360D02*
Y2171700D01*
Y1737360D02*
X2265680Y1605280D01*
Y1400658D02*
Y1605280D01*
X2255520Y1390498D02*
X2265680Y1400658D01*
X2184400Y1390498D02*
X2255520D01*
X1193800Y342900D02*
Y2020499D01*
X1612900Y2439599D01*
X2253590Y2291690D02*
Y2416810D01*
X2133600Y2171700D02*
X2253590Y2291690D01*
X5334000Y695960D02*
X5527040Y502920D01*
X2013610Y2274595D02*
Y2416810D01*
X1950720Y2211705D02*
X2013610Y2274595D01*
X2253590Y1905000D02*
Y1926590D01*
X2292482Y1905000D02*
X2443480Y1754002D01*
X2857500D01*
X1823649Y2416810D02*
X2013610D01*
X1800860Y2439599D02*
X1823649Y2416810D01*
X1612900Y2439599D02*
X1800860D01*
X2028825Y2171700D02*
X2133600D01*
X1988820Y2211705D02*
X2028825Y2171700D01*
X2102891Y1390498D02*
X2184400D01*
X2087880Y1405509D02*
X2102891Y1390498D01*
X2006600Y1405509D02*
X2087880D01*
X2321240Y1383198D02*
X2451100D01*
X2313940Y1390498D02*
X2321240Y1383198D01*
X2451100Y1113521D02*
Y1383198D01*
X2424699Y1087120D02*
X2451100Y1113521D01*
X2424699Y818799D02*
Y1087120D01*
X2575438Y1375700D02*
X2692400D01*
X2567940Y1383198D02*
X2575438Y1375700D01*
X2451100Y1383198D02*
X2567940D01*
X2638654Y2274799D02*
X2838704D01*
X2575560Y2211705D02*
X2638654Y2274799D01*
X3709599Y2420539D02*
Y2527300D01*
X3704600Y2415540D02*
X3709599Y2420539D01*
X3704600Y2311400D02*
Y2415540D01*
Y2212259D02*
Y2311400D01*
Y2212259D02*
X3709599Y2207260D01*
Y2108200D02*
Y2207260D01*
X5867400Y2260600D02*
Y2603500D01*
X5943600Y2679700D01*
X5664200Y1484701D02*
Y2057400D01*
X5867400Y2260600D01*
X5378201Y292100D02*
X5536001Y449900D01*
Y469900D01*
X5258994Y616905D02*
X5385999Y489900D01*
X5258994Y616905D02*
Y794791D01*
X5321300Y1484701D02*
X5664200D01*
X3810000Y1879600D02*
X3859601Y1929201D01*
X3465901Y1879600D02*
X3810000D01*
X3258998Y1187496D02*
Y1605102D01*
X3136900Y1727200D02*
X3258998Y1605102D01*
X3163499Y1727200D02*
X3315899Y1879600D01*
X3136900Y1727200D02*
X3163499D01*
X4254500Y2216902D02*
Y2362200D01*
Y2216902D02*
X4488703Y1982699D01*
X4521200D01*
X4102100Y2528499D02*
X4122100D01*
X4156898Y2563297D02*
Y2583297D01*
X4122100Y2528499D02*
X4156898Y2563297D01*
X4521200Y1739900D02*
Y1852701D01*
Y1739900D02*
X4597400Y1663700D01*
X4756902Y2159000D02*
X4775200D01*
X4254500Y1917700D02*
X4331208D01*
X4076700Y1739900D02*
X4254500Y1917700D01*
X4100901Y2527300D02*
X4102100Y2528499D01*
X3864600Y2113199D02*
Y2311400D01*
X3859601Y2108200D02*
X3864600Y2113199D01*
X3859601Y2527300D02*
X4100901D01*
X3859601Y2316399D02*
Y2527300D01*
Y2316399D02*
X3864600Y2311400D01*
X3714501Y2838699D02*
X3759500D01*
X3776802Y2821402D01*
Y2743149D02*
Y2821402D01*
Y2743149D02*
X3859601Y2660350D01*
Y2527300D02*
Y2660350D01*
X3907353Y2853253D02*
X4082100Y2678501D01*
X3776802Y2983799D02*
X3907353Y2853253D01*
X4089400Y3035300D02*
X4114800D01*
X3907353Y2853253D02*
X4089400Y3035300D01*
X4082100Y2678501D02*
X4102100D01*
X3776802Y2983799D02*
Y3011404D01*
X3759500Y3028701D02*
X3776802Y3011404D01*
X3714501Y3028701D02*
X3759500D01*
X5701101Y2692400D02*
X5930900D01*
X5943600Y2679700D01*
X5393400Y3175000D02*
Y3293400D01*
X5321300Y3365500D02*
X5393400Y3293400D01*
X5016500Y3365500D02*
X5321300D01*
X4936200Y3162300D02*
Y3285200D01*
X5016500Y3365500D01*
X5194300Y2425700D02*
X5218913Y2450313D01*
X5118887Y2350287D02*
X5194300Y2425700D01*
X5274300Y2350694D02*
X5295138D01*
X5199294Y2425700D02*
X5274300Y2350694D01*
X5194300Y2425700D02*
X5199294D01*
X5118887Y2324456D02*
Y2350287D01*
X5218913Y2450313D02*
Y2526944D01*
Y2547788D01*
X5701101Y2692400D02*
Y2971800D01*
X5168900Y2324456D02*
X5218913D01*
X5551099Y2971800D02*
Y2991800D01*
X5448198Y3094700D02*
X5551099Y2991800D01*
X5448198Y3094700D02*
Y3120202D01*
X5393400Y3175000D02*
X5448198Y3120202D01*
X5218913Y2547788D02*
X5219116Y2547991D01*
X5239959D01*
X5384368Y2692400D01*
X5551099D01*
D39*
X2093595Y2416810D02*
Y2487295D01*
X2120900Y2514600D01*
X2222500D02*
X2235200Y2527300D01*
X2120900Y2514600D02*
X2222500D01*
X2235200Y2527300D02*
Y2844800D01*
X2095500Y2860899D02*
X2219101D01*
X2235200Y2844800D01*
X2184400Y818500D02*
X2184700Y818799D01*
X2193328Y635000D02*
X2451100D01*
X2184400Y643928D02*
Y818500D01*
Y643928D02*
X2193328Y635000D01*
X2451100D02*
X2501900Y685800D01*
Y990600D01*
X2514600Y1003300D01*
X3060700Y2387600D02*
Y3086100D01*
X3022600Y2349500D02*
X3060700Y2387600D01*
Y3086100D02*
X3173184Y3198584D01*
X2968028Y2349500D02*
X3022600D01*
X3223984Y3198584D02*
X3251200Y3225800D01*
X3173184Y3198584D02*
X3223984D01*
X2926254Y2209847D02*
X2933700Y2217293D01*
X2838704Y2144801D02*
X2871203D01*
X2926254Y2199852D01*
Y2209847D01*
X2933700Y2217293D02*
Y2309800D01*
X2959100Y2340572D02*
X2968028Y2349500D01*
X2959100Y2335200D02*
Y2340572D01*
X2933700Y2309800D02*
X2959100Y2335200D01*
X2506980Y2131695D02*
X2537460D01*
X2378710D02*
X2506980D01*
X2933700Y1928998D02*
Y2176780D01*
X2377440Y1989958D02*
Y2051710D01*
X3028696Y2274799D02*
X3210560D01*
X3251200Y2315439D01*
Y2755900D01*
X2013610Y1675572D02*
Y1926590D01*
Y1675572D02*
X2158680Y1530502D01*
X2184400D01*
X2615565Y2209800D02*
X2838704D01*
X2537460Y2131695D02*
X2615565Y2209800D01*
X2434123Y1563202D02*
X2451100D01*
X2173605Y1823720D02*
X2434123Y1563202D01*
X2173605Y1823720D02*
Y1926590D01*
X1655470Y2051710D02*
X1888490D01*
X1595120Y1991360D02*
X1655470Y2051710D01*
X1595120Y1752600D02*
Y1991360D01*
Y1752600D02*
X1676400D01*
X2857500Y1928998D02*
X2933700D01*
Y2176780D02*
X2966720Y2209800D01*
X3028696D01*
X2377440Y2051710D02*
X2378710D01*
X2377440Y1989958D02*
X2438400Y1928998D01*
X2857500D01*
X2514600Y1003300D02*
X2959100D01*
X1845046Y1926590D02*
X2013610D01*
X1844040Y1927596D02*
X1845046Y1926590D01*
X1676400Y1927596D02*
X1844040D01*
X1886331Y1515491D02*
X2006600D01*
X1831340Y1460500D02*
X1886331Y1515491D01*
X1714500Y1460500D02*
X1831340D01*
X1676400Y1625600D02*
Y1752600D01*
Y1625600D02*
X1714500Y1587500D01*
Y1460500D02*
Y1587500D01*
X3028696Y2209800D02*
X3403600D01*
X1882480Y2650901D02*
X2095500D01*
X1821180Y2589601D02*
X1882480Y2650901D01*
X1612900Y2589601D02*
X1821180D01*
X1905859Y2860899D02*
X2095500D01*
X1902460Y2857500D02*
X1905859Y2860899D01*
X1714500Y2857500D02*
X1902460D01*
X4876800Y939800D02*
X4894417Y957417D01*
X5181615D01*
X5188991Y964794D01*
X4331208Y1777492D02*
Y1852701D01*
X4559300Y1460500D02*
X4572000Y1447800D01*
X4559300Y1460500D02*
Y1549400D01*
X4331208Y1777492D02*
X4559300Y1549400D01*
X4445000Y3162300D02*
X4741200D01*
X4533900Y2590800D02*
X4781311D01*
X5021417Y2350694D01*
X5042662D01*
X5295138Y2400706D02*
X5295544Y2400300D01*
X5397500D01*
X5448300Y2349500D02*
X5626100D01*
X5397500Y2400300D02*
X5448300Y2349500D01*
X5041468D02*
X5042662Y2350694D01*
X4741200Y2925882D02*
Y3162300D01*
X5118887Y2526944D02*
Y2548194D01*
X4741200Y2925882D02*
X5118887Y2548194D01*
X5181600Y2870200D02*
Y3158200D01*
X5198400Y3175000D01*
X5168900Y2526944D02*
X5173777Y2531821D01*
Y2862377D01*
X5181600Y2870200D01*
D40*
X4775200Y1651000D02*
D03*
Y2159000D02*
D03*
X4076700Y2235200D02*
D03*
Y1727200D02*
D03*
X4762500Y2362200D02*
D03*
X4254500D02*
D03*
X4572000Y1447800D02*
D03*
Y939800D02*
D03*
X2743200Y3225800D02*
D03*
X3251200D02*
D03*
X3644900Y1727200D02*
D03*
X3136900D02*
D03*
X3251200Y2755900D02*
D03*
X2743200D02*
D03*
X2959100Y1511300D02*
D03*
Y1003300D02*
D03*
D41*
X2484699Y558800D02*
D03*
X2044700D02*
D03*
D42*
X4876800Y939800D02*
D03*
X4114800Y3035300D02*
D03*
X5842000Y254000D02*
D03*
X1714500Y2857500D02*
D03*
Y1460500D02*
D03*
X215900Y3048000D02*
D03*
X5003800Y1409700D02*
D03*
X3403600Y2209800D02*
D03*
X2425700Y2844800D02*
D03*
X4622800Y622300D02*
D03*
X4533900Y2590800D02*
D03*
X5626100Y2349500D02*
D03*
X5067300Y469900D02*
D03*
X4445000Y3162300D02*
D03*
X5181600Y2870200D02*
D03*
D43*
X1193800Y342900D02*
D03*
X394767D02*
D03*
X685800Y2705100D02*
D03*
D44*
X5435600Y1892300D02*
D03*
X4483100Y2908300D02*
D03*
X5981700Y2667000D02*
D03*
X5130800Y2082800D02*
D03*
D45*
X5905500Y1282700D02*
D03*
X4737100Y1231900D02*
D03*
X5613400Y711200D02*
D03*
X2519680Y2211705D02*
D03*
X3962400Y2641600D02*
D03*
Y1922780D02*
D03*
X2506980Y2131695D02*
D03*
%TF.MD5,a8a6df4e6cc42c16e63ecb0d2346121b*%
M02*
