%TF.GenerationSoftware,Altium Limited,Altium Designer,20.1.14 (287)*%
G04 Layer_Color=8388736*
%FSLAX45Y45*%
%MOMM*%
%TF.SameCoordinates,D5A835FB-7470-4E95-99DA-6ED893557D25*%
%TF.FilePolarity,Positive*%
%TF.FileFunction,Other,Top_Assembly*%
%TF.Part,Single*%
G01*
G75*
%TA.AperFunction,NonConductor*%
%ADD55C,0.20000*%
G36*
X5441912Y345506D02*
X5442745Y345414D01*
X5443762Y345321D01*
X5444779Y345229D01*
X5445980Y344951D01*
X5448477Y344397D01*
X5451250Y343564D01*
X5452637Y343010D01*
X5453932Y342363D01*
X5455226Y341530D01*
X5456520Y340698D01*
X5456613Y340606D01*
X5456798Y340513D01*
X5457168Y340236D01*
X5457630Y339774D01*
X5458092Y339311D01*
X5458739Y338664D01*
X5459387Y337925D01*
X5460126Y337185D01*
X5460866Y336260D01*
X5461606Y335151D01*
X5462438Y334041D01*
X5463177Y332840D01*
X5463824Y331453D01*
X5464564Y330066D01*
X5465119Y328587D01*
X5465674Y326922D01*
X5457353Y324981D01*
Y325073D01*
X5457260Y325258D01*
X5457075Y325628D01*
X5456890Y326090D01*
X5456705Y326645D01*
X5456428Y327385D01*
X5455688Y328864D01*
X5454764Y330528D01*
X5453654Y332192D01*
X5452267Y333764D01*
X5450788Y335151D01*
X5450603Y335336D01*
X5450049Y335706D01*
X5449124Y336168D01*
X5447922Y336815D01*
X5446350Y337370D01*
X5444594Y337925D01*
X5442467Y338294D01*
X5440156Y338387D01*
X5439416D01*
X5438954Y338294D01*
X5438307D01*
X5437567Y338202D01*
X5435810Y337925D01*
X5433869Y337555D01*
X5431835Y336908D01*
X5429708Y335983D01*
X5427767Y334781D01*
X5427674D01*
X5427582Y334596D01*
X5426935Y334134D01*
X5426102Y333394D01*
X5425085Y332285D01*
X5423883Y330898D01*
X5422774Y329326D01*
X5421757Y327385D01*
X5420832Y325258D01*
Y325166D01*
X5420740Y324981D01*
X5420648Y324703D01*
X5420555Y324241D01*
X5420370Y323686D01*
X5420185Y323039D01*
X5419908Y321467D01*
X5419538Y319618D01*
X5419168Y317584D01*
X5418983Y315365D01*
X5418891Y312962D01*
Y312869D01*
Y312592D01*
Y312129D01*
Y311575D01*
X5418983Y310927D01*
Y310095D01*
X5419076Y309171D01*
X5419168Y308154D01*
X5419446Y305935D01*
X5419908Y303531D01*
X5420463Y301127D01*
X5421202Y298723D01*
Y298631D01*
X5421295Y298446D01*
X5421480Y298169D01*
X5421665Y297706D01*
X5422219Y296597D01*
X5423051Y295302D01*
X5424068Y293823D01*
X5425363Y292251D01*
X5426842Y290865D01*
X5428599Y289570D01*
X5428691D01*
X5428876Y289478D01*
X5429153Y289293D01*
X5429523Y289108D01*
X5429986Y288923D01*
X5430540Y288646D01*
X5431835Y288091D01*
X5433499Y287536D01*
X5435348Y287074D01*
X5437382Y286704D01*
X5439509Y286612D01*
X5440156D01*
X5440710Y286704D01*
X5441358D01*
X5442005Y286796D01*
X5443669Y287166D01*
X5445611Y287629D01*
X5447552Y288368D01*
X5449586Y289385D01*
X5450603Y289940D01*
X5451528Y290680D01*
X5451620Y290772D01*
X5451713Y290865D01*
X5451990Y291142D01*
X5452360Y291419D01*
X5452730Y291882D01*
X5453192Y292436D01*
X5453747Y292991D01*
X5454209Y293731D01*
X5454764Y294563D01*
X5455411Y295487D01*
X5455966Y296412D01*
X5456520Y297521D01*
X5456983Y298723D01*
X5457445Y300018D01*
X5457907Y301405D01*
X5458277Y302884D01*
X5466783Y300757D01*
Y300665D01*
X5466691Y300295D01*
X5466506Y299740D01*
X5466228Y299001D01*
X5465951Y298169D01*
X5465581Y297152D01*
X5465119Y296042D01*
X5464564Y294840D01*
X5463270Y292251D01*
X5461606Y289663D01*
X5460589Y288368D01*
X5459572Y287074D01*
X5458462Y285964D01*
X5457168Y284855D01*
X5457075Y284762D01*
X5456890Y284578D01*
X5456428Y284393D01*
X5455966Y284023D01*
X5455226Y283561D01*
X5454486Y283098D01*
X5453469Y282636D01*
X5452452Y282174D01*
X5451250Y281619D01*
X5449956Y281157D01*
X5448569Y280694D01*
X5447090Y280232D01*
X5445518Y279862D01*
X5443854Y279677D01*
X5442097Y279492D01*
X5440248Y279400D01*
X5439231D01*
X5438492Y279492D01*
X5437659D01*
X5436642Y279585D01*
X5435533Y279770D01*
X5434239Y279955D01*
X5431557Y280417D01*
X5428784Y281157D01*
X5426010Y282174D01*
X5424716Y282821D01*
X5423421Y283561D01*
X5423329Y283653D01*
X5423144Y283745D01*
X5422774Y284023D01*
X5422404Y284393D01*
X5421849Y284762D01*
X5421202Y285317D01*
X5420463Y285964D01*
X5419723Y286704D01*
X5418983Y287536D01*
X5418151Y288368D01*
X5416487Y290495D01*
X5414915Y292991D01*
X5413528Y295765D01*
Y295857D01*
X5413344Y296135D01*
X5413251Y296597D01*
X5412974Y297152D01*
X5412789Y297891D01*
X5412511Y298816D01*
X5412142Y299833D01*
X5411864Y300942D01*
X5411587Y302144D01*
X5411217Y303531D01*
X5410755Y306397D01*
X5410385Y309633D01*
X5410200Y312962D01*
Y313054D01*
Y313424D01*
Y313979D01*
X5410292Y314626D01*
Y315550D01*
X5410385Y316475D01*
X5410477Y317677D01*
X5410662Y318879D01*
X5411125Y321560D01*
X5411772Y324519D01*
X5412696Y327477D01*
X5413991Y330343D01*
X5414083Y330436D01*
X5414176Y330713D01*
X5414361Y331083D01*
X5414730Y331545D01*
X5415100Y332192D01*
X5415562Y332932D01*
X5416764Y334596D01*
X5418336Y336445D01*
X5420185Y338294D01*
X5422312Y340144D01*
X5424808Y341715D01*
X5424901Y341808D01*
X5425178Y341900D01*
X5425548Y342085D01*
X5426010Y342363D01*
X5426750Y342640D01*
X5427489Y342917D01*
X5428414Y343287D01*
X5429431Y343657D01*
X5430540Y344027D01*
X5431742Y344397D01*
X5434331Y344951D01*
X5437290Y345414D01*
X5440341Y345598D01*
X5441265D01*
X5441912Y345506D01*
D02*
G37*
G36*
X5495999Y344674D02*
X5497201Y344489D01*
X5498680Y344212D01*
X5500345Y343749D01*
X5502009Y343195D01*
X5503673Y342455D01*
X5503765D01*
X5503858Y342363D01*
X5504413Y342085D01*
X5505245Y341530D01*
X5506169Y340883D01*
X5507279Y339959D01*
X5508388Y338942D01*
X5509498Y337740D01*
X5510422Y336353D01*
X5510515Y336168D01*
X5510792Y335706D01*
X5511162Y334874D01*
X5511624Y333857D01*
X5512087Y332655D01*
X5512456Y331268D01*
X5512734Y329696D01*
X5512826Y328124D01*
Y327939D01*
Y327385D01*
X5512734Y326645D01*
X5512549Y325628D01*
X5512271Y324426D01*
X5511809Y323132D01*
X5511254Y321837D01*
X5510515Y320543D01*
X5510422Y320358D01*
X5510145Y319988D01*
X5509590Y319341D01*
X5508851Y318601D01*
X5507926Y317769D01*
X5506817Y316845D01*
X5505522Y316013D01*
X5503950Y315180D01*
X5504043D01*
X5504228Y315088D01*
X5504505Y314996D01*
X5504875Y314903D01*
X5505892Y314533D01*
X5507186Y313979D01*
X5508666Y313239D01*
X5510145Y312314D01*
X5511532Y311112D01*
X5512826Y309726D01*
X5512919Y309541D01*
X5513288Y308986D01*
X5513843Y308061D01*
X5514398Y306859D01*
X5514953Y305380D01*
X5515507Y303623D01*
X5515877Y301589D01*
X5515970Y299370D01*
Y299278D01*
Y299001D01*
Y298538D01*
X5515877Y297984D01*
X5515785Y297244D01*
X5515600Y296412D01*
X5515415Y295487D01*
X5515230Y294470D01*
X5514490Y292251D01*
X5513936Y291049D01*
X5513381Y289940D01*
X5512641Y288738D01*
X5511809Y287536D01*
X5510885Y286334D01*
X5509775Y285225D01*
X5509683Y285132D01*
X5509498Y284947D01*
X5509128Y284670D01*
X5508666Y284300D01*
X5508111Y283838D01*
X5507371Y283376D01*
X5506539Y282821D01*
X5505522Y282359D01*
X5504505Y281804D01*
X5503303Y281249D01*
X5502101Y280787D01*
X5500714Y280325D01*
X5499235Y279955D01*
X5497663Y279677D01*
X5496092Y279492D01*
X5494335Y279400D01*
X5493503D01*
X5492948Y279492D01*
X5492208Y279585D01*
X5491376Y279677D01*
X5490452Y279862D01*
X5489435Y280047D01*
X5487216Y280602D01*
X5484904Y281526D01*
X5483703Y282081D01*
X5482593Y282728D01*
X5481484Y283561D01*
X5480374Y284393D01*
X5480282Y284485D01*
X5480097Y284670D01*
X5479819Y284947D01*
X5479542Y285317D01*
X5479080Y285779D01*
X5478617Y286427D01*
X5478063Y287074D01*
X5477508Y287906D01*
X5476953Y288831D01*
X5476398Y289755D01*
X5475381Y291974D01*
X5474549Y294563D01*
X5474272Y295950D01*
X5474087Y297429D01*
X5481946Y298446D01*
Y298353D01*
X5482038Y298169D01*
X5482131Y297799D01*
X5482223Y297336D01*
X5482316Y296782D01*
X5482501Y296135D01*
X5482963Y294748D01*
X5483610Y293083D01*
X5484442Y291512D01*
X5485367Y290032D01*
X5486476Y288738D01*
X5486661Y288646D01*
X5487031Y288276D01*
X5487771Y287813D01*
X5488695Y287351D01*
X5489805Y286796D01*
X5491191Y286334D01*
X5492763Y285964D01*
X5494427Y285872D01*
X5494982D01*
X5495352Y285964D01*
X5496369Y286057D01*
X5497663Y286334D01*
X5499143Y286796D01*
X5500714Y287444D01*
X5502286Y288368D01*
X5503765Y289663D01*
X5503950Y289848D01*
X5504413Y290402D01*
X5504967Y291234D01*
X5505707Y292344D01*
X5506447Y293731D01*
X5507001Y295302D01*
X5507464Y297152D01*
X5507649Y299186D01*
Y299278D01*
Y299463D01*
Y299740D01*
X5507556Y300110D01*
X5507464Y301127D01*
X5507186Y302329D01*
X5506817Y303808D01*
X5506169Y305288D01*
X5505245Y306767D01*
X5504043Y308154D01*
X5503858Y308339D01*
X5503396Y308709D01*
X5502656Y309263D01*
X5501639Y309910D01*
X5500345Y310558D01*
X5498773Y311112D01*
X5497016Y311482D01*
X5495075Y311667D01*
X5494243D01*
X5493595Y311575D01*
X5492763Y311482D01*
X5491839Y311297D01*
X5490729Y311112D01*
X5489527Y310835D01*
X5490452Y317769D01*
X5490914D01*
X5491284Y317677D01*
X5492486D01*
X5493503Y317862D01*
X5494705Y318047D01*
X5496092Y318324D01*
X5497663Y318786D01*
X5499143Y319433D01*
X5500714Y320266D01*
X5500807D01*
X5500899Y320358D01*
X5501362Y320728D01*
X5502009Y321375D01*
X5502748Y322207D01*
X5503488Y323409D01*
X5504135Y324796D01*
X5504598Y326368D01*
X5504782Y327292D01*
Y328309D01*
Y328402D01*
Y328494D01*
Y329049D01*
X5504598Y329789D01*
X5504413Y330806D01*
X5504043Y331915D01*
X5503581Y333117D01*
X5502841Y334319D01*
X5501824Y335428D01*
X5501731Y335521D01*
X5501269Y335891D01*
X5500622Y336353D01*
X5499790Y336908D01*
X5498680Y337370D01*
X5497386Y337832D01*
X5495907Y338202D01*
X5494243Y338294D01*
X5493503D01*
X5492671Y338110D01*
X5491561Y337925D01*
X5490359Y337555D01*
X5489157Y337093D01*
X5487863Y336353D01*
X5486661Y335428D01*
X5486569Y335336D01*
X5486199Y334874D01*
X5485644Y334226D01*
X5484997Y333302D01*
X5484350Y332100D01*
X5483703Y330621D01*
X5483148Y328864D01*
X5482778Y326830D01*
X5474919Y328217D01*
Y328309D01*
X5475012Y328587D01*
X5475104Y328956D01*
X5475197Y329511D01*
X5475381Y330158D01*
X5475659Y330898D01*
X5476214Y332655D01*
X5477138Y334689D01*
X5478248Y336723D01*
X5479634Y338664D01*
X5481391Y340421D01*
X5481484Y340513D01*
X5481668Y340606D01*
X5481946Y340791D01*
X5482316Y341068D01*
X5482778Y341438D01*
X5483425Y341808D01*
X5484072Y342178D01*
X5484904Y342640D01*
X5486754Y343380D01*
X5488880Y344119D01*
X5491376Y344581D01*
X5492671Y344766D01*
X5494982D01*
X5495999Y344674D01*
D02*
G37*
G36*
X5858835Y1490439D02*
X5859575Y1490347D01*
X5860407Y1490255D01*
X5861424Y1490070D01*
X5862441Y1489885D01*
X5864845Y1489330D01*
X5867341Y1488405D01*
X5868635Y1487851D01*
X5869837Y1487111D01*
X5871132Y1486371D01*
X5872334Y1485447D01*
X5872426Y1485354D01*
X5872704Y1485169D01*
X5873073Y1484800D01*
X5873536Y1484337D01*
X5874090Y1483690D01*
X5874830Y1482951D01*
X5875477Y1482026D01*
X5876217Y1481009D01*
X5876956Y1479900D01*
X5877604Y1478605D01*
X5878251Y1477218D01*
X5878898Y1475739D01*
X5879360Y1474167D01*
X5879730Y1472411D01*
X5880008Y1470561D01*
X5880100Y1468620D01*
Y1467788D01*
X5880008Y1467141D01*
X5879915Y1466401D01*
X5879823Y1465569D01*
X5879730Y1464552D01*
X5879453Y1463535D01*
X5878898Y1461223D01*
X5878066Y1458912D01*
X5877511Y1457710D01*
X5876864Y1456508D01*
X5876124Y1455399D01*
X5875292Y1454289D01*
X5875200Y1454197D01*
X5875107Y1454012D01*
X5874738Y1453827D01*
X5874368Y1453457D01*
X5873905Y1452995D01*
X5873351Y1452533D01*
X5872611Y1451978D01*
X5871779Y1451516D01*
X5870947Y1450961D01*
X5869930Y1450406D01*
X5867711Y1449389D01*
X5865122Y1448557D01*
X5863735Y1448280D01*
X5862256Y1448095D01*
X5861609Y1456323D01*
X5861701D01*
X5861886D01*
X5862164Y1456416D01*
X5862626Y1456508D01*
X5863643Y1456786D01*
X5865030Y1457155D01*
X5866417Y1457710D01*
X5867988Y1458450D01*
X5869375Y1459374D01*
X5870669Y1460484D01*
X5870762Y1460669D01*
X5871132Y1461038D01*
X5871594Y1461778D01*
X5872149Y1462795D01*
X5872704Y1463905D01*
X5873166Y1465291D01*
X5873536Y1466863D01*
X5873628Y1468620D01*
Y1469175D01*
X5873536Y1469544D01*
X5873443Y1470654D01*
X5873073Y1471948D01*
X5872611Y1473520D01*
X5871871Y1475092D01*
X5870762Y1476756D01*
X5870115Y1477496D01*
X5869375Y1478235D01*
X5869283Y1478328D01*
X5869190Y1478420D01*
X5868913Y1478605D01*
X5868635Y1478882D01*
X5867618Y1479530D01*
X5866324Y1480269D01*
X5864752Y1480917D01*
X5862811Y1481564D01*
X5860499Y1482026D01*
X5859297Y1482211D01*
X5858003D01*
X5857911D01*
X5857726D01*
X5857356D01*
X5856894Y1482118D01*
X5856339D01*
X5855692Y1482026D01*
X5854212Y1481749D01*
X5852456Y1481286D01*
X5850699Y1480639D01*
X5849035Y1479715D01*
X5847463Y1478420D01*
X5847371D01*
X5847278Y1478235D01*
X5846816Y1477773D01*
X5846169Y1476941D01*
X5845429Y1475831D01*
X5844782Y1474352D01*
X5844135Y1472688D01*
X5843672Y1470746D01*
X5843487Y1469637D01*
Y1467880D01*
X5843580Y1467141D01*
X5843672Y1466216D01*
X5843950Y1465107D01*
X5844227Y1463997D01*
X5844689Y1462795D01*
X5845244Y1461593D01*
X5845337Y1461501D01*
X5845521Y1461131D01*
X5845984Y1460576D01*
X5846446Y1459837D01*
X5847093Y1459097D01*
X5847925Y1458357D01*
X5848757Y1457525D01*
X5849774Y1456878D01*
X5848757Y1449481D01*
X5815843Y1455676D01*
Y1487481D01*
X5823332D01*
Y1461871D01*
X5840621Y1458450D01*
X5840529Y1458542D01*
X5840436Y1458727D01*
X5840251Y1459004D01*
X5839974Y1459467D01*
X5839697Y1460021D01*
X5839327Y1460669D01*
X5838587Y1462148D01*
X5837848Y1463997D01*
X5837200Y1466031D01*
X5836738Y1468250D01*
X5836553Y1469360D01*
Y1471394D01*
X5836646Y1471948D01*
X5836738Y1472688D01*
X5836831Y1473520D01*
X5837016Y1474445D01*
X5837293Y1475462D01*
X5837940Y1477681D01*
X5838402Y1478882D01*
X5839050Y1480084D01*
X5839697Y1481286D01*
X5840436Y1482488D01*
X5841361Y1483598D01*
X5842378Y1484707D01*
X5842470Y1484800D01*
X5842655Y1484985D01*
X5842933Y1485262D01*
X5843395Y1485632D01*
X5844042Y1486094D01*
X5844689Y1486556D01*
X5845521Y1487111D01*
X5846446Y1487666D01*
X5847463Y1488128D01*
X5848573Y1488683D01*
X5849867Y1489145D01*
X5851161Y1489607D01*
X5852548Y1489977D01*
X5854120Y1490255D01*
X5855692Y1490439D01*
X5857356Y1490532D01*
X5857448D01*
X5857726D01*
X5858188D01*
X5858835Y1490439D01*
D02*
G37*
G36*
X5859205Y1440791D02*
X5859760Y1440606D01*
X5860499Y1440328D01*
X5861331Y1440051D01*
X5862348Y1439681D01*
X5863458Y1439219D01*
X5864660Y1438664D01*
X5867249Y1437370D01*
X5869837Y1435706D01*
X5871132Y1434689D01*
X5872426Y1433672D01*
X5873536Y1432562D01*
X5874645Y1431268D01*
X5874738Y1431175D01*
X5874922Y1430990D01*
X5875107Y1430528D01*
X5875477Y1430066D01*
X5875939Y1429326D01*
X5876402Y1428586D01*
X5876864Y1427569D01*
X5877326Y1426552D01*
X5877881Y1425350D01*
X5878343Y1424056D01*
X5878806Y1422669D01*
X5879268Y1421190D01*
X5879638Y1419618D01*
X5879823Y1417954D01*
X5880008Y1416197D01*
X5880100Y1414348D01*
Y1413331D01*
X5880008Y1412592D01*
Y1411759D01*
X5879915Y1410742D01*
X5879730Y1409633D01*
X5879545Y1408339D01*
X5879083Y1405657D01*
X5878343Y1402884D01*
X5877326Y1400110D01*
X5876679Y1398816D01*
X5875939Y1397521D01*
X5875847Y1397429D01*
X5875755Y1397244D01*
X5875477Y1396874D01*
X5875107Y1396504D01*
X5874738Y1395949D01*
X5874183Y1395302D01*
X5873536Y1394563D01*
X5872796Y1393823D01*
X5871964Y1393083D01*
X5871132Y1392251D01*
X5869005Y1390587D01*
X5866509Y1389015D01*
X5863735Y1387628D01*
X5863643D01*
X5863365Y1387444D01*
X5862903Y1387351D01*
X5862348Y1387074D01*
X5861609Y1386889D01*
X5860684Y1386611D01*
X5859667Y1386242D01*
X5858558Y1385964D01*
X5857356Y1385687D01*
X5855969Y1385317D01*
X5853103Y1384855D01*
X5849867Y1384485D01*
X5846538Y1384300D01*
X5846446D01*
X5846076D01*
X5845521D01*
X5844874Y1384392D01*
X5843950D01*
X5843025Y1384485D01*
X5841823Y1384577D01*
X5840621Y1384762D01*
X5837940Y1385225D01*
X5834981Y1385872D01*
X5832023Y1386796D01*
X5829157Y1388091D01*
X5829064Y1388183D01*
X5828787Y1388276D01*
X5828417Y1388461D01*
X5827955Y1388830D01*
X5827308Y1389200D01*
X5826568Y1389662D01*
X5824904Y1390864D01*
X5823055Y1392436D01*
X5821206Y1394285D01*
X5819356Y1396412D01*
X5817785Y1398908D01*
X5817692Y1399001D01*
X5817600Y1399278D01*
X5817415Y1399648D01*
X5817137Y1400110D01*
X5816860Y1400850D01*
X5816583Y1401589D01*
X5816213Y1402514D01*
X5815843Y1403531D01*
X5815473Y1404640D01*
X5815103Y1405842D01*
X5814549Y1408431D01*
X5814086Y1411390D01*
X5813902Y1414441D01*
Y1415365D01*
X5813994Y1416012D01*
X5814086Y1416845D01*
X5814179Y1417862D01*
X5814271Y1418879D01*
X5814549Y1420080D01*
X5815103Y1422577D01*
X5815936Y1425350D01*
X5816490Y1426737D01*
X5817137Y1428032D01*
X5817970Y1429326D01*
X5818802Y1430620D01*
X5818894Y1430713D01*
X5818987Y1430898D01*
X5819264Y1431268D01*
X5819726Y1431730D01*
X5820189Y1432192D01*
X5820836Y1432839D01*
X5821575Y1433487D01*
X5822315Y1434226D01*
X5823240Y1434966D01*
X5824349Y1435706D01*
X5825459Y1436538D01*
X5826660Y1437277D01*
X5828047Y1437924D01*
X5829434Y1438664D01*
X5830913Y1439219D01*
X5832578Y1439774D01*
X5834519Y1431453D01*
X5834427D01*
X5834242Y1431360D01*
X5833872Y1431175D01*
X5833410Y1430990D01*
X5832855Y1430805D01*
X5832115Y1430528D01*
X5830636Y1429788D01*
X5828972Y1428864D01*
X5827308Y1427754D01*
X5825736Y1426367D01*
X5824349Y1424888D01*
X5824164Y1424703D01*
X5823794Y1424149D01*
X5823332Y1423224D01*
X5822685Y1422022D01*
X5822130Y1420450D01*
X5821575Y1418694D01*
X5821206Y1416567D01*
X5821113Y1414256D01*
Y1413516D01*
X5821206Y1413054D01*
Y1412407D01*
X5821298Y1411667D01*
X5821575Y1409910D01*
X5821945Y1407969D01*
X5822592Y1405935D01*
X5823517Y1403808D01*
X5824719Y1401867D01*
Y1401774D01*
X5824904Y1401682D01*
X5825366Y1401035D01*
X5826106Y1400202D01*
X5827215Y1399185D01*
X5828602Y1397983D01*
X5830174Y1396874D01*
X5832115Y1395857D01*
X5834242Y1394932D01*
X5834334D01*
X5834519Y1394840D01*
X5834797Y1394748D01*
X5835259Y1394655D01*
X5835814Y1394470D01*
X5836461Y1394285D01*
X5838033Y1394008D01*
X5839882Y1393638D01*
X5841916Y1393268D01*
X5844135Y1393083D01*
X5846538Y1392991D01*
X5846631D01*
X5846908D01*
X5847371D01*
X5847925D01*
X5848573Y1393083D01*
X5849405D01*
X5850329Y1393176D01*
X5851346Y1393268D01*
X5853565Y1393546D01*
X5855969Y1394008D01*
X5858373Y1394563D01*
X5860777Y1395302D01*
X5860869D01*
X5861054Y1395395D01*
X5861331Y1395580D01*
X5861794Y1395765D01*
X5862903Y1396319D01*
X5864198Y1397151D01*
X5865677Y1398168D01*
X5867249Y1399463D01*
X5868635Y1400942D01*
X5869930Y1402699D01*
Y1402791D01*
X5870022Y1402976D01*
X5870207Y1403253D01*
X5870392Y1403623D01*
X5870577Y1404086D01*
X5870854Y1404640D01*
X5871409Y1405935D01*
X5871964Y1407599D01*
X5872426Y1409448D01*
X5872796Y1411482D01*
X5872888Y1413609D01*
Y1414256D01*
X5872796Y1414810D01*
Y1415458D01*
X5872704Y1416105D01*
X5872334Y1417769D01*
X5871871Y1419711D01*
X5871132Y1421652D01*
X5870115Y1423686D01*
X5869560Y1424703D01*
X5868820Y1425628D01*
X5868728Y1425720D01*
X5868635Y1425813D01*
X5868358Y1426090D01*
X5868081Y1426460D01*
X5867618Y1426830D01*
X5867064Y1427292D01*
X5866509Y1427847D01*
X5865769Y1428309D01*
X5864937Y1428864D01*
X5864013Y1429511D01*
X5863088Y1430066D01*
X5861979Y1430620D01*
X5860777Y1431083D01*
X5859482Y1431545D01*
X5858095Y1432007D01*
X5856616Y1432377D01*
X5858743Y1440883D01*
X5858835D01*
X5859205Y1440791D01*
D02*
G37*
G36*
X3794408Y1968408D02*
X3795241D01*
X3796258Y1968315D01*
X3797367Y1968130D01*
X3798661Y1967945D01*
X3801343Y1967483D01*
X3804116Y1966743D01*
X3806890Y1965726D01*
X3808184Y1965079D01*
X3809479Y1964339D01*
X3809571Y1964247D01*
X3809756Y1964155D01*
X3810126Y1963877D01*
X3810496Y1963507D01*
X3811051Y1963138D01*
X3811698Y1962583D01*
X3812437Y1961936D01*
X3813177Y1961196D01*
X3813917Y1960364D01*
X3814749Y1959532D01*
X3816413Y1957405D01*
X3817985Y1954909D01*
X3819372Y1952135D01*
Y1952043D01*
X3819556Y1951765D01*
X3819649Y1951303D01*
X3819926Y1950748D01*
X3820111Y1950009D01*
X3820389Y1949084D01*
X3820758Y1948067D01*
X3821036Y1946958D01*
X3821313Y1945756D01*
X3821683Y1944369D01*
X3822145Y1941503D01*
X3822515Y1938267D01*
X3822700Y1934938D01*
Y1934846D01*
Y1934476D01*
Y1933921D01*
X3822608Y1933274D01*
Y1932350D01*
X3822515Y1931425D01*
X3822423Y1930223D01*
X3822238Y1929021D01*
X3821775Y1926340D01*
X3821128Y1923381D01*
X3820204Y1920423D01*
X3818909Y1917557D01*
X3818817Y1917464D01*
X3818724Y1917187D01*
X3818539Y1916817D01*
X3818170Y1916355D01*
X3817800Y1915708D01*
X3817338Y1914968D01*
X3816136Y1913304D01*
X3814564Y1911455D01*
X3812715Y1909606D01*
X3810588Y1907756D01*
X3808092Y1906185D01*
X3807999Y1906092D01*
X3807722Y1906000D01*
X3807352Y1905815D01*
X3806890Y1905537D01*
X3806150Y1905260D01*
X3805411Y1904983D01*
X3804486Y1904613D01*
X3803469Y1904243D01*
X3802360Y1903873D01*
X3801158Y1903503D01*
X3798569Y1902949D01*
X3795610Y1902486D01*
X3792559Y1902302D01*
X3791635D01*
X3790988Y1902394D01*
X3790155Y1902486D01*
X3789138Y1902579D01*
X3788121Y1902671D01*
X3786920Y1902949D01*
X3784423Y1903503D01*
X3781650Y1904336D01*
X3780263Y1904890D01*
X3778968Y1905537D01*
X3777674Y1906370D01*
X3776380Y1907202D01*
X3776287Y1907294D01*
X3776102Y1907387D01*
X3775732Y1907664D01*
X3775270Y1908126D01*
X3774808Y1908589D01*
X3774161Y1909236D01*
X3773513Y1909975D01*
X3772774Y1910715D01*
X3772034Y1911640D01*
X3771294Y1912749D01*
X3770462Y1913859D01*
X3769723Y1915060D01*
X3769076Y1916447D01*
X3768336Y1917834D01*
X3767781Y1919313D01*
X3767226Y1920978D01*
X3775547Y1922919D01*
Y1922827D01*
X3775640Y1922642D01*
X3775825Y1922272D01*
X3776010Y1921810D01*
X3776195Y1921255D01*
X3776472Y1920515D01*
X3777212Y1919036D01*
X3778136Y1917372D01*
X3779246Y1915708D01*
X3780633Y1914136D01*
X3782112Y1912749D01*
X3782297Y1912564D01*
X3782851Y1912194D01*
X3783776Y1911732D01*
X3784978Y1911085D01*
X3786550Y1910530D01*
X3788306Y1909975D01*
X3790433Y1909606D01*
X3792744Y1909513D01*
X3793484D01*
X3793946Y1909606D01*
X3794593D01*
X3795333Y1909698D01*
X3797090Y1909975D01*
X3799031Y1910345D01*
X3801065Y1910992D01*
X3803192Y1911917D01*
X3805133Y1913119D01*
X3805226D01*
X3805318Y1913304D01*
X3805965Y1913766D01*
X3806798Y1914506D01*
X3807815Y1915615D01*
X3809017Y1917002D01*
X3810126Y1918574D01*
X3811143Y1920515D01*
X3812068Y1922642D01*
Y1922734D01*
X3812160Y1922919D01*
X3812252Y1923197D01*
X3812345Y1923659D01*
X3812530Y1924214D01*
X3812715Y1924861D01*
X3812992Y1926433D01*
X3813362Y1928282D01*
X3813732Y1930316D01*
X3813917Y1932535D01*
X3814009Y1934938D01*
Y1935031D01*
Y1935308D01*
Y1935771D01*
Y1936325D01*
X3813917Y1936973D01*
Y1937805D01*
X3813824Y1938729D01*
X3813732Y1939746D01*
X3813454Y1941965D01*
X3812992Y1944369D01*
X3812437Y1946773D01*
X3811698Y1949177D01*
Y1949269D01*
X3811605Y1949454D01*
X3811420Y1949731D01*
X3811235Y1950194D01*
X3810681Y1951303D01*
X3809849Y1952598D01*
X3808832Y1954077D01*
X3807537Y1955649D01*
X3806058Y1957035D01*
X3804301Y1958330D01*
X3804209D01*
X3804024Y1958422D01*
X3803747Y1958607D01*
X3803377Y1958792D01*
X3802914Y1958977D01*
X3802360Y1959254D01*
X3801065Y1959809D01*
X3799401Y1960364D01*
X3797552Y1960826D01*
X3795518Y1961196D01*
X3793391Y1961288D01*
X3792744D01*
X3792190Y1961196D01*
X3791542D01*
X3790895Y1961104D01*
X3789231Y1960734D01*
X3787289Y1960271D01*
X3785348Y1959532D01*
X3783314Y1958515D01*
X3782297Y1957960D01*
X3781372Y1957220D01*
X3781280Y1957128D01*
X3781187Y1957035D01*
X3780910Y1956758D01*
X3780540Y1956481D01*
X3780170Y1956018D01*
X3779708Y1955464D01*
X3779153Y1954909D01*
X3778691Y1954169D01*
X3778136Y1953337D01*
X3777489Y1952413D01*
X3776934Y1951488D01*
X3776380Y1950379D01*
X3775917Y1949177D01*
X3775455Y1947882D01*
X3774993Y1946495D01*
X3774623Y1945016D01*
X3766117Y1947143D01*
Y1947235D01*
X3766209Y1947605D01*
X3766394Y1948160D01*
X3766672Y1948899D01*
X3766949Y1949731D01*
X3767319Y1950748D01*
X3767781Y1951858D01*
X3768336Y1953060D01*
X3769630Y1955649D01*
X3771294Y1958237D01*
X3772311Y1959532D01*
X3773328Y1960826D01*
X3774438Y1961936D01*
X3775732Y1963045D01*
X3775825Y1963138D01*
X3776010Y1963322D01*
X3776472Y1963507D01*
X3776934Y1963877D01*
X3777674Y1964339D01*
X3778414Y1964802D01*
X3779431Y1965264D01*
X3780448Y1965726D01*
X3781650Y1966281D01*
X3782944Y1966743D01*
X3784331Y1967206D01*
X3785810Y1967668D01*
X3787382Y1968038D01*
X3789046Y1968223D01*
X3790803Y1968408D01*
X3792652Y1968500D01*
X3793669D01*
X3794408Y1968408D01*
D02*
G37*
G36*
X3737178Y1917372D02*
X3737271Y1917464D01*
X3737733Y1917834D01*
X3738288Y1918389D01*
X3739212Y1919036D01*
X3740229Y1919868D01*
X3741524Y1920793D01*
X3743003Y1921810D01*
X3744667Y1922827D01*
X3744760D01*
X3744852Y1922919D01*
X3745407Y1923289D01*
X3746331Y1923751D01*
X3747441Y1924306D01*
X3748735Y1924953D01*
X3750122Y1925600D01*
X3751509Y1926248D01*
X3752896Y1926802D01*
Y1919221D01*
X3752803D01*
X3752618Y1919036D01*
X3752249Y1918944D01*
X3751786Y1918666D01*
X3751232Y1918389D01*
X3750584Y1918019D01*
X3749013Y1917094D01*
X3747163Y1916077D01*
X3745314Y1914783D01*
X3743373Y1913304D01*
X3741431Y1911732D01*
X3741339Y1911640D01*
X3741246Y1911547D01*
X3740969Y1911270D01*
X3740599Y1910992D01*
X3739767Y1910068D01*
X3738657Y1908958D01*
X3737548Y1907664D01*
X3736346Y1906185D01*
X3735329Y1904705D01*
X3734405Y1903134D01*
X3729319D01*
Y1967391D01*
X3737178D01*
Y1917372D01*
D02*
G37*
G36*
X3687437D02*
X3687529Y1917464D01*
X3687992Y1917834D01*
X3688546Y1918389D01*
X3689471Y1919036D01*
X3690488Y1919868D01*
X3691782Y1920793D01*
X3693262Y1921810D01*
X3694926Y1922827D01*
X3695018D01*
X3695111Y1922919D01*
X3695665Y1923289D01*
X3696590Y1923751D01*
X3697699Y1924306D01*
X3698994Y1924953D01*
X3700381Y1925600D01*
X3701768Y1926248D01*
X3703154Y1926802D01*
Y1919221D01*
X3703062D01*
X3702877Y1919036D01*
X3702507Y1918944D01*
X3702045Y1918666D01*
X3701490Y1918389D01*
X3700843Y1918019D01*
X3699271Y1917094D01*
X3697422Y1916077D01*
X3695573Y1914783D01*
X3693631Y1913304D01*
X3691690Y1911732D01*
X3691597Y1911640D01*
X3691505Y1911547D01*
X3691228Y1911270D01*
X3690858Y1910992D01*
X3690026Y1910068D01*
X3688916Y1908958D01*
X3687807Y1907664D01*
X3686605Y1906185D01*
X3685588Y1904705D01*
X3684663Y1903134D01*
X3679578D01*
Y1967391D01*
X3687437D01*
Y1917372D01*
D02*
G37*
G36*
X4277026Y2666908D02*
X4277950D01*
X4278875Y2666815D01*
X4280077Y2666723D01*
X4281279Y2666538D01*
X4283960Y2666075D01*
X4286919Y2665428D01*
X4289877Y2664504D01*
X4292743Y2663209D01*
X4292836Y2663117D01*
X4293113Y2663024D01*
X4293483Y2662839D01*
X4293945Y2662470D01*
X4294592Y2662100D01*
X4295332Y2661638D01*
X4296996Y2660436D01*
X4298845Y2658864D01*
X4300694Y2657015D01*
X4302544Y2654888D01*
X4304115Y2652392D01*
X4304208Y2652299D01*
X4304300Y2652022D01*
X4304485Y2651652D01*
X4304763Y2651190D01*
X4305040Y2650450D01*
X4305317Y2649711D01*
X4305687Y2648786D01*
X4306057Y2647769D01*
X4306427Y2646660D01*
X4306797Y2645458D01*
X4307351Y2642869D01*
X4307814Y2639910D01*
X4307998Y2636859D01*
Y2635935D01*
X4307906Y2635288D01*
X4307814Y2634455D01*
X4307721Y2633438D01*
X4307629Y2632421D01*
X4307351Y2631220D01*
X4306797Y2628723D01*
X4305964Y2625950D01*
X4305410Y2624563D01*
X4304763Y2623268D01*
X4303930Y2621974D01*
X4303098Y2620680D01*
X4303006Y2620587D01*
X4302913Y2620402D01*
X4302636Y2620032D01*
X4302174Y2619570D01*
X4301711Y2619108D01*
X4301064Y2618461D01*
X4300325Y2617813D01*
X4299585Y2617074D01*
X4298660Y2616334D01*
X4297551Y2615594D01*
X4296441Y2614762D01*
X4295240Y2614023D01*
X4293853Y2613376D01*
X4292466Y2612636D01*
X4290987Y2612081D01*
X4289322Y2611526D01*
X4287381Y2619847D01*
X4287473D01*
X4287658Y2619940D01*
X4288028Y2620125D01*
X4288490Y2620310D01*
X4289045Y2620495D01*
X4289785Y2620772D01*
X4291264Y2621512D01*
X4292928Y2622436D01*
X4294592Y2623546D01*
X4296164Y2624933D01*
X4297551Y2626412D01*
X4297736Y2626597D01*
X4298106Y2627151D01*
X4298568Y2628076D01*
X4299215Y2629278D01*
X4299770Y2630850D01*
X4300325Y2632606D01*
X4300694Y2634733D01*
X4300787Y2637044D01*
Y2637784D01*
X4300694Y2638246D01*
Y2638893D01*
X4300602Y2639633D01*
X4300325Y2641390D01*
X4299955Y2643331D01*
X4299308Y2645365D01*
X4298383Y2647492D01*
X4297181Y2649433D01*
Y2649526D01*
X4296996Y2649618D01*
X4296534Y2650265D01*
X4295794Y2651098D01*
X4294685Y2652115D01*
X4293298Y2653317D01*
X4291726Y2654426D01*
X4289785Y2655443D01*
X4287658Y2656368D01*
X4287566D01*
X4287381Y2656460D01*
X4287103Y2656552D01*
X4286641Y2656645D01*
X4286086Y2656830D01*
X4285439Y2657015D01*
X4283867Y2657292D01*
X4282018Y2657662D01*
X4279984Y2658032D01*
X4277765Y2658217D01*
X4275362Y2658309D01*
X4275269D01*
X4274992D01*
X4274529D01*
X4273975D01*
X4273327Y2658217D01*
X4272495D01*
X4271571Y2658124D01*
X4270554Y2658032D01*
X4268335Y2657754D01*
X4265931Y2657292D01*
X4263527Y2656737D01*
X4261123Y2655998D01*
X4261031D01*
X4260846Y2655905D01*
X4260569Y2655720D01*
X4260106Y2655535D01*
X4258997Y2654981D01*
X4257702Y2654149D01*
X4256223Y2653132D01*
X4254651Y2651837D01*
X4253265Y2650358D01*
X4251970Y2648601D01*
Y2648509D01*
X4251878Y2648324D01*
X4251693Y2648047D01*
X4251508Y2647677D01*
X4251323Y2647214D01*
X4251046Y2646660D01*
X4250491Y2645365D01*
X4249936Y2643701D01*
X4249474Y2641852D01*
X4249104Y2639818D01*
X4249012Y2637691D01*
Y2637044D01*
X4249104Y2636490D01*
Y2635842D01*
X4249196Y2635195D01*
X4249566Y2633531D01*
X4250029Y2631589D01*
X4250768Y2629648D01*
X4251785Y2627614D01*
X4252340Y2626597D01*
X4253080Y2625672D01*
X4253172Y2625580D01*
X4253265Y2625487D01*
X4253542Y2625210D01*
X4253819Y2624840D01*
X4254282Y2624470D01*
X4254836Y2624008D01*
X4255391Y2623453D01*
X4256131Y2622991D01*
X4256963Y2622436D01*
X4257887Y2621789D01*
X4258812Y2621234D01*
X4259921Y2620680D01*
X4261123Y2620217D01*
X4262418Y2619755D01*
X4263805Y2619293D01*
X4265284Y2618923D01*
X4263157Y2610417D01*
X4263065D01*
X4262695Y2610509D01*
X4262140Y2610694D01*
X4261401Y2610972D01*
X4260569Y2611249D01*
X4259552Y2611619D01*
X4258442Y2612081D01*
X4257240Y2612636D01*
X4254651Y2613930D01*
X4252063Y2615594D01*
X4250768Y2616611D01*
X4249474Y2617628D01*
X4248364Y2618738D01*
X4247255Y2620032D01*
X4247162Y2620125D01*
X4246978Y2620310D01*
X4246793Y2620772D01*
X4246423Y2621234D01*
X4245961Y2621974D01*
X4245498Y2622714D01*
X4245036Y2623731D01*
X4244574Y2624748D01*
X4244019Y2625950D01*
X4243557Y2627244D01*
X4243094Y2628631D01*
X4242632Y2630110D01*
X4242262Y2631682D01*
X4242077Y2633346D01*
X4241892Y2635103D01*
X4241800Y2636952D01*
Y2637969D01*
X4241892Y2638708D01*
Y2639541D01*
X4241985Y2640558D01*
X4242170Y2641667D01*
X4242355Y2642961D01*
X4242817Y2645643D01*
X4243557Y2648416D01*
X4244574Y2651190D01*
X4245221Y2652484D01*
X4245961Y2653779D01*
X4246053Y2653871D01*
X4246145Y2654056D01*
X4246423Y2654426D01*
X4246793Y2654796D01*
X4247162Y2655351D01*
X4247717Y2655998D01*
X4248364Y2656737D01*
X4249104Y2657477D01*
X4249936Y2658217D01*
X4250768Y2659049D01*
X4252895Y2660713D01*
X4255391Y2662285D01*
X4258165Y2663672D01*
X4258257D01*
X4258535Y2663856D01*
X4258997Y2663949D01*
X4259552Y2664226D01*
X4260291Y2664411D01*
X4261216Y2664689D01*
X4262233Y2665058D01*
X4263342Y2665336D01*
X4264544Y2665613D01*
X4265931Y2665983D01*
X4268797Y2666445D01*
X4272033Y2666815D01*
X4275362Y2667000D01*
X4275454D01*
X4275824D01*
X4276379D01*
X4277026Y2666908D01*
D02*
G37*
G36*
X4291079Y2597103D02*
X4291264Y2596918D01*
X4291356Y2596549D01*
X4291634Y2596086D01*
X4291911Y2595532D01*
X4292281Y2594884D01*
X4293206Y2593313D01*
X4294223Y2591463D01*
X4295517Y2589614D01*
X4296996Y2587673D01*
X4298568Y2585731D01*
X4298660Y2585639D01*
X4298753Y2585546D01*
X4299030Y2585269D01*
X4299308Y2584899D01*
X4300232Y2584067D01*
X4301342Y2582957D01*
X4302636Y2581848D01*
X4304115Y2580646D01*
X4305595Y2579629D01*
X4307166Y2578705D01*
Y2573619D01*
X4242909D01*
Y2581478D01*
X4292928D01*
X4292836Y2581571D01*
X4292466Y2582033D01*
X4291911Y2582588D01*
X4291264Y2583512D01*
X4290432Y2584529D01*
X4289507Y2585824D01*
X4288490Y2587303D01*
X4287473Y2588967D01*
Y2589060D01*
X4287381Y2589152D01*
X4287011Y2589707D01*
X4286549Y2590631D01*
X4285994Y2591741D01*
X4285347Y2593035D01*
X4284700Y2594422D01*
X4284052Y2595809D01*
X4283498Y2597196D01*
X4291079D01*
Y2597103D01*
D02*
G37*
G36*
X4306889Y2526837D02*
Y2520457D01*
X4265469D01*
Y2511766D01*
X4258257D01*
Y2520457D01*
X4242909D01*
Y2528316D01*
X4258257D01*
Y2556145D01*
X4265469D01*
X4306889Y2526837D01*
D02*
G37*
G36*
X3498812Y2428306D02*
X3499645Y2428214D01*
X3500662Y2428121D01*
X3501679Y2428029D01*
X3502880Y2427751D01*
X3505377Y2427197D01*
X3508150Y2426364D01*
X3509537Y2425810D01*
X3510832Y2425163D01*
X3512126Y2424330D01*
X3513420Y2423498D01*
X3513513Y2423406D01*
X3513698Y2423313D01*
X3514068Y2423036D01*
X3514530Y2422574D01*
X3514992Y2422111D01*
X3515639Y2421464D01*
X3516287Y2420725D01*
X3517026Y2419985D01*
X3517766Y2419060D01*
X3518506Y2417951D01*
X3519338Y2416841D01*
X3520077Y2415640D01*
X3520724Y2414253D01*
X3521464Y2412866D01*
X3522019Y2411387D01*
X3522574Y2409722D01*
X3514253Y2407781D01*
Y2407873D01*
X3514160Y2408058D01*
X3513975Y2408428D01*
X3513790Y2408890D01*
X3513605Y2409445D01*
X3513328Y2410185D01*
X3512588Y2411664D01*
X3511664Y2413328D01*
X3510554Y2414992D01*
X3509167Y2416564D01*
X3507688Y2417951D01*
X3507503Y2418136D01*
X3506949Y2418506D01*
X3506024Y2418968D01*
X3504822Y2419615D01*
X3503250Y2420170D01*
X3501494Y2420725D01*
X3499367Y2421094D01*
X3497056Y2421187D01*
X3496316D01*
X3495854Y2421094D01*
X3495207D01*
X3494467Y2421002D01*
X3492710Y2420725D01*
X3490769Y2420355D01*
X3488735Y2419708D01*
X3486608Y2418783D01*
X3484667Y2417581D01*
X3484574D01*
X3484482Y2417396D01*
X3483835Y2416934D01*
X3483002Y2416194D01*
X3481985Y2415085D01*
X3480783Y2413698D01*
X3479674Y2412126D01*
X3478657Y2410185D01*
X3477732Y2408058D01*
Y2407966D01*
X3477640Y2407781D01*
X3477548Y2407503D01*
X3477455Y2407041D01*
X3477270Y2406486D01*
X3477085Y2405839D01*
X3476808Y2404267D01*
X3476438Y2402418D01*
X3476068Y2400384D01*
X3475883Y2398165D01*
X3475791Y2395762D01*
Y2395669D01*
Y2395392D01*
Y2394929D01*
Y2394375D01*
X3475883Y2393727D01*
Y2392895D01*
X3475976Y2391971D01*
X3476068Y2390954D01*
X3476346Y2388735D01*
X3476808Y2386331D01*
X3477363Y2383927D01*
X3478102Y2381523D01*
Y2381431D01*
X3478195Y2381246D01*
X3478380Y2380969D01*
X3478565Y2380506D01*
X3479119Y2379397D01*
X3479951Y2378102D01*
X3480968Y2376623D01*
X3482263Y2375051D01*
X3483742Y2373665D01*
X3485499Y2372370D01*
X3485591D01*
X3485776Y2372278D01*
X3486053Y2372093D01*
X3486423Y2371908D01*
X3486886Y2371723D01*
X3487440Y2371446D01*
X3488735Y2370891D01*
X3490399Y2370336D01*
X3492248Y2369874D01*
X3494282Y2369504D01*
X3496409Y2369412D01*
X3497056D01*
X3497610Y2369504D01*
X3498258D01*
X3498905Y2369596D01*
X3500569Y2369966D01*
X3502511Y2370429D01*
X3504452Y2371168D01*
X3506486Y2372185D01*
X3507503Y2372740D01*
X3508428Y2373480D01*
X3508520Y2373572D01*
X3508613Y2373665D01*
X3508890Y2373942D01*
X3509260Y2374219D01*
X3509630Y2374682D01*
X3510092Y2375236D01*
X3510647Y2375791D01*
X3511109Y2376531D01*
X3511664Y2377363D01*
X3512311Y2378287D01*
X3512866Y2379212D01*
X3513420Y2380321D01*
X3513883Y2381523D01*
X3514345Y2382818D01*
X3514807Y2384205D01*
X3515177Y2385684D01*
X3523683Y2383557D01*
Y2383465D01*
X3523591Y2383095D01*
X3523406Y2382540D01*
X3523128Y2381801D01*
X3522851Y2380969D01*
X3522481Y2379952D01*
X3522019Y2378842D01*
X3521464Y2377640D01*
X3520170Y2375051D01*
X3518506Y2372463D01*
X3517489Y2371168D01*
X3516472Y2369874D01*
X3515362Y2368764D01*
X3514068Y2367655D01*
X3513975Y2367562D01*
X3513790Y2367378D01*
X3513328Y2367193D01*
X3512866Y2366823D01*
X3512126Y2366361D01*
X3511386Y2365898D01*
X3510369Y2365436D01*
X3509352Y2364974D01*
X3508150Y2364419D01*
X3506856Y2363957D01*
X3505469Y2363494D01*
X3503990Y2363032D01*
X3502418Y2362662D01*
X3500754Y2362477D01*
X3498997Y2362292D01*
X3497148Y2362200D01*
X3496131D01*
X3495392Y2362292D01*
X3494559D01*
X3493542Y2362385D01*
X3492433Y2362570D01*
X3491139Y2362755D01*
X3488457Y2363217D01*
X3485684Y2363957D01*
X3482910Y2364974D01*
X3481616Y2365621D01*
X3480321Y2366361D01*
X3480229Y2366453D01*
X3480044Y2366545D01*
X3479674Y2366823D01*
X3479304Y2367193D01*
X3478749Y2367562D01*
X3478102Y2368117D01*
X3477363Y2368764D01*
X3476623Y2369504D01*
X3475883Y2370336D01*
X3475051Y2371168D01*
X3473387Y2373295D01*
X3471815Y2375791D01*
X3470428Y2378565D01*
Y2378657D01*
X3470244Y2378935D01*
X3470151Y2379397D01*
X3469874Y2379952D01*
X3469689Y2380691D01*
X3469411Y2381616D01*
X3469042Y2382633D01*
X3468764Y2383742D01*
X3468487Y2384944D01*
X3468117Y2386331D01*
X3467655Y2389197D01*
X3467285Y2392433D01*
X3467100Y2395762D01*
Y2395854D01*
Y2396224D01*
Y2396779D01*
X3467192Y2397426D01*
Y2398350D01*
X3467285Y2399275D01*
X3467377Y2400477D01*
X3467562Y2401679D01*
X3468025Y2404360D01*
X3468672Y2407319D01*
X3469596Y2410277D01*
X3470891Y2413143D01*
X3470983Y2413236D01*
X3471076Y2413513D01*
X3471261Y2413883D01*
X3471630Y2414345D01*
X3472000Y2414992D01*
X3472462Y2415732D01*
X3473664Y2417396D01*
X3475236Y2419245D01*
X3477085Y2421094D01*
X3479212Y2422944D01*
X3481708Y2424515D01*
X3481801Y2424608D01*
X3482078Y2424700D01*
X3482448Y2424885D01*
X3482910Y2425163D01*
X3483650Y2425440D01*
X3484389Y2425717D01*
X3485314Y2426087D01*
X3486331Y2426457D01*
X3487440Y2426827D01*
X3488642Y2427197D01*
X3491231Y2427751D01*
X3494190Y2428214D01*
X3497241Y2428398D01*
X3498165D01*
X3498812Y2428306D01*
D02*
G37*
G36*
X3602640Y2427474D02*
X3603842Y2427289D01*
X3605322Y2427012D01*
X3606986Y2426549D01*
X3608650Y2425995D01*
X3610314Y2425255D01*
X3610407D01*
X3610499Y2425163D01*
X3611054Y2424885D01*
X3611886Y2424330D01*
X3612811Y2423683D01*
X3613920Y2422759D01*
X3615030Y2421742D01*
X3616139Y2420540D01*
X3617064Y2419153D01*
X3617156Y2418968D01*
X3617433Y2418506D01*
X3617803Y2417674D01*
X3618266Y2416657D01*
X3618728Y2415455D01*
X3619098Y2414068D01*
X3619375Y2412496D01*
X3619467Y2410924D01*
Y2410739D01*
Y2410185D01*
X3619375Y2409445D01*
X3619190Y2408428D01*
X3618913Y2407226D01*
X3618450Y2405932D01*
X3617896Y2404637D01*
X3617156Y2403343D01*
X3617064Y2403158D01*
X3616786Y2402788D01*
X3616232Y2402141D01*
X3615492Y2401401D01*
X3614567Y2400569D01*
X3613458Y2399645D01*
X3612163Y2398813D01*
X3610592Y2397980D01*
X3610684D01*
X3610869Y2397888D01*
X3611146Y2397796D01*
X3611516Y2397703D01*
X3612533Y2397333D01*
X3613828Y2396779D01*
X3615307Y2396039D01*
X3616786Y2395114D01*
X3618173Y2393912D01*
X3619467Y2392526D01*
X3619560Y2392341D01*
X3619930Y2391786D01*
X3620485Y2390861D01*
X3621039Y2389659D01*
X3621594Y2388180D01*
X3622149Y2386423D01*
X3622519Y2384389D01*
X3622611Y2382170D01*
Y2382078D01*
Y2381801D01*
Y2381338D01*
X3622519Y2380784D01*
X3622426Y2380044D01*
X3622241Y2379212D01*
X3622056Y2378287D01*
X3621871Y2377270D01*
X3621132Y2375051D01*
X3620577Y2373849D01*
X3620022Y2372740D01*
X3619283Y2371538D01*
X3618450Y2370336D01*
X3617526Y2369134D01*
X3616416Y2368025D01*
X3616324Y2367932D01*
X3616139Y2367747D01*
X3615769Y2367470D01*
X3615307Y2367100D01*
X3614752Y2366638D01*
X3614013Y2366176D01*
X3613180Y2365621D01*
X3612163Y2365159D01*
X3611146Y2364604D01*
X3609945Y2364049D01*
X3608743Y2363587D01*
X3607356Y2363125D01*
X3605876Y2362755D01*
X3604305Y2362477D01*
X3602733Y2362292D01*
X3600976Y2362200D01*
X3600144D01*
X3599589Y2362292D01*
X3598850Y2362385D01*
X3598018Y2362477D01*
X3597093Y2362662D01*
X3596076Y2362847D01*
X3593857Y2363402D01*
X3591546Y2364326D01*
X3590344Y2364881D01*
X3589234Y2365528D01*
X3588125Y2366361D01*
X3587015Y2367193D01*
X3586923Y2367285D01*
X3586738Y2367470D01*
X3586461Y2367747D01*
X3586183Y2368117D01*
X3585721Y2368579D01*
X3585259Y2369227D01*
X3584704Y2369874D01*
X3584149Y2370706D01*
X3583595Y2371631D01*
X3583040Y2372555D01*
X3582023Y2374774D01*
X3581191Y2377363D01*
X3580913Y2378750D01*
X3580728Y2380229D01*
X3588587Y2381246D01*
Y2381153D01*
X3588680Y2380969D01*
X3588772Y2380599D01*
X3588865Y2380136D01*
X3588957Y2379582D01*
X3589142Y2378935D01*
X3589604Y2377548D01*
X3590251Y2375883D01*
X3591083Y2374312D01*
X3592008Y2372832D01*
X3593118Y2371538D01*
X3593302Y2371446D01*
X3593672Y2371076D01*
X3594412Y2370613D01*
X3595336Y2370151D01*
X3596446Y2369596D01*
X3597833Y2369134D01*
X3599405Y2368764D01*
X3601069Y2368672D01*
X3601623D01*
X3601993Y2368764D01*
X3603010Y2368857D01*
X3604305Y2369134D01*
X3605784Y2369596D01*
X3607356Y2370244D01*
X3608928Y2371168D01*
X3610407Y2372463D01*
X3610592Y2372648D01*
X3611054Y2373202D01*
X3611609Y2374034D01*
X3612348Y2375144D01*
X3613088Y2376531D01*
X3613643Y2378102D01*
X3614105Y2379952D01*
X3614290Y2381986D01*
Y2382078D01*
Y2382263D01*
Y2382540D01*
X3614197Y2382910D01*
X3614105Y2383927D01*
X3613828Y2385129D01*
X3613458Y2386608D01*
X3612811Y2388088D01*
X3611886Y2389567D01*
X3610684Y2390954D01*
X3610499Y2391139D01*
X3610037Y2391509D01*
X3609297Y2392063D01*
X3608280Y2392710D01*
X3606986Y2393358D01*
X3605414Y2393912D01*
X3603658Y2394282D01*
X3601716Y2394467D01*
X3600884D01*
X3600237Y2394375D01*
X3599405Y2394282D01*
X3598480Y2394097D01*
X3597371Y2393912D01*
X3596169Y2393635D01*
X3597093Y2400569D01*
X3597555D01*
X3597925Y2400477D01*
X3599127D01*
X3600144Y2400662D01*
X3601346Y2400847D01*
X3602733Y2401124D01*
X3604305Y2401586D01*
X3605784Y2402233D01*
X3607356Y2403066D01*
X3607448D01*
X3607541Y2403158D01*
X3608003Y2403528D01*
X3608650Y2404175D01*
X3609390Y2405007D01*
X3610129Y2406209D01*
X3610777Y2407596D01*
X3611239Y2409168D01*
X3611424Y2410092D01*
Y2411109D01*
Y2411202D01*
Y2411294D01*
Y2411849D01*
X3611239Y2412589D01*
X3611054Y2413606D01*
X3610684Y2414715D01*
X3610222Y2415917D01*
X3609482Y2417119D01*
X3608465Y2418228D01*
X3608373Y2418321D01*
X3607910Y2418691D01*
X3607263Y2419153D01*
X3606431Y2419708D01*
X3605322Y2420170D01*
X3604027Y2420632D01*
X3602548Y2421002D01*
X3600884Y2421094D01*
X3600144D01*
X3599312Y2420910D01*
X3598203Y2420725D01*
X3597001Y2420355D01*
X3595799Y2419893D01*
X3594504Y2419153D01*
X3593302Y2418228D01*
X3593210Y2418136D01*
X3592840Y2417674D01*
X3592285Y2417026D01*
X3591638Y2416102D01*
X3590991Y2414900D01*
X3590344Y2413421D01*
X3589789Y2411664D01*
X3589419Y2409630D01*
X3581561Y2411017D01*
Y2411109D01*
X3581653Y2411387D01*
X3581745Y2411756D01*
X3581838Y2412311D01*
X3582023Y2412958D01*
X3582300Y2413698D01*
X3582855Y2415455D01*
X3583779Y2417489D01*
X3584889Y2419523D01*
X3586276Y2421464D01*
X3588032Y2423221D01*
X3588125Y2423313D01*
X3588310Y2423406D01*
X3588587Y2423591D01*
X3588957Y2423868D01*
X3589419Y2424238D01*
X3590066Y2424608D01*
X3590714Y2424978D01*
X3591546Y2425440D01*
X3593395Y2426180D01*
X3595521Y2426919D01*
X3598018Y2427381D01*
X3599312Y2427566D01*
X3601623D01*
X3602640Y2427474D01*
D02*
G37*
G36*
X3560481Y2363309D02*
X3552622D01*
Y2413328D01*
X3552529Y2413236D01*
X3552067Y2412866D01*
X3551512Y2412311D01*
X3550588Y2411664D01*
X3549571Y2410832D01*
X3548276Y2409907D01*
X3546797Y2408890D01*
X3545133Y2407873D01*
X3545040D01*
X3544948Y2407781D01*
X3544393Y2407411D01*
X3543469Y2406949D01*
X3542359Y2406394D01*
X3541065Y2405747D01*
X3539678Y2405100D01*
X3538291Y2404452D01*
X3536904Y2403898D01*
Y2411479D01*
X3536997D01*
X3537182Y2411664D01*
X3537551Y2411756D01*
X3538014Y2412034D01*
X3538568Y2412311D01*
X3539216Y2412681D01*
X3540787Y2413606D01*
X3542637Y2414623D01*
X3544486Y2415917D01*
X3546427Y2417396D01*
X3548369Y2418968D01*
X3548461Y2419060D01*
X3548554Y2419153D01*
X3548831Y2419430D01*
X3549201Y2419708D01*
X3550033Y2420632D01*
X3551143Y2421742D01*
X3552252Y2423036D01*
X3553454Y2424515D01*
X3554471Y2425995D01*
X3555395Y2427566D01*
X3560481D01*
Y2363309D01*
D02*
G37*
G36*
X5878941Y2732274D02*
X5879588D01*
X5880328Y2732181D01*
X5882084Y2731812D01*
X5884026Y2731349D01*
X5886060Y2730610D01*
X5888094Y2729500D01*
X5889111Y2728853D01*
X5890035Y2728113D01*
X5890128Y2728021D01*
X5890220Y2727929D01*
X5890498Y2727651D01*
X5890775Y2727374D01*
X5891237Y2726911D01*
X5891607Y2726357D01*
X5892624Y2725062D01*
X5893641Y2723398D01*
X5894566Y2721364D01*
X5895398Y2719053D01*
X5895953Y2716464D01*
X5888094Y2715817D01*
Y2715909D01*
X5888001Y2716002D01*
X5887909Y2716556D01*
X5887632Y2717389D01*
X5887262Y2718406D01*
X5886892Y2719515D01*
X5886337Y2720624D01*
X5885690Y2721641D01*
X5885043Y2722474D01*
X5884858Y2722659D01*
X5884488Y2723028D01*
X5883841Y2723583D01*
X5882916Y2724230D01*
X5881714Y2724785D01*
X5880420Y2725340D01*
X5878848Y2725710D01*
X5877184Y2725894D01*
X5876537D01*
X5875797Y2725802D01*
X5874965Y2725617D01*
X5873856Y2725340D01*
X5872746Y2724970D01*
X5871637Y2724508D01*
X5870527Y2723768D01*
X5870342Y2723676D01*
X5869880Y2723306D01*
X5869233Y2722659D01*
X5868401Y2721734D01*
X5867476Y2720624D01*
X5866459Y2719330D01*
X5865535Y2717666D01*
X5864610Y2715817D01*
Y2715724D01*
X5864518Y2715539D01*
X5864425Y2715262D01*
X5864240Y2714892D01*
X5864148Y2714337D01*
X5863963Y2713690D01*
X5863778Y2712951D01*
X5863593Y2712026D01*
X5863316Y2711009D01*
X5863131Y2709900D01*
X5862946Y2708698D01*
X5862853Y2707403D01*
X5862668Y2705924D01*
X5862576Y2704445D01*
X5862484Y2702780D01*
Y2701116D01*
X5862576Y2701209D01*
X5862946Y2701763D01*
X5863593Y2702503D01*
X5864425Y2703428D01*
X5865350Y2704537D01*
X5866552Y2705554D01*
X5867846Y2706571D01*
X5869325Y2707496D01*
X5869418D01*
X5869510Y2707588D01*
X5870065Y2707866D01*
X5870897Y2708143D01*
X5872007Y2708605D01*
X5873301Y2708975D01*
X5874780Y2709252D01*
X5876352Y2709530D01*
X5878016Y2709622D01*
X5878756D01*
X5879311Y2709530D01*
X5880050Y2709437D01*
X5880790Y2709345D01*
X5881714Y2709160D01*
X5882639Y2708883D01*
X5884765Y2708235D01*
X5885875Y2707773D01*
X5886984Y2707126D01*
X5888094Y2706479D01*
X5889296Y2705739D01*
X5890405Y2704815D01*
X5891422Y2703797D01*
X5891515Y2703705D01*
X5891700Y2703520D01*
X5891977Y2703243D01*
X5892254Y2702780D01*
X5892717Y2702133D01*
X5893179Y2701486D01*
X5893641Y2700654D01*
X5894196Y2699729D01*
X5894751Y2698712D01*
X5895213Y2697603D01*
X5895675Y2696309D01*
X5896138Y2695014D01*
X5896415Y2693627D01*
X5896692Y2692056D01*
X5896877Y2690484D01*
X5896970Y2688820D01*
Y2688727D01*
Y2688542D01*
Y2688265D01*
Y2687803D01*
X5896877Y2687248D01*
Y2686693D01*
X5896600Y2685214D01*
X5896322Y2683457D01*
X5895860Y2681608D01*
X5895213Y2679574D01*
X5894288Y2677632D01*
Y2677540D01*
X5894196Y2677448D01*
X5894011Y2677170D01*
X5893826Y2676800D01*
X5893271Y2675876D01*
X5892439Y2674674D01*
X5891422Y2673379D01*
X5890220Y2672085D01*
X5888741Y2670791D01*
X5887169Y2669681D01*
X5887077D01*
X5886984Y2669589D01*
X5886707Y2669404D01*
X5886337Y2669311D01*
X5885413Y2668849D01*
X5884211Y2668387D01*
X5882639Y2667832D01*
X5880882Y2667462D01*
X5878941Y2667092D01*
X5876814Y2667000D01*
X5876352D01*
X5875890Y2667092D01*
X5875150D01*
X5874318Y2667185D01*
X5873393Y2667370D01*
X5872284Y2667647D01*
X5871174Y2667925D01*
X5869880Y2668294D01*
X5868586Y2668757D01*
X5867291Y2669311D01*
X5865904Y2670051D01*
X5864610Y2670883D01*
X5863316Y2671808D01*
X5862021Y2672917D01*
X5860819Y2674212D01*
X5860727Y2674304D01*
X5860542Y2674581D01*
X5860265Y2674951D01*
X5859895Y2675598D01*
X5859340Y2676431D01*
X5858878Y2677355D01*
X5858323Y2678557D01*
X5857768Y2679851D01*
X5857121Y2681423D01*
X5856566Y2683180D01*
X5856104Y2685121D01*
X5855642Y2687248D01*
X5855180Y2689652D01*
X5854902Y2692240D01*
X5854717Y2695014D01*
X5854625Y2697973D01*
Y2698065D01*
Y2698158D01*
Y2698435D01*
Y2698805D01*
X5854717Y2699729D01*
Y2701024D01*
X5854810Y2702503D01*
X5854995Y2704260D01*
X5855180Y2706201D01*
X5855457Y2708328D01*
X5855827Y2710454D01*
X5856289Y2712766D01*
X5856844Y2714985D01*
X5857491Y2717204D01*
X5858323Y2719330D01*
X5859248Y2721364D01*
X5860265Y2723306D01*
X5861467Y2724970D01*
X5861559Y2725062D01*
X5861744Y2725247D01*
X5862114Y2725617D01*
X5862576Y2726172D01*
X5863131Y2726727D01*
X5863870Y2727281D01*
X5864795Y2728021D01*
X5865720Y2728668D01*
X5866829Y2729315D01*
X5868031Y2730055D01*
X5869418Y2730610D01*
X5870805Y2731257D01*
X5872376Y2731719D01*
X5874041Y2732089D01*
X5875797Y2732274D01*
X5877646Y2732366D01*
X5878386D01*
X5878941Y2732274D01*
D02*
G37*
G36*
X5822912Y2733106D02*
X5823745Y2733014D01*
X5824762Y2732921D01*
X5825779Y2732829D01*
X5826980Y2732551D01*
X5829477Y2731997D01*
X5832250Y2731164D01*
X5833637Y2730610D01*
X5834932Y2729963D01*
X5836226Y2729130D01*
X5837520Y2728298D01*
X5837613Y2728206D01*
X5837798Y2728113D01*
X5838168Y2727836D01*
X5838630Y2727374D01*
X5839092Y2726911D01*
X5839739Y2726264D01*
X5840387Y2725525D01*
X5841126Y2724785D01*
X5841866Y2723860D01*
X5842606Y2722751D01*
X5843438Y2721641D01*
X5844177Y2720440D01*
X5844824Y2719053D01*
X5845564Y2717666D01*
X5846119Y2716187D01*
X5846674Y2714522D01*
X5838353Y2712581D01*
Y2712673D01*
X5838260Y2712858D01*
X5838075Y2713228D01*
X5837890Y2713690D01*
X5837705Y2714245D01*
X5837428Y2714985D01*
X5836688Y2716464D01*
X5835764Y2718128D01*
X5834654Y2719792D01*
X5833267Y2721364D01*
X5831788Y2722751D01*
X5831603Y2722936D01*
X5831049Y2723306D01*
X5830124Y2723768D01*
X5828922Y2724415D01*
X5827350Y2724970D01*
X5825594Y2725525D01*
X5823467Y2725894D01*
X5821156Y2725987D01*
X5820416D01*
X5819954Y2725894D01*
X5819307D01*
X5818567Y2725802D01*
X5816810Y2725525D01*
X5814869Y2725155D01*
X5812835Y2724508D01*
X5810708Y2723583D01*
X5808767Y2722381D01*
X5808674D01*
X5808582Y2722196D01*
X5807935Y2721734D01*
X5807102Y2720994D01*
X5806085Y2719885D01*
X5804883Y2718498D01*
X5803774Y2716926D01*
X5802757Y2714985D01*
X5801832Y2712858D01*
Y2712766D01*
X5801740Y2712581D01*
X5801648Y2712303D01*
X5801555Y2711841D01*
X5801370Y2711286D01*
X5801185Y2710639D01*
X5800908Y2709067D01*
X5800538Y2707218D01*
X5800168Y2705184D01*
X5799983Y2702965D01*
X5799891Y2700562D01*
Y2700469D01*
Y2700192D01*
Y2699729D01*
Y2699175D01*
X5799983Y2698527D01*
Y2697695D01*
X5800076Y2696771D01*
X5800168Y2695754D01*
X5800446Y2693535D01*
X5800908Y2691131D01*
X5801463Y2688727D01*
X5802202Y2686323D01*
Y2686231D01*
X5802295Y2686046D01*
X5802480Y2685769D01*
X5802665Y2685306D01*
X5803219Y2684197D01*
X5804051Y2682902D01*
X5805068Y2681423D01*
X5806363Y2679851D01*
X5807842Y2678465D01*
X5809599Y2677170D01*
X5809691D01*
X5809876Y2677078D01*
X5810153Y2676893D01*
X5810523Y2676708D01*
X5810986Y2676523D01*
X5811540Y2676246D01*
X5812835Y2675691D01*
X5814499Y2675136D01*
X5816348Y2674674D01*
X5818382Y2674304D01*
X5820509Y2674212D01*
X5821156D01*
X5821710Y2674304D01*
X5822358D01*
X5823005Y2674396D01*
X5824669Y2674766D01*
X5826611Y2675229D01*
X5828552Y2675968D01*
X5830586Y2676985D01*
X5831603Y2677540D01*
X5832528Y2678280D01*
X5832620Y2678372D01*
X5832713Y2678465D01*
X5832990Y2678742D01*
X5833360Y2679019D01*
X5833730Y2679482D01*
X5834192Y2680036D01*
X5834747Y2680591D01*
X5835209Y2681331D01*
X5835764Y2682163D01*
X5836411Y2683087D01*
X5836966Y2684012D01*
X5837520Y2685121D01*
X5837983Y2686323D01*
X5838445Y2687618D01*
X5838907Y2689005D01*
X5839277Y2690484D01*
X5847783Y2688357D01*
Y2688265D01*
X5847691Y2687895D01*
X5847506Y2687340D01*
X5847228Y2686601D01*
X5846951Y2685769D01*
X5846581Y2684752D01*
X5846119Y2683642D01*
X5845564Y2682440D01*
X5844270Y2679851D01*
X5842606Y2677263D01*
X5841589Y2675968D01*
X5840572Y2674674D01*
X5839462Y2673564D01*
X5838168Y2672455D01*
X5838075Y2672362D01*
X5837890Y2672178D01*
X5837428Y2671993D01*
X5836966Y2671623D01*
X5836226Y2671161D01*
X5835486Y2670698D01*
X5834469Y2670236D01*
X5833452Y2669774D01*
X5832250Y2669219D01*
X5830956Y2668757D01*
X5829569Y2668294D01*
X5828090Y2667832D01*
X5826518Y2667462D01*
X5824854Y2667277D01*
X5823097Y2667092D01*
X5821248Y2667000D01*
X5820231D01*
X5819492Y2667092D01*
X5818659D01*
X5817642Y2667185D01*
X5816533Y2667370D01*
X5815239Y2667555D01*
X5812557Y2668017D01*
X5809784Y2668757D01*
X5807010Y2669774D01*
X5805716Y2670421D01*
X5804421Y2671161D01*
X5804329Y2671253D01*
X5804144Y2671345D01*
X5803774Y2671623D01*
X5803404Y2671993D01*
X5802849Y2672362D01*
X5802202Y2672917D01*
X5801463Y2673564D01*
X5800723Y2674304D01*
X5799983Y2675136D01*
X5799151Y2675968D01*
X5797487Y2678095D01*
X5795915Y2680591D01*
X5794528Y2683365D01*
Y2683457D01*
X5794344Y2683735D01*
X5794251Y2684197D01*
X5793974Y2684752D01*
X5793789Y2685491D01*
X5793511Y2686416D01*
X5793142Y2687433D01*
X5792864Y2688542D01*
X5792587Y2689744D01*
X5792217Y2691131D01*
X5791755Y2693997D01*
X5791385Y2697233D01*
X5791200Y2700562D01*
Y2700654D01*
Y2701024D01*
Y2701579D01*
X5791292Y2702226D01*
Y2703150D01*
X5791385Y2704075D01*
X5791477Y2705277D01*
X5791662Y2706479D01*
X5792125Y2709160D01*
X5792772Y2712119D01*
X5793696Y2715077D01*
X5794991Y2717943D01*
X5795083Y2718036D01*
X5795176Y2718313D01*
X5795361Y2718683D01*
X5795730Y2719145D01*
X5796100Y2719792D01*
X5796562Y2720532D01*
X5797764Y2722196D01*
X5799336Y2724045D01*
X5801185Y2725894D01*
X5803312Y2727744D01*
X5805808Y2729315D01*
X5805901Y2729408D01*
X5806178Y2729500D01*
X5806548Y2729685D01*
X5807010Y2729963D01*
X5807750Y2730240D01*
X5808489Y2730517D01*
X5809414Y2730887D01*
X5810431Y2731257D01*
X5811540Y2731627D01*
X5812742Y2731997D01*
X5815331Y2732551D01*
X5818290Y2733014D01*
X5821341Y2733198D01*
X5822265D01*
X5822912Y2733106D01*
D02*
G37*
G36*
Y3025206D02*
X5823745Y3025114D01*
X5824762Y3025021D01*
X5825779Y3024929D01*
X5826980Y3024651D01*
X5829477Y3024097D01*
X5832250Y3023264D01*
X5833637Y3022710D01*
X5834932Y3022063D01*
X5836226Y3021230D01*
X5837520Y3020398D01*
X5837613Y3020306D01*
X5837798Y3020213D01*
X5838168Y3019936D01*
X5838630Y3019474D01*
X5839092Y3019011D01*
X5839739Y3018364D01*
X5840387Y3017625D01*
X5841126Y3016885D01*
X5841866Y3015960D01*
X5842606Y3014851D01*
X5843438Y3013741D01*
X5844177Y3012540D01*
X5844824Y3011153D01*
X5845564Y3009766D01*
X5846119Y3008287D01*
X5846674Y3006622D01*
X5838353Y3004681D01*
Y3004773D01*
X5838260Y3004958D01*
X5838075Y3005328D01*
X5837890Y3005790D01*
X5837705Y3006345D01*
X5837428Y3007085D01*
X5836688Y3008564D01*
X5835764Y3010228D01*
X5834654Y3011892D01*
X5833267Y3013464D01*
X5831788Y3014851D01*
X5831603Y3015036D01*
X5831049Y3015406D01*
X5830124Y3015868D01*
X5828922Y3016515D01*
X5827350Y3017070D01*
X5825594Y3017625D01*
X5823467Y3017994D01*
X5821156Y3018087D01*
X5820416D01*
X5819954Y3017994D01*
X5819307D01*
X5818567Y3017902D01*
X5816810Y3017625D01*
X5814869Y3017255D01*
X5812835Y3016608D01*
X5810708Y3015683D01*
X5808767Y3014481D01*
X5808674D01*
X5808582Y3014296D01*
X5807935Y3013834D01*
X5807102Y3013094D01*
X5806085Y3011985D01*
X5804883Y3010598D01*
X5803774Y3009026D01*
X5802757Y3007085D01*
X5801832Y3004958D01*
Y3004866D01*
X5801740Y3004681D01*
X5801648Y3004403D01*
X5801555Y3003941D01*
X5801370Y3003386D01*
X5801185Y3002739D01*
X5800908Y3001167D01*
X5800538Y2999318D01*
X5800168Y2997284D01*
X5799983Y2995065D01*
X5799891Y2992662D01*
Y2992569D01*
Y2992292D01*
Y2991829D01*
Y2991275D01*
X5799983Y2990627D01*
Y2989795D01*
X5800076Y2988871D01*
X5800168Y2987854D01*
X5800446Y2985635D01*
X5800908Y2983231D01*
X5801463Y2980827D01*
X5802202Y2978423D01*
Y2978331D01*
X5802295Y2978146D01*
X5802480Y2977869D01*
X5802665Y2977406D01*
X5803219Y2976297D01*
X5804051Y2975002D01*
X5805068Y2973523D01*
X5806363Y2971951D01*
X5807842Y2970565D01*
X5809599Y2969270D01*
X5809691D01*
X5809876Y2969178D01*
X5810153Y2968993D01*
X5810523Y2968808D01*
X5810986Y2968623D01*
X5811540Y2968346D01*
X5812835Y2967791D01*
X5814499Y2967236D01*
X5816348Y2966774D01*
X5818382Y2966404D01*
X5820509Y2966312D01*
X5821156D01*
X5821710Y2966404D01*
X5822358D01*
X5823005Y2966496D01*
X5824669Y2966866D01*
X5826611Y2967329D01*
X5828552Y2968068D01*
X5830586Y2969085D01*
X5831603Y2969640D01*
X5832528Y2970380D01*
X5832620Y2970472D01*
X5832713Y2970565D01*
X5832990Y2970842D01*
X5833360Y2971119D01*
X5833730Y2971582D01*
X5834192Y2972136D01*
X5834747Y2972691D01*
X5835209Y2973431D01*
X5835764Y2974263D01*
X5836411Y2975187D01*
X5836966Y2976112D01*
X5837520Y2977221D01*
X5837983Y2978423D01*
X5838445Y2979718D01*
X5838907Y2981105D01*
X5839277Y2982584D01*
X5847783Y2980457D01*
Y2980365D01*
X5847691Y2979995D01*
X5847506Y2979440D01*
X5847228Y2978701D01*
X5846951Y2977869D01*
X5846581Y2976852D01*
X5846119Y2975742D01*
X5845564Y2974540D01*
X5844270Y2971951D01*
X5842606Y2969363D01*
X5841589Y2968068D01*
X5840572Y2966774D01*
X5839462Y2965664D01*
X5838168Y2964555D01*
X5838075Y2964462D01*
X5837890Y2964278D01*
X5837428Y2964093D01*
X5836966Y2963723D01*
X5836226Y2963261D01*
X5835486Y2962798D01*
X5834469Y2962336D01*
X5833452Y2961874D01*
X5832250Y2961319D01*
X5830956Y2960857D01*
X5829569Y2960394D01*
X5828090Y2959932D01*
X5826518Y2959562D01*
X5824854Y2959377D01*
X5823097Y2959192D01*
X5821248Y2959100D01*
X5820231D01*
X5819492Y2959192D01*
X5818659D01*
X5817642Y2959285D01*
X5816533Y2959470D01*
X5815239Y2959655D01*
X5812557Y2960117D01*
X5809784Y2960857D01*
X5807010Y2961874D01*
X5805716Y2962521D01*
X5804421Y2963261D01*
X5804329Y2963353D01*
X5804144Y2963445D01*
X5803774Y2963723D01*
X5803404Y2964093D01*
X5802849Y2964462D01*
X5802202Y2965017D01*
X5801463Y2965664D01*
X5800723Y2966404D01*
X5799983Y2967236D01*
X5799151Y2968068D01*
X5797487Y2970195D01*
X5795915Y2972691D01*
X5794528Y2975465D01*
Y2975557D01*
X5794344Y2975835D01*
X5794251Y2976297D01*
X5793974Y2976852D01*
X5793789Y2977591D01*
X5793511Y2978516D01*
X5793142Y2979533D01*
X5792864Y2980642D01*
X5792587Y2981844D01*
X5792217Y2983231D01*
X5791755Y2986097D01*
X5791385Y2989333D01*
X5791200Y2992662D01*
Y2992754D01*
Y2993124D01*
Y2993679D01*
X5791292Y2994326D01*
Y2995250D01*
X5791385Y2996175D01*
X5791477Y2997377D01*
X5791662Y2998579D01*
X5792125Y3001260D01*
X5792772Y3004219D01*
X5793696Y3007177D01*
X5794991Y3010043D01*
X5795083Y3010136D01*
X5795176Y3010413D01*
X5795361Y3010783D01*
X5795730Y3011245D01*
X5796100Y3011892D01*
X5796562Y3012632D01*
X5797764Y3014296D01*
X5799336Y3016145D01*
X5801185Y3017994D01*
X5803312Y3019844D01*
X5805808Y3021415D01*
X5805901Y3021508D01*
X5806178Y3021600D01*
X5806548Y3021785D01*
X5807010Y3022063D01*
X5807750Y3022340D01*
X5808489Y3022617D01*
X5809414Y3022987D01*
X5810431Y3023357D01*
X5811540Y3023727D01*
X5812742Y3024097D01*
X5815331Y3024651D01*
X5818290Y3025114D01*
X5821341Y3025298D01*
X5822265D01*
X5822912Y3025206D01*
D02*
G37*
G36*
X5884581Y2960209D02*
X5876722D01*
Y3010228D01*
X5876629Y3010136D01*
X5876167Y3009766D01*
X5875612Y3009211D01*
X5874688Y3008564D01*
X5873671Y3007732D01*
X5872376Y3006807D01*
X5870897Y3005790D01*
X5869233Y3004773D01*
X5869140D01*
X5869048Y3004681D01*
X5868493Y3004311D01*
X5867569Y3003849D01*
X5866459Y3003294D01*
X5865165Y3002647D01*
X5863778Y3002000D01*
X5862391Y3001352D01*
X5861004Y3000798D01*
Y3008379D01*
X5861097D01*
X5861282Y3008564D01*
X5861651Y3008656D01*
X5862114Y3008934D01*
X5862668Y3009211D01*
X5863316Y3009581D01*
X5864887Y3010506D01*
X5866737Y3011523D01*
X5868586Y3012817D01*
X5870527Y3014296D01*
X5872469Y3015868D01*
X5872561Y3015960D01*
X5872654Y3016053D01*
X5872931Y3016330D01*
X5873301Y3016608D01*
X5874133Y3017532D01*
X5875243Y3018642D01*
X5876352Y3019936D01*
X5877554Y3021415D01*
X5878571Y3022895D01*
X5879495Y3024466D01*
X5884581D01*
Y2960209D01*
D02*
G37*
G36*
X5508043Y1468401D02*
X5523391D01*
Y1460543D01*
X5508043D01*
Y1432713D01*
X5500831D01*
X5459411Y1462022D01*
Y1468401D01*
X5500831D01*
Y1477092D01*
X5508043D01*
Y1468401D01*
D02*
G37*
G36*
X5503605Y1428091D02*
X5504160Y1427906D01*
X5504899Y1427628D01*
X5505731Y1427351D01*
X5506748Y1426981D01*
X5507858Y1426519D01*
X5509060Y1425964D01*
X5511649Y1424670D01*
X5514237Y1423006D01*
X5515532Y1421989D01*
X5516826Y1420972D01*
X5517936Y1419862D01*
X5519045Y1418568D01*
X5519138Y1418475D01*
X5519322Y1418290D01*
X5519507Y1417828D01*
X5519877Y1417366D01*
X5520339Y1416626D01*
X5520802Y1415886D01*
X5521264Y1414869D01*
X5521726Y1413852D01*
X5522281Y1412650D01*
X5522743Y1411356D01*
X5523206Y1409969D01*
X5523668Y1408490D01*
X5524038Y1406918D01*
X5524223Y1405254D01*
X5524408Y1403497D01*
X5524500Y1401648D01*
Y1400631D01*
X5524408Y1399892D01*
Y1399059D01*
X5524315Y1398042D01*
X5524130Y1396933D01*
X5523945Y1395639D01*
X5523483Y1392957D01*
X5522743Y1390184D01*
X5521726Y1387410D01*
X5521079Y1386116D01*
X5520339Y1384821D01*
X5520247Y1384729D01*
X5520155Y1384544D01*
X5519877Y1384174D01*
X5519507Y1383804D01*
X5519138Y1383249D01*
X5518583Y1382602D01*
X5517936Y1381863D01*
X5517196Y1381123D01*
X5516364Y1380383D01*
X5515532Y1379551D01*
X5513405Y1377887D01*
X5510909Y1376315D01*
X5508135Y1374928D01*
X5508043D01*
X5507765Y1374744D01*
X5507303Y1374651D01*
X5506748Y1374374D01*
X5506009Y1374189D01*
X5505084Y1373911D01*
X5504067Y1373542D01*
X5502958Y1373264D01*
X5501756Y1372987D01*
X5500369Y1372617D01*
X5497503Y1372155D01*
X5494267Y1371785D01*
X5490938Y1371600D01*
X5490846D01*
X5490476D01*
X5489921D01*
X5489274Y1371692D01*
X5488350D01*
X5487425Y1371785D01*
X5486223Y1371877D01*
X5485021Y1372062D01*
X5482340Y1372525D01*
X5479381Y1373172D01*
X5476423Y1374096D01*
X5473557Y1375391D01*
X5473464Y1375483D01*
X5473187Y1375576D01*
X5472817Y1375761D01*
X5472355Y1376130D01*
X5471708Y1376500D01*
X5470968Y1376962D01*
X5469304Y1378164D01*
X5467455Y1379736D01*
X5465606Y1381585D01*
X5463756Y1383712D01*
X5462185Y1386208D01*
X5462092Y1386301D01*
X5462000Y1386578D01*
X5461815Y1386948D01*
X5461537Y1387410D01*
X5461260Y1388150D01*
X5460983Y1388889D01*
X5460613Y1389814D01*
X5460243Y1390831D01*
X5459873Y1391940D01*
X5459503Y1393142D01*
X5458949Y1395731D01*
X5458486Y1398690D01*
X5458302Y1401741D01*
Y1402665D01*
X5458394Y1403312D01*
X5458486Y1404145D01*
X5458579Y1405162D01*
X5458671Y1406179D01*
X5458949Y1407380D01*
X5459503Y1409877D01*
X5460336Y1412650D01*
X5460890Y1414037D01*
X5461537Y1415332D01*
X5462370Y1416626D01*
X5463202Y1417920D01*
X5463294Y1418013D01*
X5463387Y1418198D01*
X5463664Y1418568D01*
X5464126Y1419030D01*
X5464589Y1419492D01*
X5465236Y1420139D01*
X5465975Y1420787D01*
X5466715Y1421526D01*
X5467640Y1422266D01*
X5468749Y1423006D01*
X5469859Y1423838D01*
X5471060Y1424577D01*
X5472447Y1425224D01*
X5473834Y1425964D01*
X5475313Y1426519D01*
X5476978Y1427074D01*
X5478919Y1418753D01*
X5478827D01*
X5478642Y1418660D01*
X5478272Y1418475D01*
X5477810Y1418290D01*
X5477255Y1418105D01*
X5476515Y1417828D01*
X5475036Y1417088D01*
X5473372Y1416164D01*
X5471708Y1415054D01*
X5470136Y1413667D01*
X5468749Y1412188D01*
X5468564Y1412003D01*
X5468194Y1411449D01*
X5467732Y1410524D01*
X5467085Y1409322D01*
X5466530Y1407750D01*
X5465975Y1405994D01*
X5465606Y1403867D01*
X5465513Y1401556D01*
Y1400816D01*
X5465606Y1400354D01*
Y1399707D01*
X5465698Y1398967D01*
X5465975Y1397210D01*
X5466345Y1395269D01*
X5466992Y1393235D01*
X5467917Y1391108D01*
X5469119Y1389167D01*
Y1389074D01*
X5469304Y1388982D01*
X5469766Y1388335D01*
X5470506Y1387502D01*
X5471615Y1386485D01*
X5473002Y1385283D01*
X5474574Y1384174D01*
X5476515Y1383157D01*
X5478642Y1382232D01*
X5478734D01*
X5478919Y1382140D01*
X5479197Y1382048D01*
X5479659Y1381955D01*
X5480214Y1381770D01*
X5480861Y1381585D01*
X5482433Y1381308D01*
X5484282Y1380938D01*
X5486316Y1380568D01*
X5488535Y1380383D01*
X5490938Y1380291D01*
X5491031D01*
X5491308D01*
X5491771D01*
X5492325D01*
X5492973Y1380383D01*
X5493805D01*
X5494729Y1380476D01*
X5495746Y1380568D01*
X5497965Y1380846D01*
X5500369Y1381308D01*
X5502773Y1381863D01*
X5505177Y1382602D01*
X5505269D01*
X5505454Y1382695D01*
X5505731Y1382880D01*
X5506194Y1383065D01*
X5507303Y1383619D01*
X5508598Y1384451D01*
X5510077Y1385468D01*
X5511649Y1386763D01*
X5513035Y1388242D01*
X5514330Y1389999D01*
Y1390091D01*
X5514422Y1390276D01*
X5514607Y1390553D01*
X5514792Y1390923D01*
X5514977Y1391386D01*
X5515254Y1391940D01*
X5515809Y1393235D01*
X5516364Y1394899D01*
X5516826Y1396748D01*
X5517196Y1398782D01*
X5517288Y1400909D01*
Y1401556D01*
X5517196Y1402110D01*
Y1402758D01*
X5517104Y1403405D01*
X5516734Y1405069D01*
X5516271Y1407011D01*
X5515532Y1408952D01*
X5514515Y1410986D01*
X5513960Y1412003D01*
X5513220Y1412928D01*
X5513128Y1413020D01*
X5513035Y1413113D01*
X5512758Y1413390D01*
X5512481Y1413760D01*
X5512018Y1414130D01*
X5511464Y1414592D01*
X5510909Y1415147D01*
X5510169Y1415609D01*
X5509337Y1416164D01*
X5508413Y1416811D01*
X5507488Y1417366D01*
X5506379Y1417920D01*
X5505177Y1418383D01*
X5503882Y1418845D01*
X5502495Y1419307D01*
X5501016Y1419677D01*
X5503143Y1428183D01*
X5503235D01*
X5503605Y1428091D01*
D02*
G37*
G36*
X4886608Y342808D02*
X4887441D01*
X4888458Y342715D01*
X4889567Y342530D01*
X4890861Y342345D01*
X4893543Y341883D01*
X4896316Y341143D01*
X4899090Y340126D01*
X4900384Y339479D01*
X4901679Y338739D01*
X4901771Y338647D01*
X4901956Y338555D01*
X4902326Y338277D01*
X4902696Y337907D01*
X4903251Y337538D01*
X4903898Y336983D01*
X4904637Y336336D01*
X4905377Y335596D01*
X4906117Y334764D01*
X4906949Y333932D01*
X4908613Y331805D01*
X4910185Y329309D01*
X4911572Y326535D01*
Y326443D01*
X4911756Y326165D01*
X4911849Y325703D01*
X4912126Y325148D01*
X4912311Y324409D01*
X4912589Y323484D01*
X4912958Y322467D01*
X4913236Y321358D01*
X4913513Y320156D01*
X4913883Y318769D01*
X4914345Y315903D01*
X4914715Y312667D01*
X4914900Y309338D01*
Y309246D01*
Y308876D01*
Y308321D01*
X4914808Y307674D01*
Y306750D01*
X4914715Y305825D01*
X4914623Y304623D01*
X4914438Y303421D01*
X4913975Y300740D01*
X4913328Y297781D01*
X4912404Y294823D01*
X4911109Y291957D01*
X4911017Y291864D01*
X4910924Y291587D01*
X4910739Y291217D01*
X4910370Y290755D01*
X4910000Y290108D01*
X4909538Y289368D01*
X4908336Y287704D01*
X4906764Y285855D01*
X4904915Y284006D01*
X4902788Y282156D01*
X4900292Y280585D01*
X4900199Y280492D01*
X4899922Y280400D01*
X4899552Y280215D01*
X4899090Y279937D01*
X4898350Y279660D01*
X4897611Y279383D01*
X4896686Y279013D01*
X4895669Y278643D01*
X4894560Y278273D01*
X4893358Y277903D01*
X4890769Y277349D01*
X4887810Y276886D01*
X4884759Y276702D01*
X4883835D01*
X4883188Y276794D01*
X4882355Y276886D01*
X4881338Y276979D01*
X4880321Y277071D01*
X4879120Y277349D01*
X4876623Y277903D01*
X4873850Y278736D01*
X4872463Y279290D01*
X4871168Y279937D01*
X4869874Y280770D01*
X4868580Y281602D01*
X4868487Y281694D01*
X4868302Y281787D01*
X4867932Y282064D01*
X4867470Y282526D01*
X4867008Y282989D01*
X4866361Y283636D01*
X4865713Y284375D01*
X4864974Y285115D01*
X4864234Y286040D01*
X4863494Y287149D01*
X4862662Y288259D01*
X4861923Y289460D01*
X4861276Y290847D01*
X4860536Y292234D01*
X4859981Y293713D01*
X4859426Y295378D01*
X4867747Y297319D01*
Y297227D01*
X4867840Y297042D01*
X4868025Y296672D01*
X4868210Y296210D01*
X4868395Y295655D01*
X4868672Y294915D01*
X4869412Y293436D01*
X4870336Y291772D01*
X4871446Y290108D01*
X4872833Y288536D01*
X4874312Y287149D01*
X4874497Y286964D01*
X4875051Y286594D01*
X4875976Y286132D01*
X4877178Y285485D01*
X4878750Y284930D01*
X4880506Y284375D01*
X4882633Y284006D01*
X4884944Y283913D01*
X4885684D01*
X4886146Y284006D01*
X4886793D01*
X4887533Y284098D01*
X4889290Y284375D01*
X4891231Y284745D01*
X4893265Y285392D01*
X4895392Y286317D01*
X4897333Y287519D01*
X4897426D01*
X4897518Y287704D01*
X4898165Y288166D01*
X4898998Y288906D01*
X4900015Y290015D01*
X4901217Y291402D01*
X4902326Y292974D01*
X4903343Y294915D01*
X4904268Y297042D01*
Y297134D01*
X4904360Y297319D01*
X4904452Y297597D01*
X4904545Y298059D01*
X4904730Y298614D01*
X4904915Y299261D01*
X4905192Y300833D01*
X4905562Y302682D01*
X4905932Y304716D01*
X4906117Y306935D01*
X4906209Y309338D01*
Y309431D01*
Y309708D01*
Y310171D01*
Y310725D01*
X4906117Y311373D01*
Y312205D01*
X4906024Y313129D01*
X4905932Y314146D01*
X4905654Y316365D01*
X4905192Y318769D01*
X4904637Y321173D01*
X4903898Y323577D01*
Y323669D01*
X4903805Y323854D01*
X4903620Y324131D01*
X4903435Y324594D01*
X4902881Y325703D01*
X4902049Y326998D01*
X4901032Y328477D01*
X4899737Y330049D01*
X4898258Y331435D01*
X4896501Y332730D01*
X4896409D01*
X4896224Y332822D01*
X4895947Y333007D01*
X4895577Y333192D01*
X4895114Y333377D01*
X4894560Y333654D01*
X4893265Y334209D01*
X4891601Y334764D01*
X4889752Y335226D01*
X4887718Y335596D01*
X4885591Y335688D01*
X4884944D01*
X4884390Y335596D01*
X4883742D01*
X4883095Y335504D01*
X4881431Y335134D01*
X4879489Y334671D01*
X4877548Y333932D01*
X4875514Y332915D01*
X4874497Y332360D01*
X4873572Y331620D01*
X4873480Y331528D01*
X4873387Y331435D01*
X4873110Y331158D01*
X4872740Y330881D01*
X4872370Y330418D01*
X4871908Y329864D01*
X4871353Y329309D01*
X4870891Y328569D01*
X4870336Y327737D01*
X4869689Y326813D01*
X4869134Y325888D01*
X4868580Y324779D01*
X4868117Y323577D01*
X4867655Y322282D01*
X4867193Y320895D01*
X4866823Y319416D01*
X4858317Y321543D01*
Y321635D01*
X4858409Y322005D01*
X4858594Y322560D01*
X4858872Y323299D01*
X4859149Y324131D01*
X4859519Y325148D01*
X4859981Y326258D01*
X4860536Y327460D01*
X4861830Y330049D01*
X4863494Y332637D01*
X4864511Y333932D01*
X4865528Y335226D01*
X4866638Y336336D01*
X4867932Y337445D01*
X4868025Y337538D01*
X4868210Y337722D01*
X4868672Y337907D01*
X4869134Y338277D01*
X4869874Y338739D01*
X4870614Y339202D01*
X4871631Y339664D01*
X4872648Y340126D01*
X4873850Y340681D01*
X4875144Y341143D01*
X4876531Y341606D01*
X4878010Y342068D01*
X4879582Y342438D01*
X4881246Y342623D01*
X4883003Y342808D01*
X4884852Y342900D01*
X4885869D01*
X4886608Y342808D01*
D02*
G37*
G36*
X4852215Y341698D02*
Y341328D01*
Y340774D01*
X4852122Y340034D01*
X4852030Y339202D01*
X4851845Y338277D01*
X4851660Y337353D01*
X4851290Y336336D01*
Y336243D01*
X4851198Y336151D01*
X4851013Y335596D01*
X4850643Y334764D01*
X4850088Y333654D01*
X4849349Y332360D01*
X4848424Y330881D01*
X4847407Y329401D01*
X4846113Y327830D01*
Y327737D01*
X4845928Y327645D01*
X4845466Y327090D01*
X4844633Y326258D01*
X4843432Y325056D01*
X4842045Y323669D01*
X4840288Y322005D01*
X4838162Y320156D01*
X4835850Y318214D01*
X4835758Y318122D01*
X4835388Y317844D01*
X4834833Y317382D01*
X4834186Y316827D01*
X4833354Y316088D01*
X4832337Y315256D01*
X4831320Y314331D01*
X4830118Y313314D01*
X4827806Y311095D01*
X4825495Y308876D01*
X4824386Y307767D01*
X4823369Y306657D01*
X4822444Y305640D01*
X4821704Y304623D01*
Y304531D01*
X4821519Y304438D01*
X4821335Y304161D01*
X4821150Y303791D01*
X4820502Y302774D01*
X4819763Y301572D01*
X4819116Y300093D01*
X4818468Y298521D01*
X4818099Y296764D01*
X4817914Y295100D01*
Y295008D01*
Y294915D01*
X4818006Y294361D01*
X4818099Y293436D01*
X4818376Y292419D01*
X4818746Y291125D01*
X4819393Y289830D01*
X4820225Y288536D01*
X4821335Y287241D01*
X4821519Y287057D01*
X4821982Y286687D01*
X4822629Y286224D01*
X4823646Y285577D01*
X4824940Y285023D01*
X4826420Y284468D01*
X4828176Y284098D01*
X4830118Y284006D01*
X4830673D01*
X4831042Y284098D01*
X4832152Y284190D01*
X4833446Y284468D01*
X4834833Y284838D01*
X4836405Y285485D01*
X4837884Y286317D01*
X4839271Y287426D01*
X4839456Y287611D01*
X4839826Y288074D01*
X4840380Y288813D01*
X4840935Y289923D01*
X4841582Y291217D01*
X4842137Y292881D01*
X4842507Y294730D01*
X4842692Y296857D01*
X4850736Y296025D01*
Y295932D01*
X4850643Y295655D01*
Y295193D01*
X4850551Y294546D01*
X4850366Y293806D01*
X4850181Y292974D01*
X4849903Y291957D01*
X4849626Y290940D01*
X4848886Y288721D01*
X4847777Y286502D01*
X4847130Y285392D01*
X4846298Y284283D01*
X4845466Y283266D01*
X4844541Y282341D01*
X4844449Y282249D01*
X4844264Y282156D01*
X4843986Y281879D01*
X4843524Y281602D01*
X4842969Y281232D01*
X4842322Y280862D01*
X4841582Y280400D01*
X4840658Y279937D01*
X4839641Y279475D01*
X4838531Y279013D01*
X4837329Y278643D01*
X4836035Y278273D01*
X4834648Y277996D01*
X4833169Y277719D01*
X4831597Y277626D01*
X4829933Y277534D01*
X4829008D01*
X4828361Y277626D01*
X4827622Y277719D01*
X4826697Y277811D01*
X4825680Y277996D01*
X4824663Y278181D01*
X4822259Y278828D01*
X4819855Y279753D01*
X4818653Y280307D01*
X4817451Y280954D01*
X4816342Y281787D01*
X4815325Y282711D01*
X4815232Y282804D01*
X4815048Y282896D01*
X4814863Y283266D01*
X4814493Y283636D01*
X4814031Y284098D01*
X4813568Y284745D01*
X4813106Y285392D01*
X4812551Y286224D01*
X4811627Y287981D01*
X4810702Y290200D01*
X4810332Y291310D01*
X4810147Y292604D01*
X4809962Y293898D01*
X4809870Y295285D01*
Y295470D01*
Y295932D01*
X4809962Y296672D01*
X4810055Y297689D01*
X4810240Y298798D01*
X4810610Y300093D01*
X4810979Y301480D01*
X4811534Y302867D01*
X4811627Y303051D01*
X4811812Y303514D01*
X4812181Y304253D01*
X4812736Y305270D01*
X4813476Y306380D01*
X4814400Y307767D01*
X4815510Y309154D01*
X4816804Y310725D01*
X4816989Y310910D01*
X4817451Y311465D01*
X4817914Y311927D01*
X4818376Y312390D01*
X4818931Y312944D01*
X4819670Y313684D01*
X4820410Y314424D01*
X4821335Y315256D01*
X4822259Y316180D01*
X4823369Y317197D01*
X4824570Y318214D01*
X4825865Y319416D01*
X4827344Y320618D01*
X4828823Y321912D01*
X4828916Y322005D01*
X4829101Y322190D01*
X4829471Y322467D01*
X4829933Y322837D01*
X4830488Y323392D01*
X4831135Y323947D01*
X4832614Y325148D01*
X4834186Y326535D01*
X4835665Y327922D01*
X4836960Y329124D01*
X4837514Y329586D01*
X4837977Y330049D01*
X4838069Y330141D01*
X4838346Y330418D01*
X4838716Y330788D01*
X4839179Y331343D01*
X4839641Y331990D01*
X4840196Y332637D01*
X4841305Y334209D01*
X4809778D01*
Y341791D01*
X4852215D01*
Y341698D01*
D02*
G37*
%LPC*%
G36*
X4265469Y2548471D02*
Y2528316D01*
X4294130D01*
X4265469Y2548471D01*
D02*
G37*
G36*
X5876444Y2702688D02*
X5875890D01*
X5875520Y2702596D01*
X5874595Y2702503D01*
X5873301Y2702226D01*
X5871914Y2701763D01*
X5870342Y2701024D01*
X5868863Y2700099D01*
X5867384Y2698805D01*
X5867199Y2698620D01*
X5866829Y2698158D01*
X5866182Y2697326D01*
X5865535Y2696124D01*
X5864887Y2694737D01*
X5864240Y2692980D01*
X5863870Y2691039D01*
X5863686Y2688820D01*
Y2688635D01*
Y2688172D01*
X5863778Y2687340D01*
X5863870Y2686323D01*
X5864055Y2685121D01*
X5864425Y2683827D01*
X5864795Y2682440D01*
X5865350Y2681053D01*
X5865442Y2680868D01*
X5865720Y2680406D01*
X5866089Y2679759D01*
X5866644Y2678927D01*
X5867291Y2678095D01*
X5868123Y2677078D01*
X5869048Y2676246D01*
X5870157Y2675413D01*
X5870342Y2675321D01*
X5870712Y2675136D01*
X5871359Y2674766D01*
X5872191Y2674489D01*
X5873116Y2674119D01*
X5874225Y2673749D01*
X5875427Y2673564D01*
X5876722Y2673472D01*
X5877184D01*
X5877554Y2673564D01*
X5878478Y2673657D01*
X5879680Y2673934D01*
X5880975Y2674489D01*
X5882454Y2675136D01*
X5883933Y2676153D01*
X5884673Y2676708D01*
X5885320Y2677448D01*
Y2677540D01*
X5885505Y2677632D01*
X5885875Y2678187D01*
X5886430Y2679112D01*
X5887169Y2680314D01*
X5887817Y2681885D01*
X5888371Y2683735D01*
X5888741Y2685861D01*
X5888926Y2688357D01*
Y2688450D01*
Y2688635D01*
Y2689005D01*
X5888834Y2689467D01*
Y2690022D01*
X5888741Y2690669D01*
X5888464Y2692148D01*
X5888094Y2693812D01*
X5887447Y2695569D01*
X5886522Y2697233D01*
X5885320Y2698805D01*
X5885135Y2698990D01*
X5884673Y2699452D01*
X5883933Y2700007D01*
X5882916Y2700746D01*
X5881622Y2701486D01*
X5880143Y2702041D01*
X5878386Y2702503D01*
X5876444Y2702688D01*
D02*
G37*
G36*
X5500831Y1460543D02*
X5472170D01*
X5500831Y1440387D01*
Y1460543D01*
D02*
G37*
%LPD*%
D55*
X5321000Y554899D02*
X5601000D01*
Y384901D02*
Y554899D01*
X5321000Y384901D02*
X5601000D01*
X5321000D02*
Y554899D01*
X5579201Y1269700D02*
X5749199D01*
Y1549700D01*
X5579201D02*
X5749199D01*
X5579201Y1269700D02*
Y1549700D01*
X3644600Y2023201D02*
X3924600D01*
X3644600D02*
Y2193199D01*
X3924600D01*
Y2023201D02*
Y2193199D01*
X4017101Y2743500D02*
X4187099D01*
X4017101Y2463500D02*
Y2743500D01*
Y2463500D02*
X4187099D01*
Y2743500D01*
X3644600Y2442301D02*
Y2612299D01*
Y2442301D02*
X3924600D01*
Y2612299D01*
X3644600D02*
X3924600D01*
X5486100Y2607401D02*
Y2777399D01*
Y2607401D02*
X5766100D01*
Y2777399D01*
X5486100D02*
X5766100D01*
X5486100Y2886801D02*
Y3056799D01*
Y2886801D02*
X5766100D01*
Y3056799D01*
X5486100D02*
X5766100D01*
X5236301Y1269700D02*
X5406299D01*
Y1549700D01*
X5236301D02*
X5406299D01*
X5236301Y1269700D02*
Y1549700D01*
X4775500Y257901D02*
Y427899D01*
X4495500D02*
X4775500D01*
X4495500Y257901D02*
Y427899D01*
Y257901D02*
X4775500D01*
%TF.MD5,6a0f47d884843eadcef2a01922b6ca68*%
M02*
