%FSTAX23Y23*%
%MOIN*%
%SFA1B1*%

%IPPOS*%
%ADD50C,0.005000*%
G54D50*
X01307Y01025D02*
X01342D01*
X01325Y01007D02*
Y01042D01*
X0148Y01025D02*
X01515D01*
X01498Y01007D02*
Y01042D01*
X01118Y0042D02*
X01161D01*
X0114Y00398D02*
Y00441D01*
X01118Y0054D02*
X01161D01*
X0114Y00518D02*
Y00561D01*
X00598Y00835D02*
X00641D01*
X0062Y00813D02*
Y00856D01*
X00423Y01175D02*
X00466D01*
X00445Y01153D02*
Y01196D01*
X00199Y0117D02*
X00251D01*
X00225Y01144D02*
Y01196D01*
X00084Y0024D02*
X00136D01*
X0011Y00214D02*
Y00266D01*
X00399Y0024D02*
X00451D01*
X00425Y00214D02*
Y00266D01*
X01713Y0036D02*
X01756D01*
X01735Y00338D02*
Y00381D01*
X00903Y01185D02*
X00946D01*
X00925Y01163D02*
Y01206D01*
X00733Y01185D02*
X00776D01*
X00755Y01163D02*
Y01206D01*
X01583Y00305D02*
X01626D01*
X01605Y00283D02*
Y00326D01*
X01243Y00655D02*
X01286D01*
X01265Y00633D02*
Y00676D01*
X01243Y00535D02*
X01286D01*
X01265Y00513D02*
Y00556D01*
X01713Y00475D02*
X01756D01*
X01735Y00453D02*
Y00496D01*
X01713Y0024D02*
X01756D01*
X01735Y00218D02*
Y00261D01*
X01718Y00595D02*
X01761D01*
X0174Y00573D02*
Y00616D01*
X01443Y0071D02*
X01486D01*
X01465Y00688D02*
Y00731D01*
X01718Y0071D02*
X01761D01*
X0174Y00688D02*
Y00731D01*
X00943Y00302D02*
X00957D01*
X0095Y00296D02*
Y00309D01*
X00943Y00452D02*
X00957D01*
X0095Y00446D02*
Y00459D01*
X00728Y00475D02*
X00742D01*
X00735Y00468D02*
Y00482D01*
X01579Y01053D02*
X01593D01*
X01586Y01046D02*
Y0106D01*
X01579Y00976D02*
X01593D01*
X01586Y0097D02*
Y00983D01*
X01229Y01193D02*
X01243D01*
X01236Y01186D02*
Y012D01*
X01229Y00836D02*
X01243D01*
X01236Y00829D02*
Y00843D01*
X01373Y01193D02*
X01387D01*
X0138Y01186D02*
Y012D01*
X01436Y01193D02*
X0145D01*
X01443Y01186D02*
Y012D01*
X01404Y01061D02*
X01418D01*
X01411Y01054D02*
Y01068D01*
X00768Y00986D02*
X00781D01*
X00775Y00979D02*
Y00992D01*
X00958Y00673D02*
X00971D01*
X00965Y00666D02*
Y0068D01*
X0113Y01012D02*
X01143D01*
X01137Y01005D02*
Y01018D01*
X01468Y00556D02*
X01481D01*
X01475Y00549D02*
Y00562D01*
X01316Y00305D02*
X01329D01*
X01323Y00298D02*
Y00311D01*
X00728Y00986D02*
X00741D01*
X00735Y00979D02*
Y00992D01*
X00952Y0063D02*
X00965D01*
X00959Y00623D02*
Y00636D01*
X00952Y00874D02*
X00965D01*
X00959Y00867D02*
Y0088D01*
X00621Y00499D02*
X00634D01*
X00628Y00492D02*
Y00505D01*
X01323Y00517D02*
X01336D01*
X0133Y0051D02*
Y00523D01*
X01507Y0034D02*
X0152D01*
X01514Y00333D02*
Y00346D01*
X00747Y00704D02*
X0076D01*
X00754Y00697D02*
Y0071D01*
X01312Y0058D02*
X01325D01*
X01319Y00573D02*
Y00586D01*
X01321Y00852D02*
X01334D01*
X01328Y00845D02*
Y00858D01*
X01504Y00668D02*
X01517D01*
X01511Y00661D02*
Y00674D01*
X00883Y0063D02*
X00896D01*
X0089Y00623D02*
Y00636D01*
X0135Y00941D02*
X01363D01*
X01357Y00934D02*
Y00947D01*
X01104Y00781D02*
X01117D01*
X01111Y00774D02*
Y00787D01*
M02*