%FSTAX23Y23*%
%MOIN*%
%SFA1B1*%

%IPPOS*%
%ADD87C,0.043307*%
%ADD88C,0.052000*%
%ADD89C,0.013780*%
G54D87*
X0114Y0042D03*
Y0054D03*
X0062Y00835D03*
X00445Y01175D03*
X01735Y0036D03*
X00925Y01185D03*
X00755D03*
X01605Y00305D03*
X01265Y00655D03*
Y00535D03*
X01735Y00475D03*
Y0024D03*
X0174Y00595D03*
X01465Y0071D03*
X0174D03*
G54D88*
X00225Y0117D03*
X0011Y0024D03*
X00425D03*
G54D89*
X0095Y00302D03*
Y00452D03*
X00735Y00475D03*
X01586Y01053D03*
Y00976D03*
X01236Y01193D03*
Y00836D03*
X0138Y01193D03*
X01443D03*
X01411Y01061D03*
X00775Y00986D03*
X00965Y00673D03*
X01137Y01012D03*
X01475Y00556D03*
X01323Y00305D03*
X00735Y00986D03*
X00959Y0063D03*
Y00874D03*
X00628Y00499D03*
X0133Y00517D03*
X01514Y0034D03*
X00754Y00704D03*
X01319Y0058D03*
X01328Y00852D03*
X01511Y00668D03*
X0089Y0063D03*
X01357Y00941D03*
X01111Y00781D03*
M02*