%FSTAX23Y23*%
%MOIN*%
%SFA1B1*%

%IPPOS*%
%ADD49C,0.003937*%
G54D49*
X01343Y00817D02*
X01366D01*
X01343Y00762D02*
X01366D01*
Y00817*
X01343Y00762D02*
Y00817D01*
X01598Y00408D02*
X01621D01*
X01598Y00463D02*
X01621D01*
X01598Y00408D02*
Y00463D01*
X01621Y00408D02*
Y00463D01*
X00887Y00618D02*
Y00641D01*
X00942Y00618D02*
Y00641D01*
X00887D02*
X00942D01*
X00887Y00618D02*
X00942D01*
X00668Y00917D02*
X00691D01*
X00668Y00972D02*
X00691D01*
X00668Y00917D02*
Y00972D01*
X00691Y00917D02*
Y00972D01*
X01038Y00887D02*
X01061D01*
X01038Y00942D02*
X01061D01*
X01038Y00887D02*
Y00942D01*
X01061Y00887D02*
Y00942D01*
X00668Y01033D02*
X00691D01*
X00668Y01088D02*
X00691D01*
X00668Y01033D02*
Y01088D01*
X00691Y01033D02*
Y01088D01*
X01007Y00968D02*
Y00991D01*
X01062Y00968D02*
Y00991D01*
X01007D02*
X01062D01*
X01007Y00968D02*
X01062D01*
X01453Y00396D02*
X01476D01*
X01453Y00451D02*
X01476D01*
X01453Y00396D02*
Y00451D01*
X01476Y00396D02*
Y00451D01*
M02*