* source OSC555
C_C3         0 N24828  .01u  TC=0,0 
X_X2         0 N24828 VOUT3 N24824 N24824 N24828 N24788 N24824 555D PARAMS:
+  MAXFREQ=3E6
R_R6         VOUT3 0  1k TC=0,0 
R_R5         N24824 N24788  1k TC=0,0 
R_R4         N24828 N24788  440 TC=0,0 
V_V8         N24824 0 3.7V
X_X3         0 N31385 VOUT3 N31303 N31401 N31385 N31375 N31303 555D PARAMS:
+  MAXFREQ=3E6
V_V3         N31401 0 10
R_R8         N31385 N31375  1k TC=0,0 
R_R9         0 VOUT3  1k TC=0,0 
V_V2         N31303 0 15V
R_R7         N31303 N31375  1k TC=0,0 
C_C4         N31385 0  .1u  TC=0,0 
