Importer Log Report
Project : stuff.PrjPcb

Section : Analyze Document - Z:\SdevProjs\Petra\Trunk\Circuit_Designs\BreadBoard_Prototyping\temp\stuff.brd
    Analyzing data of Z:\SdevProjs\Petra\Trunk\Circuit_Designs\BreadBoard_Prototyping\temp\stuff.brd
    Load settings
    Load layers 160
    Load board
    ERROR: Unhandled typemfgpreviewcolors
EndSection

Section : Analyze Document - Z:\SdevProjs\Petra\Trunk\Circuit_Designs\BreadBoard_Prototyping\temp\stuff.sch
    Analyzing data of Z:\SdevProjs\Petra\Trunk\Circuit_Designs\BreadBoard_Prototyping\temp\stuff.sch
    Load settings
    Load layers 160
    Load schematic
    Load Libraries 0
    Load Attributes 0
    Load Classes 1
    Load Parts 0
    Load Sheets 1
EndSection

Section : Import Document - Z:\SdevProjs\Petra\Trunk\Circuit_Designs\BreadBoard_Prototyping\temp\stuff.sch
    ERROR: Exception raised! Argument out of range
EndSection

Section : Import Document - Z:\SdevProjs\Petra\Trunk\Circuit_Designs\BreadBoard_Prototyping\temp\stuff.brd
    ERROR: Exception raised! Access violation at address 0000000169A54ABD in module 'Importer_EAGLE.IWZ'. Read of address 0000000000000000
EndSection
