%TF.GenerationSoftware,Altium Limited,Altium Designer,20.1.14 (287)*%
G04 Layer_Color=8421504*
%FSLAX45Y45*%
%MOMM*%
%TF.SameCoordinates,6F4D694E-8BFC-4A65-A99F-D966751FDA60*%
%TF.FilePolarity,Positive*%
%TF.FileFunction,Paste,Top*%
%TF.Part,Single*%
G01*
G75*
%TA.AperFunction,SMDPad,CuDef*%
%ADD10R,1.45000X1.15000*%
%ADD11R,1.05004X0.40005*%
%ADD12R,0.70000X1.70000*%
%ADD13R,1.55000X1.10000*%
%ADD14R,0.84988X0.29997*%
%ADD15R,0.29997X0.84988*%
%ADD16R,1.70002X1.70002*%
%ADD17R,0.50000X2.30000*%
%ADD18R,2.00000X2.50000*%
%ADD19R,0.35560X0.81280*%
%ADD20R,0.81280X0.35560*%
%ADD21R,3.20040X3.20040*%
%ADD22R,0.24994X0.67488*%
%ADD23R,0.67488X0.24994*%
%ADD24R,0.59995X0.75006*%
%ADD25R,1.50000X0.60000*%
G04:AMPARAMS|DCode=26|XSize=1.07mm|YSize=1.03mm|CornerRadius=0.27295mm|HoleSize=0mm|Usage=FLASHONLY|Rotation=180.000|XOffset=0mm|YOffset=0mm|HoleType=Round|Shape=RoundedRectangle|*
%AMROUNDEDRECTD26*
21,1,1.07000,0.48410,0,0,180.0*
21,1,0.52410,1.03000,0,0,180.0*
1,1,0.54590,-0.26205,0.24205*
1,1,0.54590,0.26205,0.24205*
1,1,0.54590,0.26205,-0.24205*
1,1,0.54590,-0.26205,-0.24205*
%
%ADD26ROUNDEDRECTD26*%
G36*
X1310792Y4460392D02*
X1170788D01*
Y4320388D01*
X1310792D01*
Y4460392D01*
D01*
D02*
G37*
G36*
Y4620412D02*
X1170788D01*
Y4480408D01*
X1310792D01*
Y4620412D01*
D01*
D02*
G37*
G36*
X1470812Y4460392D02*
X1330808D01*
Y4320388D01*
X1470812D01*
Y4460392D01*
D01*
D02*
G37*
G36*
Y4620412D02*
X1330808D01*
Y4480408D01*
X1470812D01*
Y4620412D01*
D01*
D02*
G37*
D10*
X1054100Y4061196D02*
D03*
Y3886200D02*
D03*
X5334000Y1296800D02*
D03*
Y1471800D02*
D03*
D11*
X3524504Y2731999D02*
D03*
Y2667000D02*
D03*
Y2602001D02*
D03*
X3714496D02*
D03*
Y2667000D02*
D03*
Y2731999D02*
D03*
X5022596Y3392399D02*
D03*
Y3327400D02*
D03*
Y3262401D02*
D03*
X4832604D02*
D03*
Y3327400D02*
D03*
Y3392399D02*
D03*
D12*
X3530600Y1384300D02*
D03*
X3784600D02*
D03*
X4038600D02*
D03*
D13*
X3233100Y1189797D02*
D03*
Y808797D02*
D03*
X4208104D02*
D03*
Y1189797D02*
D03*
D14*
X5392196Y2195906D02*
D03*
Y2145894D02*
D03*
Y2095906D02*
D03*
Y2045894D02*
D03*
X5682214D02*
D03*
Y2095906D02*
D03*
Y2145894D02*
D03*
Y2195906D02*
D03*
D15*
X5462199Y1975891D02*
D03*
X5512211D02*
D03*
X5562199D02*
D03*
X5612211D02*
D03*
Y2265909D02*
D03*
X5562199D02*
D03*
X5512211D02*
D03*
X5462199D02*
D03*
D16*
X5537205Y2120900D02*
D03*
D17*
X2003100Y856899D02*
D03*
X2083100D02*
D03*
X2163100D02*
D03*
X2243099D02*
D03*
X2323099D02*
D03*
D18*
X1718102Y846902D02*
D03*
X2608102D02*
D03*
X1718102Y296901D02*
D03*
X2608102D02*
D03*
D19*
X1440790Y4715510D02*
D03*
X1360805D02*
D03*
X1280795D02*
D03*
X1200810D02*
D03*
Y4225290D02*
D03*
X1280795D02*
D03*
X1360805D02*
D03*
X1440790D02*
D03*
D20*
X1075690Y4590390D02*
D03*
Y4510405D02*
D03*
Y4430395D02*
D03*
Y4350410D02*
D03*
X1565910D02*
D03*
Y4430395D02*
D03*
Y4510405D02*
D03*
Y4590390D02*
D03*
D21*
X1320800Y4470400D02*
D03*
D22*
X4838294Y4507738D02*
D03*
X4888306D02*
D03*
X4788306D02*
D03*
X4738294D02*
D03*
X4888306Y4255262D02*
D03*
X4838294D02*
D03*
X4788306D02*
D03*
X4738294D02*
D03*
D23*
X4914544Y4431513D02*
D03*
Y4381500D02*
D03*
Y4331487D02*
D03*
X4712056Y4431513D02*
D03*
Y4381500D02*
D03*
Y4331487D02*
D03*
D24*
X1117600Y3623691D02*
D03*
Y3513709D02*
D03*
D25*
X3193801Y4362699D02*
D03*
Y4552701D02*
D03*
X3003799Y4457700D02*
D03*
D26*
X3132999Y2743200D02*
D03*
X2836001D02*
D03*
%TF.MD5,ce17418832c9af0e90fa73e5349105a4*%
M02*
