* source BOOST
V_V1         N14559 0 3.7VDC
L_L1         N14559 N17876  1mH  
D_D1         N17876 N14573 DMURS360T3/ON 
C_C1         0 N14573  470u  TC=0,0 
R_R1         0 N14573  100 TC=0,0 
M_M4         N17876 N30357 0 0 M2N6659
X_U1         0 N19715 N30357 N17876 N17876 N19715 N29243 N17876 TLC555/TI
C_C4         0 N19715  .01u  TC=0,0 
R_R8         N19715 N29243  440 TC=0,0 
R_R7         N17876 N29243  1k TC=0,0 
R_R9         0 N14573  1k TC=0,0 
